!<mkRTViewData> v1.0.0
CSC/000/DSI .\SpaceManagement\CATSMTCAA.m\Objects\win_b64\mkcsc\CATSMTCAA.cscdb|.\SpaceManagement\CATSMTCAA.m
INT/000/CUS .\win_b64\code\bin\CATSMTCAA.pdb|.\SpaceManagement\CATSMTCAA.m
INT/000/CUS .\win_b64\code\lib\CATSMTCAA.exp|.\SpaceManagement\CATSMTCAA.m
BTV/000/CUS .\win_b64\code\lib\CATSMTCAA.lib|.\SpaceManagement\CATSMTCAA.m
RTV/001/CUS .\win_b64\code\bin\CATSMTCAA.dll|.\SpaceManagement\CATSMTCAA.m
@type='SHARED_LIBRARY'
@clr='false'
@kind='NATIVE'
@deliverable='true'
@built='true'
