!<mkRTViewData> v1.0.0
CSC/000/DSI .\SketcherInterfaces\SketcherProIDL.m\Objects\win_b64\mkcsc\SketcherProIDL.cscdb|.\SketcherInterfaces\SketcherProIDL.m
@type='NONE'
@clr='false'
@kind='INCLUDED'
@deliverable='true'
@built='true'
