!<mkRTViewData> v1.0.0
BTV/000/CUS .\win_b64\code\lib\CATIPDAttachmentMgmt.lib|.\DNBMfgLayoutAttach\CATIPDAttachmentMgmt.m
RTV/001/CUS .\win_b64\code\bin\CATIPDAttachmentMgmt.dll|.\DNBMfgLayoutAttach\CATIPDAttachmentMgmt.m
INT/000/CUS .\win_b64\code\bin\CATIPDAttachmentMgmt.pdb|.\DNBMfgLayoutAttach\CATIPDAttachmentMgmt.m
CSC/000/DSI .\DNBMfgLayoutAttach\CATIPDAttachmentMgmt.m\Objects\win_b64\mkcsc\CATIPDAttachmentMgmt.cscdb|.\DNBMfgLayoutAttach\CATIPDAttachmentMgmt.m
INT/000/CUS .\win_b64\code\lib\CATIPDAttachmentMgmt.exp|.\DNBMfgLayoutAttach\CATIPDAttachmentMgmt.m
@type='SHARED_LIBRARY'
@clr='false'
@kind='NATIVE'
@deliverable='true'
@built='true'
