!<mkRTViewData> v1.0.0
BTV/002/CUS .\win_b64\code\productIC\Milling3DToolPathItfIC.script|.\Milling3DToolPathItf
RTV/002/DSI .\win_b64\code\productIC\Milling3DToolPathItfIC.required|.\Milling3DToolPathItf
DAT/002/CUS .\win_b64\code\dictionary\Milling3DToolPathItf.iid|.\Milling3DToolPathItf\CNext\code\dictionary\Milling3DToolPathItf.iid
CSC/002/DSI .\Milling3DToolPathItf\IdentityCard\Objects\win_b64\mkcsc\Milling3DToolPathItf.cscdb|.\Milling3DToolPathItf
BTV/002/CUS .\win_b64\code\productIC\Milling3DToolPathItfIC.xml|.\Milling3DToolPathItf
@type='codeFramework'
@built='true'
