!<mkRTViewData> v1.0.0
CSC/000/DSI .\ElecHarnessItf\CATEhiInterfaces.m\Objects\win_b64\mkcsc\CATEhiInterfaces.cscdb|.\ElecHarnessItf\CATEhiInterfaces.m
INT/000/CUS .\win_b64\code\lib\CATEhiInterfaces.exp|.\ElecHarnessItf\CATEhiInterfaces.m
INT/000/CUS .\win_b64\code\bin\CATEhiInterfaces.pdb|.\ElecHarnessItf\CATEhiInterfaces.m
BTV/000/CUS .\win_b64\code\lib\CATEhiInterfaces.lib|.\ElecHarnessItf\CATEhiInterfaces.m
RTV/001/CUS .\win_b64\code\bin\CATEhiInterfaces.dll|.\ElecHarnessItf\CATEhiInterfaces.m
@type='SHARED_LIBRARY'
@clr='false'
@kind='NATIVE'
@deliverable='true'
@built='true'
