!<mkRTViewData> v1.0.0
INT/000/CUS .\win_b64\code\bin\CATGkwPattern.pdb|.\GenerativeKnowledge\CATGkwPattern.m
BTV/000/CUS .\win_b64\code\lib\CATGkwPattern.lib|.\GenerativeKnowledge\CATGkwPattern.m
CSC/000/DSI .\GenerativeKnowledge\CATGkwPattern.m\Objects\win_b64\mkcsc\CATGkwPattern.cscdb|.\GenerativeKnowledge\CATGkwPattern.m
INT/000/CUS .\win_b64\code\lib\CATGkwPattern.exp|.\GenerativeKnowledge\CATGkwPattern.m
RTV/001/CUS .\win_b64\code\bin\CATGkwPattern.dll|.\GenerativeKnowledge\CATGkwPattern.m
@type='SHARED_LIBRARY'
@clr='false'
@kind='NATIVE'
@deliverable='true'
@built='true'
