!<mkRTViewData> v1.0.0
CSC/000/DSI .\Administration\CXINSTCAA2.m\Objects\win_b64\mkcsc\CXINSTCAA2.cscdb|.\Administration\CXINSTCAA2.m
RTV/001/CUS .\win_b64\code\bin\CXINSTCAA2.exe|.\Administration\CXINSTCAA2.m
INT/000/CUS .\win_b64\code\bin\CXINSTCAA2.pdb|.\Administration\CXINSTCAA2.m
@type='LOAD_MODULE'
@clr='false'
@kind='NATIVE'
@deliverable='true'
@built='true'
