!<mkRTViewData> v1.0.0
CSC/000/DSI .\SimulationInterfaces\SimulationPubIDL.m\Objects\win_b64\mkcsc\SimulationPubIDL.cscdb|.\SimulationInterfaces\SimulationPubIDL.m
@type='NONE'
@clr='false'
@kind='INCLUDED'
@deliverable='true'
@built='true'
