!<mkRTViewData> v1.0.0
RTV/002/DSI .\win_b64\code\productIC\GraphIC.required|.\Graph
BTV/002/CUS .\win_b64\code\productIC\GraphIC.xml|.\Graph
CSC/002/DSI .\Graph\IdentityCard\Objects\win_b64\mkcsc\Graph.cscdb|.\Graph
BTV/002/CUS .\win_b64\code\productIC\GraphIC.script|.\Graph
DAT/002/CUS .\win_b64\code\dictionary\Graph.iid|.\Graph\CNext\code\dictionary\Graph.iid
DAT/002/CUS .\win_b64\code\dictionary\Graph.dic|.\Graph\CNext\code\dictionary\Graph.dic
@type='codeFramework'
@built='true'
