!<mkRTViewData> v1.0.0
CSC/000/DSI .\PolyhedralOperatorsAdv\PolyBodyCanonicDetection.m\Objects\win_b64\mkcsc\PolyBodyCanonicDetection.cscdb|.\PolyhedralOperatorsAdv\PolyBodyCanonicDetection.m
@type='NONE'
@clr='false'
@kind='INCLUDED'
@deliverable='true'
@built='true'
