!<mkRTViewData> v1.0.0
RTV/001/CUS .\win_b64\code\bin\ENODicTime.dll|.\CATPLMDictionary\ENODicTime.m
CSC/000/DSI .\CATPLMDictionary\ENODicTime.m\Objects\win_b64\mkcsc\ENODicTime.cscdb|.\CATPLMDictionary\ENODicTime.m
BTV/000/CUS .\win_b64\code\lib\ENODicTime.lib|.\CATPLMDictionary\ENODicTime.m
INT/000/CUS .\win_b64\code\lib\ENODicTime.exp|.\CATPLMDictionary\ENODicTime.m
INT/000/CUS .\win_b64\code\bin\ENODicTime.pdb|.\CATPLMDictionary\ENODicTime.m
@type='SHARED_LIBRARY'
@clr='false'
@kind='NATIVE'
@deliverable='true'
@built='true'
