!<mkRTViewData> v1.0.0
INT/000/CUS .\win_b64\code\bin\notificationPS.pdb|.\DELE5Interfaces\notificationPS.m
BTV/000/CUS .\win_b64\code\lib\notificationPS.lib|.\DELE5Interfaces\notificationPS.m
CSC/000/DSI .\DELE5Interfaces\notificationPS.m\Objects\win_b64\mkcsc\notificationPS.cscdb|.\DELE5Interfaces\notificationPS.m
RTV/001/CUS .\win_b64\code\bin\notificationPS.dll|.\DELE5Interfaces\notificationPS.m
INT/000/CUS .\win_b64\code\lib\notificationPS.exp|.\DELE5Interfaces\notificationPS.m
@type='SHARED_LIBRARY'
@clr='false'
@kind='NATIVE'
@deliverable='true'
@built='true'
