!<mkRTViewData> v1.0.0
BTV/000/CUS .\win_b64\code\lib\CATVisDmuStream.lib|.\VisualizationBase\CATVisDmuStream.m
INT/000/CUS .\win_b64\code\bin\CATVisDmuStream.pdb|.\VisualizationBase\CATVisDmuStream.m
INT/000/CUS .\win_b64\code\lib\CATVisDmuStream.exp|.\VisualizationBase\CATVisDmuStream.m
CSC/000/DSI .\VisualizationBase\CATVisDmuStream.m\Objects\win_b64\mkcsc\CATVisDmuStream.cscdb|.\VisualizationBase\CATVisDmuStream.m
RTV/001/CUS .\win_b64\code\bin\CATVisDmuStream.dll|.\VisualizationBase\CATVisDmuStream.m
@type='EL_LIBRARY'
@clr='false'
@kind='NATIVE'
@deliverable='true'
@built='true'
