!<mkRTViewData> v1.0.0
CSC/000/DSI .\KnowledgeModeler\CATLifExpressions.m\Objects\win_b64\mkcsc\CATLifExpressions.cscdb|.\KnowledgeModeler\CATLifExpressions.m
@type='NONE'
@clr='false'
@kind='INCLUDED'
@deliverable='true'
@built='true'
