!<mkRTViewData> v1.0.0
INT/000/CUS .\win_b64\code\bin\CXINST.pdb|.\Administration\CXINST.m
CSC/000/DSI .\Administration\CXINST.m\Objects\win_b64\mkcsc\CXINST.cscdb|.\Administration\CXINST.m
RTV/001/CUS .\win_b64\code\bin\CXINST.exe|.\Administration\CXINST.m
@type='LOAD_MODULE'
@clr='false'
@kind='NATIVE'
@deliverable='true'
@built='true'
