!<mkRTViewData> v1.0.0
RTV/001/CUS .\win_b64\code\bin\GW0SRVST.exe|.\CORBAServerInfra\GW0SRVST.m
INT/000/CUS .\win_b64\code\bin\GW0SRVST.pdb|.\CORBAServerInfra\GW0SRVST.m
CSC/000/DSI .\CORBAServerInfra\GW0SRVST.m\Objects\win_b64\mkcsc\GW0SRVST.cscdb|.\CORBAServerInfra\GW0SRVST.m
@type='LOAD_MODULE'
@clr='false'
@kind='NATIVE'
@deliverable='true'
@built='true'
