!<mkRTViewData> v1.0.0
BTV/000/CUS .\win_b64\code\lib\DNBMHIBase.lib|.\DNBMHIBase\DNBMHIBase.m
INT/000/CUS .\win_b64\code\lib\DNBMHIBase.exp|.\DNBMHIBase\DNBMHIBase.m
CSC/000/DSI .\DNBMHIBase\DNBMHIBase.m\Objects\win_b64\mkcsc\DNBMHIBase.cscdb|.\DNBMHIBase\DNBMHIBase.m
INT/000/CUS .\win_b64\code\bin\DNBMHIBase.pdb|.\DNBMHIBase\DNBMHIBase.m
RTV/001/CUS .\win_b64\code\bin\DNBMHIBase.dll|.\DNBMHIBase\DNBMHIBase.m
@type='SHARED_LIBRARY'
@clr='false'
@kind='NATIVE'
@deliverable='true'
@built='true'
