!<mkRTViewData> v1.0.0
RTV/001/CUS .\win_b64\code\bin\CATAnalysisConnection.dll|.\CATAnalysisConnection\CATAnalysisConnection.m
CSC/000/DSI .\CATAnalysisConnection\CATAnalysisConnection.m\Objects\win_b64\mkcsc\CATAnalysisConnection.cscdb|.\CATAnalysisConnection\CATAnalysisConnection.m
INT/000/CUS .\win_b64\code\bin\CATAnalysisConnection.pdb|.\CATAnalysisConnection\CATAnalysisConnection.m
BTV/000/CUS .\win_b64\code\lib\CATAnalysisConnection.lib|.\CATAnalysisConnection\CATAnalysisConnection.m
INT/000/CUS .\win_b64\code\lib\CATAnalysisConnection.exp|.\CATAnalysisConnection\CATAnalysisConnection.m
@type='SHARED_LIBRARY'
@clr='false'
@kind='NATIVE'
@deliverable='true'
@built='true'
