!<mkRTViewData> v1.0.0
CSC/000/DSI .\GenerativeKnowledge\CATInstanciates.m\Objects\win_b64\mkcsc\CATInstanciates.cscdb|.\GenerativeKnowledge\CATInstanciates.m
@type='NONE'
@clr='false'
@kind='INCLUDED'
@deliverable='true'
@built='true'
