!<mkRTViewData> v1.0.0
INT/000/CUS .\win_b64\code\bin\CATFlockOfBirdsDriver.pdb|.\CATImmersiveUI\CATFlockOfBirdsDriver.m
RTV/001/CUS .\win_b64\code\bin\CATFlockOfBirdsDriver.exe|.\CATImmersiveUI\CATFlockOfBirdsDriver.m
CSC/000/DSI .\CATImmersiveUI\CATFlockOfBirdsDriver.m\Objects\win_b64\mkcsc\CATFlockOfBirdsDriver.cscdb|.\CATImmersiveUI\CATFlockOfBirdsDriver.m
@type='LOAD_MODULE'
@clr='false'
@kind='NATIVE'
@deliverable='true'
@built='true'
