!<mkRTViewData> v1.0.0
CSC/000/DSI .\CATIAAECModeler\RA0SPRG.m\Objects\win_b64\mkcsc\RA0SPRG.cscdb|.\CATIAAECModeler\RA0SPRG.m
@type='NONE'
@clr='false'
@kind='INCLUDED'
@deliverable='true'
@built='true'
