!<mkRTViewData> v1.0.0
INT/000/CUS .\win_b64\code\bin\CATClnKIN.pdb|.\Mechanisms\CATClnKIN.m
BTV/000/CUS .\win_b64\code\lib\CATClnKIN.lib|.\Mechanisms\CATClnKIN.m
RTV/001/CUS .\win_b64\code\bin\CATClnKIN.dll|.\Mechanisms\CATClnKIN.m
INT/000/CUS .\win_b64\code\lib\CATClnKIN.exp|.\Mechanisms\CATClnKIN.m
CSC/000/DSI .\Mechanisms\CATClnKIN.m\Objects\win_b64\mkcsc\CATClnKIN.cscdb|.\Mechanisms\CATClnKIN.m
@type='SHARED_LIBRARY'
@clr='false'
@kind='NATIVE'
@deliverable='true'
@built='true'
