!<mkRTViewData> v1.0.0
CSC/000/DSI .\CATMoldDesignUI\CATMldAnalyzeUI.m\Objects\win_b64\mkcsc\CATMldAnalyzeUI.cscdb|.\CATMoldDesignUI\CATMldAnalyzeUI.m
@type='NONE'
@clr='false'
@kind='INCLUDED'
@deliverable='true'
@built='true'
