!<mkRTViewData> v1.0.0
INT/000/CUS .\win_b64\code\bin\VisuDialog.pdb|.\VisuImmersiveDialog\VisuDialog.m
BTV/000/CUS .\win_b64\code\lib\VisuDialog.lib|.\VisuImmersiveDialog\VisuDialog.m
RTV/001/CUS .\win_b64\code\bin\VisuDialog.dll|.\VisuImmersiveDialog\VisuDialog.m
INT/000/CUS .\win_b64\code\lib\VisuDialog.exp|.\VisuImmersiveDialog\VisuDialog.m
CSC/000/DSI .\VisuImmersiveDialog\VisuDialog.m\Objects\win_b64\mkcsc\VisuDialog.cscdb|.\VisuImmersiveDialog\VisuDialog.m
@type='SHARED_LIBRARY'
@clr='false'
@kind='NATIVE'
@deliverable='true'
@built='true'
