!<mkRTViewData> v1.0.0
DAT/002/CUS .\win_b64\code\dictionary\CATGSMIDLItf.iid|.\CATGSMIDLItf\CNext\code\dictionary\CATGSMIDLItf.iid
RTV/002/DSI .\win_b64\code\productIC\CATGSMIDLItfIC.required|.\CATGSMIDLItf
BTV/002/CUS .\win_b64\code\productIC\CATGSMIDLItfIC.xml|.\CATGSMIDLItf
BTV/002/CUS .\win_b64\code\productIC\CATGSMIDLItfIC.script|.\CATGSMIDLItf
CSC/002/DSI .\CATGSMIDLItf\IdentityCard\Objects\win_b64\mkcsc\CATGSMIDLItf.cscdb|.\CATGSMIDLItf
@type='codeFramework'
@built='true'
