!<mkRTViewData> v1.0.0
INT/000/CUS .\win_b64\code\lib\SP0VVUTIL.exp|.\ProcessPlatformVisu\SP0VVUTIL.m
RTV/001/CUS .\win_b64\code\bin\SP0VVUTIL.dll|.\ProcessPlatformVisu\SP0VVUTIL.m
BTV/000/CUS .\win_b64\code\lib\SP0VVUTIL.lib|.\ProcessPlatformVisu\SP0VVUTIL.m
INT/000/CUS .\win_b64\code\bin\SP0VVUTIL.pdb|.\ProcessPlatformVisu\SP0VVUTIL.m
CSC/000/DSI .\ProcessPlatformVisu\SP0VVUTIL.m\Objects\win_b64\mkcsc\SP0VVUTIL.cscdb|.\ProcessPlatformVisu\SP0VVUTIL.m
@type='SHARED_LIBRARY'
@clr='false'
@kind='NATIVE'
@deliverable='true'
@built='true'
