!<mkRTViewData> v1.0.0
BTV/000/CUS .\win_b64\code\lib\ProcessPlatformVisuUUID.lib|.\ProcessPlatformVisu\ProcessPlatformVisuUUID.m
CSC/000/DSI .\ProcessPlatformVisu\ProcessPlatformVisuUUID.m\Objects\win_b64\mkcsc\ProcessPlatformVisuUUID.cscdb|.\ProcessPlatformVisu\ProcessPlatformVisuUUID.m
@type='ARCHIVE'
@clr='false'
@kind='NATIVE'
@deliverable='true'
@built='true'
