!<mkRTViewData> v1.0.0
CSC/000/DSI .\DNBIgpSetupCommands\DNBIgpSetTurns.m\Objects\win_b64\mkcsc\DNBIgpSetTurns.cscdb|.\DNBIgpSetupCommands\DNBIgpSetTurns.m
@type='NONE'
@clr='false'
@kind='INCLUDED'
@deliverable='true'
@built='true'
