!<mkRTViewData> v1.0.0
CSC/000/DSI .\GMPolyObjects\GMPolyTopTools.m\Objects\win_b64\mkcsc\GMPolyTopTools.cscdb|.\GMPolyObjects\GMPolyTopTools.m
@type='NONE'
@clr='false'
@kind='INCLUDED'
@deliverable='true'
@built='true'
