!<mkRTViewData> v1.0.0
CSC/002/DSI .\CATHVDiagramInterfaces\IdentityCard\Objects\win_b64\mkcsc\CATHVDiagramInterfaces.cscdb|.\CATHVDiagramInterfaces
RTV/002/DSI .\win_b64\code\productIC\CATHVDiagramInterfacesIC.required|.\CATHVDiagramInterfaces
BTV/002/CUS .\win_b64\code\productIC\CATHVDiagramInterfacesIC.xml|.\CATHVDiagramInterfaces
DAT/002/CUS .\win_b64\code\dictionary\CATHVDiagramInterfaces.iid|.\CATHVDiagramInterfaces\CNext\code\dictionary\CATHVDiagramInterfaces.iid
BTV/002/CUS .\win_b64\code\productIC\CATHVDiagramInterfacesIC.script|.\CATHVDiagramInterfaces
@type='codeFramework'
@built='true'
