!<mkRTViewData> v1.0.0
CSC/000/DSI .\PartDesignUI\PrtConvertToHybridUI.m\Objects\win_b64\mkcsc\PrtConvertToHybridUI.cscdb|.\PartDesignUI\PrtConvertToHybridUI.m
@type='NONE'
@clr='false'
@kind='INCLUDED'
@deliverable='true'
@built='true'
