!<mkRTViewData> v1.0.0
RTV/002/DSI .\win_b64\code\productIC\PartDesignDataExchangeIC.required|.\PartDesignDataExchange
BTV/002/CUS .\win_b64\code\productIC\PartDesignDataExchangeIC.script|.\PartDesignDataExchange
CSC/002/DSI .\PartDesignDataExchange\IdentityCard\Objects\win_b64\mkcsc\PartDesignDataExchange.cscdb|.\PartDesignDataExchange
BTV/002/CUS .\win_b64\code\productIC\PartDesignDataExchangeIC.xml|.\PartDesignDataExchange
DAT/002/CUS .\win_b64\code\dictionary\PartDesignDataExchange.iid|.\PartDesignDataExchange\CNext\code\dictionary\PartDesignDataExchange.iid
@type='codeFramework'
@built='true'
