!<mkRTViewData> v1.0.0
CSC/000/DSI .\CATHealingAssistantInterfaces\CATHASPubIDL.m\Objects\win_b64\mkcsc\CATHASPubIDL.cscdb|.\CATHealingAssistantInterfaces\CATHASPubIDL.m
@type='NONE'
@clr='false'
@kind='INCLUDED'
@deliverable='true'
@built='true'
