!<mkRTViewData> v1.0.0
DAT/002/CUS .\win_b64\resources\msgcatalog\DNBPflAttrFrame.CATNls|.\DNBParameterProfiles\CNext\resources\msgcatalog\DNBPflAttrFrame.CATNls
DAT/002/CUS .\win_b64\code\dictionary\DNBParameterProfiles.fact|.\DNBParameterProfiles\CNext\code\dictionary\DNBParameterProfiles.fact
RTV/002/DSI .\win_b64\resources\msgcatalog\NlsTest\DNBCreatePmtrProfilesDlg.CATNls|.\DNBParameterProfiles\CNext\resources\msgcatalog\DNBCreatePmtrProfilesDlg.CATNls
DAT/002/CUS .\win_b64\resources\msgcatalog\DNBParameterProfiles.CATRsc|.\DNBParameterProfiles\CNext\resources\msgcatalog\DNBParameterProfiles.CATRsc
DAT/002/CUS .\win_b64\code\dictionary\DNBParameterProfiles.dic|.\DNBParameterProfiles\CNext\code\dictionary\DNBParameterProfiles.dic
RTV/002/DSI .\win_b64\resources\msgcatalog\DbcsTest\DNBCreatePmtrProfilesDlg.CATNls|.\DNBParameterProfiles\CNext\resources\msgcatalog\DNBCreatePmtrProfilesDlg.CATNls
DAT/002/CUS .\win_b64\resources\graphic\DNBParameterProfiles.feat|.\DNBParameterProfiles\CNext\resources\graphic\DNBParameterProfiles.feat
DAT/002/CUS .\win_b64\code\dictionary\DNBParameterProfiles.iid|.\DNBParameterProfiles\CNext\code\dictionary\DNBParameterProfiles.iid
RTV/002/DSI .\win_b64\resources\msgcatalog\NlsTest\DNBPflAttrFrame.CATNls|.\DNBParameterProfiles\CNext\resources\msgcatalog\DNBPflAttrFrame.CATNls
DAT/002/CUS .\win_b64\resources\msgcatalog\DNBCreatePmtrProfilesDlg.CATNls|.\DNBParameterProfiles\CNext\resources\msgcatalog\DNBCreatePmtrProfilesDlg.CATNls
RTV/002/DSI .\win_b64\resources\msgcatalog\NlsTest\DNBAppPmtrProfilesNavig.CATNls|.\DNBParameterProfiles\CNext\resources\msgcatalog\DNBAppPmtrProfilesNavig.CATNls
BTV/002/CUS .\win_b64\code\productIC\DNBParameterProfilesIC.script|.\DNBParameterProfiles
RTV/002/DSI .\win_b64\code\productIC\DNBParameterProfilesIC.required|.\DNBParameterProfiles
RTV/002/DSI .\win_b64\resources\msgcatalog\DbcsTest\DNBAppProfilesPropertiesDialog.CATNls|.\DNBParameterProfiles\CNext\resources\msgcatalog\DNBAppProfilesPropertiesDialog.CATNls
DAT/002/CUS .\win_b64\resources\msgcatalog\DNBAppPmtrProfilesNavig.CATNls|.\DNBParameterProfiles\CNext\resources\msgcatalog\DNBAppPmtrProfilesNavig.CATNls
BTV/002/CUS .\win_b64\code\productIC\DNBParameterProfilesIC.xml|.\DNBParameterProfiles
DAT/002/CUS .\win_b64\resources\msgcatalog\DNBEAppPmtrProfilesEditor.CATNls|.\DNBParameterProfiles\CNext\resources\msgcatalog\DNBEAppPmtrProfilesEditor.CATNls
RTV/002/DSI .\win_b64\resources\msgcatalog\DbcsTest\DNBPflAttrFrame.CATNls|.\DNBParameterProfiles\CNext\resources\msgcatalog\DNBPflAttrFrame.CATNls
RTV/002/DSI .\win_b64\resources\msgcatalog\DbcsTest\DNBEAppPmtrProfilesEditor.CATNls|.\DNBParameterProfiles\CNext\resources\msgcatalog\DNBEAppPmtrProfilesEditor.CATNls
DAT/002/CUS .\win_b64\resources\graphic\icons\small\I_AppPfl.bmp|.\DNBParameterProfiles\CNext\resources\graphic\icons\small\I_AppPfl.bmp
DAT/002/CUS .\win_b64\resources\graphic\icons\normal\I_AppPfl.bmp|.\DNBParameterProfiles\CNext\resources\graphic\icons\normal\I_AppPfl.bmp
DAT/002/CUS .\win_b64\resources\msgcatalog\DNBAppProfilesPropertiesDialog.CATNls|.\DNBParameterProfiles\CNext\resources\msgcatalog\DNBAppProfilesPropertiesDialog.CATNls
RTV/002/DSI .\win_b64\resources\msgcatalog\DbcsTest\DNBAppPmtrProfilesNavig.CATNls|.\DNBParameterProfiles\CNext\resources\msgcatalog\DNBAppPmtrProfilesNavig.CATNls
CSC/002/DSI .\DNBParameterProfiles\IdentityCard\Objects\win_b64\mkcsc\DNBParameterProfiles.cscdb|.\DNBParameterProfiles
RTV/002/DSI .\win_b64\resources\msgcatalog\NlsTest\DNBEAppPmtrProfilesEditor.CATNls|.\DNBParameterProfiles\CNext\resources\msgcatalog\DNBEAppPmtrProfilesEditor.CATNls
RTV/002/DSI .\win_b64\resources\msgcatalog\NlsTest\DNBAppProfilesPropertiesDialog.CATNls|.\DNBParameterProfiles\CNext\resources\msgcatalog\DNBAppProfilesPropertiesDialog.CATNls
@type='codeFramework'
@built='true'
