!<mkRTViewData> v1.0.0
INT/000/CUS .\win_b64\code\bin\CATUTIL.pdb|.\ApplicationFrame\CATUTIL.m
CSC/000/DSI .\ApplicationFrame\CATUTIL.m\Objects\win_b64\mkcsc\CATUTIL.cscdb|.\ApplicationFrame\CATUTIL.m
RTV/001/CUS .\win_b64\code\bin\CATUTIL.exe|.\ApplicationFrame\CATUTIL.m
@type='LOAD_MODULE'
@clr='false'
@kind='NATIVE'
@deliverable='true'
@built='true'
