!<mkRTViewData> v1.0.0
CSC/000/DSI .\CATMoldDesignFeature\CATMoldDesignFeature.m\Objects\win_b64\mkcsc\CATMoldDesignFeature.cscdb|.\CATMoldDesignFeature\CATMoldDesignFeature.m
INT/000/CUS .\win_b64\code\bin\CATMoldDesignFeature.pdb|.\CATMoldDesignFeature\CATMoldDesignFeature.m
RTV/001/CUS .\win_b64\code\bin\CATMoldDesignFeature.dll|.\CATMoldDesignFeature\CATMoldDesignFeature.m
BTV/000/CUS .\win_b64\code\lib\CATMoldDesignFeature.lib|.\CATMoldDesignFeature\CATMoldDesignFeature.m
INT/000/CUS .\win_b64\code\lib\CATMoldDesignFeature.exp|.\CATMoldDesignFeature\CATMoldDesignFeature.m
@type='SHARED_LIBRARY'
@clr='false'
@kind='NATIVE'
@deliverable='true'
@built='true'
