!<mkRTViewData> v1.0.0
CSC/000/DSI .\TopologicalOperatorsLight\TopUtilLight.m\Objects\win_b64\mkcsc\TopUtilLight.cscdb|.\TopologicalOperatorsLight\TopUtilLight.m
@type='NONE'
@clr='false'
@kind='INCLUDED'
@deliverable='true'
@built='true'
