!<mkRTViewData> v1.0.0
CSC/000/DSI .\CATWGDiagramInterfaces\CATJNIWgdTypeLib.m\Objects\win_b64\mkcsc\CATJNIWgdTypeLib.cscdb|.\CATWGDiagramInterfaces\CATJNIWgdTypeLib.m
@type='SHARED_LIBRARY'
@clr='false'
@kind='NATIVE'
@deliverable='true'
@built='false'
