!<mkRTViewData> v1.0.0
CSC/000/DSI .\PartDesignUI\PRTAUTODRAFTUI.m\Objects\win_b64\mkcsc\PRTAUTODRAFTUI.cscdb|.\PartDesignUI\PRTAUTODRAFTUI.m
@type='NONE'
@clr='false'
@kind='INCLUDED'
@deliverable='true'
@built='true'
