!<mkRTViewData> v1.0.0
CSC/000/DSI .\TopologicalOperators\WireExtrapol.m\Objects\win_b64\mkcsc\WireExtrapol.cscdb|.\TopologicalOperators\WireExtrapol.m
@type='NONE'
@clr='false'
@kind='INCLUDED'
@deliverable='true'
@built='true'
