!<mkRTViewData> v1.0.0
BTV/000/CUS .\win_b64\code\lib\AUTRteUISimu.lib|.\AUTRteUI\AUTRteUISimu.m
INT/000/CUS .\win_b64\code\bin\AUTRteUISimu.pdb|.\AUTRteUI\AUTRteUISimu.m
INT/000/CUS .\win_b64\code\lib\AUTRteUISimu.exp|.\AUTRteUI\AUTRteUISimu.m
RTV/001/CUS .\win_b64\code\bin\AUTRteUISimu.dll|.\AUTRteUI\AUTRteUISimu.m
CSC/000/DSI .\AUTRteUI\AUTRteUISimu.m\Objects\win_b64\mkcsc\AUTRteUISimu.cscdb|.\AUTRteUI\AUTRteUISimu.m
@type='SHARED_LIBRARY'
@clr='false'
@kind='NATIVE'
@deliverable='true'
@built='true'
