!<mkRTViewData> v1.0.0
RTV/001/CUS .\win_b64\code\bin\DPMBIWInf.dll|.\DNBDpmBIWInterfaces\DPMBIWInf.m
INT/000/CUS .\win_b64\code\bin\DPMBIWInf.pdb|.\DNBDpmBIWInterfaces\DPMBIWInf.m
INT/000/CUS .\win_b64\code\lib\DPMBIWInf.exp|.\DNBDpmBIWInterfaces\DPMBIWInf.m
CSC/000/DSI .\DNBDpmBIWInterfaces\DPMBIWInf.m\Objects\win_b64\mkcsc\DPMBIWInf.cscdb|.\DNBDpmBIWInterfaces\DPMBIWInf.m
BTV/000/CUS .\win_b64\code\lib\DPMBIWInf.lib|.\DNBDpmBIWInterfaces\DPMBIWInf.m
@type='SHARED_LIBRARY'
@clr='false'
@kind='NATIVE'
@deliverable='true'
@built='true'
