!<mkRTViewData> v1.0.0
BTV/000/CUS .\win_b64\code\lib\AUTCsmUICCPDD.lib|.\AUTCsmUI\AUTCsmUICCPDD.m
INT/000/CUS .\win_b64\code\lib\AUTCsmUICCPDD.exp|.\AUTCsmUI\AUTCsmUICCPDD.m
RTV/001/CUS .\win_b64\code\bin\AUTCsmUICCPDD.dll|.\AUTCsmUI\AUTCsmUICCPDD.m
CSC/000/DSI .\AUTCsmUI\AUTCsmUICCPDD.m\Objects\win_b64\mkcsc\AUTCsmUICCPDD.cscdb|.\AUTCsmUI\AUTCsmUICCPDD.m
INT/000/CUS .\win_b64\code\bin\AUTCsmUICCPDD.pdb|.\AUTCsmUI\AUTCsmUICCPDD.m
@type='SHARED_LIBRARY'
@clr='false'
@kind='NATIVE'
@deliverable='true'
@built='true'
