!<mkRTViewData> v1.0.0
RTV/001/CUS .\win_b64\code\bin\DNBSimActivityCommands.dll|.\DNBSimActivityCommands\DNBSimActivityCommands.m
INT/000/CUS .\win_b64\code\lib\DNBSimActivityCommands.exp|.\DNBSimActivityCommands\DNBSimActivityCommands.m
INT/000/CUS .\win_b64\code\bin\DNBSimActivityCommands.pdb|.\DNBSimActivityCommands\DNBSimActivityCommands.m
CSC/000/DSI .\DNBSimActivityCommands\DNBSimActivityCommands.m\Objects\win_b64\mkcsc\DNBSimActivityCommands.cscdb|.\DNBSimActivityCommands\DNBSimActivityCommands.m
BTV/000/CUS .\win_b64\code\lib\DNBSimActivityCommands.lib|.\DNBSimActivityCommands\DNBSimActivityCommands.m
@type='SHARED_LIBRARY'
@clr='false'
@kind='NATIVE'
@deliverable='true'
@built='true'
