!<mkRTViewData> v1.0.0
CSC/000/DSI .\KnowledgeModeler\CATLifParser.m\Objects\win_b64\mkcsc\CATLifParser.cscdb|.\KnowledgeModeler\CATLifParser.m
@type='NONE'
@clr='false'
@kind='INCLUDED'
@deliverable='true'
@built='true'
