!<mkRTViewData> v1.0.0
RTV/001/CUS .\win_b64\code\bin\CATMoldInterfaces.dll|.\CATMoldInterfaces\CATMoldInterfaces.m
CSC/000/DSI .\CATMoldInterfaces\CATMoldInterfaces.m\Objects\win_b64\mkcsc\CATMoldInterfaces.cscdb|.\CATMoldInterfaces\CATMoldInterfaces.m
INT/000/CUS .\win_b64\code\lib\CATMoldInterfaces.exp|.\CATMoldInterfaces\CATMoldInterfaces.m
BTV/000/CUS .\win_b64\code\lib\CATMoldInterfaces.lib|.\CATMoldInterfaces\CATMoldInterfaces.m
INT/000/CUS .\win_b64\code\bin\CATMoldInterfaces.pdb|.\CATMoldInterfaces\CATMoldInterfaces.m
@type='SHARED_LIBRARY'
@clr='false'
@kind='NATIVE'
@deliverable='true'
@built='true'
