!<mkRTViewData> v1.0.0
CSC/000/DSI .\DraftingBaseUI\CATDbuCtxMenu.m\Objects\win_b64\mkcsc\CATDbuCtxMenu.cscdb|.\DraftingBaseUI\CATDbuCtxMenu.m
@type='NONE'
@clr='false'
@kind='INCLUDED'
@deliverable='true'
@built='true'
