!<mkRTViewData> v1.0.0
BTV/000/CUS .\win_b64\code\lib\ManufacturingInterfacesUUID.lib|.\ManufacturingInterfaces\ManufacturingInterfacesUUID.m
CSC/000/DSI .\ManufacturingInterfaces\ManufacturingInterfacesUUID.m\Objects\win_b64\mkcsc\ManufacturingInterfacesUUID.cscdb|.\ManufacturingInterfaces\ManufacturingInterfacesUUID.m
@type='ARCHIVE'
@clr='false'
@kind='NATIVE'
@deliverable='true'
@built='true'
