!<mkRTViewData> v1.0.0
CSC/000/DSI .\CATMultiCADInterfaces\CATMultiCADItf.m\Objects\win_b64\mkcsc\CATMultiCADItf.cscdb|.\CATMultiCADInterfaces\CATMultiCADItf.m
BTV/000/CUS .\win_b64\code\lib\CATMultiCADItf.lib|.\CATMultiCADInterfaces\CATMultiCADItf.m
INT/000/CUS .\win_b64\code\lib\CATMultiCADItf.exp|.\CATMultiCADInterfaces\CATMultiCADItf.m
INT/000/CUS .\win_b64\code\bin\CATMultiCADItf.pdb|.\CATMultiCADInterfaces\CATMultiCADItf.m
RTV/001/CUS .\win_b64\code\bin\CATMultiCADItf.dll|.\CATMultiCADInterfaces\CATMultiCADItf.m
@type='SHARED_LIBRARY'
@clr='false'
@kind='NATIVE'
@deliverable='true'
@built='true'
