!<mkRTViewData> v1.0.0
CSC/000/DSI .\CGMMeshFitter\CGMUVTessBuilder.m\Objects\win_b64\mkcsc\CGMUVTessBuilder.cscdb|.\CGMMeshFitter\CGMUVTessBuilder.m
@type='NONE'
@clr='false'
@kind='INCLUDED'
@deliverable='true'
@built='true'
