!<mkRTViewData> v1.0.0
DAT/002/CUS .\win_b64\resources\msgcatalog\DNBWSQIOOptionsEditor.CATRsc|.\DNBWSQBase\CNext\resources\msgcatalog\DNBWSQIOOptionsEditor.CATRsc
CSC/002/DSI .\DNBWSQBase\IdentityCard\Objects\win_b64\mkcsc\DNBWSQBase.cscdb|.\DNBWSQBase
RTV/002/DSI .\win_b64\resources\msgcatalog\NlsTest\DNBWSQIOOptionsEditor.CATNls|.\DNBWSQBase\CNext\resources\msgcatalog\DNBWSQIOOptionsEditor.CATNls
RTV/002/DSI .\win_b64\resources\msgcatalog\DbcsTest\DNBWSQBase.CATNls|.\DNBWSQBase\CNext\resources\msgcatalog\DNBWSQBase.CATNls
DAT/002/CUS .\win_b64\code\dictionary\DNBWSQBase.dic|.\DNBWSQBase\CNext\code\dictionary\DNBWSQBase.dic
DAT/002/CUS .\win_b64\resources\msgcatalog\DNBWSQIOOptionsEditor.CATNls|.\DNBWSQBase\CNext\resources\msgcatalog\DNBWSQIOOptionsEditor.CATNls
RTV/002/DSI .\win_b64\resources\msgcatalog\NlsTest\DNBWSQBase.CATNls|.\DNBWSQBase\CNext\resources\msgcatalog\DNBWSQBase.CATNls
RTV/002/DSI .\win_b64\code\productIC\DNBWSQBaseIC.required|.\DNBWSQBase
DAT/002/CUS .\win_b64\resources\msgcatalog\DNBWSQIOOptionsDialog.CATNls|.\DNBWSQBase\CNext\resources\msgcatalog\DNBWSQIOOptionsDialog.CATNls
DAT/002/CUS .\win_b64\code\dictionary\DNBWSQBase.fact|.\DNBWSQBase\CNext\code\dictionary\DNBWSQBase.fact
BTV/002/CUS .\win_b64\code\productIC\DNBWSQBaseIC.script|.\DNBWSQBase
BTV/002/CUS .\win_b64\code\productIC\DNBWSQBaseIC.xml|.\DNBWSQBase
DAT/002/CUS .\win_b64\resources\msgcatalog\DNBWSQUtils.CATNls|.\DNBWSQBase\CNext\resources\msgcatalog\DNBWSQUtils.CATNls
RTV/002/DSI .\win_b64\resources\msgcatalog\NlsTest\DNBWSQIOOptionsDialog.CATNls|.\DNBWSQBase\CNext\resources\msgcatalog\DNBWSQIOOptionsDialog.CATNls
DAT/002/CUS .\win_b64\resources\graphic\DNBCycleSimAct.feat|.\DNBWSQBase\CNext\resources\graphic\DNBCycleSimAct.feat
DAT/002/CUS .\win_b64\resources\msgcatalog\DNBWSQIOOptionsDialog.CATRsc|.\DNBWSQBase\CNext\resources\msgcatalog\DNBWSQIOOptionsDialog.CATRsc
RTV/002/DSI .\win_b64\resources\msgcatalog\DbcsTest\DNBWSQIOOptionsEditor.CATNls|.\DNBWSQBase\CNext\resources\msgcatalog\DNBWSQIOOptionsEditor.CATNls
RTV/002/DSI .\win_b64\resources\msgcatalog\NlsTest\DNBWSQUtils.CATNls|.\DNBWSQBase\CNext\resources\msgcatalog\DNBWSQUtils.CATNls
DAT/002/CUS .\win_b64\resources\graphic\DNBCycle.feat|.\DNBWSQBase\CNext\resources\graphic\DNBCycle.feat
RTV/002/DSI .\win_b64\resources\msgcatalog\DbcsTest\DNBWSQUtils.CATNls|.\DNBWSQBase\CNext\resources\msgcatalog\DNBWSQUtils.CATNls
DAT/002/CUS .\win_b64\resources\msgcatalog\DNBWSQBase.CATNls|.\DNBWSQBase\CNext\resources\msgcatalog\DNBWSQBase.CATNls
RTV/002/DSI .\win_b64\resources\msgcatalog\DbcsTest\DNBWSQIOOptionsDialog.CATNls|.\DNBWSQBase\CNext\resources\msgcatalog\DNBWSQIOOptionsDialog.CATNls
@type='codeFramework'
@built='true'
