!<mkRTViewData> v1.0.0
CSC/000/DSI .\CATToolingServices\CATTlgServices.m\Objects\win_b64\mkcsc\CATTlgServices.cscdb|.\CATToolingServices\CATTlgServices.m
BTV/000/CUS .\win_b64\code\lib\CATTlgServices.lib|.\CATToolingServices\CATTlgServices.m
RTV/001/CUS .\win_b64\code\bin\CATTlgServices.dll|.\CATToolingServices\CATTlgServices.m
INT/000/CUS .\win_b64\code\bin\CATTlgServices.pdb|.\CATToolingServices\CATTlgServices.m
INT/000/CUS .\win_b64\code\lib\CATTlgServices.exp|.\CATToolingServices\CATTlgServices.m
@type='SHARED_LIBRARY'
@clr='false'
@kind='NATIVE'
@deliverable='true'
@built='true'
