!<mkRTViewData> v1.0.0
CSC/000/DSI .\KnowledgeEngine\CATKWEFCSolver.m\Objects\win_b64\mkcsc\CATKWEFCSolver.cscdb|.\KnowledgeEngine\CATKWEFCSolver.m
INT/000/CUS .\win_b64\code\bin\CATKWEFCSolver.pdb|.\KnowledgeEngine\CATKWEFCSolver.m
INT/000/CUS .\win_b64\code\lib\CATKWEFCSolver.exp|.\KnowledgeEngine\CATKWEFCSolver.m
BTV/000/CUS .\win_b64\code\lib\CATKWEFCSolver.lib|.\KnowledgeEngine\CATKWEFCSolver.m
RTV/001/CUS .\win_b64\code\bin\CATKWEFCSolver.dll|.\KnowledgeEngine\CATKWEFCSolver.m
@type='SHARED_LIBRARY'
@clr='false'
@kind='NATIVE'
@deliverable='true'
@built='true'
