DP_PART_NUMBER,STANDARD_LABEL,THIRD_PARTY_LABEL
CEAB 100x10x0,,
CEAB 100x10x10,,
CEAB 100x10x12,,
CEAB 100x10x15,,
CEAB 100x10x8,,
CEAB 100x12x0,,
CEAB 100x12x10,,
CEAB 100x12x12,,
CEAB 100x12x15,,
CEAB 100x12x8,,
CEAB 100x15x0,,
CEAB 100x15x10,,
CEAB 100x15x12,,
CEAB 100x15x15,,
CEAB 100x15x8,,
CEAB 100x8x0,,
CEAB 100x8x10,,
CEAB 100x8x12,,
CEAB 100x8x15,,
CEAB 100x8x8,,
CEAB 120x10x0,,
CEAB 120x10x10,,
CEAB 120x10x12,,
CEAB 120x10x15,,
CEAB 120x10x8,,
CEAB 120x12x0,,
CEAB 120x12x10,,
CEAB 120x12x12,,
CEAB 120x12x15,,
CEAB 120x12x8,,
CEAB 120x15x0,,
CEAB 120x15x10,,
CEAB 120x15x12,,
CEAB 120x15x15,,
CEAB 120x15x8,,
CEAB 120x8x0,,
CEAB 120x8x10,,
CEAB 120x8x12,,
CEAB 120x8x15,,
CEAB 120x8x8,,
CEAB 150x10x0,,
CEAB 150x10x10,,
CEAB 150x10x12,,
CEAB 150x10x15,,
CEAB 150x10x8,,
CEAB 150x12x0,,
CEAB 150x12x10,,
CEAB 150x12x12,,
CEAB 150x12x15,,
CEAB 150x12x8,,
CEAB 150x15x0,,
CEAB 150x15x10,,
CEAB 150x15x12,,
CEAB 150x15x15,,
CEAB 150x15x8,,
CEAB 150x18x0,,
CEAB 150x18x10,,
CEAB 150x18x12,,
CEAB 150x18x15,,
CEAB 150x18x8,,
CEAB 200x16x0,,
CEAB 200x16x10,,
CEAB 200x16x12,,
CEAB 200x16x15,,
CEAB 200x16x8,,
CEAB 200x18x0,,
CEAB 200x18x10,,
CEAB 200x18x12,,
CEAB 200x18x15,,
CEAB 200x18x8,,
CEAB 200x20x0,,
CEAB 200x20x10,,
CEAB 200x20x12,,
CEAB 200x20x15,,
CEAB 200x20x8,,
CEAB 200x24x0,,
CEAB 200x24x10,,
CEAB 200x24x12,,
CEAB 200x24x15,,
CEAB 200x24x8,,
CEAB 250x25x0,,
CEAB 250x25x10,,
CEAB 250x25x12,,
CEAB 250x25x15,,
CEAB 250x25x8,,
CEAB 250x28x0,,
CEAB 250x28x10,,
CEAB 250x28x12,,
CEAB 250x28x15,,
CEAB 250x28x8,,
CEAB 250x32x0,,
CEAB 250x32x10,,
CEAB 250x32x12,,
CEAB 250x32x15,,
CEAB 250x32x8,,
CEAB 250x35x0,,
CEAB 250x35x10,,
CEAB 250x35x12,,
CEAB 250x35x15,,
CEAB 250x35x8,,
CEAB 60x10x0,,
CEAB 60x10x10,,
CEAB 60x10x12,,
CEAB 60x10x15,,
CEAB 60x10x8,,
CEAB 60x5x0,,
CEAB 60x5x10,,
CEAB 60x5x12,,
CEAB 60x5x15,,
CEAB 60x5x8,,
CEAB 60x6x0,,
CEAB 60x6x10,,
CEAB 60x6x12,,
CEAB 60x6x15,,
CEAB 60x6x8,,
CEAB 60x8x0,,
CEAB 60x8x10,,
CEAB 60x8x12,,
CEAB 60x8x15,,
CEAB 60x8x8,,
CEAB 70x10x0,,
CEAB 70x10x10,,
CEAB 70x10x12,,
CEAB 70x10x15,,
CEAB 70x10x8,,
CEAB 70x6x0,,
CEAB 70x6x10,,
CEAB 70x6x12,,
CEAB 70x6x15,,
CEAB 70x6x8,,
CEAB 70x8x0,,
CEAB 70x8x10,,
CEAB 70x8x12,,
CEAB 70x8x15,,
CEAB 70x8x8,,
CEAB 80x10x0,,
CEAB 80x10x10,,
CEAB 80x10x12,,
CEAB 80x10x15,,
CEAB 80x10x8,,
CEAB 80x6x0,,
CEAB 80x6x10,,
CEAB 80x6x12,,
CEAB 80x6x15,,
CEAB 80x6x8,,
CEAB 80x8x0,,
CEAB 80x8x10,,
CEAB 80x8x12,,
CEAB 80x8x15,,
CEAB 80x8x8,,
CEAB 90x10x0,,
CEAB 90x10x10,,
CEAB 90x10x12,,
CEAB 90x10x15,,
CEAB 90x10x8,,
CEAB 90x12x0,,
CEAB 90x12x10,,
CEAB 90x12x12,,
CEAB 90x12x15,,
CEAB 90x12x8,,
CEAB 90x6x0,,
CEAB 90x6x10,,
CEAB 90x6x12,,
CEAB 90x6x15,,
CEAB 90x6x8,,
CEAB 90x7x0,,
CEAB 90x7x10,,
CEAB 90x7x12,,
CEAB 90x7x15,,
CEAB 90x7x8,,
CEAB 90x8x0,,
CEAB 90x8x10,,
CEAB 90x8x12,,
CEAB 90x8x15,,
CEAB 90x8x8,,
CHBB 102x51x0,,
CHBB 102x51x10,,
CHBB 102x51x12,,
CHBB 102x51x15,,
CHBB 102x51x8,,
CHBB 127x64x0,,
CHBB 127x64x10,,
CHBB 127x64x12,,
CHBB 127x64x15,,
CHBB 127x64x8,,
CHBB 152x76x0,,
CHBB 152x76x10,,
CHBB 152x76x12,,
CHBB 152x76x15,,
CHBB 152x76x8,,
CHBB 152x89x0,,
CHBB 152x89x10,,
CHBB 152x89x12,,
CHBB 152x89x15,,
CHBB 152x89x8,,
CHBB 178x76x0,,
CHBB 178x76x10,,
CHBB 178x76x12,,
CHBB 178x76x15,,
CHBB 178x76x8,,
CHBB 178x89x0,,
CHBB 178x89x10,,
CHBB 178x89x12,,
CHBB 178x89x15,,
CHBB 178x89x8,,
CHBB 203x76x0,,
CHBB 203x76x10,,
CHBB 203x76x12,,
CHBB 203x76x15,,
CHBB 203x76x8,,
CHBB 203x89x0,,
CHBB 203x89x10,,
CHBB 203x89x12,,
CHBB 203x89x15,,
CHBB 203x89x8,,
CHBB 229x76x0,,
CHBB 229x76x10,,
CHBB 229x76x12,,
CHBB 229x76x15,,
CHBB 229x76x8,,
CHBB 229x89x0,,
CHBB 229x89x10,,
CHBB 229x89x12,,
CHBB 229x89x15,,
CHBB 229x89x8,,
CHBB 254x76x0,,
CHBB 254x76x10,,
CHBB 254x76x12,,
CHBB 254x76x15,,
CHBB 254x76x8,,
CHBB 254x89x0,,
CHBB 254x89x10,,
CHBB 254x89x12,,
CHBB 254x89x15,,
CHBB 254x89x8,,
CHBB 305x102x0,,
CHBB 305x102x10,,
CHBB 305x102x12,,
CHBB 305x102x15,,
CHBB 305x102x8,,
CHBB 305x89x0,,
CHBB 305x89x10,,
CHBB 305x89x12,,
CHBB 305x89x15,,
CHBB 305x89x8,,
CHBB 381x102x0,,
CHBB 381x102x10,,
CHBB 381x102x12,,
CHBB 381x102x15,,
CHBB 381x102x8,,
CHBB 432x102x0,,
CHBB 432x102x10,,
CHBB 432x102x12,,
CHBB 432x102x15,,
CHBB 432x102x8,,
CHBB 76x38x0,,
CHBB 76x38x10,,
CHBB 76x38x12,,
CHBB 76x38x15,,
CHBB 76x38x8,,
CHS 114.3x3.6,,
CHS 114.3x5,,
CHS 114.3x6.3,,
CHS 139.7x10,,
CHS 139.7x5,,
CHS 139.7x6.3,,
CHS 139.7x8,,
CHS 168.3x10,,
CHS 168.3x5,,
CHS 168.3x6.3,,
CHS 168.3x8,,
CHS 193.7x10,,
CHS 193.7x12.5,,
CHS 193.7x16,,
CHS 193.7x5,,
CHS 193.7x6.3,,
CHS 193.7x8,,
CHS 21.3x3.2,,
CHS 219.1x10,,
CHS 219.1x12.5,,
CHS 219.1x16,,
CHS 219.1x20,,
CHS 219.1x5,,
CHS 219.1x6.3,,
CHS 219.1x8,,
CHS 244.5x10,,
CHS 244.5x12.5,,
CHS 244.5x16,,
CHS 244.5x20,,
CHS 244.5x25,,
CHS 244.5x6.3,,
CHS 244.5x8,,
CHS 26.9x3.2,,
CHS 273x10,,
CHS 273x12.5,,
CHS 273x16,,
CHS 273x20,,
CHS 273x25,,
CHS 273x6.3,,
CHS 273x8,,
CHS 323.9x10,,
CHS 323.9x12.5,,
CHS 323.9x16,,
CHS 323.9x20,,
CHS 323.9x25,,
CHS 323.9x6.3,,
CHS 323.9x8,,
CHS 33.7x2.6,,
CHS 33.7x3.2,,
CHS 33.7x4,,
CHS 355.6x10,,
CHS 355.6x12.5,,
CHS 355.6x16,,
CHS 355.6x20,,
CHS 355.6x25,,
CHS 355.6x8,,
CHS 406.4x10,,
CHS 406.4x12.5,,
CHS 406.4x16,,
CHS 406.4x20,,
CHS 406.4x25,,
CHS 406.4x32,,
CHS 42.4x2.6,,
CHS 42.4x3.2,,
CHS 42.4x4,,
CHS 457x10,,
CHS 457x12.5,,
CHS 457x16,,
CHS 457x20,,
CHS 457x25,,
CHS 457x32,,
CHS 457x40,,
CHS 48.3x3.2,,
CHS 48.3x4,,
CHS 48.3x5,,
CHS 508x10,,
CHS 508x12.5,,
CHS 508x16,,
CHS 508x20,,
CHS 508x25,,
CHS 508x32,,
CHS 508x40,,
CHS 508x50,,
CHS 60.3x3.2,,
CHS 60.3x4,,
CHS 60.3x5,,
CHS 76.1x3.2,,
CHS 76.1x4,,
CHS 76.1x5,,
CHS 88.9x3.2,,
CHS 88.9x4,,
CHS 88.9x5,,
CRS 114x76x12.65,,
CRS 114x76x14.67,,
CRS 134x89x19.35,,
CRS 153x102x23.07,,
CRS 153x44x7.44,,
CRS 171x114x26.79,,
CRS 191x114x26.79,,
CRS 191x114x29.76,,
CRS 228x127x37.2,,
CRS 305x152x52.09,,
CRS 381x114x37.2,,
CRS 381x203x81.85,,
CUAL 100x65x10x0,,
CUAL 100x65x10x10,,
CUAL 100x65x10x12,,
CUAL 100x65x10x15,,
CUAL 100x65x10x8,,
CUAL 100x65x7x0,,
CUAL 100x65x7x10,,
CUAL 100x65x7x12,,
CUAL 100x65x7x15,,
CUAL 100x65x7x8,,
CUAL 100x65x8x0 ,,
CUAL 100x65x8x10,,
CUAL 100x65x8x12,,
CUAL 100x65x8x15,,
CUAL 100x65x8x8,,
CUAL 100x75x10x0,,
CUAL 100x75x10x10,,
CUAL 100x75x10x12,,
CUAL 100x75x10x15,,
CUAL 100x75x10x8,,
CUAL 100x75x12x0,,
CUAL 100x75x12x10,,
CUAL 100x75x12x12 ,,
CUAL 100x75x12x15,,
CUAL 100x75x12x8,,
CUAL 100x75x8x0,,
CUAL 100x75x8x10 ,,
CUAL 100x75x8x12,,
CUAL 100x75x8x15,,
CUAL 100x75x8x8,,
CUAL 125x75x10x0 ,,
CUAL 125x75x10x10,,
CUAL 125x75x10x12,,
CUAL 125x75x10x15,,
CUAL 125x75x10x8,,
CUAL 125x75x12x0 ,,
CUAL 125x75x12x10,,
CUAL 125x75x12x12,,
CUAL 125x75x12x8 ,,
CUAL 125x75x6.5x0,,
CUAL 125x75x6.5x10,,
CUAL 125x75x6.5x12,,
CUAL 125x75x6.5x15,,
CUAL 125x75x6.5x8,,
CUAL 125x75x8x0,,
CUAL 125x75x8x10 ,,
CUAL 125x75x8x12,,
CUAL 125x75x8x15,,
CUAL 125x75x8x8,,
CUAL 137x102x6.4x0,,
CUAL 137x102x6.4x10,,
CUAL 137x102x6.4x12,,
CUAL 137x102x6.4x15,,
CUAL 137x102x6.4x8,,
CUAL 137x102x7.9x0,,
CUAL 137x102x7.9x10 ,,
CUAL 137x102x7.9x12,,
CUAL 137x102x7.9x15,,
CUAL 137x102x7.9x8,,
CUAL 137x102x9.5x0,,
CUAL 137x102x9.5x10,,
CUAL 137x102x9.5x12,,
CUAL 137x102x9.5x15 ,,
CUAL 137x102x9.5x8,,
CUAL 150x75x10x0,,
CUAL 150x75x10x10,,
CUAL 150x75x10x12,,
CUAL 150x75x10x15,,
CUAL 150x75x10x8,,
CUAL 150x75x12x0 ,,
CUAL 150x75x12x10,,
CUAL 150x75x12x12,,
CUAL 150x75x12x15,,
CUAL 150x75x12x8,,
CUAL 150x75x15x0,,
CUAL 150x75x15x10,,
CUAL 150x75x15x12,,
CUAL 150x75x15x15,,
CUAL 150x75x15x8,,
CUAL 150x90x10x0,,
CUAL 150x90x10x10,,
CUAL 150x90x10x12 ,,
CUAL 150x90x10x15,,
CUAL 150x90x10x8,,
CUAL 150x90x12x0,,
CUAL 150x90x12x10 ,,
CUAL 150x90x12x12,,
CUAL 150x90x12x15,,
CUAL 150x90x12x8,,
CUAL 150x90x15x0,,
CUAL 150x90x15x10,,
CUAL 150x90x15x12,,
CUAL 150x90x15x15,,
CUAL 150x90x15x8,,
CUAL 200x100x10x0,,
CUAL 200x100x10x10,,
CUAL 200x100x10x12,,
CUAL 200x100x10x15,,
CUAL 200x100x10x8,,
CUAL 200x100x12x0 ,,
CUAL 200x100x12x10 ,,
CUAL 200x100x12x12,,
CUAL 200x100x12x15,,
CUAL 200x100x12x8,,
CUAL 200x100x15x0 ,,
CUAL 200x100x15x10,,
CUAL 200x100x15x12,,
CUAL 200x100x15x15,,
CUAL 200x100x15x8,,
CUAL 200x150x12x0,,
CUAL 200x150x12x10,,
CUAL 200x150x12x12,,
CUAL 200x150x12x15,,
CUAL 200x150x12x8 ,,
CUAL 200x150x15x0,,
CUAL 200x150x15x10,,
CUAL 200x150x15x12,,
CUAL 200x150x15x15,,
CUAL 200x150x15x8,,
CUAL 200x150x18x0,,
CUAL 200x150x18x10,,
CUAL 200x150x18x12,,
CUAL 200x150x18x15,,
CUAL 200x150x18x8,,
CUAL 25x75x12x15,,
CUAL 60x30x5x0 ,,
CUAL 60x30x5x10 ,,
CUAL 60x30x5x12 ,,
CUAL 60x30x5x15 ,,
CUAL 60x30x5x8 ,,
CUAL 60x30x6x0 ,,
CUAL 60x30x6x10 ,,
CUAL 60x30x6x12 ,,
CUAL 60x30x6x15 ,,
CUAL 60x30x6x8 ,,
CUAL 65x50x5x0 ,,
CUAL 65x50x5x10 ,,
CUAL 65x50x5x12 ,,
CUAL 65x50x5x15 ,,
CUAL 65x50x5x8 ,,
CUAL 65x50x6x0 ,,
CUAL 65x50x6x10 ,,
CUAL 65x50x6x12 ,,
CUAL 65x50x6x15 ,,
CUAL 65x50x6x8 ,,
CUAL 65x50x8x0 ,,
CUAL 65x50x8x10 ,,
CUAL 65x50x8x12 ,,
CUAL 65x50x8x15 ,,
CUAL 65x50x8x8 ,,
CUAL 75x50x6x0 ,,
CUAL 75x50x6x10 ,,
CUAL 75x50x6x12 ,,
CUAL 75x50x6x15,,
CUAL 75x50x6x8 ,,
CUAL 75x50x8x0 ,,
CUAL 75x50x8x10 ,,
CUAL 75x50x8x12 ,,
CUAL 75x50x8x15,,
CUAL 75x50x8x8 ,,
CUAL 80x60x6x0,,
CUAL 80x60x6x10,,
CUAL 80x60x6x12,,
CUAL 80x60x6x15,,
CUAL 80x60x6x8,,
CUAL 80x60x7x0,,
CUAL 80x60x7x10,,
CUAL 80x60x7x12,,
CUAL 80x60x7x15,,
CUAL 80x60x7x8,,
CUAL 80x60x8x0,,
CUAL 80x60x8x10,,
CUAL 80x60x8x12,,
CUAL 80x60x8x15,,
CUAL 80x60x8x8,,
CUAS 100x65x10x0 ,,
CUAS 100x65x10x10,,
CUAS 100x65x10x12,,
CUAS 100x65x10x15,,
CUAS 100x65x10x8,,
CUAS 100x65x7x0,,
CUAS 100x65x7x10,,
CUAS 100x65x7x12,,
CUAS 100x65x7x15,,
CUAS 100x65x7x8,,
CUAS 100x65x8x0 ,,
CUAS 100x65x8x10,,
CUAS 100x65x8x12,,
CUAS 100x65x8x15,,
CUAS 100x65x8x8,,
CUAS 100x75x10x0,,
CUAS 100x75x10x10,,
CUAS 100x75x10x12,,
CUAS 100x75x10x15,,
CUAS 100x75x10x8,,
CUAS 100x75x12x0,,
CUAS 100x75x12x10 ,,
CUAS 100x75x12x12,,
CUAS 100x75x12x15,,
CUAS 100x75x12x8,,
CUAS 100x75x8x0 ,,
CUAS 100x75x8x10,,
CUAS 100x75x8x12 ,,
CUAS 100x75x8x15,,
CUAS 100x75x8x8,,
CUAS 125x75x10x0,,
CUAS 125x75x10x10,,
CUAS 125x75x10x12,,
CUAS 125x75x10x15,,
CUAS 125x75x10x8,,
CUAS 125x75x12x0,,
CUAS 125x75x12x10,,
CUAS 125x75x12x12,,
CUAS 125x75x12x15,,
CUAS 125x75x12x8,,
CUAS 125x75x6.5x0,,
CUAS 125x75x6.5x10,,
CUAS 125x75x6.5x12,,
CUAS 125x75x6.5x15,,
CUAS 125x75x6.5x8,,
CUAS 125x75x8x0,,
CUAS 125x75x8x10,,
CUAS 125x75x8x12,,
CUAS 125x75x8x15,,
CUAS 125x75x8x8,,
CUAS 137x102x6.4x0 ,,
CUAS 137x102x6.4x10 ,,
CUAS 137x102x6.4x12,,
CUAS 137x102x6.4x15,,
CUAS 137x102x6.4x8,,
CUAS 137x102x7.9x0,,
CUAS 137x102x7.9x10,,
CUAS 137x102x7.9x12,,
CUAS 137x102x7.9x15,,
CUAS 137x102x7.9x8,,
CUAS 137x102x9.5x0,,
CUAS 137x102x9.5x10,,
CUAS 137x102x9.5x12,,
CUAS 137x102x9.5x15,,
CUAS 137x102x9.5x8,,
CUAS 150x75x10x0,,
CUAS 150x75x10x10,,
CUAS 150x75x10x12,,
CUAS 150x75x10x15,,
CUAS 150x75x10x8,,
CUAS 150x75x12x0,,
CUAS 150x75x12x10,,
CUAS 150x75x12x12,,
CUAS 150x75x12x15,,
CUAS 150x75x12x8,,
CUAS 150x75x15x0,,
CUAS 150x75x15x10 ,,
CUAS 150x75x15x12,,
CUAS 150x75x15x15 ,,
CUAS 150x75x15x8,,
CUAS 150x90x10x0,,
CUAS 150x90x10x10,,
CUAS 150x90x10x12,,
CUAS 150x90x10x15,,
CUAS 150x90x10x8 ,,
CUAS 150x90x12x0 ,,
CUAS 150x90x12x10,,
CUAS 150x90x12x12,,
CUAS 150x90x12x15,,
CUAS 150x90x12x8,,
CUAS 150x90x15x0,,
CUAS 150x90x15x10,,
CUAS 150x90x15x12,,
CUAS 150x90x15x15,,
CUAS 150x90x15x8,,
CUAS 200x100x10x0,,
CUAS 200x100x10x10,,
CUAS 200x100x10x12,,
CUAS 200x100x10x15,,
CUAS 200x100x10x8,,
CUAS 200x100x12x0,,
CUAS 200x100x12x10,,
CUAS 200x100x12x12,,
CUAS 200x100x12x15,,
CUAS 200x100x12x8,,
CUAS 200x100x15x0,,
CUAS 200x100x15x10,,
CUAS 200x100x15x12,,
CUAS 200x100x15x15,,
CUAS 200x100x15x8,,
CUAS 200x150x12x0,,
CUAS 200x150x12x10,,
CUAS 200x150x12x12,,
CUAS 200x150x12x15,,
CUAS 200x150x12x8 ,,
CUAS 200x150x15x0 ,,
CUAS 200x150x15x10,,
CUAS 200x150x15x12 ,,
CUAS 200x150x15x15,,
CUAS 200x150x15x8 ,,
CUAS 200x150x18x0 ,,
CUAS 200x150x18x10 ,,
CUAS 200x150x18x12,,
CUAS 200x150x18x15,,
CUAS 200x150x18x8,,
CUAS 60x30x5x0 ,,
CUAS 60x30x5x10,,
CUAS 60x30x5x12,,
CUAS 60x30x5x15,,
CUAS 60x30x5x8,,
CUAS 60x30x6x0,,
CUAS 60x30x6x10,,
CUAS 60x30x6x12,,
CUAS 60x30x6x15,,
CUAS 60x30x6x8,,
CUAS 65x50x5x0,,
CUAS 65x50x5x10,,
CUAS 65x50x5x12,,
CUAS 65x50x5x15,,
CUAS 65x50x5x8,,
CUAS 65x50x6x0,,
CUAS 65x50x6x10,,
CUAS 65x50x6x12,,
CUAS 65x50x6x15,,
CUAS 65x50x6x8,,
CUAS 65x50x8x0,,
CUAS 65x50x8x10,,
CUAS 65x50x8x12,,
CUAS 65x50x8x15,,
CUAS 65x50x8x8,,
CUAS 75x50x6x0,,
CUAS 75x50x6x10,,
CUAS 75x50x6x12,,
CUAS 75x50x6x15,,
CUAS 75x50x6x8,,
CUAS 75x50x8x0,,
CUAS 75x50x8x10,,
CUAS 75x50x8x12,,
CUAS 75x50x8x15,,
CUAS 75x50x8x8,,
CUAS 80x60x6x0,,
CUAS 80x60x6x10,,
CUAS 80x60x6x12,,
CUAS 80x60x6x15,,
CUAS 80x60x6x8 ,,
CUAS 80x60x7x0,,
CUAS 80x60x7x10,,
CUAS 80x60x7x12,,
CUAS 80x60x7x15,,
CUAS 80x60x7x8,,
CUAS 80x60x8x0,,
CUAS 80x60x8x10 ,,
CUAS 80x60x8x12,,
CUAS 80x60x8x15,,
CUAS 80x60x8x8,,
CUB 1029x254x125,,
CUB 1029x254x140,,
CUB 1029x254x152,,
CUB 1029x254x170,,
CUB 1143x267x134,,
CUB 1143x267x147,,
CUB 1143x267x173,,
CUB 1143x267x197,,
CUB 1257x292x176,,
CUB 1257x292x194,,
CUB 1257x292x226,,
CUB 1371x305x201,,
CUB 1371x305x224,,
CUB 1371x305x253,,
CUB 1371x305x289,,
CUB 1371x419x343,,
CUB 1371x419x388,,
CUB 191x76x13,,
CUB 229x89x16,,
CUB 267x102x19,,
CUB 305x102x23,,
CUB 305x133x25,,
CUB 305x133x30,,
CUB 381x102x22,,
CUB 381x102x25,,
CUB 381x102x28,,
CUB 381x146x31,,
CUB 381x146x37,,
CUB 381x146x43,,
CUB 458x102x25,,
CUB 458x102x28,,
CUB 458x102x33,,
CUB 458x127x37,,
CUB 458x127x42,,
CUB 458x127x48,,
CUB 458x165x40,,
CUB 458x165x46,,
CUB 458x165x54,,
CUB 534x127x33,,
CUB 534x127x39,,
CUB 534x171x45,,
CUB 534x171x51,,
CUB 534x171x57,,
CUB 534x171x67,,
CUB 609x140x39,,
CUB 609x140x46,,
CUB 609x178x54,,
CUB 609x178x60,,
CUB 609x178x67,,
CUB 609x178x74,,
CUB 686x152x52,,
CUB 686x152x60,,
CUB 686x152x67,,
CUB 686x152x74,,
CUB 686x152x82,,
CUB 686x191x67,,
CUB 686x191x74,,
CUB 686x191x82,,
CUB 686x191x89,,
CUB 686x191x98,,
CUB 800x210x101,,
CUB 800x210x109,,
CUB 800x210x122,,
CUB 800x210x82,,
CUB 800x210x92,,
CUB 915x229x101,,
CUB 915x229x113,,
CUB 915x229x125,,
CUB 915x229x140,,
CUB 915x305x149,,
CUB 915x305x179,,
CUB 915x305x238,,
CUC 228x152x23,,
CUC 228x152x30,,
CUC 228x152x37,,
CUC 305x203x46,,
CUC 305x203x52,,
CUC 305x203x60,,
CUC 305x203x71,,
CUC 305x203x86,,
CUC 381x254x107,,
CUC 381x254x132,,
CUC 381x254x167,,
CUC 381x254x73,,
CUC 381x254x89,,
CUC 458x305x118,,
CUC 458x305x137,,
CUC 458x305x158,,
CUC 458x305x198,,
CUC 458x305x240,,
CUC 458x305x283,,
CUC 458x305x97,,
CUC 534x368x129,,
CUC 534x368x153,,
CUC 534x368x177,,
CUC 534x368x202,,
CUC 546x406x235,,
CUC 546x406x287,,
CUC 546x406x340,,
CUC 546x406x393,,
CUC 546x406x467,,
CUC 546x406x551,,
CUC 546x406x634,,
DPFC 100x50x10,,
DPFC 125x65x15,,
DPFC 150x75x18,,
DPFC 150x90x24,,
DPFC 180x75x20,,
DPFC 180x90x26,,
DPFC 200x75x23,,
DPFC 200x90x30,,
DPFC 230x75x26,,
DPFC 230x90x32,,
DPFC 260x75x28,,
DPFC 260x90x35,,
DPFC 300x100x46,,
DPFC 300x90x41,,
DPFC 380x100x54,,
DPFC 430x100x64,,
EQA 100x100x10,,
EQA 100x100x12,,
EQA 100x100x15,,
EQA 100x100x8,,
EQA 120x120x10,,
EQA 120x120x12,,
EQA 120x120x15,,
EQA 120x120x8,,
EQA 150x150x10,,
EQA 150x150x12,,
EQA 150x150x15,,
EQA 150x150x18,,
EQA 200x200x16,,
EQA 200x200x18,,
EQA 200x200x20,,
EQA 200x200x24,,
EQA 250x250x25,,
EQA 250x250x28,,
EQA 250x250x32,,
EQA 250x250x35,,
EQA 25x25x3,,
EQA 25x25x4,,
EQA 25x25x5,,
EQA 30x30x3,,
EQA 30x30x4,,
EQA 30x30x5,,
EQA 40x40x3,,
EQA 40x40x4,,
EQA 40x40x5,,
EQA 40x40x6,,
EQA 45x45x3,,
EQA 45x45x4,,
EQA 45x45x5,,
EQA 45x45x6,,
EQA 50x50x3,,
EQA 50x50x4,,
EQA 50x50x5,,
EQA 50x50x6,,
EQA 50x50x8,,
EQA 60x60x10,,
EQA 60x60x5,,
EQA 60x60x6,,
EQA 60x60x8,,
EQA 70x70x10,,
EQA 70x70x6,,
EQA 70x70x8,,
EQA 80x80x10,,
EQA 80x80x6,,
EQA 80x80x8,,
EQA 90x90x10,,
EQA 90x90x12,,
EQA 90x90x6,,
EQA 90x90x7,,
EQA 90x90x8,,
EQAP 100x100x10,,
EQAP 100x100x12,,
EQAP 100x100x15,,
EQAP 100x100x8,,
EQAP 120x120x10,,
EQAP 120x120x12,,
EQAP 120x120x15,,
EQAP 120x120x8,,
EQAP 150x150x10,,
EQAP 150x150x12,,
EQAP 150x150x15,,
EQAP 150x150x18,,
EQAP 200x200x16,,
EQAP 200x200x18,,
EQAP 200x200x20,,
EQAP 200x200x24,,
EQAP 250x250x25,,
EQAP 250x250x28,,
EQAP 250x250x32,,
EQAP 250x250x35,,
EQAP 25x25x3,,
EQAP 25x25x4,,
EQAP 25x25x5,,
EQAP 30x30x3,,
EQAP 30x30x4,,
EQAP 30x30x5,,
EQAP 40x40x3,,
EQAP 40x40x4,,
EQAP 40x40x5,,
EQAP 40x40x6,,
EQAP 45x45x3,,
EQAP 45x45x4,,
EQAP 45x45x5,,
EQAP 45x45x6,,
EQAP 50x50x3,,
EQAP 50x50x4,,
EQAP 50x50x5,,
EQAP 50x50x6,,
EQAP 50x50x8,,
EQAP 60x60x10,,
EQAP 60x60x5,,
EQAP 60x60x6,,
EQAP 60x60x8,,
EQAP 70x70x10,,
EQAP 70x70x6,,
EQAP 70x70x8,,
EQAP 80x80x10,,
EQAP 80x80x6,,
EQAP 80x80x8,,
EQAP 90x90x10,,
EQAP 90x90x12,,
EQAP 90x90x6,,
EQAP 90x90x7,,
EQAP 90x90x8,,
list.txt,,
PFCH 100x50x10,,
PFCH 125x65x15,,
PFCH 150x75x18,,
PFCH 150x90x24,,
PFCH 180x75x20,,
PFCH 180x90x26,,
PFCH 200x75x23,,
PFCH 200x90x30,,
PFCH 230x75x26,,
PFCH 230x90x32,,
PFCH 260x75x28,,
PFCH 260x90x35,,
PFCH 300x100x46,,
PFCH 300x90x41,,
PFCH 380x100x54,,
PFCH 430x100x64,,
RHS 100x50x3.2,,
RHS 100x50x3,,
RHS 100x50x4,,
RHS 100x50x5,,
RHS 100x50x6.3,,
RHS 100x50x8,,
RHS 100x60x3.6,,
RHS 100x60x3,,
RHS 100x60x5,,
RHS 100x60x6.3,,
RHS 100x60x8,,
RHS 120x60x3.6,,
RHS 120x60x5,,
RHS 120x60x6.3,,
RHS 120x60x8,,
RHS 120x80x10,,
RHS 120x80x5,,
RHS 120x80x6.3,,
RHS 120x80x8,,
RHS 150x100x10,,
RHS 150x100x12.5,,
RHS 150x100x5,,
RHS 150x100x6.3,,
RHS 150x100x8,,
RHS 160x80x10,,
RHS 160x80x12.5,,
RHS 160x80x5,,
RHS 160x80x6.3,,
RHS 160x80x8,,
RHS 200x100x10,,
RHS 200x100x12.5,,
RHS 200x100x16,,
RHS 200x100x5,,
RHS 200x100x6.3,,
RHS 200x100x8,,
RHS 200x120x10,,
RHS 200x120x12.5,,
RHS 200x120x5,,
RHS 200x120x6.3,,
RHS 200x120x6,,
RHS 200x120x8,,
RHS 250x150x10,,
RHS 250x150x12.5,,
RHS 250x150x16,,
RHS 250x150x5,,
RHS 250x150x6.3,,
RHS 250x150x8,,
RHS 300x200x10,,
RHS 300x200x12.5,,
RHS 300x200x16,,
RHS 300x200x6.3,,
RHS 300x200x8,,
RHS 400x200x10,,
RHS 400x200x12.5,,
RHS 400x200x16,,
RHS 400x200x8,,
RHS 450x250x10,,
RHS 450x250x12.5,,
RHS 450x250x16,,
RHS 450x250x8,,
RHS 500x200x10,,
RHS 500x200x12.5,,
RHS 500x200x16,,
RHS 500x200x8,,
RHS 500x300x10,,
RHS 500x300x12.5,,
RHS 500x300x16,,
RHS 500x300x20,,
RHS 50x25x2.5,,
RHS 50x25x3.2,,
RHS 50x25x3,,
RHS 50x30x2.5,,
RHS 50x30x3.2,,
RHS 50x30x3,,
RHS 50x30x4,,
RHS 50x30x5,,
RHS 60x40x2.5,,
RHS 60x40x3.2,,
RHS 60x40x3,,
RHS 60x40x4,,
RHS 60x40x5,,
RHS 60x40x6.3,,
RHS 80x40x3.2,,
RHS 80x40x3,,
RHS 80x40x4,,
RHS 80x40x5,,
RHS 80x40x6.3,,
RHS 80x40x8,,
RHS 90x50x3.6,,
RHS 90x50x3,,
RHS 90x50x5,,
RHS 90x50x6.3,,
RHS 90x50x8,,
RSC 102x51,,
RSC 127x64,,
RSC 152x76,,
RSC 152x89,,
RSC 178x76,,
RSC 178x89,,
RSC 203x76,,
RSC 203x89,,
RSC 229x76,,
RSC 229x89,,
RSC 254x76,,
RSC 254x89,,
RSC 305x102,,
RSC 305x89,,
RSC 381x102,,
RSC 432x102,,
RSC 76x38,,
RSJ 102x102x23,,
RSJ 102x44x7,,
RSJ 114x114x27,,
RSJ 127x114x27,,
RSJ 127x114x29,,
RSJ 152x127x37,,
RSJ 203x152x52,,
RSJ 254x114x37,,
RSJ 254x203x82,,
RSJ 76x76x13,,
RSJ 76x76x15,,
RSJ 89x89x20,,
SHS 100x100x10,,
SHS 100x100x4,,
SHS 100x100x5,,
SHS 100x100x6.3,,
SHS 100x100x8,,
SHS 120x120x10,,
SHS 120x120x12.5,,
SHS 120x120x5,,
SHS 120x120x6.3,,
SHS 120x120x8,,
SHS 140x140x10,,
SHS 140x140x12.5,,
SHS 140x140x5,,
SHS 140x140x6.3,,
SHS 140x140x8,,
SHS 150x150x10,,
SHS 150x150x12.5,,
SHS 150x150x16,,
SHS 150x150x5,,
SHS 150x150x6.3,,
SHS 150x150x8,,
SHS 160x160x10,,
SHS 160x160x12.5,,
SHS 160x160x5,,
SHS 160x160x6.3,,
SHS 160x160x6,,
SHS 160x160x8,,
SHS 180x180x10,,
SHS 180x180x12.5,,
SHS 180x180x16,,
SHS 180x180x6.3,,
SHS 180x180x8,,
SHS 200x200x10,,
SHS 200x200x12.5,,
SHS 200x200x16,,
SHS 200x200x5,,
SHS 200x200x6.3,,
SHS 200x200x8,,
SHS 20x20x2.5,,
SHS 20x20x2,,
SHS 250x250x10,,
SHS 250x250x12.5,,
SHS 250x250x16,,
SHS 250x250x6.3,,
SHS 250x250x8,,
SHS 25x25x2.5,,
SHS 25x25x2,,
SHS 25x25x3.2,,
SHS 25x25x3,,
SHS 300x300x10,,
SHS 300x300x12.5,,
SHS 300x300x16,,
SHS 300x300x6.3,,
SHS 300x300x8,,
SHS 30x30x2.5,,
SHS 30x30x3.2,,
SHS 30x30x3,,
SHS 350x350x10,,
SHS 350x350x12.5,,
SHS 350x350x16,,
SHS 350x350x8,,
SHS 400x400x10,,
SHS 400x400x12.5,,
SHS 400x400x16,,
SHS 400x400x20,,
SHS 40x40x2.5,,
SHS 40x40x3.2,,
SHS 40x40x3,,
SHS 40x40x4,,
SHS 40x40x5,,
SHS 50x50x2.5,,
SHS 50x50x3.2,,
SHS 50x50x3,,
SHS 50x50x4,,
SHS 50x50x5,,
SHS 50x50x6.3,,
SHS 60x60x3.2,,
SHS 60x60x3,,
SHS 60x60x4,,
SHS 60x60x5,,
SHS 60x60x6.3,,
SHS 60x60x8,,
SHS 70x70x3.6,,
SHS 70x70x3,,
SHS 70x70x5,,
SHS 70x70x6.3,,
SHS 70x70x8,,
SHS 80x80x3.6,,
SHS 80x80x3,,
SHS 80x80x5,,
SHS 80x80x6.3,,
SHS 80x80x8,,
SHS 90x90x3.6,,
SHS 90x90x5,,
SHS 90x90x6.3,,
SHS 90x90x8,,
TUB 102x102x12,,
TUB 102x127x11,,
TUB 102x127x13,,
TUB 102x127x14,,
TUB 102x153x13,,
TUB 102x153x14,,
TUB 102x153x17,,
TUB 102x89x10,,
TUB 127x152x19,,
TUB 127x152x21,,
TUB 127x152x24,,
TUB 127x178x17,,
TUB 127x178x20,,
TUB 133x102x13,,
TUB 133x102x15,,
TUB 140x203x20,,
TUB 140x203x23,,
TUB 146x127x16,,
TUB 146x127x19,,
TUB 146x127x22,,
TUB 152x229x26,,
TUB 152x229x30,,
TUB 152x229x34,,
TUB 152x229x37,,
TUB 152x229x41,,
TUB 165x152x20,,
TUB 165x152x23,,
TUB 165x152x27,,
TUB 171x178x23,,
TUB 171x178x26,,
TUB 171x178x29,,
TUB 171x178x34,,
TUB 178x203x27,,
TUB 178x203x30,,
TUB 178x203x34,,
TUB 178x203x37,,
TUB 191x229x34,,
TUB 191x229x37,,
TUB 191x229x41,,
TUB 191x229x45,,
TUB 191x229x49,,
TUB 210x267x41,,
TUB 210x267x46,,
TUB 210x267x51,,
TUB 210x267x55,,
TUB 210x267x61,,
TUB 229x305x51,,
TUB 229x305x57,,
TUB 229x305x63,,
TUB 229x305x70,,
TUB 254x343x63,,
TUB 254x343x70,,
TUB 254x343x76,,
TUB 254x343x85,,
TUB 267x381x74,,
TUB 267x381x87,,
TUB 267x381x99,,
TUB 292x419x113,,
TUB 292x419x88,,
TUB 292x419x97,,
TUB 305x305x51,,
TUB 305x305x57,,
TUB 305x305x61,,
TUB 305x457x101,,
TUB 305x457x112,,
TUB 305x457x127,,
TUB 305x457x145,,
TUB 419x457x172,,
TUB 419x457x194,,
TUB 76x64x7,,
TUB 89x76x8,,
TUC 152x76x12,,
TUC 152x76x15,,
TUC 152x76x19,,
TUC 203x102x23,,
TUC 203x102x26,,
TUC 203x102x30,,
TUC 203x102x36,,
TUC 203x102x43,,
TUC 254x127x37,,
TUC 254x127x45,,
TUC 254x127x54,,
TUC 254x127x66,,
TUC 254x127x84,,
TUC 305x152x120,,
TUC 305x152x142,,
TUC 305x152x49,,
TUC 305x152x59,,
TUC 305x152x69,,
TUC 305x152x79,,
TUC 305x152x99,,
TUC 368x178x101,,
TUC 368x178x65,,
TUC 368x178x77,,
TUC 368x178x89,,
TUC 406x178x118,,
TUC 406x178x144,,
TUC 406x178x170,,
TUC 406x178x197,,
TUC 406x178x234,,
TUC 406x178x239,,
TUC 406x178x276,,
TUC 406x178x317,,
UB 1016x305x222,,
UB 1016x305x249,,
UB 1016x305x272,,
UB 1016x305x314,,
UB 1016x305x349,,
UB 1016x305x393,,
UB 1016x305x437,,
UB 1016x305x487,,
UB 127x76x13,,
UB 152x89x16,,
UB 178x102x19,,
UB 203x102x23,,
UB 203x133x25,,
UB 203x133x30,,
UB 254x102x22,,
UB 254x102x25,,
UB 254x102x28,,
UB 254x146x31,,
UB 254x146x37,,
UB 254x146x43,,
UB 305x102x25,,
UB 305x102x28,,
UB 305x102x33,,
UB 305x127x37,,
UB 305x127x42,,
UB 305x127x48,,
UB 305x165x40,,
UB 305x165x46,,
UB 305x165x54,,
UB 356x127x33,,
UB 356x127x39,,
UB 356x171x45,,
UB 356x171x51,,
UB 356x171x57,,
UB 356x171x67,,
UB 406x140x39,,
UB 406x140x46,,
UB 406x178x54,,
UB 406x178x60,,
UB 406x178x67,,
UB 406x178x74,,
UB 457x152x52,,
UB 457x152x60,,
UB 457x152x67,,
UB 457x152x74,,
UB 457x152x82,,
UB 457x191x67,,
UB 457x191x74,,
UB 457x191x82,,
UB 457x191x89,,
UB 457x191x98,,
UB 533x210x101,,
UB 533x210x109,,
UB 533x210x122,,
UB 533x210x82,,
UB 533x210x92,,
UB 610x229x101,,
UB 610x229x113,,
UB 610x229x125,,
UB 610x229x140,,
UB 610x305x149,,
UB 610x305x179,,
UB 610x305x238,,
UB 686x254x125,,
UB 686x254x140,,
UB 686x254x152,,
UB 686x254x170,,
UB 762x267x134,,
UB 762x267x147,,
UB 762x267x173,,
UB 762x267x197,,
UB 838x292x176,,
UB 838x292x194,,
UB 838x292x226,,
UB 914x305x201,,
UB 914x305x224,,
UB 914x305x253,,
UB 914x305x289,,
UB 914x419x343,,
UB 914x419x388,,
UBP 203x203x45,,
UBP 203x203x54,,
UBP 254x254x63,,
UBP 254x254x71,,
UBP 254x254x85,,
UBP 305x305x110,,
UBP 305x305x126,,
UBP 305x305x149,,
UBP 305x305x186,,
UBP 305x305x223,,
UBP 305x305x79,,
UBP 305x305x88,,
UBP 305x305x95,,
UBP 356x368x109,,
UBP 356x368x133,,
UBP 356x368x152,,
UBP 356x368x174,,
UC 152x152x23,,
UC 152x152x30,,
UC 152x152x37,,
UC 203x203x46,,
UC 203x203x52,,
UC 203x203x60,,
UC 203x203x71,,
UC 203x203x86,,
UC 254x254x107,,
UC 254x254x132,,
UC 254x254x167,,
UC 254x254x73,,
UC 254x254x89,,
UC 305x305x118,,
UC 305x305x137,,
UC 305x305x158,,
UC 305x305x198,,
UC 305x305x240,,
UC 305x305x283,,
UC 305x305x97,,
UC 356x368x129,,
UC 356x368x153,,
UC 356x368x177,,
UC 356x368x202,,
UC 356x406x235,,
UC 356x406x287,,
UC 356x406x340,,
UC 356x406x393,,
UC 356x406x467,,
UC 356x406x551,,
UC 356x406x634,,
UNA 100x65x10,,
UNA 100x65x7,,
UNA 100x65x8,,
UNA 100x75x10,,
UNA 100x75x12,,
UNA 100x75x8,,
UNA 125x75x10,,
UNA 125x75x12,,
UNA 125x75x6.5,,
UNA 125x75x8,,
UNA 137x102x6.4,,
UNA 137x102x7.9,,
UNA 137x102x9.5,,
UNA 150x75x10,,
UNA 150x75x12,,
UNA 150x75x15,,
UNA 150x90x10,,
UNA 150x90x12,,
UNA 150x90x15,,
UNA 200x100x10,,
UNA 200x100x12,,
UNA 200x100x15,,
UNA 200x150x12,,
UNA 200x150x15,,
UNA 200x150x18,,
UNA 40x25x4,,
UNA 60x30x5,,
UNA 60x30x6,,
UNA 65x50x5,,
UNA 65x50x6,,
UNA 65x50x8,,
UNA 75x50x6,,
UNA 75x50x8,,
UNA 80x60x6,,
UNA 80x60x7,,
UNA 80x60x8,,
UNAP 100x65x10,,
UNAP 100x65x7,,
UNAP 100x75x10,,
UNAP 100x75x12,,
UNAP 100x75x8,,
UNAP 125x75x10,,
UNAP 125x75x12,,
UNAP 125x75x6.5,,
UNAP 125x75x8,,
UNAP 137x102x6.4,,
UNAP 137x102x7.9,,
UNAP 137x102x9.5,,
UNAP 150x75x10,,
UNAP 150x75x12,,
UNAP 150x75x15,,
UNAP 150x90x10,,
UNAP 150x90x12,,
UNAP 150x90x15,,
UNAP 200x100x10,,
UNAP 200x100x12,,
UNAP 200x100x15,,
UNAP 200x150x12,,
UNAP 200x150x15,,
UNAP 200x150x18,,
UNAP 40x25x4,,
UNAP 60x30x5,,
UNAP 60x30x6,,
UNAP 65x50x5,,
UNAP 65x50x6,,
UNAP 65x50x8,,
UNAP 75x50x6,,
UNAP 75x50x8,,
UNAP 80x60x6,,
UNAP 80x60x7,,
UNAP 80x60x8,,
