!<mkRTViewData> v1.0.0
DAT/002/CUS .\win_b64\code\dictionary\ObjectModelerNavigator.iid|.\ObjectModelerNavigator\CNext\code\dictionary\ObjectModelerNavigator.iid
CSC/002/DSI .\ObjectModelerNavigator\IdentityCard\Objects\win_b64\mkcsc\ObjectModelerNavigator.cscdb|.\ObjectModelerNavigator
BTV/002/CUS .\win_b64\code\productIC\ObjectModelerNavigatorIC.xml|.\ObjectModelerNavigator
DAT/002/CUS .\win_b64\code\dictionary\ObjectModelerNavigator.dic|.\ObjectModelerNavigator\CNext\code\dictionary\ObjectModelerNavigator.dic
RTV/002/DSI .\win_b64\code\productIC\ObjectModelerNavigatorIC.required|.\ObjectModelerNavigator
BTV/002/CUS .\win_b64\code\productIC\ObjectModelerNavigatorIC.script|.\ObjectModelerNavigator
@type='codeFramework'
@built='true'
