!<mkRTViewData> v1.0.0
BTV/000/CUS .\win_b64\code\lib\CATDuiSettings.lib|.\DraftingUI\CATDuiSettings.m
INT/000/CUS .\win_b64\code\lib\CATDuiSettings.exp|.\DraftingUI\CATDuiSettings.m
INT/000/CUS .\win_b64\code\bin\CATDuiSettings.pdb|.\DraftingUI\CATDuiSettings.m
CSC/000/DSI .\DraftingUI\CATDuiSettings.m\Objects\win_b64\mkcsc\CATDuiSettings.cscdb|.\DraftingUI\CATDuiSettings.m
RTV/001/CUS .\win_b64\code\bin\CATDuiSettings.dll|.\DraftingUI\CATDuiSettings.m
@type='SHARED_LIBRARY'
@clr='false'
@kind='NATIVE'
@deliverable='true'
@built='true'
