!<mkRTViewData> v1.0.0
CSC/000/DSI .\DNBIgpSetupModel\DNBIgpActivityVisu.m\Objects\win_b64\mkcsc\DNBIgpActivityVisu.cscdb|.\DNBIgpSetupModel\DNBIgpActivityVisu.m
@type='NONE'
@clr='false'
@kind='INCLUDED'
@deliverable='true'
@built='true'
