!<mkRTViewData> v1.0.0
INT/000/CUS .\win_b64\code\lib\CATPrtDriverHPGL2.exp|.\Print\CATPrtDriverHPGL2.m
BTV/000/CUS .\win_b64\code\lib\CATPrtDriverHPGL2.lib|.\Print\CATPrtDriverHPGL2.m
INT/000/CUS .\win_b64\code\bin\CATPrtDriverHPGL2.pdb|.\Print\CATPrtDriverHPGL2.m
CSC/000/DSI .\Print\CATPrtDriverHPGL2.m\Objects\win_b64\mkcsc\CATPrtDriverHPGL2.cscdb|.\Print\CATPrtDriverHPGL2.m
RTV/001/CUS .\win_b64\code\bin\CATPrtDriverHPGL2.dll|.\Print\CATPrtDriverHPGL2.m
@type='SHARED_LIBRARY'
@clr='false'
@kind='NATIVE'
@deliverable='true'
@built='true'
