!<mkRTViewData> v1.0.0
CSC/000/DSI .\TopologicalOperatorsLight\TopExtLight.m\Objects\win_b64\mkcsc\TopExtLight.cscdb|.\TopologicalOperatorsLight\TopExtLight.m
@type='NONE'
@clr='false'
@kind='INCLUDED'
@deliverable='true'
@built='true'
