!<mkRTViewData> v1.0.0
CSC/000/DSI .\DNBGraphEditor\GE0VISU.m\Objects\win_b64\mkcsc\GE0VISU.cscdb|.\DNBGraphEditor\GE0VISU.m
@type='NONE'
@clr='false'
@kind='INCLUDED'
@deliverable='true'
@built='true'
