!<mkRTViewData> v1.0.0
BTV/000/CUS .\win_b64\code\lib\CATArrNomenclature.lib|.\CATArrangementUI\CATArrNomenclature.m
RTV/001/CUS .\win_b64\code\bin\CATArrNomenclature.dll|.\CATArrangementUI\CATArrNomenclature.m
INT/000/CUS .\win_b64\code\bin\CATArrNomenclature.pdb|.\CATArrangementUI\CATArrNomenclature.m
CSC/000/DSI .\CATArrangementUI\CATArrNomenclature.m\Objects\win_b64\mkcsc\CATArrNomenclature.cscdb|.\CATArrangementUI\CATArrNomenclature.m
INT/000/CUS .\win_b64\code\lib\CATArrNomenclature.exp|.\CATArrangementUI\CATArrNomenclature.m
@type='SHARED_LIBRARY'
@clr='false'
@kind='NATIVE'
@deliverable='true'
@built='true'
