!<mkRTViewData> v1.0.0
RTV/002/DSI .\win_b64\code\productIC\CATStructureFeaturesInterfacesIC.required|.\CATStructureFeaturesInterfaces
CSC/002/DSI .\CATStructureFeaturesInterfaces\IdentityCard\Objects\win_b64\mkcsc\CATStructureFeaturesInterfaces.cscdb|.\CATStructureFeaturesInterfaces
BTV/002/CUS .\win_b64\code\productIC\CATStructureFeaturesInterfacesIC.script|.\CATStructureFeaturesInterfaces
BTV/002/CUS .\win_b64\code\productIC\CATStructureFeaturesInterfacesIC.xml|.\CATStructureFeaturesInterfaces
DAT/002/CUS .\win_b64\code\dictionary\CATStructureFeaturesInterfaces.iid|.\CATStructureFeaturesInterfaces\CNext\code\dictionary\CATStructureFeaturesInterfaces.iid
@type='codeFramework'
@built='true'
