!<mkRTViewData> v1.0.0
INT/000/CUS .\win_b64\code\lib\CATSubdivisionObjects.exp|.\CATSubdivisionObjects\CATSubdivisionObjects.m
INT/000/CUS .\win_b64\code\bin\CATSubdivisionObjects.pdb|.\CATSubdivisionObjects\CATSubdivisionObjects.m
RTV/001/CUS .\win_b64\code\bin\CATSubdivisionObjects.dll|.\CATSubdivisionObjects\CATSubdivisionObjects.m
CSC/000/DSI .\CATSubdivisionObjects\CATSubdivisionObjects.m\Objects\win_b64\mkcsc\CATSubdivisionObjects.cscdb|.\CATSubdivisionObjects\CATSubdivisionObjects.m
BTV/000/CUS .\win_b64\code\lib\CATSubdivisionObjects.lib|.\CATSubdivisionObjects\CATSubdivisionObjects.m
@type='SHARED_LIBRARY'
@clr='false'
@kind='NATIVE'
@deliverable='true'
@built='true'
