!<mkRTViewData> v1.0.0
BTV/002/CUS .\win_b64\code\productIC\OptimizationInterfacesIC.xml|.\OptimizationInterfaces
CSC/002/DSI .\OptimizationInterfaces\IdentityCard\Objects\win_b64\mkcsc\OptimizationInterfaces.cscdb|.\OptimizationInterfaces
BTV/002/CUS .\win_b64\code\productIC\OptimizationInterfacesIC.script|.\OptimizationInterfaces
RTV/002/DSI .\win_b64\code\productIC\OptimizationInterfacesIC.required|.\OptimizationInterfaces
DAT/002/CUS .\win_b64\code\dictionary\OptimizationInterfaces.iid|.\OptimizationInterfaces\CNext\code\dictionary\OptimizationInterfaces.iid
DAT/002/CUS .\win_b64\code\dictionary\OptimizationInterfaces.dic|.\OptimizationInterfaces\CNext\code\dictionary\OptimizationInterfaces.dic
@type='codeFramework'
@built='true'
