!<mkRTViewData> v1.0.0
CSC/000/DSI .\TopologicalOperators\Parallel.m\Objects\win_b64\mkcsc\Parallel.cscdb|.\TopologicalOperators\Parallel.m
@type='NONE'
@clr='false'
@kind='INCLUDED'
@deliverable='true'
@built='true'
