!<mkRTViewData> v1.0.0
CSC/000/DSI .\CATGSMTopoServices\CATGSMVersionning.m\Objects\win_b64\mkcsc\CATGSMVersionning.cscdb|.\CATGSMTopoServices\CATGSMVersionning.m
@type='NONE'
@clr='false'
@kind='INCLUDED'
@deliverable='true'
@built='true'
