!<mkRTViewData> v1.0.0
CSC/002/DSI .\AECReviewInterfaces\IdentityCard\Objects\win_b64\mkcsc\AECReviewInterfaces.cscdb|.\AECReviewInterfaces
RTV/002/DSI .\win_b64\code\productIC\AECReviewInterfacesIC.required|.\AECReviewInterfaces
BTV/002/CUS .\win_b64\code\productIC\AECReviewInterfacesIC.script|.\AECReviewInterfaces
BTV/002/CUS .\win_b64\code\productIC\AECReviewInterfacesIC.xml|.\AECReviewInterfaces
@type='codeFramework'
@built='true'
