!<mkRTViewData> v1.0.0
CSC/000/DSI .\CATHVDiagramInterfaces\CATHvdProIDL.m\Objects\win_b64\mkcsc\CATHvdProIDL.cscdb|.\CATHVDiagramInterfaces\CATHvdProIDL.m
@type='NONE'
@clr='false'
@kind='INCLUDED'
@deliverable='true'
@built='true'
