!<mkRTViewData> v1.0.0
CSC/000/DSI .\SurfaceMachiningInterfaces\SurfaceMachiningInterfacesUUID.m\Objects\win_b64\mkcsc\SurfaceMachiningInterfacesUUID.cscdb|.\SurfaceMachiningInterfaces\SurfaceMachiningInterfacesUUID.m
BTV/000/CUS .\win_b64\code\lib\SurfaceMachiningInterfacesUUID.lib|.\SurfaceMachiningInterfaces\SurfaceMachiningInterfacesUUID.m
@type='ARCHIVE'
@clr='false'
@kind='NATIVE'
@deliverable='true'
@built='true'
