!<mkRTViewData> v1.0.0
BTV/000/CUS .\win_b64\code\lib\CATPDMReconcileAutoRules.lib|.\CATPDMReconcile\CATPDMReconcileAutoRules.m
RTV/001/CUS .\win_b64\code\bin\CATPDMReconcileAutoRules.dll|.\CATPDMReconcile\CATPDMReconcileAutoRules.m
INT/000/CUS .\win_b64\code\bin\CATPDMReconcileAutoRules.pdb|.\CATPDMReconcile\CATPDMReconcileAutoRules.m
CSC/000/DSI .\CATPDMReconcile\CATPDMReconcileAutoRules.m\Objects\win_b64\mkcsc\CATPDMReconcileAutoRules.cscdb|.\CATPDMReconcile\CATPDMReconcileAutoRules.m
INT/000/CUS .\win_b64\code\lib\CATPDMReconcileAutoRules.exp|.\CATPDMReconcile\CATPDMReconcileAutoRules.m
@type='SHARED_LIBRARY'
@clr='false'
@kind='NATIVE'
@deliverable='true'
@built='true'
