!<mkRTViewData> v1.0.0
BTV/002/CUS .\win_b64\code\productIC\CATSurfacicOpeInterfacesIC.xml|.\CATSurfacicOpeInterfaces
RTV/002/DSI .\win_b64\code\productIC\CATSurfacicOpeInterfacesIC.required|.\CATSurfacicOpeInterfaces
BTV/002/CUS .\win_b64\code\productIC\CATSurfacicOpeInterfacesIC.script|.\CATSurfacicOpeInterfaces
CSC/002/DSI .\CATSurfacicOpeInterfaces\IdentityCard\Objects\win_b64\mkcsc\CATSurfacicOpeInterfaces.cscdb|.\CATSurfacicOpeInterfaces
DAT/002/CUS .\win_b64\code\dictionary\CATSurfacicOpeInterfaces.iid|.\CATSurfacicOpeInterfaces\CNext\code\dictionary\CATSurfacicOpeInterfaces.iid
@type='codeFramework'
@built='true'
