!<mkRTViewData> v1.0.0
RTV/001/DSI .\win_b64\code\bin\JS0MKK.dll|.\System\JS0MKK.m
CSC/000/DSI .\System\JS0MKK.m\Objects\win_b64\mkcsc\JS0MKK.cscdb|.\System\JS0MKK.m
BTV/000/DSI .\win_b64\code\lib\JS0MKK.lib|.\System\JS0MKK.m
INT/000/DSI .\win_b64\code\lib\JS0MKK.exp|.\System\JS0MKK.m
INT/000/DSI .\win_b64\code\bin\JS0MKK.pdb|.\System\JS0MKK.m
@type='SHARED_LIBRARY'
@clr='false'
@kind='NATIVE'
@deliverable='false'
@built='true'
