!<mkRTViewData> v1.0.0
CSC/000/DSI .\MultiProcessing\JS0XXC0.m\Objects\win_b64\mkcsc\JS0XXC0.cscdb|.\MultiProcessing\JS0XXC0.m
@type='NONE'
@clr='false'
@kind='INCLUDED'
@deliverable='true'
@built='true'
