!<mkRTViewData> v1.0.0
INT/000/CUS .\win_b64\code\lib\CATUdfToolCmds.exp|.\CATSurfacicUIResources\CATUdfToolCmds.m
BTV/000/CUS .\win_b64\code\lib\CATUdfToolCmds.lib|.\CATSurfacicUIResources\CATUdfToolCmds.m
RTV/001/CUS .\win_b64\code\bin\CATUdfToolCmds.dll|.\CATSurfacicUIResources\CATUdfToolCmds.m
INT/000/CUS .\win_b64\code\bin\CATUdfToolCmds.pdb|.\CATSurfacicUIResources\CATUdfToolCmds.m
CSC/000/DSI .\CATSurfacicUIResources\CATUdfToolCmds.m\Objects\win_b64\mkcsc\CATUdfToolCmds.cscdb|.\CATSurfacicUIResources\CATUdfToolCmds.m
@type='SHARED_LIBRARY'
@clr='false'
@kind='NATIVE'
@deliverable='true'
@built='true'
