!<mkRTViewData> v1.0.0
CSC/000/DSI .\Tessellation\HLRGeometryCGM.m\Objects\win_b64\mkcsc\HLRGeometryCGM.cscdb|.\Tessellation\HLRGeometryCGM.m
@type='NONE'
@clr='false'
@kind='INCLUDED'
@deliverable='true'
@built='true'
