!<mkRTViewData> v1.0.0
INT/000/CUS .\win_b64\code\bin\CATIACapten.pdb|.\CATIACapten\CATIACapten.m
RTV/001/CUS .\win_b64\code\bin\CATIACapten.dll|.\CATIACapten\CATIACapten.m
INT/000/CUS .\win_b64\code\lib\CATIACapten.exp|.\CATIACapten\CATIACapten.m
BTV/000/CUS .\win_b64\code\lib\CATIACapten.lib|.\CATIACapten\CATIACapten.m
CSC/000/DSI .\CATIACapten\CATIACapten.m\Objects\win_b64\mkcsc\CATIACapten.cscdb|.\CATIACapten\CATIACapten.m
@type='SHARED_LIBRARY'
@clr='false'
@kind='NATIVE'
@deliverable='true'
@built='true'
