!<mkRTViewData> v1.0.0
CSC/000/DSI .\ObjectModelerSDM\CATOmsLink.m\Objects\win_b64\mkcsc\CATOmsLink.cscdb|.\ObjectModelerSDM\CATOmsLink.m
@type='SHARED_LIBRARY'
@clr='false'
@kind='NATIVE'
@deliverable='true'
@built='false'
