!<mkRTViewData> v1.0.0
RTV/001/CUS .\win_b64\code\bin\CATFuzzyPolyOper.dll|.\CATFuzzyOperators\CATFuzzyPolyOper.m
INT/000/CUS .\win_b64\code\bin\CATFuzzyPolyOper.pdb|.\CATFuzzyOperators\CATFuzzyPolyOper.m
INT/000/CUS .\win_b64\code\lib\CATFuzzyPolyOper.exp|.\CATFuzzyOperators\CATFuzzyPolyOper.m
BTV/000/CUS .\win_b64\code\lib\CATFuzzyPolyOper.lib|.\CATFuzzyOperators\CATFuzzyPolyOper.m
CSC/000/DSI .\CATFuzzyOperators\CATFuzzyPolyOper.m\Objects\win_b64\mkcsc\CATFuzzyPolyOper.cscdb|.\CATFuzzyOperators\CATFuzzyPolyOper.m
@type='SHARED_LIBRARY'
@clr='false'
@kind='NATIVE'
@deliverable='true'
@built='true'
