!<mkRTViewData> v1.0.0
CSC/002/DSI .\CurveBasedMathematics\IdentityCard\Objects\win_b64\mkcsc\CurveBasedMathematics.cscdb|.\CurveBasedMathematics
BTV/002/CUS .\win_b64\code\productIC\CurveBasedMathematicsIC.xml|.\CurveBasedMathematics
RTV/002/DSI .\win_b64\code\productIC\CurveBasedMathematicsIC.required|.\CurveBasedMathematics
BTV/002/CUS .\win_b64\code\productIC\CurveBasedMathematicsIC.script|.\CurveBasedMathematics
@type='codeFramework'
@built='true'
