!<mkRTViewData> v1.0.0
CSC/000/DSI .\NewTopologicalObjects\MPROCBoolean.m\Objects\win_b64\mkcsc\MPROCBoolean.cscdb|.\NewTopologicalObjects\MPROCBoolean.m
@type='NONE'
@clr='false'
@kind='INCLUDED'
@deliverable='true'
@built='true'
