!<mkRTViewData> v1.0.0
CSC/000/DSI .\SurfacicGeoOperators\GeoApprox.m\Objects\win_b64\mkcsc\GeoApprox.cscdb|.\SurfacicGeoOperators\GeoApprox.m
@type='NONE'
@clr='false'
@kind='INCLUDED'
@deliverable='true'
@built='true'
