!<mkRTViewData> v1.0.0
INT/000/CUS .\win_b64\code\bin\CATV4ManufacturingBase.pdb|.\CATV4Manufacturing\CATV4ManufacturingBase.m
INT/000/CUS .\win_b64\code\lib\CATV4ManufacturingBase.exp|.\CATV4Manufacturing\CATV4ManufacturingBase.m
BTV/000/CUS .\win_b64\code\lib\CATV4ManufacturingBase.lib|.\CATV4Manufacturing\CATV4ManufacturingBase.m
RTV/001/CUS .\win_b64\code\bin\CATV4ManufacturingBase.dll|.\CATV4Manufacturing\CATV4ManufacturingBase.m
CSC/000/DSI .\CATV4Manufacturing\CATV4ManufacturingBase.m\Objects\win_b64\mkcsc\CATV4ManufacturingBase.cscdb|.\CATV4Manufacturing\CATV4ManufacturingBase.m
@type='SHARED_LIBRARY'
@clr='false'
@kind='NATIVE'
@deliverable='true'
@built='true'
