!<mkRTViewData> v1.0.0
INT/000/CUS .\win_b64\code\bin\UNINSTALLDoc2.pdb|.\Administration\UNINSTALLDoc2.m
CSC/000/DSI .\Administration\UNINSTALLDoc2.m\Objects\win_b64\mkcsc\UNINSTALLDoc2.cscdb|.\Administration\UNINSTALLDoc2.m
RTV/001/CUS .\win_b64\code\bin\UNINSTALLDoc2.exe|.\Administration\UNINSTALLDoc2.m
@type='LOAD_MODULE'
@clr='false'
@kind='NATIVE'
@deliverable='true'
@built='true'
