!<mkRTViewData> v1.0.0
CSC/000/DSI .\CATFlexObjectModeler\CATFlexObjectItf.m\Objects\win_b64\mkcsc\CATFlexObjectItf.cscdb|.\CATFlexObjectModeler\CATFlexObjectItf.m
BTV/000/CUS .\win_b64\code\lib\CATFlexObjectItf.lib|.\CATFlexObjectModeler\CATFlexObjectItf.m
RTV/001/CUS .\win_b64\code\bin\CATFlexObjectItf.dll|.\CATFlexObjectModeler\CATFlexObjectItf.m
INT/000/CUS .\win_b64\code\lib\CATFlexObjectItf.exp|.\CATFlexObjectModeler\CATFlexObjectItf.m
INT/000/CUS .\win_b64\code\bin\CATFlexObjectItf.pdb|.\CATFlexObjectModeler\CATFlexObjectItf.m
@type='SHARED_LIBRARY'
@clr='false'
@kind='NATIVE'
@deliverable='true'
@built='true'
