!<mkRTViewData> v1.0.0
BTV/002/CUS .\win_b64\code\productIC\AUTBedInterfacesIC.script|.\AUTBedInterfaces
RTV/002/DSI .\win_b64\code\productIC\AUTBedInterfacesIC.required|.\AUTBedInterfaces
CSC/002/DSI .\AUTBedInterfaces\IdentityCard\Objects\win_b64\mkcsc\AUTBedInterfaces.cscdb|.\AUTBedInterfaces
BTV/002/CUS .\win_b64\code\productIC\AUTBedInterfacesIC.xml|.\AUTBedInterfaces
@type='codeFramework'
@built='true'
