!<mkRTViewData> v1.0.0
CSC/000/DSI .\DNBGraphEditor\PV0ITFS.m\Objects\win_b64\mkcsc\PV0ITFS.cscdb|.\DNBGraphEditor\PV0ITFS.m
@type='NONE'
@clr='false'
@kind='INCLUDED'
@deliverable='true'
@built='true'
