!<mkRTViewData> v1.0.0
RTV/001/CUS .\win_b64\code\bin\CATPCBInterfaces.dll|.\PCBoardBase\CATPCBInterfaces.m
INT/000/CUS .\win_b64\code\lib\CATPCBInterfaces.exp|.\PCBoardBase\CATPCBInterfaces.m
BTV/000/CUS .\win_b64\code\lib\CATPCBInterfaces.lib|.\PCBoardBase\CATPCBInterfaces.m
CSC/000/DSI .\PCBoardBase\CATPCBInterfaces.m\Objects\win_b64\mkcsc\CATPCBInterfaces.cscdb|.\PCBoardBase\CATPCBInterfaces.m
INT/000/CUS .\win_b64\code\bin\CATPCBInterfaces.pdb|.\PCBoardBase\CATPCBInterfaces.m
@type='SHARED_LIBRARY'
@clr='false'
@kind='NATIVE'
@deliverable='true'
@built='true'
