!<mkRTViewData> v1.0.0
RTV/001/CUS .\win_b64\code\bin\CATCldResOperators.dll|.\CATCloudEditorResources\CATCldResOperators.m
CSC/000/DSI .\CATCloudEditorResources\CATCldResOperators.m\Objects\win_b64\mkcsc\CATCldResOperators.cscdb|.\CATCloudEditorResources\CATCldResOperators.m
BTV/000/CUS .\win_b64\code\lib\CATCldResOperators.lib|.\CATCloudEditorResources\CATCldResOperators.m
INT/000/CUS .\win_b64\code\lib\CATCldResOperators.exp|.\CATCloudEditorResources\CATCldResOperators.m
INT/000/CUS .\win_b64\code\bin\CATCldResOperators.pdb|.\CATCloudEditorResources\CATCldResOperators.m
@type='SHARED_LIBRARY'
@clr='false'
@kind='NATIVE'
@deliverable='true'
@built='true'
