!<mkRTViewData> v1.0.0
BTV/000/CUS .\win_b64\code\lib\CATOmxBase.lib|.\ObjectModelerCollection\CATOmxBase.m
INT/000/CUS .\win_b64\code\lib\CATOmxBase.exp|.\ObjectModelerCollection\CATOmxBase.m
INT/000/CUS .\win_b64\code\bin\CATOmxBase.pdb|.\ObjectModelerCollection\CATOmxBase.m
RTV/001/CUS .\win_b64\code\bin\CATOmxBase.dll|.\ObjectModelerCollection\CATOmxBase.m
CSC/000/DSI .\ObjectModelerCollection\CATOmxBase.m\Objects\win_b64\mkcsc\CATOmxBase.cscdb|.\ObjectModelerCollection\CATOmxBase.m
@type='SHARED_LIBRARY'
@clr='false'
@kind='NATIVE'
@deliverable='true'
@built='true'
