!<mkRTViewData> v1.0.0
CSC/000/DSI .\DNBSimActivityInterfaces\DNBSimActivityProIDL.m\Objects\win_b64\mkcsc\DNBSimActivityProIDL.cscdb|.\DNBSimActivityInterfaces\DNBSimActivityProIDL.m
@type='NONE'
@clr='false'
@kind='INCLUDED'
@deliverable='true'
@built='true'
