!<mkRTViewData> v1.0.0
CSC/000/DSI .\SimulationBaseLegacy\G90EXPE.m\Objects\win_b64\mkcsc\G90EXPE.cscdb|.\SimulationBaseLegacy\G90EXPE.m
@type='NONE'
@clr='false'
@kind='INCLUDED'
@deliverable='true'
@built='true'
