!<mkRTViewData> v1.0.0
BTV/000/CUS .\win_b64\code\lib\CATBatchUtils.lib|.\BatchInfrastructure\CATBatchUtils.m
INT/000/CUS .\win_b64\code\lib\CATBatchUtils.exp|.\BatchInfrastructure\CATBatchUtils.m
INT/000/CUS .\win_b64\code\bin\CATBatchUtils.pdb|.\BatchInfrastructure\CATBatchUtils.m
CSC/000/DSI .\BatchInfrastructure\CATBatchUtils.m\Objects\win_b64\mkcsc\CATBatchUtils.cscdb|.\BatchInfrastructure\CATBatchUtils.m
RTV/001/CUS .\win_b64\code\bin\CATBatchUtils.dll|.\BatchInfrastructure\CATBatchUtils.m
@type='SHARED_LIBRARY'
@clr='false'
@kind='NATIVE'
@deliverable='true'
@built='true'
