!<mkRTViewData> v1.0.0
CSC/000/DSI .\ObjectModelerBase\AD0XXBAS.m\Objects\win_b64\mkcsc\AD0XXBAS.cscdb|.\ObjectModelerBase\AD0XXBAS.m
@type='NONE'
@clr='false'
@kind='INCLUDED'
@deliverable='true'
@built='true'
