!<mkRTViewData> v1.0.0
BTV/002/CUS .\win_b64\code\productIC\DMAPSInterfacesIC.script|.\DMAPSInterfaces
RTV/002/DSI .\win_b64\code\productIC\DMAPSInterfacesIC.required|.\DMAPSInterfaces
DAT/002/CUS .\win_b64\code\dictionary\DMAPSInterfaces.iid|.\DMAPSInterfaces\CNext\code\dictionary\DMAPSInterfaces.iid
BTV/002/CUS .\win_b64\code\productIC\DMAPSInterfacesIC.xml|.\DMAPSInterfaces
CSC/002/DSI .\DMAPSInterfaces\IdentityCard\Objects\win_b64\mkcsc\DMAPSInterfaces.cscdb|.\DMAPSInterfaces
@type='codeFramework'
@built='true'
