!<mkRTViewData> v1.0.0
RTV/001/CUS .\win_b64\code\bin\CATObjectModelerItf.dll|.\ObjectModelerInterfaces\CATObjectModelerItf.m
BTV/000/CUS .\win_b64\code\lib\CATObjectModelerItf.lib|.\ObjectModelerInterfaces\CATObjectModelerItf.m
INT/000/CUS .\win_b64\code\bin\CATObjectModelerItf.pdb|.\ObjectModelerInterfaces\CATObjectModelerItf.m
INT/000/CUS .\win_b64\code\lib\CATObjectModelerItf.exp|.\ObjectModelerInterfaces\CATObjectModelerItf.m
CSC/000/DSI .\ObjectModelerInterfaces\CATObjectModelerItf.m\Objects\win_b64\mkcsc\CATObjectModelerItf.cscdb|.\ObjectModelerInterfaces\CATObjectModelerItf.m
@type='SHARED_LIBRARY'
@clr='false'
@kind='NATIVE'
@deliverable='true'
@built='true'
