!<mkRTViewData> v1.0.0
CSC/000/DSI .\CATFunctSystem\CATFsyEditSearch.m\Objects\win_b64\mkcsc\CATFsyEditSearch.cscdb|.\CATFunctSystem\CATFsyEditSearch.m
INT/000/CUS .\win_b64\code\lib\CATFsyEditSearch.exp|.\CATFunctSystem\CATFsyEditSearch.m
INT/000/CUS .\win_b64\code\bin\CATFsyEditSearch.pdb|.\CATFunctSystem\CATFsyEditSearch.m
RTV/001/CUS .\win_b64\code\bin\CATFsyEditSearch.dll|.\CATFunctSystem\CATFsyEditSearch.m
BTV/000/CUS .\win_b64\code\lib\CATFsyEditSearch.lib|.\CATFunctSystem\CATFsyEditSearch.m
@type='SHARED_LIBRARY'
@clr='false'
@kind='NATIVE'
@deliverable='true'
@built='true'
