!<mkRTViewData> v1.0.0
CSC/000/DSI .\V4CGMInteroperability\CATVioM2ToV5.m\Objects\win_b64\mkcsc\CATVioM2ToV5.cscdb|.\V4CGMInteroperability\CATVioM2ToV5.m
RTV/001/CUS .\win_b64\code\bin\CATVioM2ToV5.dll|.\V4CGMInteroperability\CATVioM2ToV5.m
INT/000/CUS .\win_b64\code\lib\CATVioM2ToV5.exp|.\V4CGMInteroperability\CATVioM2ToV5.m
INT/000/CUS .\win_b64\code\bin\CATVioM2ToV5.pdb|.\V4CGMInteroperability\CATVioM2ToV5.m
BTV/000/CUS .\win_b64\code\lib\CATVioM2ToV5.lib|.\V4CGMInteroperability\CATVioM2ToV5.m
@type='SHARED_LIBRARY'
@clr='false'
@kind='NATIVE'
@deliverable='true'
@built='true'
