!<mkRTViewData> v1.0.0
CSC/000/DSI .\DraftingUI\GDPROPEDIT.m\Objects\win_b64\mkcsc\GDPROPEDIT.cscdb|.\DraftingUI\GDPROPEDIT.m
@type='NONE'
@clr='false'
@kind='INCLUDED'
@deliverable='true'
@built='true'
