!<mkRTViewData> v1.0.0
CSC/000/DSI .\GeometricOperators\Y30UIUTI.m\Objects\win_b64\mkcsc\Y30UIUTI.cscdb|.\GeometricOperators\Y30UIUTI.m
@type='NONE'
@clr='false'
@kind='INCLUDED'
@deliverable='true'
@built='true'
