!<mkRTViewData> v1.0.0
CSC/000/DSI .\DNBRobotInterfaces\DNBRobotPubIDL.m\Objects\win_b64\mkcsc\DNBRobotPubIDL.cscdb|.\DNBRobotInterfaces\DNBRobotPubIDL.m
@type='NONE'
@clr='false'
@kind='INCLUDED'
@deliverable='true'
@built='true'
