!<mkRTViewData> v1.0.0
CSC/000/DSI .\CDMAInteroperability\CDMASettings.m\Objects\win_b64\mkcsc\CDMASettings.cscdb|.\CDMAInteroperability\CDMASettings.m
@type='NONE'
@clr='false'
@kind='INCLUDED'
@deliverable='true'
@built='true'
