!<mkRTViewData> v1.0.0
CSC/000/DSI .\DNBSimIOBase\DNBSimIOProclets.m\Objects\win_b64\mkcsc\DNBSimIOProclets.cscdb|.\DNBSimIOBase\DNBSimIOProclets.m
@type='NONE'
@clr='false'
@kind='INCLUDED'
@deliverable='true'
@built='true'
