!<mkRTViewData> v1.0.0
BTV/000/CUS .\win_b64\code\lib\AUTDldItf.lib|.\AUTDldInterfaces\AUTDldItf.m
RTV/001/CUS .\win_b64\code\bin\AUTDldItf.dll|.\AUTDldInterfaces\AUTDldItf.m
INT/000/CUS .\win_b64\code\lib\AUTDldItf.exp|.\AUTDldInterfaces\AUTDldItf.m
CSC/000/DSI .\AUTDldInterfaces\AUTDldItf.m\Objects\win_b64\mkcsc\AUTDldItf.cscdb|.\AUTDldInterfaces\AUTDldItf.m
INT/000/CUS .\win_b64\code\bin\AUTDldItf.pdb|.\AUTDldInterfaces\AUTDldItf.m
@type='SHARED_LIBRARY'
@clr='false'
@kind='NATIVE'
@deliverable='true'
@built='true'
