!<mkRTViewData> v1.0.0
CSC/000/DSI .\CATInstantCollabDesignCAAItf\CATInstantCollabDesignItf.m\Objects\win_b64\mkcsc\CATInstantCollabDesignItf.cscdb|.\CATInstantCollabDesignCAAItf\CATInstantCollabDesignItf.m
INT/000/CUS .\win_b64\code\bin\CATInstantCollabDesignItf.pdb|.\CATInstantCollabDesignCAAItf\CATInstantCollabDesignItf.m
BTV/000/CUS .\win_b64\code\lib\CATInstantCollabDesignItf.lib|.\CATInstantCollabDesignCAAItf\CATInstantCollabDesignItf.m
RTV/001/CUS .\win_b64\code\bin\CATInstantCollabDesignItf.dll|.\CATInstantCollabDesignCAAItf\CATInstantCollabDesignItf.m
INT/000/CUS .\win_b64\code\lib\CATInstantCollabDesignItf.exp|.\CATInstantCollabDesignCAAItf\CATInstantCollabDesignItf.m
@type='SHARED_LIBRARY'
@clr='false'
@kind='NATIVE'
@deliverable='true'
@built='true'
