!<mkRTViewData> v1.0.0
CSC/000/DSI .\TopologicalOperatorsLight\AdvTopoSketchLight.m\Objects\win_b64\mkcsc\AdvTopoSketchLight.cscdb|.\TopologicalOperatorsLight\AdvTopoSketchLight.m
@type='NONE'
@clr='false'
@kind='INCLUDED'
@deliverable='true'
@built='true'
