!<mkRTViewData> v1.0.0
BTV/002/CUS .\win_b64\code\productIC\DNBFastenerInterfacesIC.xml|.\DNBFastenerInterfaces
BTV/002/CUS .\win_b64\code\productIC\DNBFastenerInterfacesIC.script|.\DNBFastenerInterfaces
DAT/002/CUS .\win_b64\code\dictionary\DNBFastenerInterfaces.iid|.\DNBFastenerInterfaces\CNext\code\dictionary\DNBFastenerInterfaces.iid
CSC/002/DSI .\DNBFastenerInterfaces\IdentityCard\Objects\win_b64\mkcsc\DNBFastenerInterfaces.cscdb|.\DNBFastenerInterfaces
RTV/002/DSI .\win_b64\code\productIC\DNBFastenerInterfacesIC.required|.\DNBFastenerInterfaces
@type='codeFramework'
@built='true'
