!<mkRTViewData> v1.0.0
CSC/002/DSI .\DNBDeviceModel\IdentityCard\Objects\win_b64\mkcsc\DNBDeviceModel.cscdb|.\DNBDeviceModel
BTV/002/CUS .\win_b64\code\productIC\DNBDeviceModelIC.xml|.\DNBDeviceModel
BTV/002/CUS .\win_b64\code\productIC\DNBDeviceModelIC.script|.\DNBDeviceModel
DAT/002/CUS .\win_b64\code\dictionary\DNBDeviceModel.dic|.\DNBDeviceModel\CNext\code\dictionary\DNBDeviceModel.dic
RTV/002/DSI .\win_b64\code\productIC\DNBDeviceModelIC.required|.\DNBDeviceModel
@type='codeFramework'
@built='true'
