!<mkRTViewData> v1.0.0
RTV/002/DSI .\win_b64\code\productIC\CATGSMTopoServicesIC.required|.\CATGSMTopoServices
CSC/002/DSI .\CATGSMTopoServices\IdentityCard\Objects\win_b64\mkcsc\CATGSMTopoServices.cscdb|.\CATGSMTopoServices
BTV/002/CUS .\win_b64\code\productIC\CATGSMTopoServicesIC.xml|.\CATGSMTopoServices
BTV/002/CUS .\win_b64\code\productIC\CATGSMTopoServicesIC.script|.\CATGSMTopoServices
@type='codeFramework'
@built='true'
