!<mkRTViewData> v1.0.0
BTV/002/CUS .\win_b64\code\productIC\DNBIgpSetupInterfacesIC.script|.\DNBIgpSetupInterfaces
BTV/002/CUS .\win_b64\code\productIC\DNBIgpSetupInterfacesIC.xml|.\DNBIgpSetupInterfaces
DAT/002/CUS .\win_b64\resources\msgcatalog\DNBIgpActivityProperties.CATNls|.\DNBIgpSetupInterfaces\CNext\resources\msgcatalog\DNBIgpActivityProperties.CATNls
RTV/002/DSI .\win_b64\resources\msgcatalog\DbcsTest\DNBIgpActivityProperties.CATNls|.\DNBIgpSetupInterfaces\CNext\resources\msgcatalog\DNBIgpActivityProperties.CATNls
RTV/002/DSI .\win_b64\resources\msgcatalog\NlsTest\DNBIgpActivityProperties.CATNls|.\DNBIgpSetupInterfaces\CNext\resources\msgcatalog\DNBIgpActivityProperties.CATNls
CSC/002/DSI .\DNBIgpSetupInterfaces\IdentityCard\Objects\win_b64\mkcsc\DNBIgpSetupInterfaces.cscdb|.\DNBIgpSetupInterfaces
RTV/002/DSI .\win_b64\code\productIC\DNBIgpSetupInterfacesIC.required|.\DNBIgpSetupInterfaces
DAT/002/CUS .\win_b64\code\dictionary\DNBIgpSetupInterfaces.iid|.\DNBIgpSetupInterfaces\CNext\code\dictionary\DNBIgpSetupInterfaces.iid
@type='codeFramework'
@built='true'
