!<mkRTViewData> v1.0.0
RTV/002/DSI .\win_b64\code\productIC\GeometricObjectsIC.required|.\GeometricObjects
BTV/002/CUS .\win_b64\code\productIC\GeometricObjectsIC.script|.\GeometricObjects
BTV/002/CUS .\win_b64\code\productIC\GeometricObjectsIC.xml|.\GeometricObjects
CSC/002/DSI .\GeometricObjects\IdentityCard\Objects\win_b64\mkcsc\GeometricObjects.cscdb|.\GeometricObjects
@type='codeFramework'
@built='true'
