!<mkRTViewData> v1.0.0
BTV/002/CUS .\win_b64\code\productIC\ObjectSpecsToolsIC.xml|.\ObjectSpecsTools
BTV/002/CUS .\win_b64\code\productIC\ObjectSpecsToolsIC.script|.\ObjectSpecsTools
RTV/002/DSI .\win_b64\code\productIC\ObjectSpecsToolsIC.required|.\ObjectSpecsTools
CSC/002/DSI .\ObjectSpecsTools\IdentityCard\Objects\win_b64\mkcsc\ObjectSpecsTools.cscdb|.\ObjectSpecsTools
@type='codeFramework'
@built='true'
