!<mkRTViewData> v1.0.0
CSC/002/DSI .\DataExchangeBaseRepsItf\IdentityCard\Objects\win_b64\mkcsc\DataExchangeBaseRepsItf.cscdb|.\DataExchangeBaseRepsItf
BTV/002/CUS .\win_b64\code\productIC\DataExchangeBaseRepsItfIC.script|.\DataExchangeBaseRepsItf
RTV/002/DSI .\win_b64\code\productIC\DataExchangeBaseRepsItfIC.required|.\DataExchangeBaseRepsItf
DAT/002/CUS .\win_b64\code\dictionary\DataExchangeBaseRepsItf.iid|.\DataExchangeBaseRepsItf\CNext\code\dictionary\DataExchangeBaseRepsItf.iid
BTV/002/CUS .\win_b64\code\productIC\DataExchangeBaseRepsItfIC.xml|.\DataExchangeBaseRepsItf
@type='codeFramework'
@built='true'
