!<mkRTViewData> v1.0.0
CSC/000/DSI .\DraftingIntUI\IDSTANDARD.m\Objects\win_b64\mkcsc\IDSTANDARD.cscdb|.\DraftingIntUI\IDSTANDARD.m
@type='NONE'
@clr='false'
@kind='INCLUDED'
@deliverable='true'
@built='true'
