!<mkRTViewData> v1.0.0
CSC/000/DSI .\GMModelInterfaces\NewTopologicalObjectsItf.m\Objects\win_b64\mkcsc\NewTopologicalObjectsItf.cscdb|.\GMModelInterfaces\NewTopologicalObjectsItf.m
@type='NONE'
@clr='false'
@kind='INCLUDED'
@deliverable='true'
@built='true'
