!<mkRTViewData> v1.0.0
CSC/000/DSI .\CurveBasedMathematics\DTKMath.m\Objects\win_b64\mkcsc\DTKMath.cscdb|.\CurveBasedMathematics\DTKMath.m
@type='NONE'
@clr='false'
@kind='INCLUDED'
@deliverable='true'
@built='true'
