!<mkRTViewData> v1.0.0
BTV/002/CUS .\win_b64\code\productIC\CATIABaseIAOIC.script|.\CATIABaseIAO
RTV/002/DSI .\win_b64\code\productIC\CATIABaseIAOIC.required|.\CATIABaseIAO
BTV/002/CUS .\win_b64\code\productIC\CATIABaseIAOIC.xml|.\CATIABaseIAO
CSC/002/DSI .\CATIABaseIAO\IdentityCard\Objects\win_b64\mkcsc\CATIABaseIAO.cscdb|.\CATIABaseIAO
@type='codeFramework'
@built='true'
