!<mkRTViewData> v1.0.0
CSC/000/DSI .\CATOBMInterfaces\CATOBMItfCPP.m\Objects\win_b64\mkcsc\CATOBMItfCPP.cscdb|.\CATOBMInterfaces\CATOBMItfCPP.m
@type='NONE'
@clr='false'
@kind='INCLUDED'
@deliverable='true'
@built='true'
