PulseValue.1	509958
PulseValue.2	-577536
PulseValue.3	717970
PulseValue.4	-322218
PulseValue.5	293226
PulseValue.6	-150705
PulseValue.7	1
PulseValue.8	1
PulseValue.9	1
PulseValue.10	1
PulseValue.11	1
PulseValue.12	1
ZeroValue.1	0
ZeroValue.2	144384
ZeroValue.3	0
ZeroValue.4	0
ZeroValue.5	0
ZeroValue.6	0
ZeroValue.7	0
ZeroValue.8	0
ZeroValue.9	0
ZeroValue.10	0
ZeroValue.11	0
ZeroValue.12	0
