!<mkRTViewData> v1.0.0
CSC/000/DSI .\STEPIntegratedResources\STEPIntegratedResourcesUUID.m\Objects\win_b64\mkcsc\STEPIntegratedResourcesUUID.cscdb|.\STEPIntegratedResources\STEPIntegratedResourcesUUID.m
BTV/000/CUS .\win_b64\code\lib\STEPIntegratedResourcesUUID.lib|.\STEPIntegratedResources\STEPIntegratedResourcesUUID.m
@type='ARCHIVE'
@clr='false'
@kind='NATIVE'
@deliverable='true'
@built='true'
