!<mkRTViewData> v1.0.0
CSC/000/DSI .\CATAnalysisBase\CATSAMRules.m\Objects\win_b64\mkcsc\CATSAMRules.cscdb|.\CATAnalysisBase\CATSAMRules.m
@type='NONE'
@clr='false'
@kind='INCLUDED'
@deliverable='true'
@built='true'
