!<mkRTViewData> v1.0.0
CSC/000/DSI .\TopologicalOperators\GenHeal.m\Objects\win_b64\mkcsc\GenHeal.cscdb|.\TopologicalOperators\GenHeal.m
@type='NONE'
@clr='false'
@kind='INCLUDED'
@deliverable='true'
@built='true'
