!<mkRTViewData> v1.0.0
BTV/000/CUS .\win_b64\code\lib\CATSimulationCommand.lib|.\SimulationCommand\CATSimulationCommand.m
CSC/000/DSI .\SimulationCommand\CATSimulationCommand.m\Objects\win_b64\mkcsc\CATSimulationCommand.cscdb|.\SimulationCommand\CATSimulationCommand.m
INT/000/CUS .\win_b64\code\bin\CATSimulationCommand.pdb|.\SimulationCommand\CATSimulationCommand.m
INT/000/CUS .\win_b64\code\lib\CATSimulationCommand.exp|.\SimulationCommand\CATSimulationCommand.m
RTV/001/CUS .\win_b64\code\bin\CATSimulationCommand.dll|.\SimulationCommand\CATSimulationCommand.m
@type='SHARED_LIBRARY'
@clr='false'
@kind='NATIVE'
@deliverable='true'
@built='true'
