!<mkRTViewData> v1.0.0
CSC/000/DSI .\DraftingBaseCommands\CATDbcImportFromFile.m\Objects\win_b64\mkcsc\CATDbcImportFromFile.cscdb|.\DraftingBaseCommands\CATDbcImportFromFile.m
@type='NONE'
@clr='false'
@kind='INCLUDED'
@deliverable='true'
@built='true'
