!<mkRTViewData> v1.0.0
CSC/000/DSI .\HiddenLineRemover\HLRPolyBody.m\Objects\win_b64\mkcsc\HLRPolyBody.cscdb|.\HiddenLineRemover\HLRPolyBody.m
@type='NONE'
@clr='false'
@kind='INCLUDED'
@deliverable='true'
@built='true'
