!<mkRTViewData> v1.0.0
CSC/000/DSI .\System\CATSysDemon.m\Objects\win_b64\mkcsc\CATSysDemon.cscdb|.\System\CATSysDemon.m
INT/000/CUS .\win_b64\code\bin\CATSysDemon.pdb|.\System\CATSysDemon.m
RTV/001/CUS .\win_b64\code\bin\CATSysDemon.exe|.\System\CATSysDemon.m
@type='LOAD_MODULE'
@clr='false'
@kind='NATIVE'
@deliverable='true'
@built='true'
