!<mkRTViewData> v1.0.0
RTV/001/CUS .\win_b64\code\bin\DNBBuild.dll|.\DNBBuild\DNBBuild.m
BTV/000/CUS .\win_b64\code\lib\DNBBuild.lib|.\DNBBuild\DNBBuild.m
INT/000/CUS .\win_b64\code\bin\DNBBuild.pdb|.\DNBBuild\DNBBuild.m
CSC/000/DSI .\DNBBuild\DNBBuild.m\Objects\win_b64\mkcsc\DNBBuild.cscdb|.\DNBBuild\DNBBuild.m
INT/000/CUS .\win_b64\code\lib\DNBBuild.exp|.\DNBBuild\DNBBuild.m
@type='SHARED_LIBRARY'
@clr='false'
@kind='NATIVE'
@deliverable='true'
@built='true'
