!<mkRTViewData> v1.0.0
INT/000/CUS .\win_b64\code\lib\CATGuiPlane.exp|.\GSMUI\CATGuiPlane.m
BTV/000/CUS .\win_b64\code\lib\CATGuiPlane.lib|.\GSMUI\CATGuiPlane.m
CSC/000/DSI .\GSMUI\CATGuiPlane.m\Objects\win_b64\mkcsc\CATGuiPlane.cscdb|.\GSMUI\CATGuiPlane.m
RTV/001/CUS .\win_b64\code\bin\CATGuiPlane.dll|.\GSMUI\CATGuiPlane.m
INT/000/CUS .\win_b64\code\bin\CATGuiPlane.pdb|.\GSMUI\CATGuiPlane.m
@type='SHARED_LIBRARY'
@clr='false'
@kind='NATIVE'
@deliverable='true'
@built='true'
