!<mkRTViewData> v1.0.0
CSC/000/DSI .\DNBIgpSetupModel\DNBIgpWSEnvelopeModel.m\Objects\win_b64\mkcsc\DNBIgpWSEnvelopeModel.cscdb|.\DNBIgpSetupModel\DNBIgpWSEnvelopeModel.m
@type='NONE'
@clr='false'
@kind='INCLUDED'
@deliverable='true'
@built='true'
