!<mkRTViewData> v1.0.0
CSC/000/DSI .\CATIAAECModeler\AECInfrastructure.m\Objects\win_b64\mkcsc\AECInfrastructure.cscdb|.\CATIAAECModeler\AECInfrastructure.m
@type='NONE'
@clr='false'
@kind='INCLUDED'
@deliverable='true'
@built='true'
