!<mkRTViewData> v1.0.0
CSC/000/DSI .\PartDesignFeature\PRTUTILITYBASE.m\Objects\win_b64\mkcsc\PRTUTILITYBASE.cscdb|.\PartDesignFeature\PRTUTILITYBASE.m
@type='NONE'
@clr='false'
@kind='INCLUDED'
@deliverable='true'
@built='true'
