!<mkRTViewData> v1.0.0
CSC/000/DSI .\CATFunctSystem\CATFunctSystem.m\Objects\win_b64\mkcsc\CATFunctSystem.cscdb|.\CATFunctSystem\CATFunctSystem.m
INT/000/CUS .\win_b64\code\bin\CATFunctSystem.pdb|.\CATFunctSystem\CATFunctSystem.m
BTV/000/CUS .\win_b64\code\lib\CATFunctSystem.lib|.\CATFunctSystem\CATFunctSystem.m
RTV/001/CUS .\win_b64\code\bin\CATFunctSystem.dll|.\CATFunctSystem\CATFunctSystem.m
INT/000/CUS .\win_b64\code\lib\CATFunctSystem.exp|.\CATFunctSystem\CATFunctSystem.m
@type='SHARED_LIBRARY'
@clr='false'
@kind='NATIVE'
@deliverable='true'
@built='true'
