!<mkRTViewData> v1.0.0
RTV/001/CUS .\win_b64\code\bin\CATGuiUnfold.dll|.\GSMUI\CATGuiUnfold.m
INT/000/CUS .\win_b64\code\lib\CATGuiUnfold.exp|.\GSMUI\CATGuiUnfold.m
INT/000/CUS .\win_b64\code\bin\CATGuiUnfold.pdb|.\GSMUI\CATGuiUnfold.m
BTV/000/CUS .\win_b64\code\lib\CATGuiUnfold.lib|.\GSMUI\CATGuiUnfold.m
CSC/000/DSI .\GSMUI\CATGuiUnfold.m\Objects\win_b64\mkcsc\CATGuiUnfold.cscdb|.\GSMUI\CATGuiUnfold.m
@type='SHARED_LIBRARY'
@clr='false'
@kind='NATIVE'
@deliverable='true'
@built='true'
