!<mkRTViewData> v1.0.0
CSC/000/DSI .\VisualizationBase\CATVrcExport.m\Objects\win_b64\mkcsc\CATVrcExport.cscdb|.\VisualizationBase\CATVrcExport.m
@type='NONE'
@clr='false'
@kind='INCLUDED'
@deliverable='true'
@built='true'
