!<mkRTViewData> v1.0.0
RTV/001/CUS .\win_b64\code\bin\CATMachinistAlgosServicesItf.dll|.\MachinistAlgosServicesItf\CATMachinistAlgosServicesItf.m
BTV/000/CUS .\win_b64\code\lib\CATMachinistAlgosServicesItf.lib|.\MachinistAlgosServicesItf\CATMachinistAlgosServicesItf.m
INT/000/CUS .\win_b64\code\lib\CATMachinistAlgosServicesItf.exp|.\MachinistAlgosServicesItf\CATMachinistAlgosServicesItf.m
CSC/000/DSI .\MachinistAlgosServicesItf\CATMachinistAlgosServicesItf.m\Objects\win_b64\mkcsc\CATMachinistAlgosServicesItf.cscdb|.\MachinistAlgosServicesItf\CATMachinistAlgosServicesItf.m
INT/000/CUS .\win_b64\code\bin\CATMachinistAlgosServicesItf.pdb|.\MachinistAlgosServicesItf\CATMachinistAlgosServicesItf.m
@type='SHARED_LIBRARY'
@clr='false'
@kind='NATIVE'
@deliverable='true'
@built='true'
