!<mkRTViewData> v1.0.0
CSC/000/DSI .\TopologicalOperators\HybFillet.m\Objects\win_b64\mkcsc\HybFillet.cscdb|.\TopologicalOperators\HybFillet.m
@type='NONE'
@clr='false'
@kind='INCLUDED'
@deliverable='true'
@built='true'
