!<mkRTViewData> v1.0.0
RTV/000/CUS .\win_b64\resources\msgcatalog\Korean\CATSiFiShotReorderCmd.CATNls|G:\CXR27\BSFNLS\FittingSimulation\FittingSimulationRsc.m\src\resources\msgcatalog\Korean\CATSiFiShotReorderCmd.CATNls
RTV/000/DSI .\win_b64\resources\msgcatalog\DbcsTest\CATSiFiShotReorderCmd.CATNls|.\FittingSimulation\FittingSimulationRsc.m\src\resources\msgcatalog\CATSiFiShotReorderCmd.CATNls
RTV/000/CUS .\win_b64\resources\msgcatalog\Italian\CATSiFiShotReorderCmd.CATNls|G:\CXR27\BSFNLS\FittingSimulation\FittingSimulationRsc.m\src\resources\msgcatalog\Italian\CATSiFiShotReorderCmd.CATNls
RTV/000/DSI .\win_b64\resources\msgcatalog\NlsTest\CATSiFiShotReorderCmd.CATNls|.\FittingSimulation\FittingSimulationRsc.m\src\resources\msgcatalog\CATSiFiShotReorderCmd.CATNls
RTV/000/CUS .\win_b64\resources\msgcatalog\French\CATSiFiShotReorderCmd.CATNls|G:\CXR27\BSFNLS\FittingSimulation\FittingSimulationRsc.m\src\resources\msgcatalog\French\CATSiFiShotReorderCmd.CATNls
RTV/000/CUS .\win_b64\resources\msgcatalog\German\CATSiFiShotReorderCmd.CATNls|G:\CXR27\BSFNLS\FittingSimulation\FittingSimulationRsc.m\src\resources\msgcatalog\German\CATSiFiShotReorderCmd.CATNls
RTV/000/CUS .\win_b64\resources\msgcatalog\CATSiFiShotReorderCmd.CATNls|.\FittingSimulation\FittingSimulationRsc.m\src\resources\msgcatalog\CATSiFiShotReorderCmd.CATNls
RTV/000/CUS .\win_b64\resources\msgcatalog\Simplified_Chinese\CATSiFiShotReorderCmd.CATNls|G:\CXR27\BSFNLS\FittingSimulation\FittingSimulationRsc.m\src\resources\msgcatalog\Simplified_Chinese\CATSiFiShotReorderCmd.CATNls
RTV/000/CUS .\win_b64\resources\msgcatalog\Russian\CATSiFiShotReorderCmd.CATNls|G:\CXR27\BSFNLS\FittingSimulation\FittingSimulationRsc.m\src\resources\msgcatalog\Russian\CATSiFiShotReorderCmd.CATNls
RTV/000/CUS .\win_b64\resources\msgcatalog\Japanese\CATSiFiShotReorderCmd.CATNls|G:\CXR27\BSFNLS\FittingSimulation\FittingSimulationRsc.m\src\resources\msgcatalog\Japanese\CATSiFiShotReorderCmd.CATNls
@type='RUNTIME_DATA'
@clr='false'
@kind='DATA'
@deliverable='true'
@built='true'
