!<mkRTViewData> v1.0.0
CSC/000/DSI .\DNBSimulationInterfaces\DNBSimulationInterfaces.m\Objects\win_b64\mkcsc\DNBSimulationInterfaces.cscdb|.\DNBSimulationInterfaces\DNBSimulationInterfaces.m
@type='NONE'
@clr='false'
@kind='INCLUDED'
@deliverable='true'
@built='true'
