!<mkRTViewData> v1.0.0
BTV/000/CUS .\win_b64\code\lib\EPFetchAttributesPS.lib|.\DELE5Interfaces\EPFetchAttributesPS.m
INT/000/CUS .\win_b64\code\bin\EPFetchAttributesPS.pdb|.\DELE5Interfaces\EPFetchAttributesPS.m
RTV/001/CUS .\win_b64\code\bin\EPFetchAttributesPS.dll|.\DELE5Interfaces\EPFetchAttributesPS.m
CSC/000/DSI .\DELE5Interfaces\EPFetchAttributesPS.m\Objects\win_b64\mkcsc\EPFetchAttributesPS.cscdb|.\DELE5Interfaces\EPFetchAttributesPS.m
INT/000/CUS .\win_b64\code\lib\EPFetchAttributesPS.exp|.\DELE5Interfaces\EPFetchAttributesPS.m
@type='SHARED_LIBRARY'
@clr='false'
@kind='NATIVE'
@deliverable='true'
@built='true'
