!<mkRTViewData> v1.0.0
INT/000/CUS .\win_b64\code\lib\CATDraftingInfrastructure.exp|.\DraftingInfrastructure\CATDraftingInfrastructure.m
CSC/000/DSI .\DraftingInfrastructure\CATDraftingInfrastructure.m\Objects\win_b64\mkcsc\CATDraftingInfrastructure.cscdb|.\DraftingInfrastructure\CATDraftingInfrastructure.m
INT/000/CUS .\win_b64\code\bin\CATDraftingInfrastructure.pdb|.\DraftingInfrastructure\CATDraftingInfrastructure.m
RTV/001/CUS .\win_b64\code\bin\CATDraftingInfrastructure.dll|.\DraftingInfrastructure\CATDraftingInfrastructure.m
BTV/000/CUS .\win_b64\code\lib\CATDraftingInfrastructure.lib|.\DraftingInfrastructure\CATDraftingInfrastructure.m
@type='SHARED_LIBRARY'
@clr='false'
@kind='NATIVE'
@deliverable='true'
@built='true'
