!<mkRTViewData> v1.0.0
CSC/000/DSI .\ObjectSpecsModeler\AC0SPEXT.m\Objects\win_b64\mkcsc\AC0SPEXT.cscdb|.\ObjectSpecsModeler\AC0SPEXT.m
@type='NONE'
@clr='false'
@kind='INCLUDED'
@deliverable='true'
@built='true'
