!<mkRTViewData> v1.0.0
CSC/000/DSI .\CATIAApplicationFrame\VE0GEDIT.m\Objects\win_b64\mkcsc\VE0GEDIT.cscdb|.\CATIAApplicationFrame\VE0GEDIT.m
@type='NONE'
@clr='false'
@kind='INCLUDED'
@deliverable='true'
@built='true'
