!<mkRTViewData> v1.0.0
CSC/000/DSI .\ObjectSpecsModeler\CATOsmGenesis.m\Objects\win_b64\mkcsc\CATOsmGenesis.cscdb|.\ObjectSpecsModeler\CATOsmGenesis.m
@type='NONE'
@clr='false'
@kind='INCLUDED'
@deliverable='true'
@built='true'
