!<mkRTViewData> v1.0.0
BTV/002/CUS .\win_b64\code\productIC\CATCloudQsrInterfacesIC.xml|.\CATCloudQsrInterfaces
CSC/002/DSI .\CATCloudQsrInterfaces\IdentityCard\Objects\win_b64\mkcsc\CATCloudQsrInterfaces.cscdb|.\CATCloudQsrInterfaces
RTV/002/DSI .\win_b64\code\productIC\CATCloudQsrInterfacesIC.required|.\CATCloudQsrInterfaces
DAT/002/CUS .\win_b64\code\dictionary\CATCloudQsrInterfaces.iid|.\CATCloudQsrInterfaces\CNext\code\dictionary\CATCloudQsrInterfaces.iid
DAT/002/CUS .\win_b64\code\dictionary\CATCloudQsrInterfaces.dic|.\CATCloudQsrInterfaces\CNext\code\dictionary\CATCloudQsrInterfaces.dic
BTV/002/CUS .\win_b64\code\productIC\CATCloudQsrInterfacesIC.script|.\CATCloudQsrInterfaces
@type='codeFramework'
@built='true'
