!<mkRTViewData> v1.0.0
DAT/002/CUS .\win_b64\resources\graphic\LOOPON.bmp|.\SimulationBaseLegacy\CNext\resources\graphic\LOOPON.bmp
DAT/002/CUS .\win_b64\resources\graphic\GOFWD.bmp|.\SimulationBaseLegacy\CNext\resources\graphic\GOFWD.bmp
DAT/002/CUS .\win_b64\resources\graphic\GOBWD.pm|.\SimulationBaseLegacy\CNext\resources\graphic\GOBWD.pm
RTV/002/DSI .\win_b64\resources\msgcatalog\DbcsTest\CATSiMuJogPanel98Dialog2.CATNls|.\SimulationBaseLegacy\CNext\resources\msgcatalog\CATSiMuJogPanel98Dialog2.CATNls
DAT/002/CUS .\win_b64\resources\graphic\LOOPON.pm|.\SimulationBaseLegacy\CNext\resources\graphic\LOOPON.pm
DAT/002/CUS .\win_b64\resources\graphic\PAUSE.bmp|.\SimulationBaseLegacy\CNext\resources\graphic\PAUSE.bmp
DAT/002/CUS .\win_b64\code\dictionary\SimulationBaseLegacy.dic|.\SimulationBaseLegacy\CNext\code\dictionary\SimulationBaseLegacy.dic
RTV/002/DSI .\win_b64\resources\msgcatalog\DbcsTest\CATSiMuAnimation98Dialog.CATNls|.\SimulationBaseLegacy\CNext\resources\msgcatalog\CATSiMuAnimation98Dialog.CATNls
DAT/002/CUS .\win_b64\resources\graphic\STEPOFF.bmp|.\SimulationBaseLegacy\CNext\resources\graphic\STEPOFF.bmp
DAT/002/CUS .\win_b64\resources\graphic\GOFWD.pm|.\SimulationBaseLegacy\CNext\resources\graphic\GOFWD.pm
BTV/002/CUS .\win_b64\code\productIC\SimulationBaseLegacyIC.xml|.\SimulationBaseLegacy
DAT/002/CUS .\win_b64\resources\msgcatalog\CATSiMuJogPanel98Dialog2.CATNls|.\SimulationBaseLegacy\CNext\resources\msgcatalog\CATSiMuJogPanel98Dialog2.CATNls
DAT/002/CUS .\win_b64\resources\graphic\LOOPBACK.bmp|.\SimulationBaseLegacy\CNext\resources\graphic\LOOPBACK.bmp
RTV/002/DSI .\win_b64\resources\msgcatalog\NlsTest\CATSiMuJogPanel98Dialog2.CATNls|.\SimulationBaseLegacy\CNext\resources\msgcatalog\CATSiMuJogPanel98Dialog2.CATNls
DAT/002/CUS .\win_b64\resources\graphic\STBWD.bmp|.\SimulationBaseLegacy\CNext\resources\graphic\STBWD.bmp
DAT/002/CUS .\win_b64\resources\graphic\STEPOFF.pm|.\SimulationBaseLegacy\CNext\resources\graphic\STEPOFF.pm
DAT/002/CUS .\win_b64\resources\msgcatalog\CATSiMuJogPanel98Dialog.CATNls|.\SimulationBaseLegacy\CNext\resources\msgcatalog\CATSiMuJogPanel98Dialog.CATNls
DAT/002/CUS .\win_b64\resources\graphic\ITPOLON.bmp|.\SimulationBaseLegacy\CNext\resources\graphic\ITPOLON.bmp
DAT/002/CUS .\win_b64\resources\graphic\PAUSE.pm|.\SimulationBaseLegacy\CNext\resources\graphic\PAUSE.pm
DAT/002/CUS .\win_b64\resources\graphic\GOEND.bmp|.\SimulationBaseLegacy\CNext\resources\graphic\GOEND.bmp
DAT/002/CUS .\win_b64\resources\graphic\STEPON.pm|.\SimulationBaseLegacy\CNext\resources\graphic\STEPON.pm
RTV/002/DSI .\win_b64\resources\msgcatalog\NlsTest\CATSiMuJogPanel98Dialog.CATNls|.\SimulationBaseLegacy\CNext\resources\msgcatalog\CATSiMuJogPanel98Dialog.CATNls
DAT/002/CUS .\win_b64\resources\msgcatalog\CATSiMuAnimation98Dialog.CATNls|.\SimulationBaseLegacy\CNext\resources\msgcatalog\CATSiMuAnimation98Dialog.CATNls
RTV/002/DSI .\win_b64\code\productIC\SimulationBaseLegacyIC.required|.\SimulationBaseLegacy
DAT/002/CUS .\win_b64\resources\graphic\STFWD.bmp|.\SimulationBaseLegacy\CNext\resources\graphic\STFWD.bmp
DAT/002/CUS .\win_b64\resources\graphic\GOBEGIN.bmp|.\SimulationBaseLegacy\CNext\resources\graphic\GOBEGIN.bmp
DAT/002/CUS .\win_b64\resources\graphic\STEPON.bmp|.\SimulationBaseLegacy\CNext\resources\graphic\STEPON.bmp
DAT/002/CUS .\win_b64\resources\graphic\LOOPBACK.pm|.\SimulationBaseLegacy\CNext\resources\graphic\LOOPBACK.pm
DAT/002/CUS .\win_b64\resources\graphic\MORE.bmp|.\SimulationBaseLegacy\CNext\resources\graphic\MORE.bmp
DAT/002/CUS .\win_b64\resources\graphic\STBWD.pm|.\SimulationBaseLegacy\CNext\resources\graphic\STBWD.pm
RTV/002/DSI .\win_b64\resources\msgcatalog\DbcsTest\CATSiMuJogPanel98Dialog.CATNls|.\SimulationBaseLegacy\CNext\resources\msgcatalog\CATSiMuJogPanel98Dialog.CATNls
DAT/002/CUS .\win_b64\resources\graphic\GOBEGIN.pm|.\SimulationBaseLegacy\CNext\resources\graphic\GOBEGIN.pm
DAT/002/CUS .\win_b64\resources\graphic\LOOPOFF.bmp|.\SimulationBaseLegacy\CNext\resources\graphic\LOOPOFF.bmp
DAT/002/CUS .\win_b64\resources\graphic\ITPOLON.pm|.\SimulationBaseLegacy\CNext\resources\graphic\ITPOLON.pm
DAT/002/CUS .\win_b64\resources\graphic\STFWD.pm|.\SimulationBaseLegacy\CNext\resources\graphic\STFWD.pm
DAT/002/CUS .\win_b64\resources\graphic\GOEND.pm|.\SimulationBaseLegacy\CNext\resources\graphic\GOEND.pm
DAT/002/CUS .\win_b64\resources\graphic\ITPOLOFF.pm|.\SimulationBaseLegacy\CNext\resources\graphic\ITPOLOFF.pm
DAT/002/CUS .\win_b64\resources\graphic\LOOPOFF.pm|.\SimulationBaseLegacy\CNext\resources\graphic\LOOPOFF.pm
DAT/002/CUS .\win_b64\resources\graphic\ITPOLOFF.bmp|.\SimulationBaseLegacy\CNext\resources\graphic\ITPOLOFF.bmp
RTV/002/DSI .\win_b64\resources\msgcatalog\NlsTest\CATSiMuAnimation98Dialog.CATNls|.\SimulationBaseLegacy\CNext\resources\msgcatalog\CATSiMuAnimation98Dialog.CATNls
CSC/002/DSI .\SimulationBaseLegacy\IdentityCard\Objects\win_b64\mkcsc\SimulationBaseLegacy.cscdb|.\SimulationBaseLegacy
DAT/002/CUS .\win_b64\resources\graphic\MORE.pm|.\SimulationBaseLegacy\CNext\resources\graphic\MORE.pm
DAT/002/CUS .\win_b64\resources\graphic\GOBWD.bmp|.\SimulationBaseLegacy\CNext\resources\graphic\GOBWD.bmp
BTV/002/CUS .\win_b64\code\productIC\SimulationBaseLegacyIC.script|.\SimulationBaseLegacy
@type='codeFramework'
@built='true'
