!<mkRTViewData> v1.0.0
CSC/000/DSI .\DNBIgpSetupCommands\DNBIgpAutoPlace.m\Objects\win_b64\mkcsc\DNBIgpAutoPlace.cscdb|.\DNBIgpSetupCommands\DNBIgpAutoPlace.m
@type='NONE'
@clr='false'
@kind='INCLUDED'
@deliverable='true'
@built='true'
