!<mkRTViewData> v1.0.0
RTV/002/DSI .\win_b64\code\productIC\CATCompartmentInterfacesIC.required|.\CATCompartmentInterfaces
BTV/002/CUS .\win_b64\code\productIC\CATCompartmentInterfacesIC.xml|.\CATCompartmentInterfaces
DAT/002/CUS .\win_b64\code\dictionary\CATCompartmentInterfaces.iid|.\CATCompartmentInterfaces\CNext\code\dictionary\CATCompartmentInterfaces.iid
BTV/002/CUS .\win_b64\code\productIC\CATCompartmentInterfacesIC.script|.\CATCompartmentInterfaces
CSC/002/DSI .\CATCompartmentInterfaces\IdentityCard\Objects\win_b64\mkcsc\CATCompartmentInterfaces.cscdb|.\CATCompartmentInterfaces
@type='codeFramework'
@built='true'
