!<mkRTViewData> v1.0.0
CSC/000/DSI .\DraftingIntCommands\CATDicCenterLine.m\Objects\win_b64\mkcsc\CATDicCenterLine.cscdb|.\DraftingIntCommands\CATDicCenterLine.m
@type='NONE'
@clr='false'
@kind='INCLUDED'
@deliverable='true'
@built='true'
