!<mkRTViewData> v1.0.0
CSC/000/DSI .\CATAnnotationModeler\CATAnnToolBox.m\Objects\win_b64\mkcsc\CATAnnToolBox.cscdb|.\CATAnnotationModeler\CATAnnToolBox.m
@type='NONE'
@clr='false'
@kind='INCLUDED'
@deliverable='true'
@built='true'
