!<mkRTViewData> v1.0.0
CSC/000/DSI .\GeometricOperators\GeometricOpeItf.m\Objects\win_b64\mkcsc\GeometricOpeItf.cscdb|.\GeometricOperators\GeometricOpeItf.m
@type='NONE'
@clr='false'
@kind='INCLUDED'
@deliverable='true'
@built='true'
