!<mkRTViewData> v1.0.0
CSC/000/DSI .\DraftingBaseCommands\CATDbcUtilities.m\Objects\win_b64\mkcsc\CATDbcUtilities.cscdb|.\DraftingBaseCommands\CATDbcUtilities.m
@type='NONE'
@clr='false'
@kind='INCLUDED'
@deliverable='true'
@built='true'
