!<mkRTViewData> v1.0.0
CSC/000/DSI .\Administration\DSLicMgt.m\Objects\win_b64\mkcsc\DSLicMgt.cscdb|.\Administration\DSLicMgt.m
INT/000/CUS .\win_b64\code\bin\DSLicMgt.pdb|.\Administration\DSLicMgt.m
RTV/001/CUS .\win_b64\code\bin\DSLicMgt.exe|.\Administration\DSLicMgt.m
@type='LOAD_MODULE'
@clr='false'
@kind='NATIVE'
@deliverable='true'
@built='true'
