!<mkRTViewData> v1.0.0
CSC/000/DSI .\CORBARuntime\CATOrbxTestOrbixd.m\Objects\win_b64\mkcsc\CATOrbxTestOrbixd.cscdb|.\CORBARuntime\CATOrbxTestOrbixd.m
@type='LOAD_MODULE'
@clr='false'
@kind='NATIVE'
@deliverable='true'
@built='false'
