!<mkRTViewData> v1.0.0
CSC/000/DSI .\DraftingFeature\CATDftFeat.m\Objects\win_b64\mkcsc\CATDftFeat.cscdb|.\DraftingFeature\CATDftFeat.m
@type='NONE'
@clr='false'
@kind='INCLUDED'
@deliverable='true'
@built='true'
