!<mkRTViewData> v1.0.0
CSC/000/DSI .\CATPDMReconcile\CATxPDMcpReconcile.m\Objects\win_b64\mkcsc\CATxPDMcpReconcile.cscdb|.\CATPDMReconcile\CATxPDMcpReconcile.m
BTV/000/CUS .\win_b64\code\lib\CATxPDMcpReconcile.lib|.\CATPDMReconcile\CATxPDMcpReconcile.m
RTV/001/CUS .\win_b64\code\bin\CATxPDMcpReconcile.dll|.\CATPDMReconcile\CATxPDMcpReconcile.m
INT/000/CUS .\win_b64\code\bin\CATxPDMcpReconcile.pdb|.\CATPDMReconcile\CATxPDMcpReconcile.m
INT/000/CUS .\win_b64\code\lib\CATxPDMcpReconcile.exp|.\CATPDMReconcile\CATxPDMcpReconcile.m
@type='SHARED_LIBRARY'
@clr='false'
@kind='NATIVE'
@deliverable='true'
@built='true'
