!<mkRTViewData> v1.0.0
BTV/000/CUS .\win_b64\code\lib\CATGviUtilities.lib|.\GeometryVisualization\CATGviUtilities.m
INT/000/CUS .\win_b64\code\bin\CATGviUtilities.pdb|.\GeometryVisualization\CATGviUtilities.m
RTV/001/CUS .\win_b64\code\bin\CATGviUtilities.dll|.\GeometryVisualization\CATGviUtilities.m
INT/000/CUS .\win_b64\code\lib\CATGviUtilities.exp|.\GeometryVisualization\CATGviUtilities.m
CSC/000/DSI .\GeometryVisualization\CATGviUtilities.m\Objects\win_b64\mkcsc\CATGviUtilities.cscdb|.\GeometryVisualization\CATGviUtilities.m
@type='SHARED_LIBRARY'
@clr='false'
@kind='NATIVE'
@deliverable='true'
@built='true'
