!<mkRTViewData> v1.0.0
BTV/000/CUS .\win_b64\code\lib\CATOmsSchemaUtilities.lib|.\ObjectModelerSDM\CATOmsSchemaUtilities.m
INT/000/CUS .\win_b64\code\lib\CATOmsSchemaUtilities.exp|.\ObjectModelerSDM\CATOmsSchemaUtilities.m
INT/000/CUS .\win_b64\code\bin\CATOmsSchemaUtilities.pdb|.\ObjectModelerSDM\CATOmsSchemaUtilities.m
CSC/000/DSI .\ObjectModelerSDM\CATOmsSchemaUtilities.m\Objects\win_b64\mkcsc\CATOmsSchemaUtilities.cscdb|.\ObjectModelerSDM\CATOmsSchemaUtilities.m
RTV/001/CUS .\win_b64\code\bin\CATOmsSchemaUtilities.dll|.\ObjectModelerSDM\CATOmsSchemaUtilities.m
@type='SHARED_LIBRARY'
@clr='false'
@kind='NATIVE'
@deliverable='true'
@built='true'
