!<mkRTViewData> v1.0.0
CSC/000/DSI .\PartDesignFeature\PRTPRISM.m\Objects\win_b64\mkcsc\PRTPRISM.cscdb|.\PartDesignFeature\PRTPRISM.m
@type='NONE'
@clr='false'
@kind='INCLUDED'
@deliverable='true'
@built='true'
