!<mkRTViewData> v1.0.0
CSC/000/DSI .\DNBDeviceCommands\DNBDeviceDataReadOutMD.m\Objects\win_b64\mkcsc\DNBDeviceDataReadOutMD.cscdb|.\DNBDeviceCommands\DNBDeviceDataReadOutMD.m
@type='NONE'
@clr='false'
@kind='INCLUDED'
@deliverable='true'
@built='true'
