!<mkRTViewData> v1.0.0
BTV/002/CUS .\win_b64\code\productIC\PolyhedralInterfacesIC.xml|.\PolyhedralInterfaces
RTV/002/DSI .\win_b64\code\productIC\PolyhedralInterfacesIC.required|.\PolyhedralInterfaces
BTV/002/CUS .\win_b64\code\productIC\PolyhedralInterfacesIC.script|.\PolyhedralInterfaces
CSC/002/DSI .\PolyhedralInterfaces\IdentityCard\Objects\win_b64\mkcsc\PolyhedralInterfaces.cscdb|.\PolyhedralInterfaces
@type='codeFramework'
@built='true'
