!<mkRTViewData> v1.0.0
BTV/000/CUS .\win_b64\code\lib\AUTLciImpl.lib|.\AUTCsm\AUTLciImpl.mext
RTV/000/CUS .\win_b64\code\bin\AUTLciImpl.dll|.\AUTCsm\AUTLciImpl.mext
@type='EXT_SHARED_LIBRARY'
@clr='false'
@kind='NATIVE'
@deliverable='true'
@built='true'
