!<mkRTViewData> v1.0.0
CSC/000/DSI .\DNBPSYResourceModel\DNBSensorsModel.m\Objects\win_b64\mkcsc\DNBSensorsModel.cscdb|.\DNBPSYResourceModel\DNBSensorsModel.m
@type='NONE'
@clr='false'
@kind='INCLUDED'
@deliverable='true'
@built='true'
