!<mkRTViewData> v1.0.0
CSC/000/DSI .\CATIAAECModeler\RA0R6PG.m\Objects\win_b64\mkcsc\RA0R6PG.cscdb|.\CATIAAECModeler\RA0R6PG.m
@type='NONE'
@clr='false'
@kind='INCLUDED'
@deliverable='true'
@built='true'
