!<mkRTViewData> v1.0.0
DAT/002/CUS .\win_b64\resources\graphic\icons\normal\SW_Joystick.bmp|.\Visualization\CNext\resources\graphic\icons\normal\SW_Joystick.bmp
RTV/002/DSI .\win_b64\resources\msgcatalog\NlsTest\CATPathViewer.CATNls|.\Visualization\CNext\resources\msgcatalog\CATPathViewer.CATNls
DAT/002/CUS .\win_b64\resources\fonts\PostScript\Coure.inf|.\Visualization\CNext\resources\fonts\PostScript\Coure.inf
DAT/002/CUS .\win_b64\resources\fonts\ExtraFiles\TrueType\Swiss.ttf|.\Visualization\CNext\resources\fonts\ExtraFiles\TrueType\Swiss.ttf
DAT/002/CUS .\win_b64\resources\fonts\PostScript\SwissCL.afm|.\Visualization\CNext\resources\fonts\PostScript\SwissCL.afm
DAT/002/CUS .\win_b64\resources\msgcatalog\CATVisComboColor.CATNls|.\Visualization\CNext\resources\msgcatalog\CATVisComboColor.CATNls
DAT/002/CUS .\win_b64\resources\fonts\Stroke\ROM1.font|.\Visualization\CNext\resources\fonts\Stroke\ROM1.font
DAT/002/CUS .\win_b64\resources\fonts\Stroke\ROM3.font|.\Visualization\CNext\resources\fonts\Stroke\ROM3.font
DAT/002/CUS .\win_b64\resources\fonts\Stroke\ROM2.font|.\Visualization\CNext\resources\fonts\Stroke\ROM2.font
DAT/002/CUS .\win_b64\resources\graphic\textures\EnvMapNeons.bmp|.\Visualization\CNext\resources\graphic\textures\EnvMapNeons.bmp
DAT/002/CUS .\win_b64\resources\fonts\PostScript\Swiss.afm|.\Visualization\CNext\resources\fonts\PostScript\Swiss.afm
DAT/002/CUS .\win_b64\resources\fonts\Stroke\GOTH.font|.\Visualization\CNext\resources\fonts\Stroke\GOTH.font
DAT/002/CUS .\win_b64\resources\graphic\textures\wood0.rgb|.\Visualization\CNext\resources\graphic\textures\wood0.rgb
RTV/002/DSI .\win_b64\resources\msgcatalog\NlsTest\CATVisComboSymbol.CATNls|.\Visualization\CNext\resources\msgcatalog\CATVisComboSymbol.CATNls
DAT/002/CUS .\win_b64\resources\fonts\ExtraFiles\TrueType\MonosBI.ttf|.\Visualization\CNext\resources\fonts\ExtraFiles\TrueType\MonosBI.ttf
DAT/002/CUS .\win_b64\resources\graphic\icons\coloreditor.rgb|.\Visualization\CNext\resources\graphic\icons\coloreditor.rgb
DAT/002/CUS .\win_b64\resources\msgcatalog\CATMouseDaemon.CATRsc|.\Visualization\CNext\resources\msgcatalog\CATMouseDaemon.CATRsc
RTV/002/DSI .\win_b64\resources\msgcatalog\NlsTest\CATMouseDaemon.CATNls|.\Visualization\CNext\resources\msgcatalog\CATMouseDaemon.CATNls
DAT/002/CUS .\win_b64\resources\fonts\PostScript\Monos.pfb|.\Visualization\CNext\resources\fonts\PostScript\Monos.pfb
DAT/002/CUS .\win_b64\resources\graphic\icons\I_Ambient.bmp|.\Visualization\CNext\resources\graphic\icons\I_Ambient.bmp
DAT/002/CUS .\win_b64\resources\fonts\PostScript\Swiss.inf|.\Visualization\CNext\resources\fonts\PostScript\Swiss.inf
DAT/002/CUS .\win_b64\resources\fonts\PostScript\SymbM.inf|.\Visualization\CNext\resources\fonts\PostScript\SymbM.inf
DAT/002/CUS .\win_b64\resources\graphic\icons\cursor1.bmp|.\Visualization\CNext\resources\graphic\icons\cursor1.bmp
DAT/002/CUS .\win_b64\resources\fonts\ExtraFiles\TrueType\MonosB.ttf|.\Visualization\CNext\resources\fonts\ExtraFiles\TrueType\MonosB.ttf
DAT/002/CUS .\win_b64\resources\fonts\PostScript\CoureB.pfm|.\Visualization\CNext\resources\fonts\PostScript\CoureB.pfm
DAT/002/CUS .\win_b64\resources\fonts\PostScript\SymbP.pfm|.\Visualization\CNext\resources\fonts\PostScript\SymbP.pfm
DAT/002/CUS .\win_b64\resources\msgcatalog\CATScalePlaneProperties.CATNls|.\Visualization\CNext\resources\msgcatalog\CATScalePlaneProperties.CATNls
DAT/002/CUS .\win_b64\resources\fonts\PostScript\CoureBI.pfm|.\Visualization\CNext\resources\fonts\PostScript\CoureBI.pfm
RTV/002/DSI .\win_b64\resources\msgcatalog\DbcsTest\CATVisColorPreviewFrame.CATNls|.\Visualization\CNext\resources\msgcatalog\CATVisColorPreviewFrame.CATNls
DAT/002/CUS .\win_b64\resources\fonts\FontLinkingRegistrySimulation|.\Visualization\CNext\resources\fonts\FontLinkingRegistrySimulation
DAT/002/CUS .\win_b64\resources\fonts\PostScript\MonosI.pfb|.\Visualization\CNext\resources\fonts\PostScript\MonosI.pfb
DAT/002/CUS .\win_b64\resources\msgcatalog\CATPositionDriver.CATNls|.\Visualization\CNext\resources\msgcatalog\CATPositionDriver.CATNls
RTV/002/DSI .\win_b64\resources\msgcatalog\DbcsTest\CATMouseDaemon.CATNls|.\Visualization\CNext\resources\msgcatalog\CATMouseDaemon.CATNls
RTV/002/DSI .\win_b64\resources\msgcatalog\DbcsTest\CATVisibilityPanel.CATNls|.\Visualization\CNext\resources\msgcatalog\CATVisibilityPanel.CATNls
DAT/002/CUS .\win_b64\resources\fonts\PostScript\MonosBI.inf|.\Visualization\CNext\resources\fonts\PostScript\MonosBI.inf
RTV/002/DSI .\win_b64\resources\msgcatalog\DbcsTest\CATVisFavoriteColorNameEditor.CATNls|.\Visualization\CNext\resources\msgcatalog\CATVisFavoriteColorNameEditor.CATNls
RTV/002/DSI .\win_b64\resources\msgcatalog\NlsTest\CATColorEditorPanel.CATNls|.\Visualization\CNext\resources\msgcatalog\CATColorEditorPanel.CATNls
RTV/002/DSI .\win_b64\resources\msgcatalog\NlsTest\CATViewer.CATNls|.\Visualization\CNext\resources\msgcatalog\CATViewer.CATNls
RTV/002/DSI .\win_b64\resources\msgcatalog\NlsTest\CATClusterWarningDlg.CATNls|.\Visualization\CNext\resources\msgcatalog\CATClusterWarningDlg.CATNls
CSC/002/DSI .\Visualization\IdentityCard\Objects\win_b64\mkcsc\Visualization.cscdb|.\Visualization
DAT/002/CUS .\win_b64\resources\fonts\PostScript\CoureB.afm|.\Visualization\CNext\resources\fonts\PostScript\CoureB.afm
DAT/002/CUS .\win_b64\resources\fonts\ExtraFiles\TrueType\DutchB.ttf|.\Visualization\CNext\resources\fonts\ExtraFiles\TrueType\DutchB.ttf
DAT/002/CUS .\win_b64\resources\msgcatalog\CATMouseDaemon.CATNls|.\Visualization\CNext\resources\msgcatalog\CATMouseDaemon.CATNls
DAT/002/CUS .\win_b64\resources\fonts\PostScript\Mathe.inf|.\Visualization\CNext\resources\fonts\PostScript\Mathe.inf
RTV/002/DSI .\win_b64\resources\msgcatalog\DbcsTest\CATVisColorComponentFrame.CATNls|.\Visualization\CNext\resources\msgcatalog\CATVisColorComponentFrame.CATNls
RTV/002/DSI .\win_b64\resources\msgcatalog\DbcsTest\CATVisComboDashedAutomatic.CATNls|.\Visualization\CNext\resources\msgcatalog\CATVisComboDashedAutomatic.CATNls
DAT/002/CUS .\win_b64\resources\graphic\icons\I_RVMWarning.bmp|.\Visualization\CNext\resources\graphic\icons\I_RVMWarning.bmp
DAT/002/CUS .\win_b64\resources\fonts\PostScript\Mathe.afm|.\Visualization\CNext\resources\fonts\PostScript\Mathe.afm
DAT/002/CUS .\win_b64\resources\fonts\ExtraFiles\TrueType\CoureB.ttf|.\Visualization\CNext\resources\fonts\ExtraFiles\TrueType\CoureB.ttf
RTV/002/DSI .\win_b64\resources\msgcatalog\DbcsTest\CATVisComboSymbolAutomatic.CATNls|.\Visualization\CNext\resources\msgcatalog\CATVisComboSymbolAutomatic.CATNls
RTV/002/DSI .\win_b64\resources\msgcatalog\NlsTest\CATScalePlaneProperties.CATNls|.\Visualization\CNext\resources\msgcatalog\CATScalePlaneProperties.CATNls
DAT/002/CUS .\win_b64\resources\fonts\PostScript\CoureI.pfm|.\Visualization\CNext\resources\fonts\PostScript\CoureI.pfm
DAT/002/CUS .\win_b64\resources\graphic\icons\I_Specular.bmp|.\Visualization\CNext\resources\graphic\icons\I_Specular.bmp
DAT/002/CUS .\win_b64\resources\fonts\ExtraFiles\TrueType\SwissCLI.ttf|.\Visualization\CNext\resources\fonts\ExtraFiles\TrueType\SwissCLI.ttf
DAT/002/CUS .\win_b64\resources\graphic\textures\park.rgba|.\Visualization\CNext\resources\graphic\textures\park.rgba
DAT/002/CUS .\win_b64\resources\msgcatalog\CATVisibilityPanel.CATNls|.\Visualization\CNext\resources\msgcatalog\CATVisibilityPanel.CATNls
RTV/002/DSI .\win_b64\resources\msgcatalog\NlsTest\CATVisComboWeight.CATNls|.\Visualization\CNext\resources\msgcatalog\CATVisComboWeight.CATNls
DAT/002/CUS .\win_b64\resources\fonts\PostScript\MonosB.pfb|.\Visualization\CNext\resources\fonts\PostScript\MonosB.pfb
DAT/002/CUS .\win_b64\resources\msgcatalog\CATPixelImageErrorCatalog.CATNls|.\Visualization\CNext\resources\msgcatalog\CATPixelImageErrorCatalog.CATNls
DAT/002/CUS .\win_b64\resources\fonts\ExtraFiles\TrueType\Mathe.ttf|.\Visualization\CNext\resources\fonts\ExtraFiles\TrueType\Mathe.ttf
DAT/002/CUS .\win_b64\resources\fonts\PostScript\MonosI.inf|.\Visualization\CNext\resources\fonts\PostScript\MonosI.inf
RTV/002/DSI .\win_b64\resources\msgcatalog\DbcsTest\CATVisColorSelectFrame.CATNls|.\Visualization\CNext\resources\msgcatalog\CATVisColorSelectFrame.CATNls
DAT/002/CUS .\win_b64\resources\fonts\PostScript\CoureI.inf|.\Visualization\CNext\resources\fonts\PostScript\CoureI.inf
DAT/002/CUS .\win_b64\resources\fonts\PostScript\CoureI.afm|.\Visualization\CNext\resources\fonts\PostScript\CoureI.afm
DAT/002/CUS .\win_b64\resources\msgcatalog\CATVisColorSelectFrame.CATNls|.\Visualization\CNext\resources\msgcatalog\CATVisColorSelectFrame.CATNls
DAT/002/CUS .\win_b64\resources\fonts\Stroke\SYM1.font|.\Visualization\CNext\resources\fonts\Stroke\SYM1.font
DAT/002/CUS .\win_b64\resources\fonts\PostScript\CoureBI.inf|.\Visualization\CNext\resources\fonts\PostScript\CoureBI.inf
DAT/002/CUS .\win_b64\resources\fonts\PostScript\SymbC.pfb|.\Visualization\CNext\resources\fonts\PostScript\SymbC.pfb
DAT/002/CUS .\win_b64\resources\msgcatalog\CATColorEditorPanel.CATNls|.\Visualization\CNext\resources\msgcatalog\CATColorEditorPanel.CATNls
RTV/002/DSI .\win_b64\resources\msgcatalog\NlsTest\CATPositionDriver.CATNls|.\Visualization\CNext\resources\msgcatalog\CATPositionDriver.CATNls
DAT/002/CUS .\win_b64\resources\fonts\Stroke\SYM3.font|.\Visualization\CNext\resources\fonts\Stroke\SYM3.font
DAT/002/CUS .\win_b64\resources\fonts\Stroke\SYM2.font|.\Visualization\CNext\resources\fonts\Stroke\SYM2.font
DAT/002/CUS .\win_b64\resources\fonts\Stroke\SYM4.font|.\Visualization\CNext\resources\fonts\Stroke\SYM4.font
DAT/002/CUS .\win_b64\resources\fonts\PostScript\SwissBI.pfm|.\Visualization\CNext\resources\fonts\PostScript\SwissBI.pfm
DAT/002/CUS .\win_b64\resources\fonts\TrueType\SwissCL.ttf|.\Visualization\CNext\resources\fonts\TrueType\SwissCL.ttf
RTV/002/DSI .\win_b64\resources\msgcatalog\DbcsTest\CATDmuStream.CATNls|.\Visualization\CNext\resources\msgcatalog\CATDmuStream.CATNls
DAT/002/CUS .\win_b64\resources\graphic\icons\AddToFavorites.bmp|.\Visualization\CNext\resources\graphic\icons\AddToFavorites.bmp
DAT/002/CUS .\win_b64\resources\fonts\PostScript\SymbM.pfb|.\Visualization\CNext\resources\fonts\PostScript\SymbM.pfb
DAT/002/CUS .\win_b64\resources\msgcatalog\CATVisComboSymbol.CATNls|.\Visualization\CNext\resources\msgcatalog\CATVisComboSymbol.CATNls
DAT/002/CUS .\win_b64\resources\fonts\PostScript\MonosBI.afm|.\Visualization\CNext\resources\fonts\PostScript\MonosBI.afm
DAT/002/CUS .\win_b64\resources\graphic\icons\I_RVMEmpty.bmp|.\Visualization\CNext\resources\graphic\icons\I_RVMEmpty.bmp
RTV/002/DSI .\win_b64\resources\msgcatalog\NlsTest\CATEventChoicePanel.CATNls|.\Visualization\CNext\resources\msgcatalog\CATEventChoicePanel.CATNls
RTV/002/DSI .\win_b64\resources\msgcatalog\DbcsTest\CATRepViewModePanel.CATNls|.\Visualization\CNext\resources\msgcatalog\CATRepViewModePanel.CATNls
RTV/002/DSI .\win_b64\resources\msgcatalog\DbcsTest\CATMarshallable.CATNls|.\Visualization\CNext\resources\msgcatalog\CATMarshallable.CATNls
DAT/002/CUS .\win_b64\resources\fonts\TrueType\DutchBI.ttf|.\Visualization\CNext\resources\fonts\TrueType\DutchBI.ttf
DAT/002/CUS .\win_b64\resources\fonts\PostScript\MonosB.afm|.\Visualization\CNext\resources\fonts\PostScript\MonosB.afm
DAT/002/CUS .\win_b64\resources\fonts\TrueType\SymbP.ttf|.\Visualization\CNext\resources\fonts\TrueType\SymbP.ttf
DAT/002/CUS .\win_b64\resources\fonts\PostScript\MonosB.inf|.\Visualization\CNext\resources\fonts\PostScript\MonosB.inf
DAT/002/CUS .\win_b64\resources\fonts\TrueType\Dutch.ttf|.\Visualization\CNext\resources\fonts\TrueType\Dutch.ttf
DAT/002/CUS .\win_b64\resources\fonts\PostScript\SwiOuB.pfb|.\Visualization\CNext\resources\fonts\PostScript\SwiOuB.pfb
RTV/002/DSI .\win_b64\resources\msgcatalog\DbcsTest\CATNavigation3DViewer.CATNls|.\Visualization\CNext\resources\msgcatalog\CATNavigation3DViewer.CATNls
DAT/002/CUS .\win_b64\resources\fonts\PostScript\CoureB.inf|.\Visualization\CNext\resources\fonts\PostScript\CoureB.inf
DAT/002/CUS .\win_b64\resources\fonts\PostScript\Coure.afm|.\Visualization\CNext\resources\fonts\PostScript\Coure.afm
DAT/002/CUS .\win_b64\resources\msgcatalog\CATClusterWarningDlg.CATNls|.\Visualization\CNext\resources\msgcatalog\CATClusterWarningDlg.CATNls
RTV/002/DSI .\win_b64\resources\msgcatalog\NlsTest\CATVisBasicColorFrame.CATNls|.\Visualization\CNext\resources\msgcatalog\CATVisBasicColorFrame.CATNls
DAT/002/CUS .\win_b64\resources\fonts\PostScript\CoureBI.pfb|.\Visualization\CNext\resources\fonts\PostScript\CoureBI.pfb
DAT/002/CUS .\win_b64\resources\fonts\PostScript\SwissCL.inf|.\Visualization\CNext\resources\fonts\PostScript\SwissCL.inf
DAT/002/CUS .\win_b64\resources\msgcatalog\CATVisComboWeight.CATNls|.\Visualization\CNext\resources\msgcatalog\CATVisComboWeight.CATNls
DAT/002/CUS .\win_b64\resources\msgcatalog\CATLightSourcePanel.CATNls|.\Visualization\CNext\resources\msgcatalog\CATLightSourcePanel.CATNls
DAT/002/CUS .\win_b64\resources\fonts\PostScript\MonosB.pfm|.\Visualization\CNext\resources\fonts\PostScript\MonosB.pfm
DAT/002/CUS .\win_b64\resources\msgcatalog\CATMarshallable.CATNls|.\Visualization\CNext\resources\msgcatalog\CATMarshallable.CATNls
DAT/002/CUS .\win_b64\resources\graphic\icons\small\TabletDaemon.bmp|.\Visualization\CNext\resources\graphic\icons\small\TabletDaemon.bmp
RTV/002/DSI .\win_b64\resources\msgcatalog\DbcsTest\CATVisFavoriteColorFrame.CATNls|.\Visualization\CNext\resources\msgcatalog\CATVisFavoriteColorFrame.CATNls
DAT/002/CUS .\win_b64\resources\fonts\PostScript\SwissB.pfb|.\Visualization\CNext\resources\fonts\PostScript\SwissB.pfb
DAT/002/CUS .\win_b64\resources\fonts\ExtraFiles\TrueType\Dutch.ttf|.\Visualization\CNext\resources\fonts\ExtraFiles\TrueType\Dutch.ttf
DAT/002/CUS .\win_b64\resources\fonts\ExtraFiles\TrueType\SwissI.ttf|.\Visualization\CNext\resources\fonts\ExtraFiles\TrueType\SwissI.ttf
DAT/002/CUS .\win_b64\resources\fonts\PostScript\DutchB.pfb|.\Visualization\CNext\resources\fonts\PostScript\DutchB.pfb
DAT/002/CUS .\win_b64\resources\fonts\PostScript\DutchBI.pfm|.\Visualization\CNext\resources\fonts\PostScript\DutchBI.pfm
DAT/002/CUS .\win_b64\resources\fonts\PostScript\Swiss.pfb|.\Visualization\CNext\resources\fonts\PostScript\Swiss.pfb
DAT/002/CUS .\win_b64\resources\fonts\PostScript\MonosI.afm|.\Visualization\CNext\resources\fonts\PostScript\MonosI.afm
RTV/002/DSI .\win_b64\resources\msgcatalog\DbcsTest\CATViewer.CATNls|.\Visualization\CNext\resources\msgcatalog\CATViewer.CATNls
RTV/002/DSI .\win_b64\resources\msgcatalog\NlsTest\CATVisComboWeightAutomatic.CATNls|.\Visualization\CNext\resources\msgcatalog\CATVisComboWeightAutomatic.CATNls
RTV/002/DSI .\win_b64\resources\msgcatalog\DbcsTest\CATTabletDaemon.CATNls|.\Visualization\CNext\resources\msgcatalog\CATTabletDaemon.CATNls
DAT/002/CUS .\win_b64\resources\fonts\OpenType\DSISO1BI.otf|.\Visualization\CNext\resources\fonts\OpenType\DSISO1BI.otf
DAT/002/CUS .\win_b64\resources\graphic\icons\target_cursor_2.bmp|.\Visualization\CNext\resources\graphic\icons\target_cursor_2.bmp
DAT/002/CUS .\win_b64\resources\graphic\icons\target_cursor_1.bmp|.\Visualization\CNext\resources\graphic\icons\target_cursor_1.bmp
DAT/002/CUS .\win_b64\resources\msgcatalog\CATStereoEditPanel.CATRsc|.\Visualization\CNext\resources\msgcatalog\CATStereoEditPanel.CATRsc
DAT/002/CUS .\win_b64\resources\fonts\TrueType\CoureI.ttf|.\Visualization\CNext\resources\fonts\TrueType\CoureI.ttf
DAT/002/CUS .\win_b64\resources\fonts\TrueType\Monos.ttf|.\Visualization\CNext\resources\fonts\TrueType\Monos.ttf
RTV/002/DSI .\win_b64\resources\msgcatalog\DbcsTest\CATVisComboSymbol.CATNls|.\Visualization\CNext\resources\msgcatalog\CATVisComboSymbol.CATNls
DAT/002/CUS .\win_b64\resources\fonts\PostScript\DutchB.inf|.\Visualization\CNext\resources\fonts\PostScript\DutchB.inf
BTV/002/CUS .\win_b64\code\productIC\VisualizationIC.xml|.\Visualization
RTV/002/DSI .\win_b64\resources\msgcatalog\DbcsTest\CATVisComboDashed.CATNls|.\Visualization\CNext\resources\msgcatalog\CATVisComboDashed.CATNls
DAT/002/CUS .\win_b64\resources\fonts\PostScript\MonosI.pfm|.\Visualization\CNext\resources\fonts\PostScript\MonosI.pfm
DAT/002/CUS .\win_b64\resources\fonts\TrueType\CoureB.ttf|.\Visualization\CNext\resources\fonts\TrueType\CoureB.ttf
DAT/002/CUS .\win_b64\resources\fonts\PostScript\DutchBI.pfb|.\Visualization\CNext\resources\fonts\PostScript\DutchBI.pfb
DAT/002/CUS .\win_b64\resources\msgcatalog\CATMultiThreadCullingBox.CATRsc|.\Visualization\CNext\resources\msgcatalog\CATMultiThreadCullingBox.CATRsc
RTV/002/DSI .\win_b64\resources\msgcatalog\NlsTest\CATStereoEditPanel.CATNls|.\Visualization\CNext\resources\msgcatalog\CATStereoEditPanel.CATNls
DAT/002/CUS .\win_b64\resources\fonts\PostScript\SymbP.afm|.\Visualization\CNext\resources\fonts\PostScript\SymbP.afm
DAT/002/CUS .\win_b64\resources\msgcatalog\CATPerformanceGaugeRep.CATNls|.\Visualization\CNext\resources\msgcatalog\CATPerformanceGaugeRep.CATNls
DAT/002/CUS .\win_b64\resources\fonts\PostScript\SymbP.inf|.\Visualization\CNext\resources\fonts\PostScript\SymbP.inf
DAT/002/CUS .\win_b64\resources\fonts\ExtraFiles\TrueType\DutchBI.ttf|.\Visualization\CNext\resources\fonts\ExtraFiles\TrueType\DutchBI.ttf
RTV/002/DSI .\win_b64\resources\msgcatalog\NlsTest\CATViewpointEditor.CATNls|.\Visualization\CNext\resources\msgcatalog\CATViewpointEditor.CATNls
DAT/002/CUS .\win_b64\resources\fonts\PostScript\SwissCLI.pfb|.\Visualization\CNext\resources\fonts\PostScript\SwissCLI.pfb
DAT/002/CUS .\win_b64\resources\graphic\icons\normal\TabletDaemon.bmp|.\Visualization\CNext\resources\graphic\icons\normal\TabletDaemon.bmp
RTV/002/DSI .\win_b64\resources\msgcatalog\DbcsTest\CATPixelImageErrorCatalog.CATNls|.\Visualization\CNext\resources\msgcatalog\CATPixelImageErrorCatalog.CATNls
DAT/002/CUS .\win_b64\resources\fonts\PostScript\SwissCLI.pfm|.\Visualization\CNext\resources\fonts\PostScript\SwissCLI.pfm
DAT/002/CUS .\win_b64\resources\fonts\PostScript\Mathe.pfm|.\Visualization\CNext\resources\fonts\PostScript\Mathe.pfm
RTV/002/DSI .\win_b64\resources\msgcatalog\DbcsTest\CATPositionDriver.CATNls|.\Visualization\CNext\resources\msgcatalog\CATPositionDriver.CATNls
DAT/002/CUS .\win_b64\resources\fonts\PostScript\Coure.pfm|.\Visualization\CNext\resources\fonts\PostScript\Coure.pfm
DAT/002/CUS .\win_b64\resources\graphic\icons\I_Diffuse.bmp|.\Visualization\CNext\resources\graphic\icons\I_Diffuse.bmp
DAT/002/CUS .\win_b64\resources\fonts\PostScript\DutchI.afm|.\Visualization\CNext\resources\fonts\PostScript\DutchI.afm
RTV/002/DSI .\win_b64\resources\msgcatalog\DbcsTest\CATColorChooserPanel.CATNls|.\Visualization\CNext\resources\msgcatalog\CATColorChooserPanel.CATNls
DAT/002/CUS .\win_b64\resources\fonts\OpenType\DSISO1B.otf|.\Visualization\CNext\resources\fonts\OpenType\DSISO1B.otf
RTV/002/DSI .\win_b64\resources\msgcatalog\NlsTest\CATVisComboDashed.CATNls|.\Visualization\CNext\resources\msgcatalog\CATVisComboDashed.CATNls
DAT/002/CUS .\win_b64\resources\msgcatalog\CATDmuStream.CATNls|.\Visualization\CNext\resources\msgcatalog\CATDmuStream.CATNls
DAT/002/CUS .\win_b64\resources\fonts\Stroke\KOHG.font|.\Visualization\CNext\resources\fonts\Stroke\KOHG.font
DAT/002/CUS .\win_b64\resources\fonts\Stroke\LINE.font|.\Visualization\CNext\resources\fonts\Stroke\LINE.font
DAT/002/CUS .\win_b64\resources\fonts\Stroke\TRCH.font|.\Visualization\CNext\resources\fonts\Stroke\TRCH.font
DAT/002/CUS .\win_b64\resources\fonts\PostScript\SwissI.pfm|.\Visualization\CNext\resources\fonts\PostScript\SwissI.pfm
RTV/002/DSI .\win_b64\resources\msgcatalog\DbcsTest\CATStereoEditPanel.CATNls|.\Visualization\CNext\resources\msgcatalog\CATStereoEditPanel.CATNls
DAT/002/CUS .\win_b64\resources\fonts\PostScript\DutchI.pfm|.\Visualization\CNext\resources\fonts\PostScript\DutchI.pfm
DAT/002/CUS .\win_b64\resources\msgcatalog\CATStereoEditPanel.CATNls|.\Visualization\CNext\resources\msgcatalog\CATStereoEditPanel.CATNls
DAT/002/CUS .\win_b64\resources\fonts\TrueType\SwissB.ttf|.\Visualization\CNext\resources\fonts\TrueType\SwissB.ttf
DAT/002/CUS .\win_b64\resources\fonts\PostScript\SwiOuB.inf|.\Visualization\CNext\resources\fonts\PostScript\SwiOuB.inf
DAT/002/CUS .\win_b64\resources\fonts\TrueType\SwissI.ttf|.\Visualization\CNext\resources\fonts\TrueType\SwissI.ttf
DAT/002/CUS .\win_b64\resources\msgcatalog\CATNavigation3DViewer.CATNls|.\Visualization\CNext\resources\msgcatalog\CATNavigation3DViewer.CATNls
DAT/002/CUS .\win_b64\resources\msgcatalog\CATVisComboWeightAutomatic.CATNls|.\Visualization\CNext\resources\msgcatalog\CATVisComboWeightAutomatic.CATNls
DAT/002/CUS .\win_b64\resources\fonts\PostScript\SwissI.afm|.\Visualization\CNext\resources\fonts\PostScript\SwissI.afm
DAT/002/CUS .\win_b64\resources\fonts\ExtraFiles\TrueType\SymbM.ttf|.\Visualization\CNext\resources\fonts\ExtraFiles\TrueType\SymbM.ttf
DAT/002/CUS .\win_b64\resources\fonts\PostScript\CoureBI.afm|.\Visualization\CNext\resources\fonts\PostScript\CoureBI.afm
RTV/002/DSI .\win_b64\code\productIC\VisualizationIC.required|.\Visualization
DAT/002/CUS .\win_b64\resources\msgcatalog\CATSW_Joystick.CATNls|.\Visualization\CNext\resources\msgcatalog\CATSW_Joystick.CATNls
RTV/002/DSI .\win_b64\resources\msgcatalog\NlsTest\CATMultiThreadCullingBox.CATNls|.\Visualization\CNext\resources\msgcatalog\CATMultiThreadCullingBox.CATNls
DAT/002/CUS .\win_b64\resources\fonts\ExtraFiles\TrueType\DutchI.ttf|.\Visualization\CNext\resources\fonts\ExtraFiles\TrueType\DutchI.ttf
DAT/002/CUS .\win_b64\resources\fonts\TrueType\SymbC.ttf|.\Visualization\CNext\resources\fonts\TrueType\SymbC.ttf
DAT/002/CUS .\win_b64\resources\msgcatalog\CATTabletDaemon.CATNls|.\Visualization\CNext\resources\msgcatalog\CATTabletDaemon.CATNls
RTV/002/DSI .\win_b64\resources\msgcatalog\DbcsTest\CATVisComboWeight.CATNls|.\Visualization\CNext\resources\msgcatalog\CATVisComboWeight.CATNls
DAT/002/CUS .\win_b64\resources\fonts\ExtraFiles\TrueType\SwiOuB.ttf|.\Visualization\CNext\resources\fonts\ExtraFiles\TrueType\SwiOuB.ttf
RTV/002/DSI .\win_b64\resources\msgcatalog\DbcsTest\CATVisBasicColorFrame.CATNls|.\Visualization\CNext\resources\msgcatalog\CATVisBasicColorFrame.CATNls
RTV/002/DSI .\win_b64\resources\msgcatalog\NlsTest\CATDmuStream.CATNls|.\Visualization\CNext\resources\msgcatalog\CATDmuStream.CATNls
DAT/002/CUS .\win_b64\code\dictionary\Visualization.dic|.\Visualization\CNext\code\dictionary\Visualization.dic
DAT/002/CUS .\win_b64\resources\graphic\icons\normal\SpaceDaemon.bmp|.\Visualization\CNext\resources\graphic\icons\normal\SpaceDaemon.bmp
RTV/002/DSI .\win_b64\resources\msgcatalog\NlsTest\CATMarshallable.CATNls|.\Visualization\CNext\resources\msgcatalog\CATMarshallable.CATNls
DAT/002/CUS .\win_b64\resources\graphic\icons\I_RVMBlocked.bmp|.\Visualization\CNext\resources\graphic\icons\I_RVMBlocked.bmp
DAT/002/CUS .\win_b64\resources\fonts\PostScript\SwissB.inf|.\Visualization\CNext\resources\fonts\PostScript\SwissB.inf
DAT/002/CUS .\win_b64\resources\fonts\TrueType\SwiOuB.ttf|.\Visualization\CNext\resources\fonts\TrueType\SwiOuB.ttf
DAT/002/CUS .\win_b64\resources\fonts\PostScript\Dutch.pfb|.\Visualization\CNext\resources\fonts\PostScript\Dutch.pfb
DAT/002/CUS .\win_b64\resources\msgcatalog\CATViewpointEditor.CATNls|.\Visualization\CNext\resources\msgcatalog\CATViewpointEditor.CATNls
DAT/002/CUS .\win_b64\resources\graphic\textures\noise.bw|.\Visualization\CNext\resources\graphic\textures\noise.bw
DAT/002/CUS .\win_b64\resources\fonts\PostScript\DutchBI.inf|.\Visualization\CNext\resources\fonts\PostScript\DutchBI.inf
RTV/002/DSI .\win_b64\resources\msgcatalog\NlsTest\CATVisibilityPanel.CATNls|.\Visualization\CNext\resources\msgcatalog\CATVisibilityPanel.CATNls
DAT/002/CUS .\win_b64\resources\graphic\textures\fresnelRefract.bw|.\Visualization\CNext\resources\graphic\textures\fresnelRefract.bw
RTV/002/DSI .\win_b64\resources\msgcatalog\DbcsTest\CATDrillPanel.CATNls|.\Visualization\CNext\resources\msgcatalog\CATDrillPanel.CATNls
DAT/002/CUS .\win_b64\resources\fonts\ExtraFiles\TrueType\Coure.ttf|.\Visualization\CNext\resources\fonts\ExtraFiles\TrueType\Coure.ttf
DAT/002/CUS .\win_b64\resources\fonts\OpenType\DSISO1.otf|.\Visualization\CNext\resources\fonts\OpenType\DSISO1.otf
DAT/002/CUS .\win_b64\resources\graphic\icons\small\SW_Joystick.bmp|.\Visualization\CNext\resources\graphic\icons\small\SW_Joystick.bmp
DAT/002/CUS .\win_b64\resources\msgcatalog\Visualization.CATRsc|.\Visualization\CNext\resources\msgcatalog\Visualization.CATRsc
DAT/002/CUS .\win_b64\resources\graphic\icons\small\SpaceDaemon.bmp|.\Visualization\CNext\resources\graphic\icons\small\SpaceDaemon.bmp
RTV/002/DSI .\win_b64\resources\msgcatalog\DbcsTest\CATViewModePanel.CATNls|.\Visualization\CNext\resources\msgcatalog\CATViewModePanel.CATNls
DAT/002/CUS .\win_b64\resources\fonts\PostScript\SymbP.pfb|.\Visualization\CNext\resources\fonts\PostScript\SymbP.pfb
DAT/002/CUS .\win_b64\resources\fonts\Stroke\SICH.font|.\Visualization\CNext\resources\fonts\Stroke\SICH.font
DAT/002/CUS .\win_b64\resources\fonts\PostScript\SwissCLI.afm|.\Visualization\CNext\resources\fonts\PostScript\SwissCLI.afm
DAT/002/CUS .\win_b64\resources\msgcatalog\CATEventChoicePanel.CATNls|.\Visualization\CNext\resources\msgcatalog\CATEventChoicePanel.CATNls
DAT/002/CUS .\win_b64\resources\msgcatalog\CATTabletDaemon.CATRsc|.\Visualization\CNext\resources\msgcatalog\CATTabletDaemon.CATRsc
DAT/002/CUS .\win_b64\resources\fonts\ExtraFiles\TrueType\SymbC.ttf|.\Visualization\CNext\resources\fonts\ExtraFiles\TrueType\SymbC.ttf
DAT/002/CUS .\win_b64\resources\fonts\TrueType\Swiss.ttf|.\Visualization\CNext\resources\fonts\TrueType\Swiss.ttf
DAT/002/CUS .\win_b64\resources\msgcatalog\CATVisBasicColorFrame.CATNls|.\Visualization\CNext\resources\msgcatalog\CATVisBasicColorFrame.CATNls
DAT/002/CUS .\win_b64\resources\fonts\PostScript\Monos.pfm|.\Visualization\CNext\resources\fonts\PostScript\Monos.pfm
DAT/002/CUS .\win_b64\resources\fonts\PostScript\MonosBI.pfm|.\Visualization\CNext\resources\fonts\PostScript\MonosBI.pfm
DAT/002/CUS .\win_b64\resources\fonts\PostScript\SwissBI.afm|.\Visualization\CNext\resources\fonts\PostScript\SwissBI.afm
DAT/002/CUS .\win_b64\resources\fonts\ExtraFiles\TrueType\SymbP.ttf|.\Visualization\CNext\resources\fonts\ExtraFiles\TrueType\SymbP.ttf
DAT/002/CUS .\win_b64\resources\msgcatalog\CATSpaceDaemon.CATNls|.\Visualization\CNext\resources\msgcatalog\CATSpaceDaemon.CATNls
DAT/002/CUS .\win_b64\resources\fonts\TrueType\CoureBI.ttf|.\Visualization\CNext\resources\fonts\TrueType\CoureBI.ttf
DAT/002/CUS .\win_b64\resources\fonts\PostScriptRelatedTrueType|.\Visualization\CNext\resources\fonts\PostScriptRelatedTrueType
DAT/002/CUS .\win_b64\resources\msgcatalog\CATColorChooserPanel.CATNls|.\Visualization\CNext\resources\msgcatalog\CATColorChooserPanel.CATNls
DAT/002/CUS .\win_b64\resources\fonts\PostScript\SwissI.pfb|.\Visualization\CNext\resources\fonts\PostScript\SwissI.pfb
RTV/002/DSI .\win_b64\resources\msgcatalog\DbcsTest\CATSpaceDaemon.CATNls|.\Visualization\CNext\resources\msgcatalog\CATSpaceDaemon.CATNls
RTV/002/DSI .\win_b64\resources\msgcatalog\NlsTest\CATNavigation3DViewer.CATNls|.\Visualization\CNext\resources\msgcatalog\CATNavigation3DViewer.CATNls
RTV/002/DSI .\win_b64\resources\msgcatalog\NlsTest\CATPixelImageErrorCatalog.CATNls|.\Visualization\CNext\resources\msgcatalog\CATPixelImageErrorCatalog.CATNls
DAT/002/CUS .\win_b64\resources\graphic\icons\VisModelRepViewModeFilterIcon.bmp|.\Visualization\CNext\resources\graphic\icons\VisModelRepViewModeFilterIcon.bmp
RTV/002/DSI .\win_b64\resources\msgcatalog\NlsTest\CATTabletDaemon.CATNls|.\Visualization\CNext\resources\msgcatalog\CATTabletDaemon.CATNls
DAT/002/CUS .\win_b64\resources\fonts\PostScript\SwissCLI.inf|.\Visualization\CNext\resources\fonts\PostScript\SwissCLI.inf
DAT/002/CUS .\win_b64\resources\msgcatalog\CATRepViewModePanel.CATNls|.\Visualization\CNext\resources\msgcatalog\CATRepViewModePanel.CATNls
DAT/002/CUS .\win_b64\resources\msgcatalog\CATTrianglesCountPanel.CATNls|.\Visualization\CNext\resources\msgcatalog\CATTrianglesCountPanel.CATNls
DAT/002/CUS .\win_b64\resources\graphic\icons\CATDrillFiltered.bmp|.\Visualization\CNext\resources\graphic\icons\CATDrillFiltered.bmp
DAT/002/CUS .\win_b64\resources\msgcatalog\CATRotateVisuPanel.CATNls|.\Visualization\CNext\resources\msgcatalog\CATRotateVisuPanel.CATNls
RTV/002/DSI .\win_b64\resources\msgcatalog\NlsTest\CATVisColorEditorPanel.CATNls|.\Visualization\CNext\resources\msgcatalog\CATVisColorEditorPanel.CATNls
RTV/002/DSI .\win_b64\resources\msgcatalog\NlsTest\CATVisColorSelectFrame.CATNls|.\Visualization\CNext\resources\msgcatalog\CATVisColorSelectFrame.CATNls
DAT/002/CUS .\win_b64\resources\fonts\TrueType\Coure.ttf|.\Visualization\CNext\resources\fonts\TrueType\Coure.ttf
DAT/002/CUS .\win_b64\resources\fonts\PostScript\DutchBI.afm|.\Visualization\CNext\resources\fonts\PostScript\DutchBI.afm
DAT/002/CUS .\win_b64\resources\msgcatalog\CATPathViewer.CATNls|.\Visualization\CNext\resources\msgcatalog\CATPathViewer.CATNls
DAT/002/CUS .\win_b64\resources\fonts\PostScript\SwissCL.pfm|.\Visualization\CNext\resources\fonts\PostScript\SwissCL.pfm
RTV/002/DSI .\win_b64\resources\msgcatalog\NlsTest\CATSW_Joystick.CATNls|.\Visualization\CNext\resources\msgcatalog\CATSW_Joystick.CATNls
RTV/002/DSI .\win_b64\resources\msgcatalog\DbcsTest\CATPathViewer.CATNls|.\Visualization\CNext\resources\msgcatalog\CATPathViewer.CATNls
DAT/002/CUS .\win_b64\resources\fonts\TrueType\DutchB.ttf|.\Visualization\CNext\resources\fonts\TrueType\DutchB.ttf
DAT/002/CUS .\win_b64\resources\fonts\PostScript\SwiOuB.afm|.\Visualization\CNext\resources\fonts\PostScript\SwiOuB.afm
DAT/002/CUS .\win_b64\resources\fonts\PostScript\Dutch.inf|.\Visualization\CNext\resources\fonts\PostScript\Dutch.inf
DAT/002/CUS .\win_b64\resources\fonts\Stroke\KANJ.font|.\Visualization\CNext\resources\fonts\Stroke\KANJ.font
RTV/002/DSI .\win_b64\resources\msgcatalog\NlsTest\CATDrillPanel.CATNls|.\Visualization\CNext\resources\msgcatalog\CATDrillPanel.CATNls
DAT/002/CUS .\win_b64\resources\fonts\TrueType\DutchI.ttf|.\Visualization\CNext\resources\fonts\TrueType\DutchI.ttf
DAT/002/CUS .\win_b64\resources\fonts\ExtraFiles\TrueType\CoureBI.ttf|.\Visualization\CNext\resources\fonts\ExtraFiles\TrueType\CoureBI.ttf
DAT/002/CUS .\win_b64\resources\fonts\ExtraFiles\TrueType\Monos.ttf|.\Visualization\CNext\resources\fonts\ExtraFiles\TrueType\Monos.ttf
DAT/002/CUS .\win_b64\code\dictionary\Visualization.iid|.\Visualization\CNext\code\dictionary\Visualization.iid
DAT/002/CUS .\win_b64\resources\fonts\PostScript\SymbM.pfm|.\Visualization\CNext\resources\fonts\PostScript\SymbM.pfm
RTV/002/DSI .\win_b64\resources\msgcatalog\DbcsTest\CATClusterWarningDlg.CATNls|.\Visualization\CNext\resources\msgcatalog\CATClusterWarningDlg.CATNls
RTV/002/DSI .\win_b64\resources\msgcatalog\DbcsTest\CATViewerTracking.CATNls|.\Visualization\CNext\resources\msgcatalog\CATViewerTracking.CATNls
DAT/002/CUS .\win_b64\resources\fonts\PostScript\SwiOuB.pfm|.\Visualization\CNext\resources\fonts\PostScript\SwiOuB.pfm
RTV/002/DSI .\win_b64\resources\msgcatalog\NlsTest\CATVisFavoriteColorFrame.CATNls|.\Visualization\CNext\resources\msgcatalog\CATVisFavoriteColorFrame.CATNls
DAT/002/CUS .\win_b64\resources\fonts\PostScript\Dutch.afm|.\Visualization\CNext\resources\fonts\PostScript\Dutch.afm
DAT/002/CUS .\win_b64\resources\fonts\PostScript\SymbC.pfm|.\Visualization\CNext\resources\fonts\PostScript\SymbC.pfm
RTV/002/DSI .\win_b64\resources\msgcatalog\NlsTest\CATViewerTracking.CATNls|.\Visualization\CNext\resources\msgcatalog\CATViewerTracking.CATNls
DAT/002/CUS .\win_b64\resources\fonts\ExtraFiles\TrueType\SwissB.ttf|.\Visualization\CNext\resources\fonts\ExtraFiles\TrueType\SwissB.ttf
DAT/002/CUS .\win_b64\resources\fonts\PostScript\Monos.afm|.\Visualization\CNext\resources\fonts\PostScript\Monos.afm
RTV/002/DSI .\win_b64\resources\msgcatalog\NlsTest\CATRepViewModePanel.CATNls|.\Visualization\CNext\resources\msgcatalog\CATRepViewModePanel.CATNls
RTV/002/DSI .\win_b64\resources\msgcatalog\NlsTest\CATVisFavoriteColorNameEditor.CATNls|.\Visualization\CNext\resources\msgcatalog\CATVisFavoriteColorNameEditor.CATNls
DAT/002/CUS .\win_b64\resources\fonts\TrueType\Mathe.ttf|.\Visualization\CNext\resources\fonts\TrueType\Mathe.ttf
DAT/002/CUS .\win_b64\resources\msgcatalog\CATVisFavoriteColorNameEditor.CATNls|.\Visualization\CNext\resources\msgcatalog\CATVisFavoriteColorNameEditor.CATNls
RTV/002/DSI .\win_b64\resources\msgcatalog\DbcsTest\CATTrianglesCountPanel.CATNls|.\Visualization\CNext\resources\msgcatalog\CATTrianglesCountPanel.CATNls
DAT/002/CUS .\win_b64\resources\fonts\PostScript\SwissB.pfm|.\Visualization\CNext\resources\fonts\PostScript\SwissB.pfm
DAT/002/CUS .\win_b64\resources\fonts\PostScript\DutchI.pfb|.\Visualization\CNext\resources\fonts\PostScript\DutchI.pfb
DAT/002/CUS .\win_b64\resources\fonts\TrueType\SwissBI.ttf|.\Visualization\CNext\resources\fonts\TrueType\SwissBI.ttf
RTV/002/DSI .\win_b64\resources\msgcatalog\DbcsTest\CATMultiThreadCullingBox.CATNls|.\Visualization\CNext\resources\msgcatalog\CATMultiThreadCullingBox.CATNls
DAT/002/CUS .\win_b64\resources\fonts\Stroke\SSS1.font|.\Visualization\CNext\resources\fonts\Stroke\SSS1.font
DAT/002/CUS .\win_b64\resources\fonts\PostScript\Coure.pfb|.\Visualization\CNext\resources\fonts\PostScript\Coure.pfb
DAT/002/CUS .\win_b64\resources\fonts\Stroke\SSS3.font|.\Visualization\CNext\resources\fonts\Stroke\SSS3.font
DAT/002/CUS .\win_b64\resources\graphic\textures\highlight.bw|.\Visualization\CNext\resources\graphic\textures\highlight.bw
RTV/002/DSI .\win_b64\resources\msgcatalog\NlsTest\CATTrianglesCountPanel.CATNls|.\Visualization\CNext\resources\msgcatalog\CATTrianglesCountPanel.CATNls
DAT/002/CUS .\win_b64\resources\fonts\Stroke\SSS2.font|.\Visualization\CNext\resources\fonts\Stroke\SSS2.font
DAT/002/CUS .\win_b64\resources\msgcatalog\CATViewer.CATNls|.\Visualization\CNext\resources\msgcatalog\CATViewer.CATNls
DAT/002/CUS .\win_b64\resources\fonts\Stroke\SSS4.font|.\Visualization\CNext\resources\fonts\Stroke\SSS4.font
RTV/002/DSI .\win_b64\resources\msgcatalog\DbcsTest\CATScalePlaneProperties.CATNls|.\Visualization\CNext\resources\msgcatalog\CATScalePlaneProperties.CATNls
DAT/002/CUS .\win_b64\resources\fonts\PostScript\SwissB.afm|.\Visualization\CNext\resources\fonts\PostScript\SwissB.afm
RTV/002/DSI .\win_b64\resources\msgcatalog\NlsTest\CATVisComboSymbolAutomatic.CATNls|.\Visualization\CNext\resources\msgcatalog\CATVisComboSymbolAutomatic.CATNls
DAT/002/CUS .\win_b64\resources\msgcatalog\CATViewModePanel.CATNls|.\Visualization\CNext\resources\msgcatalog\CATViewModePanel.CATNls
DAT/002/CUS .\win_b64\resources\fonts\PostScript\DutchI.inf|.\Visualization\CNext\resources\fonts\PostScript\DutchI.inf
DAT/002/CUS .\win_b64\resources\msgcatalog\CATSW_Joystick.CATRsc|.\Visualization\CNext\resources\msgcatalog\CATSW_Joystick.CATRsc
DAT/002/CUS .\win_b64\resources\fonts\PostScript\Swiss.pfm|.\Visualization\CNext\resources\fonts\PostScript\Swiss.pfm
DAT/002/CUS .\win_b64\resources\msgcatalog\CATDrillPanel.CATNls|.\Visualization\CNext\resources\msgcatalog\CATDrillPanel.CATNls
DAT/002/CUS .\win_b64\resources\fonts\OpenType\DSISO1I.otf|.\Visualization\CNext\resources\fonts\OpenType\DSISO1I.otf
DAT/002/CUS .\win_b64\resources\msgcatalog\CATVisColorEditorPanel.CATNls|.\Visualization\CNext\resources\msgcatalog\CATVisColorEditorPanel.CATNls
RTV/002/DSI .\win_b64\resources\msgcatalog\DbcsTest\CATViewpointEditor.CATNls|.\Visualization\CNext\resources\msgcatalog\CATViewpointEditor.CATNls
RTV/002/DSI .\win_b64\resources\msgcatalog\DbcsTest\CATColorEditorPanel.CATNls|.\Visualization\CNext\resources\msgcatalog\CATColorEditorPanel.CATNls
DAT/002/CUS .\win_b64\resources\fonts\TrueType\MonosBI.ttf|.\Visualization\CNext\resources\fonts\TrueType\MonosBI.ttf
RTV/002/DSI .\win_b64\resources\msgcatalog\NlsTest\CATRotateVisuPanel.CATNls|.\Visualization\CNext\resources\msgcatalog\CATRotateVisuPanel.CATNls
DAT/002/CUS .\win_b64\resources\fonts\PostScript\SwissI.inf|.\Visualization\CNext\resources\fonts\PostScript\SwissI.inf
DAT/002/CUS .\win_b64\resources\msgcatalog\CATViewerTracking.CATNls|.\Visualization\CNext\resources\msgcatalog\CATViewerTracking.CATNls
DAT/002/CUS .\win_b64\resources\msgcatalog\CATVisComboDashed.CATNls|.\Visualization\CNext\resources\msgcatalog\CATVisComboDashed.CATNls
DAT/002/CUS .\win_b64\resources\fonts\ExtraFiles\TrueType\MonosI.ttf|.\Visualization\CNext\resources\fonts\ExtraFiles\TrueType\MonosI.ttf
DAT/002/CUS .\win_b64\resources\graphic\textures\cafe.rgb|.\Visualization\CNext\resources\graphic\textures\cafe.rgb
DAT/002/CUS .\win_b64\resources\msgcatalog\CATVisFavoriteColorFrame.CATNls|.\Visualization\CNext\resources\msgcatalog\CATVisFavoriteColorFrame.CATNls
DAT/002/CUS .\win_b64\resources\fonts\V4FontInteroperability|.\Visualization\CNext\resources\fonts\V4FontInteroperability
RTV/002/DSI .\win_b64\resources\msgcatalog\DbcsTest\CATLightSourcePanel.CATNls|.\Visualization\CNext\resources\msgcatalog\CATLightSourcePanel.CATNls
RTV/002/DSI .\win_b64\resources\msgcatalog\DbcsTest\CATVisComboColor.CATNls|.\Visualization\CNext\resources\msgcatalog\CATVisComboColor.CATNls
DAT/002/CUS .\win_b64\resources\fonts\PostScript\DutchB.afm|.\Visualization\CNext\resources\fonts\PostScript\DutchB.afm
RTV/002/DSI .\win_b64\resources\msgcatalog\NlsTest\CATLightSourcePanel.CATNls|.\Visualization\CNext\resources\msgcatalog\CATLightSourcePanel.CATNls
DAT/002/CUS .\win_b64\resources\fonts\ExtraFiles\TrueType\SwissBI.ttf|.\Visualization\CNext\resources\fonts\ExtraFiles\TrueType\SwissBI.ttf
RTV/002/DSI .\win_b64\resources\msgcatalog\NlsTest\CATColorChooserPanel.CATNls|.\Visualization\CNext\resources\msgcatalog\CATColorChooserPanel.CATNls
DAT/002/CUS .\win_b64\resources\fonts\PostScript\Monos.inf|.\Visualization\CNext\resources\fonts\PostScript\Monos.inf
DAT/002/CUS .\win_b64\resources\fonts\PostScript\SwissBI.inf|.\Visualization\CNext\resources\fonts\PostScript\SwissBI.inf
DAT/002/CUS .\win_b64\resources\fonts\ExtraFiles\TrueType\CoureI.ttf|.\Visualization\CNext\resources\fonts\ExtraFiles\TrueType\CoureI.ttf
RTV/002/DSI .\win_b64\resources\msgcatalog\NlsTest\CATVisColorComponentFrame.CATNls|.\Visualization\CNext\resources\msgcatalog\CATVisColorComponentFrame.CATNls
DAT/002/CUS .\win_b64\resources\fonts\PostScript\DutchB.pfm|.\Visualization\CNext\resources\fonts\PostScript\DutchB.pfm
DAT/002/CUS .\win_b64\resources\fonts\PostScript\SwissCL.pfb|.\Visualization\CNext\resources\fonts\PostScript\SwissCL.pfb
DAT/002/CUS .\win_b64\resources\fonts\ExtraFiles\TrueType\SwissCL.ttf|.\Visualization\CNext\resources\fonts\ExtraFiles\TrueType\SwissCL.ttf
RTV/002/DSI .\win_b64\resources\msgcatalog\NlsTest\CATVisComboColor.CATNls|.\Visualization\CNext\resources\msgcatalog\CATVisComboColor.CATNls
RTV/002/DSI .\win_b64\resources\msgcatalog\NlsTest\CATSpaceDaemon.CATNls|.\Visualization\CNext\resources\msgcatalog\CATSpaceDaemon.CATNls
DAT/002/CUS .\win_b64\resources\fonts\PostScript\CoureI.pfb|.\Visualization\CNext\resources\fonts\PostScript\CoureI.pfb
DAT/002/CUS .\win_b64\resources\fonts\TrueType\SwissCLI.ttf|.\Visualization\CNext\resources\fonts\TrueType\SwissCLI.ttf
DAT/002/CUS .\win_b64\resources\msgcatalog\CATVisColorComponentFrame.CATNls|.\Visualization\CNext\resources\msgcatalog\CATVisColorComponentFrame.CATNls
DAT/002/CUS .\win_b64\resources\fonts\TrueType\MonosI.ttf|.\Visualization\CNext\resources\fonts\TrueType\MonosI.ttf
DAT/002/CUS .\win_b64\resources\graphic\icons\I_RVMUpdate.bmp|.\Visualization\CNext\resources\graphic\icons\I_RVMUpdate.bmp
RTV/002/DSI .\win_b64\resources\msgcatalog\DbcsTest\CATVisColorEditorPanel.CATNls|.\Visualization\CNext\resources\msgcatalog\CATVisColorEditorPanel.CATNls
DAT/002/CUS .\win_b64\resources\fonts\PostScript\SwissBI.pfb|.\Visualization\CNext\resources\fonts\PostScript\SwissBI.pfb
DAT/002/CUS .\win_b64\resources\fonts\PostScript\SymbM.afm|.\Visualization\CNext\resources\fonts\PostScript\SymbM.afm
RTV/002/DSI .\win_b64\resources\msgcatalog\NlsTest\CATPerformanceGaugeRep.CATNls|.\Visualization\CNext\resources\msgcatalog\CATPerformanceGaugeRep.CATNls
RTV/002/DSI .\win_b64\resources\msgcatalog\DbcsTest\CATPerformanceGaugeRep.CATNls|.\Visualization\CNext\resources\msgcatalog\CATPerformanceGaugeRep.CATNls
DAT/002/CUS .\win_b64\resources\msgcatalog\CATMultiThreadCullingBox.CATNls|.\Visualization\CNext\resources\msgcatalog\CATMultiThreadCullingBox.CATNls
RTV/002/DSI .\win_b64\resources\msgcatalog\DbcsTest\CATSW_Joystick.CATNls|.\Visualization\CNext\resources\msgcatalog\CATSW_Joystick.CATNls
DAT/002/CUS .\win_b64\resources\graphic\icons\I_RVMOK.bmp|.\Visualization\CNext\resources\graphic\icons\I_RVMOK.bmp
DAT/002/CUS .\win_b64\resources\fonts\TrueType\MonosB.ttf|.\Visualization\CNext\resources\fonts\TrueType\MonosB.ttf
RTV/002/DSI .\win_b64\resources\msgcatalog\NlsTest\CATViewModePanel.CATNls|.\Visualization\CNext\resources\msgcatalog\CATViewModePanel.CATNls
DAT/002/CUS .\win_b64\resources\fonts\PostScript\Dutch.pfm|.\Visualization\CNext\resources\fonts\PostScript\Dutch.pfm
DAT/002/CUS .\win_b64\resources\fonts\PostScript\SymbC.afm|.\Visualization\CNext\resources\fonts\PostScript\SymbC.afm
DAT/002/CUS .\win_b64\resources\msgcatalog\CATVisComboDashedAutomatic.CATNls|.\Visualization\CNext\resources\msgcatalog\CATVisComboDashedAutomatic.CATNls
DAT/002/CUS .\win_b64\resources\msgcatalog\CATVisComboSymbolAutomatic.CATNls|.\Visualization\CNext\resources\msgcatalog\CATVisComboSymbolAutomatic.CATNls
DAT/002/CUS .\win_b64\resources\fonts\TrueType\SymbM.ttf|.\Visualization\CNext\resources\fonts\TrueType\SymbM.ttf
RTV/002/DSI .\win_b64\resources\msgcatalog\NlsTest\CATVisColorPreviewFrame.CATNls|.\Visualization\CNext\resources\msgcatalog\CATVisColorPreviewFrame.CATNls
RTV/002/DSI .\win_b64\resources\msgcatalog\DbcsTest\CATEventChoicePanel.CATNls|.\Visualization\CNext\resources\msgcatalog\CATEventChoicePanel.CATNls
DAT/002/CUS .\win_b64\resources\fonts\PostScript\CoureB.pfb|.\Visualization\CNext\resources\fonts\PostScript\CoureB.pfb
DAT/002/CUS .\win_b64\resources\msgcatalog\CATSpaceDaemon.CATRsc|.\Visualization\CNext\resources\msgcatalog\CATSpaceDaemon.CATRsc
BTV/002/CUS .\win_b64\code\productIC\VisualizationIC.script|.\Visualization
RTV/002/DSI .\win_b64\resources\msgcatalog\DbcsTest\CATVisComboWeightAutomatic.CATNls|.\Visualization\CNext\resources\msgcatalog\CATVisComboWeightAutomatic.CATNls
DAT/002/CUS .\win_b64\resources\fonts\PostScript\SymbC.inf|.\Visualization\CNext\resources\fonts\PostScript\SymbC.inf
DAT/002/CUS .\win_b64\resources\fonts\PostScript\Mathe.pfb|.\Visualization\CNext\resources\fonts\PostScript\Mathe.pfb
RTV/002/DSI .\win_b64\resources\msgcatalog\NlsTest\CATVisComboDashedAutomatic.CATNls|.\Visualization\CNext\resources\msgcatalog\CATVisComboDashedAutomatic.CATNls
RTV/002/DSI .\win_b64\resources\msgcatalog\DbcsTest\CATRotateVisuPanel.CATNls|.\Visualization\CNext\resources\msgcatalog\CATRotateVisuPanel.CATNls
DAT/002/CUS .\win_b64\resources\msgcatalog\CATVisColorPreviewFrame.CATNls|.\Visualization\CNext\resources\msgcatalog\CATVisColorPreviewFrame.CATNls
DAT/002/CUS .\win_b64\resources\fonts\PostScript\MonosBI.pfb|.\Visualization\CNext\resources\fonts\PostScript\MonosBI.pfb
@type='codeFramework'
@built='true'
