!<mkRTViewData> v1.0.0
BTV/002/CUS .\win_b64\code\productIC\CATFLXCableInterfacesIC.script|.\CATFLXCableInterfaces
DAT/002/CUS .\win_b64\code\dictionary\CATFLXCableInterfaces.iid|.\CATFLXCableInterfaces\CNext\code\dictionary\CATFLXCableInterfaces.iid
RTV/002/DSI .\win_b64\code\productIC\CATFLXCableInterfacesIC.required|.\CATFLXCableInterfaces
BTV/002/CUS .\win_b64\code\productIC\CATFLXCableInterfacesIC.xml|.\CATFLXCableInterfaces
CSC/002/DSI .\CATFLXCableInterfaces\IdentityCard\Objects\win_b64\mkcsc\CATFLXCableInterfaces.cscdb|.\CATFLXCableInterfaces
@type='codeFramework'
@built='true'
