!<mkRTViewData> v1.0.0
CSC/000/DSI .\PartDesignFeature\PRTRECPATT.m\Objects\win_b64\mkcsc\PRTRECPATT.cscdb|.\PartDesignFeature\PRTRECPATT.m
@type='NONE'
@clr='false'
@kind='INCLUDED'
@deliverable='true'
@built='true'
