!<mkRTViewData> v1.0.0
DAT/002/CUS .\win_b64\resources\graphic\icons\I_DLNameDown.bmp|.\FileMenu\CNext\resources\graphic\icons\I_DLNameDown.bmp
RTV/002/DSI .\win_b64\resources\msgcatalog\DbcsTest\CATFmuDLNameImpExp.CATNls|.\FileMenu\CNext\resources\msgcatalog\CATFmuDLNameImpExp.CATNls
RTV/002/DSI .\win_b64\resources\msgcatalog\NlsTest\CATFmuDLNameConfigure.CATNls|.\FileMenu\CNext\resources\msgcatalog\CATFmuDLNameConfigure.CATNls
RTV/002/DSI .\win_b64\resources\msgcatalog\NlsTest\CATFmuSessionFilePanel.CATNls|.\FileMenu\CNext\resources\msgcatalog\CATFmuSessionFilePanel.CATNls
DAT/002/CUS .\win_b64\resources\msgcatalog\CATFmuDLNameDialogBox.CATNls|.\FileMenu\CNext\resources\msgcatalog\CATFmuDLNameDialogBox.CATNls
DAT/002/CUS .\win_b64\resources\msgcatalog\CATFmuMessage.CATNls|.\FileMenu\CNext\resources\msgcatalog\CATFmuMessage.CATNls
DAT/002/CUS .\win_b64\resources\msgcatalog\CATFmuDocEnvCheck.CATRsc|.\FileMenu\CNext\resources\msgcatalog\CATFmuDocEnvCheck.CATRsc
RTV/002/DSI .\win_b64\resources\msgcatalog\DbcsTest\CATSaveAllWnd.CATNls|.\FileMenu\CNext\resources\msgcatalog\CATSaveAllWnd.CATNls
RTV/002/DSI .\win_b64\resources\msgcatalog\NlsTest\CATDAWndMessage.CATNls|.\FileMenu\CNext\resources\msgcatalog\CATDAWndMessage.CATNls
DAT/002/CUS .\win_b64\resources\msgcatalog\CATFmuDLNameDLNCombo.CATRsc|.\FileMenu\CNext\resources\msgcatalog\CATFmuDLNameDLNCombo.CATRsc
RTV/002/DSI .\win_b64\resources\msgcatalog\NlsTest\CATDACmdToBeSent.CATNls|.\FileMenu\CNext\resources\msgcatalog\CATDACmdToBeSent.CATNls
DAT/002/CUS .\win_b64\resources\msgcatalog\CATFileSelectionFrame.CATNls|.\FileMenu\CNext\resources\msgcatalog\CATFileSelectionFrame.CATNls
RTV/002/DSI .\win_b64\resources\msgcatalog\NlsTest\CATMngtMultiList.CATNls|.\FileMenu\CNext\resources\msgcatalog\CATMngtMultiList.CATNls
DAT/002/CUS .\win_b64\resources\msgcatalog\CATFmuFolderSaveDialogBox.CATNls|.\FileMenu\CNext\resources\msgcatalog\CATFmuFolderSaveDialogBox.CATNls
RTV/002/DSI .\win_b64\resources\msgcatalog\NlsTest\CATFmuDLNameSearch.CATNls|.\FileMenu\CNext\resources\msgcatalog\CATFmuDLNameSearch.CATNls
DAT/002/CUS .\win_b64\resources\msgcatalog\CATFMNotify.CATNls|.\FileMenu\CNext\resources\msgcatalog\CATFMNotify.CATNls
RTV/002/DSI .\win_b64\resources\msgcatalog\NlsTest\CATFmuNewFromListsCmd.CATNls|.\FileMenu\CNext\resources\msgcatalog\CATFmuNewFromListsCmd.CATNls
DAT/002/CUS .\win_b64\resources\msgcatalog\CATNewFromCommand.CATNls|.\FileMenu\CNext\resources\msgcatalog\CATNewFromCommand.CATNls
DAT/002/CUS .\win_b64\resources\msgcatalog\CATFmuDLNameList.CATRsc|.\FileMenu\CNext\resources\msgcatalog\CATFmuDLNameList.CATRsc
DAT/002/CUS .\win_b64\resources\graphic\icons\I_CATModel.bmp|.\FileMenu\CNext\resources\graphic\icons\I_CATModel.bmp
DAT/002/CUS .\win_b64\resources\graphic\icons\I_DLNameImport.bmp|.\FileMenu\CNext\resources\graphic\icons\I_DLNameImport.bmp
DAT/002/CUS .\win_b64\resources\msgcatalog\CATCCP_PanSpecial.CATNls|.\FileMenu\CNext\resources\msgcatalog\CATCCP_PanSpecial.CATNls
RTV/002/DSI .\win_b64\resources\msgcatalog\NlsTest\CATFMAppFrameMsg.CATNls|.\FileMenu\CNext\resources\msgcatalog\CATFMAppFrameMsg.CATNls
DAT/002/CUS .\win_b64\resources\msgcatalog\CATFmuDLNameDChooser.CATNls|.\FileMenu\CNext\resources\msgcatalog\CATFmuDLNameDChooser.CATNls
DAT/002/CUS .\win_b64\resources\msgcatalog\CATSendToBatch_msg.CATNls|.\FileMenu\CNext\resources\msgcatalog\CATSendToBatch_msg.CATNls
RTV/002/DSI .\win_b64\resources\msgcatalog\NlsTest\CATSaveAllCmd.CATNls|.\FileMenu\CNext\resources\msgcatalog\CATSaveAllCmd.CATNls
DAT/002/CUS .\win_b64\resources\msgcatalog\CATFmuFolderOpenDialogBox.CATNls|.\FileMenu\CNext\resources\msgcatalog\CATFmuFolderOpenDialogBox.CATNls
RTV/002/DSI .\win_b64\resources\msgcatalog\DbcsTest\CATDAWndMessage.CATNls|.\FileMenu\CNext\resources\msgcatalog\CATDAWndMessage.CATNls
RTV/002/DSI .\win_b64\resources\msgcatalog\DbcsTest\NewBox.CATNls|.\FileMenu\CNext\resources\msgcatalog\NewBox.CATNls
DAT/002/CUS .\win_b64\resources\msgcatalog\CATFmuUnloadCmd.CATNls|.\FileMenu\CNext\resources\msgcatalog\CATFmuUnloadCmd.CATNls
DAT/002/CUS .\win_b64\resources\msgcatalog\CATMngtMultiList.CATNls|.\FileMenu\CNext\resources\msgcatalog\CATMngtMultiList.CATNls
DAT/002/CUS .\win_b64\resources\graphic\icons\I_DLNameNew.bmp|.\FileMenu\CNext\resources\graphic\icons\I_DLNameNew.bmp
DAT/002/CUS .\win_b64\resources\graphic\icons\I_DirFrom.bmp|.\FileMenu\CNext\resources\graphic\icons\I_DirFrom.bmp
RTV/002/DSI .\win_b64\resources\msgcatalog\DbcsTest\CATSendToBatch_msg.CATNls|.\FileMenu\CNext\resources\msgcatalog\CATSendToBatch_msg.CATNls
RTV/002/DSI .\win_b64\resources\msgcatalog\NlsTest\CATBoxInfo.CATNls|.\FileMenu\CNext\resources\msgcatalog\CATBoxInfo.CATNls
RTV/002/DSI .\win_b64\resources\msgcatalog\NlsTest\CATFmuDLNameImpExp.CATNls|.\FileMenu\CNext\resources\msgcatalog\CATFmuDLNameImpExp.CATNls
DAT/002/CUS .\win_b64\resources\msgcatalog\CATFmuDLNameToolsFileView.CATNls|.\FileMenu\CNext\resources\msgcatalog\CATFmuDLNameToolsFileView.CATNls
DAT/002/CUS .\win_b64\resources\graphic\icons\I_CATSystem.bmp|.\FileMenu\CNext\resources\graphic\icons\I_CATSystem.bmp
DAT/002/CUS .\win_b64\resources\msgcatalog\BrokenLinksWng.CATNls|.\FileMenu\CNext\resources\msgcatalog\BrokenLinksWng.CATNls
RTV/002/DSI .\win_b64\resources\msgcatalog\NlsTest\CATFmuUnloadCmd.CATNls|.\FileMenu\CNext\resources\msgcatalog\CATFmuUnloadCmd.CATNls
RTV/002/DSI .\win_b64\resources\msgcatalog\DbcsTest\CATFileSelectionFrame.CATNls|.\FileMenu\CNext\resources\msgcatalog\CATFileSelectionFrame.CATNls
RTV/002/DSI .\win_b64\resources\msgcatalog\DbcsTest\CATFmuDLNameDocEnv.CATNls|.\FileMenu\CNext\resources\msgcatalog\CATFmuDLNameDocEnv.CATNls
DAT/002/CUS .\win_b64\resources\msgcatalog\CATFmuDLNameConfigure.CATNls|.\FileMenu\CNext\resources\msgcatalog\CATFmuDLNameConfigure.CATNls
DAT/002/CUS .\win_b64\resources\msgcatalog\CATDADlgProgress.CATNls|.\FileMenu\CNext\resources\msgcatalog\CATDADlgProgress.CATNls
RTV/002/DSI .\win_b64\resources\msgcatalog\DbcsTest\CATFmuNewFrom.CATNls|.\FileMenu\CNext\resources\msgcatalog\CATFmuNewFrom.CATNls
DAT/002/CUS .\win_b64\resources\graphic\icons\I_CATScript.bmp|.\FileMenu\CNext\resources\graphic\icons\I_CATScript.bmp
RTV/002/DSI .\win_b64\resources\msgcatalog\DbcsTest\CATSaveAllCmd.CATNls|.\FileMenu\CNext\resources\msgcatalog\CATSaveAllCmd.CATNls
DAT/002/CUS .\win_b64\resources\msgcatalog\CATFmuDLNameImpExp.CATNls|.\FileMenu\CNext\resources\msgcatalog\CATFmuDLNameImpExp.CATNls
RTV/002/DSI .\win_b64\resources\msgcatalog\DbcsTest\CATMngtMultiList.CATNls|.\FileMenu\CNext\resources\msgcatalog\CATMngtMultiList.CATNls
DAT/002/CUS .\win_b64\resources\graphic\icons\I_DLNameSearch.bmp|.\FileMenu\CNext\resources\graphic\icons\I_DLNameSearch.bmp
RTV/002/DSI .\win_b64\resources\msgcatalog\NlsTest\CATSaveAllWnd.CATNls|.\FileMenu\CNext\resources\msgcatalog\CATSaveAllWnd.CATNls
RTV/002/DSI .\win_b64\resources\msgcatalog\DbcsTest\CATFMAppFrameMsg.CATNls|.\FileMenu\CNext\resources\msgcatalog\CATFMAppFrameMsg.CATNls
RTV/002/DSI .\win_b64\resources\msgcatalog\DbcsTest\CATFmuDLNameNewConfigure.CATNls|.\FileMenu\CNext\resources\msgcatalog\CATFmuDLNameNewConfigure.CATNls
RTV/002/DSI .\win_b64\resources\msgcatalog\DbcsTest\CATFmuDLNameDialogBox.CATNls|.\FileMenu\CNext\resources\msgcatalog\CATFmuDLNameDialogBox.CATNls
RTV/002/DSI .\win_b64\resources\msgcatalog\DbcsTest\CATFmuFolderSaveDialogBox.CATNls|.\FileMenu\CNext\resources\msgcatalog\CATFmuFolderSaveDialogBox.CATNls
RTV/002/DSI .\win_b64\resources\msgcatalog\NlsTest\CATFmuNewFrom.CATNls|.\FileMenu\CNext\resources\msgcatalog\CATFmuNewFrom.CATNls
DAT/002/CUS .\win_b64\resources\msgcatalog\CATSaveAllCmd.CATNls|.\FileMenu\CNext\resources\msgcatalog\CATSaveAllCmd.CATNls
DAT/002/CUS .\win_b64\resources\graphic\icons\I_CATProcess.bmp|.\FileMenu\CNext\resources\graphic\icons\I_CATProcess.bmp
DAT/002/CUS .\win_b64\resources\graphic\icons\I_DirTo.bmp|.\FileMenu\CNext\resources\graphic\icons\I_DirTo.bmp
RTV/002/DSI .\win_b64\resources\msgcatalog\NlsTest\CATFileSelectionFrame.CATNls|.\FileMenu\CNext\resources\msgcatalog\CATFileSelectionFrame.CATNls
RTV/002/DSI .\win_b64\resources\msgcatalog\DbcsTest\CATFmuFolderOpenDialogBox.CATNls|.\FileMenu\CNext\resources\msgcatalog\CATFmuFolderOpenDialogBox.CATNls
DAT/002/CUS .\win_b64\resources\msgcatalog\CATFMSaveLoadError.CATNls|.\FileMenu\CNext\resources\msgcatalog\CATFMSaveLoadError.CATNls
RTV/002/DSI .\win_b64\resources\msgcatalog\DbcsTest\FileMenuCmd.CATNls|.\FileMenu\CNext\resources\msgcatalog\FileMenuCmd.CATNls
RTV/002/DSI .\win_b64\resources\msgcatalog\NlsTest\CATFmuFolderOpenDialogBox.CATNls|.\FileMenu\CNext\resources\msgcatalog\CATFmuFolderOpenDialogBox.CATNls
RTV/002/DSI .\win_b64\resources\msgcatalog\NlsTest\CATDADlgProgress.CATNls|.\FileMenu\CNext\resources\msgcatalog\CATDADlgProgress.CATNls
DAT/002/CUS .\win_b64\resources\msgcatalog\NewBox.CATNls|.\FileMenu\CNext\resources\msgcatalog\NewBox.CATNls
RTV/002/DSI .\win_b64\resources\msgcatalog\DbcsTest\CATFmuNewFromListsCmd.CATNls|.\FileMenu\CNext\resources\msgcatalog\CATFmuNewFromListsCmd.CATNls
DAT/002/CUS .\win_b64\resources\msgcatalog\CATSaveAllWnd.CATNls|.\FileMenu\CNext\resources\msgcatalog\CATSaveAllWnd.CATNls
DAT/002/CUS .\win_b64\resources\msgcatalog\CATFMAppFrameMsg.CATNls|.\FileMenu\CNext\resources\msgcatalog\CATFMAppFrameMsg.CATNls
RTV/002/DSI .\win_b64\resources\msgcatalog\NlsTest\CATSendToBatch_msg.CATNls|.\FileMenu\CNext\resources\msgcatalog\CATSendToBatch_msg.CATNls
RTV/002/DSI .\win_b64\resources\msgcatalog\NlsTest\CATFmuDocEnvEditor.CATNls|.\FileMenu\CNext\resources\msgcatalog\CATFmuDocEnvEditor.CATNls
DAT/002/CUS .\win_b64\resources\msgcatalog\CATFmuDocEnvEditor.CATNls|.\FileMenu\CNext\resources\msgcatalog\CATFmuDocEnvEditor.CATNls
DAT/002/CUS .\win_b64\resources\msgcatalog\CATSaveAllWnd.CATRsc|.\FileMenu\CNext\resources\msgcatalog\CATSaveAllWnd.CATRsc
DAT/002/CUS .\win_b64\resources\msgcatalog\CATFmuNewFrom.CATNls|.\FileMenu\CNext\resources\msgcatalog\CATFmuNewFrom.CATNls
RTV/002/DSI .\win_b64\resources\msgcatalog\NlsTest\CATFMNotify.CATNls|.\FileMenu\CNext\resources\msgcatalog\CATFMNotify.CATNls
RTV/002/DSI .\win_b64\resources\msgcatalog\NlsTest\CATFmuDLNameDocEnv.CATNls|.\FileMenu\CNext\resources\msgcatalog\CATFmuDLNameDocEnv.CATNls
BTV/002/CUS .\win_b64\code\productIC\FileMenuIC.script|.\FileMenu
DAT/002/CUS .\win_b64\resources\msgcatalog\CATFileServices.CATNls|.\FileMenu\CNext\resources\msgcatalog\CATFileServices.CATNls
RTV/002/DSI .\win_b64\resources\msgcatalog\DbcsTest\CATFmuUnloadCmd.CATNls|.\FileMenu\CNext\resources\msgcatalog\CATFmuUnloadCmd.CATNls
DAT/002/CUS .\win_b64\code\dictionary\FileMenu.dic|.\FileMenu\CNext\code\dictionary\FileMenu.dic
DAT/002/CUS .\win_b64\resources\msgcatalog\CATDACmdToBeSent.CATRsc|.\FileMenu\CNext\resources\msgcatalog\CATDACmdToBeSent.CATRsc
DAT/002/CUS .\win_b64\resources\graphic\icons\I_FCmdProductTree.bmp|.\FileMenu\CNext\resources\graphic\icons\I_FCmdProductTree.bmp
DAT/002/CUS .\win_b64\resources\graphic\icons\I_DLNameDelete.bmp|.\FileMenu\CNext\resources\graphic\icons\I_DLNameDelete.bmp
RTV/002/DSI .\win_b64\resources\msgcatalog\NlsTest\CATFmuSearchOrder.CATNls|.\FileMenu\CNext\resources\msgcatalog\CATFmuSearchOrder.CATNls
RTV/002/DSI .\win_b64\resources\msgcatalog\DbcsTest\CATFmuDLNameDChooser.CATNls|.\FileMenu\CNext\resources\msgcatalog\CATFmuDLNameDChooser.CATNls
DAT/002/CUS .\win_b64\resources\graphic\icons\I_CATMaterial.bmp|.\FileMenu\CNext\resources\graphic\icons\I_CATMaterial.bmp
RTV/002/DSI .\win_b64\resources\msgcatalog\DbcsTest\CATFmuFolderDocEnv.CATNls|.\FileMenu\CNext\resources\msgcatalog\CATFmuFolderDocEnv.CATNls
DAT/002/CUS .\win_b64\resources\graphic\icons\I_Delete.bmp|.\FileMenu\CNext\resources\graphic\icons\I_Delete.bmp
RTV/002/DSI .\win_b64\resources\msgcatalog\DbcsTest\FeatCatalogConfigDlg.CATNls|.\FileMenu\CNext\resources\msgcatalog\FeatCatalogConfigDlg.CATNls
DAT/002/CUS .\win_b64\resources\msgcatalog\CATSaveAllAsCmd.CATNls|.\FileMenu\CNext\resources\msgcatalog\CATSaveAllAsCmd.CATNls
RTV/002/DSI .\win_b64\resources\msgcatalog\DbcsTest\CATFmuSessionFilePanel.CATNls|.\FileMenu\CNext\resources\msgcatalog\CATFmuSessionFilePanel.CATNls
RTV/002/DSI .\win_b64\resources\msgcatalog\NlsTest\CATFmuDLNameDChooser.CATNls|.\FileMenu\CNext\resources\msgcatalog\CATFmuDLNameDChooser.CATNls
DAT/002/CUS .\win_b64\resources\graphic\icons\normal\I_MaskReadOnly.bmp|.\FileMenu\CNext\resources\graphic\icons\normal\I_MaskReadOnly.bmp
RTV/002/DSI .\win_b64\resources\msgcatalog\DbcsTest\CATUnloadLoadCmdHeader.CATNls|.\FileMenu\CNext\resources\msgcatalog\CATUnloadLoadCmdHeader.CATNls
DAT/002/CUS .\win_b64\resources\graphic\icons\I_NextStepj4.bmp|.\FileMenu\CNext\resources\graphic\icons\I_NextStepj4.bmp
RTV/002/DSI .\win_b64\resources\msgcatalog\NlsTest\FeatCatalogConfigDlg.CATNls|.\FileMenu\CNext\resources\msgcatalog\FeatCatalogConfigDlg.CATNls
DAT/002/CUS .\win_b64\resources\msgcatalog\CATFmuDLNameDChooser.CATRsc|.\FileMenu\CNext\resources\msgcatalog\CATFmuDLNameDChooser.CATRsc
RTV/002/DSI .\win_b64\resources\msgcatalog\DbcsTest\CATDADlgProgress.CATNls|.\FileMenu\CNext\resources\msgcatalog\CATDADlgProgress.CATNls
DAT/002/CUS .\win_b64\resources\graphic\icons\I_NextStepj2.bmp|.\FileMenu\CNext\resources\graphic\icons\I_NextStepj2.bmp
DAT/002/CUS .\win_b64\resources\msgcatalog\CATBoxNotify.CATNls|.\FileMenu\CNext\resources\msgcatalog\CATBoxNotify.CATNls
RTV/002/DSI .\win_b64\resources\msgcatalog\DbcsTest\SavAsBoxDialog.CATNls|.\FileMenu\CNext\resources\msgcatalog\SavAsBoxDialog.CATNls
RTV/002/DSI .\win_b64\resources\msgcatalog\NlsTest\CATSaveMessage.CATNls|.\FileMenu\CNext\resources\msgcatalog\CATSaveMessage.CATNls
RTV/002/DSI .\win_b64\resources\msgcatalog\DbcsTest\CATFmuDLNameAdmin.CATNls|.\FileMenu\CNext\resources\msgcatalog\CATFmuDLNameAdmin.CATNls
RTV/002/DSI .\win_b64\resources\msgcatalog\DbcsTest\CATBoxInfo.CATNls|.\FileMenu\CNext\resources\msgcatalog\CATBoxInfo.CATNls
RTV/002/DSI .\win_b64\resources\msgcatalog\NlsTest\CATFmuReporterDialogBox.CATNls|.\FileMenu\CNext\resources\msgcatalog\CATFmuReporterDialogBox.CATNls
DAT/002/CUS .\win_b64\resources\msgcatalog\CATSaveMessage.CATNls|.\FileMenu\CNext\resources\msgcatalog\CATSaveMessage.CATNls
RTV/002/DSI .\win_b64\resources\msgcatalog\DbcsTest\CATFmuDLNameList.CATNls|.\FileMenu\CNext\resources\msgcatalog\CATFmuDLNameList.CATNls
DAT/002/CUS .\win_b64\resources\graphic\icons\I_FCmdSelAllPointed.bmp|.\FileMenu\CNext\resources\graphic\icons\I_FCmdSelAllPointed.bmp
RTV/002/DSI .\win_b64\resources\msgcatalog\NlsTest\CATFmuFolderSaveDialogBox.CATNls|.\FileMenu\CNext\resources\msgcatalog\CATFmuFolderSaveDialogBox.CATNls
RTV/002/DSI .\win_b64\resources\msgcatalog\DbcsTest\CATCCP_PanSpecial.CATNls|.\FileMenu\CNext\resources\msgcatalog\CATCCP_PanSpecial.CATNls
RTV/002/DSI .\win_b64\resources\msgcatalog\NlsTest\CATFmuDLNameList.CATNls|.\FileMenu\CNext\resources\msgcatalog\CATFmuDLNameList.CATNls
RTV/002/DSI .\win_b64\resources\msgcatalog\NlsTest\CATFmuUnloadListPanel.CATNls|.\FileMenu\CNext\resources\msgcatalog\CATFmuUnloadListPanel.CATNls
DAT/002/CUS .\win_b64\resources\msgcatalog\CATFmuDocEnvFrame.CATNls|.\FileMenu\CNext\resources\msgcatalog\CATFmuDocEnvFrame.CATNls
DAT/002/CUS .\win_b64\resources\msgcatalog\CATFmuSessionManagePanel.CATNls|.\FileMenu\CNext\resources\msgcatalog\CATFmuSessionManagePanel.CATNls
RTV/002/DSI .\win_b64\resources\msgcatalog\NlsTest\CATFmuFilterDialog.CATNls|.\FileMenu\CNext\resources\msgcatalog\CATFmuFilterDialog.CATNls
DAT/002/CUS .\win_b64\resources\msgcatalog\FileMenuCmd.CATNls|.\FileMenu\CNext\resources\msgcatalog\FileMenuCmd.CATNls
RTV/002/DSI .\win_b64\resources\msgcatalog\NlsTest\CATCCP_PanSpecial.CATNls|.\FileMenu\CNext\resources\msgcatalog\CATCCP_PanSpecial.CATNls
RTV/002/DSI .\win_b64\resources\msgcatalog\NlsTest\CATFmuMessage.CATNls|.\FileMenu\CNext\resources\msgcatalog\CATFmuMessage.CATNls
RTV/002/DSI .\win_b64\resources\msgcatalog\NlsTest\CATSaveAllAsCmd.CATNls|.\FileMenu\CNext\resources\msgcatalog\CATSaveAllAsCmd.CATNls
DAT/002/CUS .\win_b64\resources\msgcatalog\CATBoxInfo.CATNls|.\FileMenu\CNext\resources\msgcatalog\CATBoxInfo.CATNls
DAT/002/CUS .\win_b64\resources\msgcatalog\CATFmuDLNameList.CATNls|.\FileMenu\CNext\resources\msgcatalog\CATFmuDLNameList.CATNls
RTV/002/DSI .\win_b64\resources\msgcatalog\DbcsTest\CATFmuDocEnvFrame.CATNls|.\FileMenu\CNext\resources\msgcatalog\CATFmuDocEnvFrame.CATNls
DAT/002/CUS .\win_b64\resources\msgcatalog\CATFmuFolderDocEnv.CATNls|.\FileMenu\CNext\resources\msgcatalog\CATFmuFolderDocEnv.CATNls
RTV/002/DSI .\win_b64\resources\msgcatalog\NlsTest\CATFmuDLNameDialogBox.CATNls|.\FileMenu\CNext\resources\msgcatalog\CATFmuDLNameDialogBox.CATNls
RTV/002/DSI .\win_b64\resources\msgcatalog\NlsTest\CATUnloadLoadCmdHeader.CATNls|.\FileMenu\CNext\resources\msgcatalog\CATUnloadLoadCmdHeader.CATNls
DAT/002/CUS .\win_b64\resources\graphic\icons\I_FromTo.bmp|.\FileMenu\CNext\resources\graphic\icons\I_FromTo.bmp
DAT/002/CUS .\win_b64\resources\graphic\icons\I_FolderOpen.bmp|.\FileMenu\CNext\resources\graphic\icons\I_FolderOpen.bmp
DAT/002/CUS .\win_b64\resources\graphic\icons\I_Folder.bmp|.\FileMenu\CNext\resources\graphic\icons\I_Folder.bmp
RTV/002/DSI .\win_b64\resources\msgcatalog\NlsTest\CATFmuRollinError.CATNls|.\FileMenu\CNext\resources\msgcatalog\CATFmuRollinError.CATNls
DAT/002/CUS .\win_b64\code\dictionary\FileMenu.iid|.\FileMenu\CNext\code\dictionary\FileMenu.iid
DAT/002/CUS .\win_b64\resources\msgcatalog\CATFmuSearchOrder.CATNls|.\FileMenu\CNext\resources\msgcatalog\CATFmuSearchOrder.CATNls
RTV/002/DSI .\win_b64\resources\msgcatalog\NlsTest\FileMenuCmd.CATNls|.\FileMenu\CNext\resources\msgcatalog\FileMenuCmd.CATNls
RTV/002/DSI .\win_b64\resources\msgcatalog\DbcsTest\CATSaveMessage.CATNls|.\FileMenu\CNext\resources\msgcatalog\CATSaveMessage.CATNls
DAT/002/CUS .\win_b64\resources\graphic\icons\I_GotoFolder.bmp|.\FileMenu\CNext\resources\graphic\icons\I_GotoFolder.bmp
DAT/002/CUS .\win_b64\resources\graphic\icons\I_OpenJ.bmp|.\FileMenu\CNext\resources\graphic\icons\I_OpenJ.bmp
DAT/002/CUS .\win_b64\resources\graphic\icons\I_DLNameExport.bmp|.\FileMenu\CNext\resources\graphic\icons\I_DLNameExport.bmp
RTV/002/DSI .\win_b64\resources\msgcatalog\DbcsTest\CompositePreviewOpenBox.CATNls|.\FileMenu\CNext\resources\msgcatalog\CompositePreviewOpenBox.CATNls
RTV/002/DSI .\win_b64\resources\msgcatalog\NlsTest\CATFmuFolderDocEnv.CATNls|.\FileMenu\CNext\resources\msgcatalog\CATFmuFolderDocEnv.CATNls
DAT/002/CUS .\win_b64\resources\msgcatalog\FeatCatalogConfigDlg.CATNls|.\FileMenu\CNext\resources\msgcatalog\FeatCatalogConfigDlg.CATNls
DAT/002/CUS .\win_b64\resources\graphic\icons\I_CATCatalog.bmp|.\FileMenu\CNext\resources\graphic\icons\I_CATCatalog.bmp
DAT/002/CUS .\win_b64\resources\graphic\icons\I_OpenS.bmp|.\FileMenu\CNext\resources\graphic\icons\I_OpenS.bmp
DAT/002/CUS .\win_b64\resources\msgcatalog\CATFmuRollinError.CATNls|.\FileMenu\CNext\resources\msgcatalog\CATFmuRollinError.CATNls
DAT/002/CUS .\win_b64\resources\msgcatalog\CATFmuUnloadListPanel.CATNls|.\FileMenu\CNext\resources\msgcatalog\CATFmuUnloadListPanel.CATNls
RTV/002/DSI .\win_b64\resources\msgcatalog\NlsTest\NewBox.CATNls|.\FileMenu\CNext\resources\msgcatalog\NewBox.CATNls
RTV/002/DSI .\win_b64\resources\msgcatalog\DbcsTest\CATFmuDLNameDLNCombo.CATNls|.\FileMenu\CNext\resources\msgcatalog\CATFmuDLNameDLNCombo.CATNls
DAT/002/CUS .\win_b64\code\dictionary\FileMenu.fact|.\FileMenu\CNext\code\dictionary\FileMenu.fact
DAT/002/CUS .\win_b64\resources\msgcatalog\CATFmuDLNameDLNCombo.CATNls|.\FileMenu\CNext\resources\msgcatalog\CATFmuDLNameDLNCombo.CATNls
DAT/002/CUS .\win_b64\resources\graphic\icons\I_CATProduct.bmp|.\FileMenu\CNext\resources\graphic\icons\I_CATProduct.bmp
RTV/002/DSI .\win_b64\resources\msgcatalog\NlsTest\CATFmuDLNameToolsFileView.CATNls|.\FileMenu\CNext\resources\msgcatalog\CATFmuDLNameToolsFileView.CATNls
DAT/002/CUS .\win_b64\resources\graphic\icons\I_CATAnalysis.bmp|.\FileMenu\CNext\resources\graphic\icons\I_CATAnalysis.bmp
RTV/002/DSI .\win_b64\resources\msgcatalog\DbcsTest\CATNewFromCommand.CATNls|.\FileMenu\CNext\resources\msgcatalog\CATNewFromCommand.CATNls
DAT/002/CUS .\win_b64\resources\graphic\icons\I_DLNameUp.bmp|.\FileMenu\CNext\resources\graphic\icons\I_DLNameUp.bmp
DAT/002/CUS .\win_b64\resources\msgcatalog\CATFmuNewFromListsCmd.CATNls|.\FileMenu\CNext\resources\msgcatalog\CATFmuNewFromListsCmd.CATNls
DAT/002/CUS .\win_b64\resources\graphic\icons\I_DLNameRename.bmp|.\FileMenu\CNext\resources\graphic\icons\I_DLNameRename.bmp
DAT/002/CUS .\win_b64\resources\msgcatalog\CATDACmdToBeSent.CATNls|.\FileMenu\CNext\resources\msgcatalog\CATDACmdToBeSent.CATNls
RTV/002/DSI .\win_b64\resources\msgcatalog\DbcsTest\CATFmuDLNameSearch.CATNls|.\FileMenu\CNext\resources\msgcatalog\CATFmuDLNameSearch.CATNls
DAT/002/CUS .\win_b64\resources\graphic\icons\normal\I_DocumentUNLoad.bmp|.\FileMenu\CNext\resources\graphic\icons\normal\I_DocumentUNLoad.bmp
RTV/002/DSI .\win_b64\resources\msgcatalog\DbcsTest\CATFmuDLNameToolsFileView.CATNls|.\FileMenu\CNext\resources\msgcatalog\CATFmuDLNameToolsFileView.CATNls
DAT/002/CUS .\win_b64\resources\graphic\icons\I_blank.bmp|.\FileMenu\CNext\resources\graphic\icons\I_blank.bmp
RTV/002/DSI .\win_b64\resources\msgcatalog\NlsTest\CATNewFromCommand.CATNls|.\FileMenu\CNext\resources\msgcatalog\CATNewFromCommand.CATNls
DAT/002/CUS .\win_b64\resources\graphic\icons\I_CATShape.bmp|.\FileMenu\CNext\resources\graphic\icons\I_CATShape.bmp
RTV/002/DSI .\win_b64\resources\msgcatalog\DbcsTest\CATFmuRollinError.CATNls|.\FileMenu\CNext\resources\msgcatalog\CATFmuRollinError.CATNls
RTV/002/DSI .\win_b64\resources\msgcatalog\DbcsTest\CATSaveAllAsCmd.CATNls|.\FileMenu\CNext\resources\msgcatalog\CATSaveAllAsCmd.CATNls
RTV/002/DSI .\win_b64\resources\msgcatalog\NlsTest\CompositePreviewOpenBox.CATNls|.\FileMenu\CNext\resources\msgcatalog\CompositePreviewOpenBox.CATNls
DAT/002/CUS .\win_b64\resources\msgcatalog\CATUnloadLoadCmdHeader.CATNls|.\FileMenu\CNext\resources\msgcatalog\CATUnloadLoadCmdHeader.CATNls
DAT/002/CUS .\win_b64\resources\graphic\icons\I_CATPart.bmp|.\FileMenu\CNext\resources\graphic\icons\I_CATPart.bmp
DAT/002/CUS .\win_b64\resources\msgcatalog\ExcludeFeatFileFromSaveMgmt.CATRsc|.\FileMenu\CNext\resources\msgcatalog\ExcludeFeatFileFromSaveMgmt.CATRsc
RTV/002/DSI .\win_b64\resources\msgcatalog\NlsTest\CATFMSaveLoadError.CATNls|.\FileMenu\CNext\resources\msgcatalog\CATFMSaveLoadError.CATNls
DAT/002/CUS .\win_b64\resources\graphic\icons\I_CATDrawing.bmp|.\FileMenu\CNext\resources\graphic\icons\I_CATDrawing.bmp
RTV/002/DSI .\win_b64\resources\msgcatalog\DbcsTest\CATFmuDLNameConfigure.CATNls|.\FileMenu\CNext\resources\msgcatalog\CATFmuDLNameConfigure.CATNls
DAT/002/CUS .\win_b64\resources\msgcatalog\CATFmuReporterDialogBox.CATNls|.\FileMenu\CNext\resources\msgcatalog\CATFmuReporterDialogBox.CATNls
DAT/002/CUS .\win_b64\resources\msgcatalog\CATFmuDocEnvEditor.CATRsc|.\FileMenu\CNext\resources\msgcatalog\CATFmuDocEnvEditor.CATRsc
RTV/002/DSI .\win_b64\resources\msgcatalog\DbcsTest\CATFmuSearchOrder.CATNls|.\FileMenu\CNext\resources\msgcatalog\CATFmuSearchOrder.CATNls
RTV/002/DSI .\win_b64\resources\msgcatalog\NlsTest\CATFileServices.CATNls|.\FileMenu\CNext\resources\msgcatalog\CATFileServices.CATNls
DAT/002/CUS .\win_b64\resources\msgcatalog\CATUnloadLoadCmdHeader.CATRsc|.\FileMenu\CNext\resources\msgcatalog\CATUnloadLoadCmdHeader.CATRsc
CSC/002/DSI .\FileMenu\IdentityCard\Objects\win_b64\mkcsc\FileMenu.cscdb|.\FileMenu
RTV/002/DSI .\win_b64\resources\msgcatalog\DbcsTest\CATFmuFilterDialog.CATNls|.\FileMenu\CNext\resources\msgcatalog\CATFmuFilterDialog.CATNls
DAT/002/CUS .\win_b64\resources\msgcatalog\CATFmuDLNameDocEnv.CATNls|.\FileMenu\CNext\resources\msgcatalog\CATFmuDLNameDocEnv.CATNls
DAT/002/CUS .\win_b64\resources\msgcatalog\CompositePreviewOpenBox.CATNls|.\FileMenu\CNext\resources\msgcatalog\CompositePreviewOpenBox.CATNls
BTV/002/CUS .\win_b64\code\productIC\FileMenuIC.xml|.\FileMenu
RTV/002/DSI .\win_b64\resources\msgcatalog\NlsTest\BrokenLinksWng.CATNls|.\FileMenu\CNext\resources\msgcatalog\BrokenLinksWng.CATNls
RTV/002/DSI .\win_b64\resources\msgcatalog\NlsTest\CATFmuDLNameAdmin.CATNls|.\FileMenu\CNext\resources\msgcatalog\CATFmuDLNameAdmin.CATNls
DAT/002/CUS .\win_b64\resources\graphic\icons\I_CATCmm.bmp|.\FileMenu\CNext\resources\graphic\icons\I_CATCmm.bmp
RTV/002/DSI .\win_b64\resources\msgcatalog\DbcsTest\CATFmuReporterDialogBox.CATNls|.\FileMenu\CNext\resources\msgcatalog\CATFmuReporterDialogBox.CATNls
DAT/002/CUS .\win_b64\resources\msgcatalog\CATDAWndMessage.CATNls|.\FileMenu\CNext\resources\msgcatalog\CATDAWndMessage.CATNls
DAT/002/CUS .\win_b64\resources\msgcatalog\CATFmuDLNameAdmin.CATNls|.\FileMenu\CNext\resources\msgcatalog\CATFmuDLNameAdmin.CATNls
DAT/002/CUS .\win_b64\resources\msgcatalog\CATFmuDLNameAdmin.CATRsc|.\FileMenu\CNext\resources\msgcatalog\CATFmuDLNameAdmin.CATRsc
RTV/002/DSI .\win_b64\resources\msgcatalog\NlsTest\CATFmuDLNameNewConfigure.CATNls|.\FileMenu\CNext\resources\msgcatalog\CATFmuDLNameNewConfigure.CATNls
RTV/002/DSI .\win_b64\resources\msgcatalog\DbcsTest\CATFMSaveLoadError.CATNls|.\FileMenu\CNext\resources\msgcatalog\CATFMSaveLoadError.CATNls
RTV/002/DSI .\win_b64\resources\msgcatalog\DbcsTest\CATBoxNotify.CATNls|.\FileMenu\CNext\resources\msgcatalog\CATBoxNotify.CATNls
RTV/002/DSI .\win_b64\resources\msgcatalog\DbcsTest\BrokenLinksWng.CATNls|.\FileMenu\CNext\resources\msgcatalog\BrokenLinksWng.CATNls
RTV/002/DSI .\win_b64\resources\msgcatalog\DbcsTest\CATFmuSessionManagePanel.CATNls|.\FileMenu\CNext\resources\msgcatalog\CATFmuSessionManagePanel.CATNls
DAT/002/CUS .\win_b64\resources\msgcatalog\SavAsBoxDialog.CATNls|.\FileMenu\CNext\resources\msgcatalog\SavAsBoxDialog.CATNls
RTV/002/DSI .\win_b64\resources\msgcatalog\DbcsTest\CATFMNotify.CATNls|.\FileMenu\CNext\resources\msgcatalog\CATFMNotify.CATNls
DAT/002/CUS .\win_b64\resources\graphic\icons\I_NextStepj3.bmp|.\FileMenu\CNext\resources\graphic\icons\I_NextStepj3.bmp
RTV/002/DSI .\win_b64\resources\msgcatalog\DbcsTest\CATFileServices.CATNls|.\FileMenu\CNext\resources\msgcatalog\CATFileServices.CATNls
DAT/002/CUS .\win_b64\resources\msgcatalog\CATFmuDLNameSearch.CATNls|.\FileMenu\CNext\resources\msgcatalog\CATFmuDLNameSearch.CATNls
RTV/002/DSI .\win_b64\resources\msgcatalog\DbcsTest\CATFmuMessage.CATNls|.\FileMenu\CNext\resources\msgcatalog\CATFmuMessage.CATNls
RTV/002/DSI .\win_b64\resources\msgcatalog\NlsTest\CATFmuDocEnvFrame.CATNls|.\FileMenu\CNext\resources\msgcatalog\CATFmuDocEnvFrame.CATNls
RTV/002/DSI .\win_b64\resources\msgcatalog\NlsTest\CATBoxNotify.CATNls|.\FileMenu\CNext\resources\msgcatalog\CATBoxNotify.CATNls
RTV/002/DSI .\win_b64\resources\msgcatalog\NlsTest\SavAsBoxDialog.CATNls|.\FileMenu\CNext\resources\msgcatalog\SavAsBoxDialog.CATNls
DAT/002/CUS .\win_b64\resources\graphic\icons\I_NextStepj1.bmp|.\FileMenu\CNext\resources\graphic\icons\I_NextStepj1.bmp
DAT/002/CUS .\win_b64\resources\msgcatalog\CATFmuDLNameNewConfigure.CATNls|.\FileMenu\CNext\resources\msgcatalog\CATFmuDLNameNewConfigure.CATNls
DAT/002/CUS .\win_b64\resources\msgcatalog\CATFmuFilterDialog.CATNls|.\FileMenu\CNext\resources\msgcatalog\CATFmuFilterDialog.CATNls
DAT/002/CUS .\win_b64\resources\msgcatalog\CATFmuSessionFilePanel.CATNls|.\FileMenu\CNext\resources\msgcatalog\CATFmuSessionFilePanel.CATNls
RTV/002/DSI .\win_b64\resources\msgcatalog\NlsTest\CATFmuDLNameDLNCombo.CATNls|.\FileMenu\CNext\resources\msgcatalog\CATFmuDLNameDLNCombo.CATNls
RTV/002/DSI .\win_b64\resources\msgcatalog\DbcsTest\CATDACmdToBeSent.CATNls|.\FileMenu\CNext\resources\msgcatalog\CATDACmdToBeSent.CATNls
RTV/002/DSI .\win_b64\resources\msgcatalog\NlsTest\CATFmuSessionManagePanel.CATNls|.\FileMenu\CNext\resources\msgcatalog\CATFmuSessionManagePanel.CATNls
RTV/002/DSI .\win_b64\resources\msgcatalog\DbcsTest\CATFmuUnloadListPanel.CATNls|.\FileMenu\CNext\resources\msgcatalog\CATFmuUnloadListPanel.CATNls
RTV/002/DSI .\win_b64\code\productIC\FileMenuIC.required|.\FileMenu
RTV/002/DSI .\win_b64\resources\msgcatalog\DbcsTest\CATFmuDocEnvEditor.CATNls|.\FileMenu\CNext\resources\msgcatalog\CATFmuDocEnvEditor.CATNls
@type='codeFramework'
@built='true'
