!<mkRTViewData> v1.0.0
RTV/000/CUS .\win_b64\code\dictionary\SpaceAnalysis.dic|.\SpaceAnalysis\CATSpaDic.m
CSC/000/DSI .\SpaceAnalysis\CATSpaDic.m\Objects\win_b64\mkcsc\CATSpaDic.cscdb|.\SpaceAnalysis\CATSpaDic.m
@type='NONE'
@clr='false'
@kind='INCLUDED'
@deliverable='true'
@built='true'
