!<mkRTViewData> v1.0.0
BTV/000/CUS .\win_b64\code\lib\CATDispatcher.lib|.\CATPDMBase\CATDispatcher.m
RTV/001/CUS .\win_b64\code\bin\CATDispatcher.dll|.\CATPDMBase\CATDispatcher.m
INT/000/CUS .\win_b64\code\lib\CATDispatcher.exp|.\CATPDMBase\CATDispatcher.m
CSC/000/DSI .\CATPDMBase\CATDispatcher.m\Objects\win_b64\mkcsc\CATDispatcher.cscdb|.\CATPDMBase\CATDispatcher.m
INT/000/CUS .\win_b64\code\bin\CATDispatcher.pdb|.\CATPDMBase\CATDispatcher.m
@type='SHARED_LIBRARY'
@clr='false'
@kind='NATIVE'
@deliverable='true'
@built='true'
