!<mkRTViewData> v1.0.0
CSC/000/DSI .\CATAsdJointInterfaces\CATAsdJointProIDL.m\Objects\win_b64\mkcsc\CATAsdJointProIDL.cscdb|.\CATAsdJointInterfaces\CATAsdJointProIDL.m
@type='NONE'
@clr='false'
@kind='INCLUDED'
@deliverable='true'
@built='true'
