!<mkRTViewData> v1.0.0
RTV/002/DSI .\win_b64\resources\msgcatalog\NlsTest\AUTRteSimRecordListDialog.CATNls|.\AUTRteUI\CNext.specifics_Windows_NT\resources\msgcatalog\AUTRteSimRecordListDialog.CATNls
DAT/002/CUS .\win_b64\resources\graphic\icons\normal\I_AUTRteRuntime.bmp|.\AUTRteUI\CNext.specifics_Windows_NT\resources\graphic\icons\normal\I_AUTRteRuntime.bmp
RTV/002/DSI .\win_b64\resources\msgcatalog\NlsTest\AUTRteSimScenarioRecordDialog.CATNls|.\AUTRteUI\CNext.specifics_Windows_NT\resources\msgcatalog\AUTRteSimScenarioRecordDialog.CATNls
DAT/002/CUS .\win_b64\resources\graphic\icons\normal\I_AUTRteRunActive.bmp|.\AUTRteUI\CNext.specifics_Windows_NT\resources\graphic\icons\normal\I_AUTRteRunActive.bmp
RTV/002/DSI .\win_b64\resources\msgcatalog\DbcsTest\AUTRteSimTreeDialog.CATNls|.\AUTRteUI\CNext.specifics_Windows_NT\resources\msgcatalog\AUTRteSimTreeDialog.CATNls
RTV/002/DSI .\win_b64\resources\msgcatalog\NlsTest\AUTRteSimIODialog.CATNls|.\AUTRteUI\CNext.specifics_Windows_NT\resources\msgcatalog\AUTRteSimIODialog.CATNls
DAT/002/CUS .\win_b64\resources\graphic\icons\normal\I_AUTRteTick.bmp|.\AUTRteUI\CNext.specifics_Windows_NT\resources\graphic\icons\normal\I_AUTRteTick.bmp
DAT/002/CUS .\win_b64\resources\graphic\icons\normal\I_AUTRteRunTimer.bmp|.\AUTRteUI\CNext.specifics_Windows_NT\resources\graphic\icons\normal\I_AUTRteRunTimer.bmp
DAT/002/CUS .\win_b64\resources\graphic\icons\normal\I_AUTRteScenarioStop.bmp|.\AUTRteUI\CNext.specifics_Windows_NT\resources\graphic\icons\normal\I_AUTRteScenarioStop.bmp
DAT/002/CUS .\win_b64\resources\graphic\icons\normal\AUTRteNotEmit.bmp|.\AUTRteUI\CNext.specifics_Windows_NT\resources\graphic\icons\normal\AUTRteNotEmit.bmp
DAT/002/CUS .\win_b64\resources\graphic\icons\normal\I_AUTRteWatchListRecord.bmp|.\AUTRteUI\CNext.specifics_Windows_NT\resources\graphic\icons\normal\I_AUTRteWatchListRecord.bmp
DAT/002/CUS .\win_b64\resources\msgcatalog\AUTRteSimBatchDialog.CATNls|.\AUTRteUI\CNext.specifics_Windows_NT\resources\msgcatalog\AUTRteSimBatchDialog.CATNls
DAT/002/CUS .\win_b64\resources\msgcatalog\AUTRteSimIODialog.CATNls|.\AUTRteUI\CNext.specifics_Windows_NT\resources\msgcatalog\AUTRteSimIODialog.CATNls
DAT/002/CUS .\win_b64\resources\graphic\icons\normal\I_AUTRteStop.bmp|.\AUTRteUI\CNext.specifics_Windows_NT\resources\graphic\icons\normal\I_AUTRteStop.bmp
DAT/002/CUS .\win_b64\resources\graphic\icons\normal\I_AUTRteStopActive.bmp|.\AUTRteUI\CNext.specifics_Windows_NT\resources\graphic\icons\normal\I_AUTRteStopActive.bmp
BTV/002/CUS .\win_b64\code\productIC\AUTRteUIIC.xml|.\AUTRteUI
DAT/002/CUS .\win_b64\resources\msgcatalog\AUTRteSimRecordListDialog.CATNls|.\AUTRteUI\CNext.specifics_Windows_NT\resources\msgcatalog\AUTRteSimRecordListDialog.CATNls
DAT/002/CUS .\win_b64\resources\graphic\icons\normal\AUTRteEmit.bmp|.\AUTRteUI\CNext.specifics_Windows_NT\resources\graphic\icons\normal\AUTRteEmit.bmp
RTV/002/DSI .\win_b64\resources\msgcatalog\DbcsTest\AUTRteSimOutputDialog.CATNls|.\AUTRteUI\CNext.specifics_Windows_NT\resources\msgcatalog\AUTRteSimOutputDialog.CATNls
DAT/002/CUS .\win_b64\resources\graphic\icons\normal\I_AUTRteScenarioRecord.bmp|.\AUTRteUI\CNext.specifics_Windows_NT\resources\graphic\icons\normal\I_AUTRteScenarioRecord.bmp
DAT/002/CUS .\win_b64\resources\msgcatalog\AUTRteImportExportIOMappingDlg.CATNls|.\AUTRteUI\CNext.specifics_Windows_NT\resources\msgcatalog\AUTRteImportExportIOMappingDlg.CATNls
DAT/002/CUS .\win_b64\resources\msgcatalog\AUTRteImportExportIOMappingDlg.CATRsc|.\AUTRteUI\CNext.specifics_Windows_NT\resources\msgcatalog\AUTRteImportExportIOMappingDlg.CATRsc
RTV/002/DSI .\win_b64\resources\msgcatalog\DbcsTest\AUTRteSimIODialog.CATNls|.\AUTRteUI\CNext.specifics_Windows_NT\resources\msgcatalog\AUTRteSimIODialog.CATNls
DAT/002/CUS .\win_b64\resources\msgcatalog\AUTRteSimIODialog.CATRsc|.\AUTRteUI\CNext.specifics_Windows_NT\resources\msgcatalog\AUTRteSimIODialog.CATRsc
DAT/002/CUS .\win_b64\resources\graphic\icons\normal\AUTRteInput.bmp|.\AUTRteUI\CNext.specifics_Windows_NT\resources\graphic\icons\normal\AUTRteInput.bmp
DAT/002/CUS .\win_b64\resources\graphic\icons\normal\I_AUTRteRun.bmp|.\AUTRteUI\CNext.specifics_Windows_NT\resources\graphic\icons\normal\I_AUTRteRun.bmp
DAT/002/CUS .\win_b64\resources\msgcatalog\AUTRteSimToolbar.CATRsc|.\AUTRteUI\CNext.specifics_Windows_NT\resources\msgcatalog\AUTRteSimToolbar.CATRsc
RTV/002/DSI .\win_b64\resources\msgcatalog\DbcsTest\AUTRteImportExportIOMappingDlg.CATNls|.\AUTRteUI\CNext.specifics_Windows_NT\resources\msgcatalog\AUTRteImportExportIOMappingDlg.CATNls
RTV/002/DSI .\win_b64\resources\msgcatalog\DbcsTest\AUTRteSimScenarioPlayDialog.CATNls|.\AUTRteUI\CNext.specifics_Windows_NT\resources\msgcatalog\AUTRteSimScenarioPlayDialog.CATNls
DAT/002/CUS .\win_b64\resources\graphic\icons\normal\I_AUTRteEngine.bmp|.\AUTRteUI\CNext.specifics_Windows_NT\resources\graphic\icons\normal\I_AUTRteEngine.bmp
DAT/002/CUS .\win_b64\resources\graphic\icons\normal\I_AUTRteWatchListStopRecord.bmp|.\AUTRteUI\CNext.specifics_Windows_NT\resources\graphic\icons\normal\I_AUTRteWatchListStopRecord.bmp
DAT/002/CUS .\win_b64\resources\msgcatalog\AUTRteIOMappingDialog.CATNls|.\AUTRteUI\CNext.specifics_Windows_NT\resources\msgcatalog\AUTRteIOMappingDialog.CATNls
DAT/002/CUS .\win_b64\resources\graphic\icons\normal\I_AUTRteTickActive.bmp|.\AUTRteUI\CNext.specifics_Windows_NT\resources\graphic\icons\normal\I_AUTRteTickActive.bmp
RTV/002/DSI .\win_b64\resources\msgcatalog\NlsTest\AUTRteIOMappingDialog.CATNls|.\AUTRteUI\CNext.specifics_Windows_NT\resources\msgcatalog\AUTRteIOMappingDialog.CATNls
DAT/002/CUS .\win_b64\resources\graphic\icons\normal\AUTRteDisable.bmp|.\AUTRteUI\CNext.specifics_Windows_NT\resources\graphic\icons\normal\AUTRteDisable.bmp
RTV/002/DSI .\win_b64\resources\msgcatalog\NlsTest\AUTRteSimControlsToolBar.CATNls|.\AUTRteUI\CNext.specifics_Windows_NT\resources\msgcatalog\AUTRteSimControlsToolBar.CATNls
DAT/002/CUS .\win_b64\code\dictionary\AUTRteUI.dic|.\AUTRteUI\CNext.specifics_Windows_NT\code\dictionary\AUTRteUI.dic
DAT/002/CUS .\win_b64\resources\graphic\icons\normal\I_AUTRteScenarioRecordActive.bmp|.\AUTRteUI\CNext.specifics_Windows_NT\resources\graphic\icons\normal\I_AUTRteScenarioRecordActive.bmp
RTV/002/DSI .\win_b64\resources\msgcatalog\NlsTest\AUTRteSimBatchDialog.CATNls|.\AUTRteUI\CNext.specifics_Windows_NT\resources\msgcatalog\AUTRteSimBatchDialog.CATNls
RTV/002/DSI .\win_b64\resources\msgcatalog\NlsTest\AUTRteSimBatchOutputDialog.CATNls|.\AUTRteUI\CNext.specifics_Windows_NT\resources\msgcatalog\AUTRteSimBatchOutputDialog.CATNls
DAT/002/CUS .\win_b64\resources\graphic\icons\normal\AUTRteSustain.bmp|.\AUTRteUI\CNext.specifics_Windows_NT\resources\graphic\icons\normal\AUTRteSustain.bmp
DAT/002/CUS .\win_b64\resources\graphic\icons\normal\AUTRteBreakpoint.bmp|.\AUTRteUI\CNext.specifics_Windows_NT\resources\graphic\icons\normal\AUTRteBreakpoint.bmp
DAT/002/CUS .\win_b64\resources\graphic\icons\normal\AUTRteOutput.bmp|.\AUTRteUI\CNext.specifics_Windows_NT\resources\graphic\icons\normal\AUTRteOutput.bmp
DAT/002/CUS .\win_b64\resources\graphic\icons\normal\I_AUTRteScenarioPlayingFile.bmp|.\AUTRteUI\CNext.specifics_Windows_NT\resources\graphic\icons\normal\I_AUTRteScenarioPlayingFile.bmp
DAT/002/CUS .\win_b64\resources\graphic\icons\normal\AUTRteDevices.bmp|.\AUTRteUI\CNext.specifics_Windows_NT\resources\graphic\icons\normal\AUTRteDevices.bmp
DAT/002/CUS .\win_b64\resources\graphic\icons\normal\I_AUTMapping.bmp|.\AUTRteUI\CNext.specifics_Windows_NT\resources\graphic\icons\normal\I_AUTMapping.bmp
RTV/002/DSI .\win_b64\resources\msgcatalog\DbcsTest\AUTRteSimBatchOutputDialog.CATNls|.\AUTRteUI\CNext.specifics_Windows_NT\resources\msgcatalog\AUTRteSimBatchOutputDialog.CATNls
DAT/002/CUS .\win_b64\resources\graphic\icons\normal\I_AUTRteScenarioRecordingFile.bmp|.\AUTRteUI\CNext.specifics_Windows_NT\resources\graphic\icons\normal\I_AUTRteScenarioRecordingFile.bmp
DAT/002/CUS .\win_b64\resources\msgcatalog\AUTRteSimScenarioRecordDialog.CATRsc|.\AUTRteUI\CNext.specifics_Windows_NT\resources\msgcatalog\AUTRteSimScenarioRecordDialog.CATRsc
DAT/002/CUS .\win_b64\resources\graphic\icons\normal\AUTRteInputOutput.bmp|.\AUTRteUI\CNext.specifics_Windows_NT\resources\graphic\icons\normal\AUTRteInputOutput.bmp
DAT/002/CUS .\win_b64\resources\msgcatalog\AUTRteSimTreeDialog.CATRsc|.\AUTRteUI\CNext.specifics_Windows_NT\resources\msgcatalog\AUTRteSimTreeDialog.CATRsc
DAT/002/CUS .\win_b64\resources\graphic\icons\normal\AUTRteSuspendRuntime.bmp|.\AUTRteUI\CNext.specifics_Windows_NT\resources\graphic\icons\normal\AUTRteSuspendRuntime.bmp
DAT/002/CUS .\win_b64\resources\msgcatalog\AUTRteSimControlsToolBar.CATNls|.\AUTRteUI\CNext.specifics_Windows_NT\resources\msgcatalog\AUTRteSimControlsToolBar.CATNls
DAT/002/CUS .\win_b64\resources\graphic\icons\normal\I_AUTRteRunTimerActive.bmp|.\AUTRteUI\CNext.specifics_Windows_NT\resources\graphic\icons\normal\I_AUTRteRunTimerActive.bmp
DAT/002/CUS .\win_b64\resources\msgcatalog\AUTRteSimBatchDialog.CATRsc|.\AUTRteUI\CNext.specifics_Windows_NT\resources\msgcatalog\AUTRteSimBatchDialog.CATRsc
RTV/002/DSI .\win_b64\resources\msgcatalog\DbcsTest\AUTRteSimBatchDialog.CATNls|.\AUTRteUI\CNext.specifics_Windows_NT\resources\msgcatalog\AUTRteSimBatchDialog.CATNls
DAT/002/CUS .\win_b64\resources\msgcatalog\AUTRteSimToolbar.CATNls|.\AUTRteUI\CNext.specifics_Windows_NT\resources\msgcatalog\AUTRteSimToolbar.CATNls
RTV/002/DSI .\win_b64\resources\msgcatalog\NlsTest\AUTRteImportExportIOMappingDlg.CATNls|.\AUTRteUI\CNext.specifics_Windows_NT\resources\msgcatalog\AUTRteImportExportIOMappingDlg.CATNls
DAT/002/CUS .\win_b64\resources\graphic\icons\normal\I_AUTRteSaveState.bmp|.\AUTRteUI\CNext.specifics_Windows_NT\resources\graphic\icons\normal\I_AUTRteSaveState.bmp
DAT/002/CUS .\win_b64\resources\graphic\icons\normal\AUTRteRemove.bmp|.\AUTRteUI\CNext.specifics_Windows_NT\resources\graphic\icons\normal\AUTRteRemove.bmp
DAT/002/CUS .\win_b64\resources\graphic\icons\normal\I_AUTRteScenarioPlay.bmp|.\AUTRteUI\CNext.specifics_Windows_NT\resources\graphic\icons\normal\I_AUTRteScenarioPlay.bmp
RTV/002/DSI .\win_b64\resources\msgcatalog\DbcsTest\AUTRteSimRecordListDialog.CATNls|.\AUTRteUI\CNext.specifics_Windows_NT\resources\msgcatalog\AUTRteSimRecordListDialog.CATNls
DAT/002/CUS .\win_b64\resources\graphic\icons\normal\I_AUTRteScenarioPlayActive.bmp|.\AUTRteUI\CNext.specifics_Windows_NT\resources\graphic\icons\normal\I_AUTRteScenarioPlayActive.bmp
RTV/002/DSI .\win_b64\resources\msgcatalog\NlsTest\AUTRteIOAddressingCmd.CATNls|.\AUTRteUI\CNext.specifics_Windows_NT\resources\msgcatalog\AUTRteIOAddressingCmd.CATNls
DAT/002/CUS .\win_b64\resources\msgcatalog\AUTRteSimScenarioPlayDialog.CATNls|.\AUTRteUI\CNext.specifics_Windows_NT\resources\msgcatalog\AUTRteSimScenarioPlayDialog.CATNls
RTV/002/DSI .\win_b64\code\productIC\AUTRteUIIC.required|.\AUTRteUI
DAT/002/CUS .\win_b64\resources\msgcatalog\AUTRteSimScenarioPlayDialog.CATRsc|.\AUTRteUI\CNext.specifics_Windows_NT\resources\msgcatalog\AUTRteSimScenarioPlayDialog.CATRsc
RTV/002/DSI .\win_b64\resources\msgcatalog\DbcsTest\AUTRteSimToolbar.CATNls|.\AUTRteUI\CNext.specifics_Windows_NT\resources\msgcatalog\AUTRteSimToolbar.CATNls
RTV/002/DSI .\win_b64\resources\msgcatalog\NlsTest\AUTRteSimScenarioPlayDialog.CATNls|.\AUTRteUI\CNext.specifics_Windows_NT\resources\msgcatalog\AUTRteSimScenarioPlayDialog.CATNls
RTV/002/DSI .\win_b64\resources\msgcatalog\NlsTest\AUTRteSimTreeDialog.CATNls|.\AUTRteUI\CNext.specifics_Windows_NT\resources\msgcatalog\AUTRteSimTreeDialog.CATNls
DAT/002/CUS .\win_b64\resources\graphic\icons\normal\AUTRteControls.bmp|.\AUTRteUI\CNext.specifics_Windows_NT\resources\graphic\icons\normal\AUTRteControls.bmp
DAT/002/CUS .\win_b64\resources\graphic\icons\normal\AUTRteNewWatchList.bmp|.\AUTRteUI\CNext.specifics_Windows_NT\resources\graphic\icons\normal\AUTRteNewWatchList.bmp
DAT/002/CUS .\win_b64\resources\msgcatalog\AUTRteSimControlsToolBar.CATRsc|.\AUTRteUI\CNext.specifics_Windows_NT\resources\msgcatalog\AUTRteSimControlsToolBar.CATRsc
DAT/002/CUS .\win_b64\resources\graphic\icons\normal\AUTRteLock.bmp|.\AUTRteUI\CNext.specifics_Windows_NT\resources\graphic\icons\normal\AUTRteLock.bmp
DAT/002/CUS .\win_b64\resources\msgcatalog\AUTRteSimRecordPlotListDialog.CATNls|.\AUTRteUI\CNext.specifics_Windows_NT\resources\msgcatalog\AUTRteSimRecordPlotListDialog.CATNls
DAT/002/CUS .\win_b64\resources\graphic\icons\normal\I_AUTRteOutput.bmp|.\AUTRteUI\CNext.specifics_Windows_NT\resources\graphic\icons\normal\I_AUTRteOutput.bmp
DAT/002/CUS .\win_b64\resources\msgcatalog\AUTRteSimOutputDialog.CATNls|.\AUTRteUI\CNext.specifics_Windows_NT\resources\msgcatalog\AUTRteSimOutputDialog.CATNls
RTV/002/DSI .\win_b64\resources\msgcatalog\NlsTest\AUTRteSimToolbar.CATNls|.\AUTRteUI\CNext.specifics_Windows_NT\resources\msgcatalog\AUTRteSimToolbar.CATNls
DAT/002/CUS .\win_b64\resources\msgcatalog\AUTRteSimBatchOutputDialog.CATRsc|.\AUTRteUI\CNext.specifics_Windows_NT\resources\msgcatalog\AUTRteSimBatchOutputDialog.CATRsc
RTV/002/DSI .\win_b64\resources\msgcatalog\DbcsTest\AUTRteSimRecordPlotListDialog.CATNls|.\AUTRteUI\CNext.specifics_Windows_NT\resources\msgcatalog\AUTRteSimRecordPlotListDialog.CATNls
DAT/002/CUS .\win_b64\resources\graphic\icons\normal\I_AUTRteMapping.bmp|.\AUTRteUI\CNext.specifics_Windows_NT\resources\graphic\icons\normal\I_AUTRteMapping.bmp
BTV/002/CUS .\win_b64\code\productIC\AUTRteUIIC.script|.\AUTRteUI
DAT/002/CUS .\win_b64\resources\graphic\icons\normal\I_AUTRteSimTree.bmp|.\AUTRteUI\CNext.specifics_Windows_NT\resources\graphic\icons\normal\I_AUTRteSimTree.bmp
DAT/002/CUS .\win_b64\resources\graphic\icons\normal\AUTRteRuntimeNew.bmp|.\AUTRteUI\CNext.specifics_Windows_NT\resources\graphic\icons\normal\AUTRteRuntimeNew.bmp
DAT/002/CUS .\win_b64\resources\msgcatalog\AUTRteSimTreeDialog.CATNls|.\AUTRteUI\CNext.specifics_Windows_NT\resources\msgcatalog\AUTRteSimTreeDialog.CATNls
CSC/002/DSI .\AUTRteUI\IdentityCard\Objects\win_b64\mkcsc\AUTRteUI.cscdb|.\AUTRteUI
DAT/002/CUS .\win_b64\resources\msgcatalog\AUTRteSimScenarioRecordDialog.CATNls|.\AUTRteUI\CNext.specifics_Windows_NT\resources\msgcatalog\AUTRteSimScenarioRecordDialog.CATNls
DAT/002/CUS .\win_b64\resources\graphic\icons\normal\I_AUTRteLoadState.bmp|.\AUTRteUI\CNext.specifics_Windows_NT\resources\graphic\icons\normal\I_AUTRteLoadState.bmp
RTV/002/DSI .\win_b64\resources\msgcatalog\NlsTest\AUTRteSimOutputDialog.CATNls|.\AUTRteUI\CNext.specifics_Windows_NT\resources\msgcatalog\AUTRteSimOutputDialog.CATNls
RTV/002/DSI .\win_b64\resources\msgcatalog\NlsTest\AUTRteSimRecordPlotListDialog.CATNls|.\AUTRteUI\CNext.specifics_Windows_NT\resources\msgcatalog\AUTRteSimRecordPlotListDialog.CATNls
RTV/002/DSI .\win_b64\resources\msgcatalog\DbcsTest\AUTRteSimScenarioRecordDialog.CATNls|.\AUTRteUI\CNext.specifics_Windows_NT\resources\msgcatalog\AUTRteSimScenarioRecordDialog.CATNls
RTV/002/DSI .\win_b64\resources\msgcatalog\DbcsTest\AUTRteIOAddressingCmd.CATNls|.\AUTRteUI\CNext.specifics_Windows_NT\resources\msgcatalog\AUTRteIOAddressingCmd.CATNls
DAT/002/CUS .\win_b64\resources\graphic\icons\normal\AUTRteWatchList.bmp|.\AUTRteUI\CNext.specifics_Windows_NT\resources\graphic\icons\normal\AUTRteWatchList.bmp
DAT/002/CUS .\win_b64\resources\msgcatalog\AUTRteSimRecordListDialog.CATRsc|.\AUTRteUI\CNext.specifics_Windows_NT\resources\msgcatalog\AUTRteSimRecordListDialog.CATRsc
DAT/002/CUS .\win_b64\resources\msgcatalog\AUTRteSimRecordPlotListDialog.CATRsc|.\AUTRteUI\CNext.specifics_Windows_NT\resources\msgcatalog\AUTRteSimRecordPlotListDialog.CATRsc
DAT/002/CUS .\win_b64\resources\graphic\icons\normal\I_AUTRteBlock.bmp|.\AUTRteUI\CNext.specifics_Windows_NT\resources\graphic\icons\normal\I_AUTRteBlock.bmp
DAT/002/CUS .\win_b64\resources\msgcatalog\AUTRteSimOutputDialog.CATRsc|.\AUTRteUI\CNext.specifics_Windows_NT\resources\msgcatalog\AUTRteSimOutputDialog.CATRsc
DAT/002/CUS .\win_b64\resources\graphic\icons\normal\I_AUTRtePauseActive.bmp|.\AUTRteUI\CNext.specifics_Windows_NT\resources\graphic\icons\normal\I_AUTRtePauseActive.bmp
DAT/002/CUS .\win_b64\resources\graphic\icons\normal\AUTRteRuntime.bmp|.\AUTRteUI\CNext.specifics_Windows_NT\resources\graphic\icons\normal\AUTRteRuntime.bmp
RTV/002/DSI .\win_b64\resources\msgcatalog\DbcsTest\AUTRteIOMappingDialog.CATNls|.\AUTRteUI\CNext.specifics_Windows_NT\resources\msgcatalog\AUTRteIOMappingDialog.CATNls
DAT/002/CUS .\win_b64\resources\msgcatalog\AUTRteSimBatchOutputDialog.CATNls|.\AUTRteUI\CNext.specifics_Windows_NT\resources\msgcatalog\AUTRteSimBatchOutputDialog.CATNls
DAT/002/CUS .\win_b64\resources\graphic\icons\normal\I_AUTRteIO.bmp|.\AUTRteUI\CNext.specifics_Windows_NT\resources\graphic\icons\normal\I_AUTRteIO.bmp
DAT/002/CUS .\win_b64\resources\graphic\icons\normal\I_AUTRtePause.bmp|.\AUTRteUI\CNext.specifics_Windows_NT\resources\graphic\icons\normal\I_AUTRtePause.bmp
DAT/002/CUS .\win_b64\resources\msgcatalog\AUTRteIOAddressingCmd.CATNls|.\AUTRteUI\CNext.specifics_Windows_NT\resources\msgcatalog\AUTRteIOAddressingCmd.CATNls
DAT/002/CUS .\win_b64\resources\graphic\icons\normal\AUTRteMapping.bmp|.\AUTRteUI\CNext.specifics_Windows_NT\resources\graphic\icons\normal\AUTRteMapping.bmp
RTV/002/DSI .\win_b64\resources\msgcatalog\DbcsTest\AUTRteSimControlsToolBar.CATNls|.\AUTRteUI\CNext.specifics_Windows_NT\resources\msgcatalog\AUTRteSimControlsToolBar.CATNls
DAT/002/CUS .\win_b64\resources\graphic\icons\normal\AUTRteClose.bmp|.\AUTRteUI\CNext.specifics_Windows_NT\resources\graphic\icons\normal\AUTRteClose.bmp
@type='codeFramework'
@built='true'
