feature CATMmrRGE #early #startup #emulator(CATTTRSModel)
{
  block RGESpecObject     ReferencedGeom
  block RGEComponent      AgregatedGeom
  block RGEInteger        Type
  block RGEInteger        TTRSClass
  block CATIAReleaseBloc  CATIARelease
  block TTRSGeomCGMId     TTRSCGMId
  block TTRSGeomCGMIdPart TTRSCGMIdPart
}
