!<mkRTViewData> v1.0.0
RTV/001/CUS .\win_b64\code\bin\setcatenv.exe|.\Administration\JS0SETCATENV.m
INT/000/CUS .\win_b64\code\bin\setcatenv.pdb|.\Administration\JS0SETCATENV.m
CSC/000/DSI .\Administration\JS0SETCATENV.m\Objects\win_b64\mkcsc\JS0SETCATENV.cscdb|.\Administration\JS0SETCATENV.m
@type='LOAD_MODULE'
@clr='false'
@kind='NATIVE'
@deliverable='true'
@built='true'
