!<mkRTViewData> v1.0.0
INT/000/CUS .\win_b64\code\lib\CATOmsSchema.exp|.\ObjectModelerSDM\CATOmsSchema.m
RTV/001/CUS .\win_b64\code\bin\CATOmsSchema.dll|.\ObjectModelerSDM\CATOmsSchema.m
BTV/000/CUS .\win_b64\code\lib\CATOmsSchema.lib|.\ObjectModelerSDM\CATOmsSchema.m
CSC/000/DSI .\ObjectModelerSDM\CATOmsSchema.m\Objects\win_b64\mkcsc\CATOmsSchema.cscdb|.\ObjectModelerSDM\CATOmsSchema.m
INT/000/CUS .\win_b64\code\bin\CATOmsSchema.pdb|.\ObjectModelerSDM\CATOmsSchema.m
@type='SHARED_LIBRARY'
@clr='false'
@kind='NATIVE'
@deliverable='true'
@built='true'
