!<mkRTViewData> v1.0.0
CSC/002/DSI .\PolyhedralMathematics\IdentityCard\Objects\win_b64\mkcsc\PolyhedralMathematics.cscdb|.\PolyhedralMathematics
BTV/002/CUS .\win_b64\code\productIC\PolyhedralMathematicsIC.script|.\PolyhedralMathematics
BTV/002/CUS .\win_b64\code\productIC\PolyhedralMathematicsIC.xml|.\PolyhedralMathematics
RTV/002/DSI .\win_b64\code\productIC\PolyhedralMathematicsIC.required|.\PolyhedralMathematics
@type='codeFramework'
@built='true'
