!<mkRTViewData> v1.0.0
CSC/000/DSI .\DNBFasReporting\DNBFasReportingUtils.m\Objects\win_b64\mkcsc\DNBFasReportingUtils.cscdb|.\DNBFasReporting\DNBFasReportingUtils.m
@type='NONE'
@clr='false'
@kind='INCLUDED'
@deliverable='true'
@built='true'
