!<mkRTViewData> v1.0.0
CSC/000/DSI .\DraftingAnnotation\IDV4APP.m\Objects\win_b64\mkcsc\IDV4APP.cscdb|.\DraftingAnnotation\IDV4APP.m
@type='NONE'
@clr='false'
@kind='INCLUDED'
@deliverable='true'
@built='true'
