// COPYRIGHT DASSAULT SYSTEMES 2016
// here follow basic block definition
// - internal use only
// - any modification to this file must be checked before deliveries
// 
block CATTPSIntersectionPlaneData {
  int $allocate #offset(1)
  specobject $allocate #offset(1)
  int `IntersectionPlaneEnum` #offset(1)
  specobject `IntersectionPlaneDF` #offset(1)
}
