// COPYRIGHT DASSAULT SYSTEMES 2010
// here follow basic block definition
// - internal use only
// - any modification to this file must be checked before deliveries
// 
block CATTPSDRFDOFData {
  int $allocate #offset(0)
  int $list #offset(1)
  int `DegreesOfFreedom` #offset(1) #list
}
