// COPYRIGHT DASSAULT SYSTEMES 2013
// here follow basic block definition
// - internal use only
// - any modification to this file must be checked before deliveries
// 
block CATTPSVisuTextDatumPatternData {
  specobject $allocate #offset(1)
  string $allocate #offset(1)
  specobject `VisuTextDatumPattern` #offset(1)
  string `VisuTextDatumPatternString` #offset(1)
}
