// COPYRIGHT DASSAULT SYSTEMES 2012
// here follow basic block definition
// - internal use only
// - any modification to this file must be checked before deliveries
// 
block CATTPSLayoutRatioData
{
  double $allocate #offset(1)
  double `LayoutRatio` #offset(1) 
}
