// COPYRIGHT DASSAULT SYSTEMES 2008
// here follow basic block definition
// - internal use only
// - any modification to this file must be checked before deliveries
// 
block CATTPSSetSchemaData {
  string $allocate #offset(0)
  string `SchemaData` #offset(1) #list
}
