// COPYRIGHT DASSAULT SYSTEMES 2005
// here follow basic block definition
// - internal use only
// - any modification to this file must be checked before deliveries
// 
block CATTPSCapturePartInstAndBodyIndexData {
  int $allocate #offset(0)
  int $list #offset(1)
  int `PartInstAndBodyIndex` #offset(1) #list
}
