// COPYRIGHT DASSAULT SYSTEMES 2013
// here follow basic block definition
// - internal use only
// - any modification to this file must be checked before deliveries
// 
block CATTPSTargetSizeDisplayData {
  int $allocate #offset(1)
  int `DatumTargetSizeDisplay` #offset(1)
}
