// COPYRIGHT DASSAULT SYSTEMES 2005
// here follow basic block definition
// - internal use only
// - any modification to this file must be checked before deliveries
// 
block CATTPSFeaturesData {
  component $allocate #offset(0)
  component $list #offset(1)
  component `_FtrList` #offset(1) #list
}
