// COPYRIGHT DASSAULT SYSTEMES 2005
// here follow basic block definition
// - internal use only
// - any modification to this file must be checked before deliveries
// 
block CATTPSGenerativeDimData {
  specobject $allocate #offset(1)
  specobject $list #offset(2)
  specobject `MFeature` #offset(1)
  specobject `MfParameters` #offset(2) #list
}
