// COPYRIGHT DASSAULT SYSTEMES 2013
// here follow basic block definition
// - internal use only
// - any modification to this file must be checked before deliveries
// 
block CATTPSDatumProjectedModifierData {
  boolean $allocate #offset(2)
  specobject $allocate #offset(0)
  specobject $list #offset(1)
  boolean `ExtendedFeature` #offset(1)
  boolean `ExtendedFeatureShowInDRF` #offset(2)
  specobject `ExtendedFeatureCG` #offset(1) #list
}
