// COPYRIGHT DASSAULT SYSTEMES 2005
// here follow basic block definition
// - internal use only
// - any modification to this file must be checked before deliveries
// 
block CATTPSFlagNoteData #block::upgrade(CATTPSFlagNoteDataUpgrade01)
{
  external $allocate #offset(50)
  external `LiensUrl` #offset(1)
}
