// COPYRIGHT DASSAULT SYSTEMES 2005
// here follow basic block definition
// - internal use only
// - any modification to this file must be checked before deliveries
// 
block CATTPSTolUnitBasisData {
  int $allocate #offset(2)
  boolean $allocate #offset(3)
  component $allocate #offset(4)
  int `ResValueType` #offset(1)
  int `UnitBasisAreaRadio` #offset(2)
  component `ResNumValue` #offset(1)
  component `ResTabValue` #offset(2)
  component `UnitBasisLength1` #offset(3)
  component `UnitBasisLength2` #offset(4)
  boolean `RestrictiveValue` #offset(1)
  boolean `UnitBasis` #offset(2)
  boolean `UnitBasisSquareArea` #offset(3)
}
