// COPYRIGHT DASSAULT SYSTEMES 2010
// here follow basic block definition
// - internal use only
// - any modification to this file must be checked before deliveries
// 
block CATTPSDRFData {
  int $allocate #offset(0)
  int $list #offset(1)
  specobject $allocate #offset(1)
  boolean $allocate #offset(0)
  boolean $list #offset(1)
  double $allocate #offset(0)
  double $list #offset(1)
  int `Modifier` #offset(1) #list
  specobject `AxisSystem` #offset(1)
  boolean `DatumTranslation` #offset(1) #list
  double `BoundaryValue` #offset(1) #list
}
