// COPYRIGHT DASSAULT SYSTEMES 2016
// here follow basic block definition
// - internal use only
// - any modification to this file must be checked before deliveries
// 
block CATTPSDimFreeStateData {
  int $allocate #offset(1)
  int `FreeState` #offset(1)
}
