// COPYRIGHT DASSAULT SYSTEMES 2005
// here follow basic block definition
// - internal use only
// - any modification to this file must be checked before deliveries
// 
block CATTPSAttLinksData {
  component $allocate #offset(1)
  component `AttLinks` #offset(1)
}
