// COPYRIGHT DASSAULT SYSTEMES 2012
// here follow basic block definition
// - internal use only
// - any modification to this file must be checked before deliveries
// 
block CATTPSCapture2DLViewsData {
  specobject $allocate #offset(0)
  specobject $list #offset(1)
  specobject `Captured2DLViews` #offset(1) #list
}
