// COPYRIGHT DASSAULT SYSTEMES 2005
// here follow basic block definition
// - internal use only
// - any modification to this file must be checked before deliveries
// 
block CATTPSCapturedTPSsData {
  int $allocate #offset(4)
  double $allocate #offset(5)
  double `PosX` #offset(1)
  double `PosY` #offset(2)
  double `PosZ` #offset(3)
  double `Angle` #offset(4)
  double `FontSize` #offset(5)
  int `ColorR` #offset(1)
  int `ColorG` #offset(2)
  int `ColorB` #offset(3)
  int `ColorTransparency` #offset(4)
}
