// COPYRIGHT DASSAULT SYSTEMES 2005
// here follow basic block definition
// - internal use only
// - any modification to this file must be checked before deliveries
// 
block CATTasSDPoissonData {
  double $allocate #offset(1)
  double `Lambda` #offset(1)
}
