// COPYRIGHT DASSAULT SYSTEMES 2005
// here follow basic block definition
// - internal use only
// - any modification to this file must be checked before deliveries
// 
block PComponent {
  component $allocate #offset(0)
  component $list #offset(1)
  component ListComponent #offset(1)
}
