// COPYRIGHT DASSAULT SYSTEMES 2008
// here follow basic block definition
// - internal use only
// - any modification to this file must be checked before deliveries
// 
block RGEApplAttr {
  int $allocate #offset(0)
  int `RGEAttr` #offset(1) #list
}
