// COPYRIGHT DASSAULT SYSTEMES 2005
// here follow basic block definition
// - internal use only
// - any modification to this file must be checked before deliveries
// 
block RGEInteger {
  int $allocate #offset(2)
  int $list #offset(1)
  int `liste_int` #list #offset(1) #relative
}
