// COPYRIGHT DASSAULT SYSTEMES 2005
// here follow basic block definition
// - internal use only
// - any modification to this file must be checked before deliveries
// 
block Set {
  int $allocate #offset(1)
  specobject $allocate #offset(0)
  specobject $list #offset(1)
  int SetSize #offset(1) #relative
  specobject SetElements #offset(1) #list #relative
}
