!<mkRTViewData> v1.0.0
RTV/001/CUS .\win_b64\code\bin\CATSamVisuImpl.dll|.\CATAnalysisVisuInterfaces\CATSamVisuImpl.m
INT/000/CUS .\win_b64\code\lib\CATSamVisuImpl.exp|.\CATAnalysisVisuInterfaces\CATSamVisuImpl.m
CSC/000/DSI .\CATAnalysisVisuInterfaces\CATSamVisuImpl.m\Objects\win_b64\mkcsc\CATSamVisuImpl.cscdb|.\CATAnalysisVisuInterfaces\CATSamVisuImpl.m
BTV/000/CUS .\win_b64\code\lib\CATSamVisuImpl.lib|.\CATAnalysisVisuInterfaces\CATSamVisuImpl.m
INT/000/CUS .\win_b64\code\bin\CATSamVisuImpl.pdb|.\CATAnalysisVisuInterfaces\CATSamVisuImpl.m
@type='SHARED_LIBRARY'
@clr='false'
@kind='NATIVE'
@deliverable='true'
@built='true'
