NominalSize	BendRadius(in)	DiameterFactor	NumberOfMiterCuts
1in	0	0.0	0
2in	0	0.0	0
4in	0	0.0	0
6in	0	0.0	0
8in	0	0.0	0
10in	0	0.0	0
12in	0	0.0	0
14in	0	0.0	0
16in	0	0.0	0
18in	0	0.0	0
20in	0	0.0	0
22in	0	0.0	0
24in	0	0.0	0
