!<mkRTViewData> v1.0.0
RTV/001/CUS .\win_b64\code\bin\CATSktSettings.dll|.\SketcherToolsUI\CATSktSettings.m
CSC/000/DSI .\SketcherToolsUI\CATSktSettings.m\Objects\win_b64\mkcsc\CATSktSettings.cscdb|.\SketcherToolsUI\CATSktSettings.m
BTV/000/CUS .\win_b64\code\lib\CATSktSettings.lib|.\SketcherToolsUI\CATSktSettings.m
INT/000/CUS .\win_b64\code\bin\CATSktSettings.pdb|.\SketcherToolsUI\CATSktSettings.m
INT/000/CUS .\win_b64\code\lib\CATSktSettings.exp|.\SketcherToolsUI\CATSktSettings.m
@type='SHARED_LIBRARY'
@clr='false'
@kind='NATIVE'
@deliverable='true'
@built='true'
