!<mkRTViewData> v1.0.0
CSC/000/DSI .\ManufacturingInterfaces\ManufacturingPubIdl.m\Objects\win_b64\mkcsc\ManufacturingPubIdl.cscdb|.\ManufacturingInterfaces\ManufacturingPubIdl.m
@type='NONE'
@clr='false'
@kind='INCLUDED'
@deliverable='true'
@built='true'
