!<mkRTViewData> v1.0.0
RTV/001/CUS .\win_b64\code\bin\DNBGraphEditor.dll|.\DNBGraphEditor\DNBGraphEditor.m
INT/000/CUS .\win_b64\code\lib\DNBGraphEditor.exp|.\DNBGraphEditor\DNBGraphEditor.m
BTV/000/CUS .\win_b64\code\lib\DNBGraphEditor.lib|.\DNBGraphEditor\DNBGraphEditor.m
INT/000/CUS .\win_b64\code\bin\DNBGraphEditor.pdb|.\DNBGraphEditor\DNBGraphEditor.m
CSC/000/DSI .\DNBGraphEditor\DNBGraphEditor.m\Objects\win_b64\mkcsc\DNBGraphEditor.cscdb|.\DNBGraphEditor\DNBGraphEditor.m
@type='SHARED_LIBRARY'
@clr='false'
@kind='NATIVE'
@deliverable='true'
@built='true'
