!<mkRTViewData> v1.0.0
CSC/000/DSI .\CATCloudEditorInterfaces\CATCloudEditorItfCPP.m\Objects\win_b64\mkcsc\CATCloudEditorItfCPP.cscdb|.\CATCloudEditorInterfaces\CATCloudEditorItfCPP.m
@type='NONE'
@clr='false'
@kind='INCLUDED'
@deliverable='true'
@built='true'
