!<mkRTViewData> v1.0.0
INT/000/CUS .\win_b64\code\lib\CATCclInterfaces.exp|.\ComponentsCatalogsInterfaces\CATCclInterfaces.m
CSC/000/DSI .\ComponentsCatalogsInterfaces\CATCclInterfaces.m\Objects\win_b64\mkcsc\CATCclInterfaces.cscdb|.\ComponentsCatalogsInterfaces\CATCclInterfaces.m
BTV/000/CUS .\win_b64\code\lib\CATCclInterfaces.lib|.\ComponentsCatalogsInterfaces\CATCclInterfaces.m
INT/000/CUS .\win_b64\code\bin\CATCclInterfaces.pdb|.\ComponentsCatalogsInterfaces\CATCclInterfaces.m
RTV/001/CUS .\win_b64\code\bin\CATCclInterfaces.dll|.\ComponentsCatalogsInterfaces\CATCclInterfaces.m
@type='SHARED_LIBRARY'
@clr='false'
@kind='NATIVE'
@deliverable='true'
@built='true'
