!<mkRTViewData> v1.0.0
INT/000/CUS .\win_b64\code\lib\CATExpOrientationPredicates.exp|.\CATMathExactPredicates\CATExpOrientationPredicates.m
INT/000/CUS .\win_b64\code\bin\CATExpOrientationPredicates.pdb|.\CATMathExactPredicates\CATExpOrientationPredicates.m
BTV/000/CUS .\win_b64\code\lib\CATExpOrientationPredicates.lib|.\CATMathExactPredicates\CATExpOrientationPredicates.m
RTV/001/CUS .\win_b64\code\bin\CATExpOrientationPredicates.dll|.\CATMathExactPredicates\CATExpOrientationPredicates.m
CSC/000/DSI .\CATMathExactPredicates\CATExpOrientationPredicates.m\Objects\win_b64\mkcsc\CATExpOrientationPredicates.cscdb|.\CATMathExactPredicates\CATExpOrientationPredicates.m
@type='SHARED_LIBRARY'
@clr='false'
@kind='NATIVE'
@deliverable='true'
@built='true'
