!<mkRTViewData> v1.0.0
INT/000/CUS .\win_b64\code\lib\CATDMUCgrSettings.exp|.\ObjectSceneManagement\CATDMUCgrSettings.m
BTV/000/CUS .\win_b64\code\lib\CATDMUCgrSettings.lib|.\ObjectSceneManagement\CATDMUCgrSettings.m
CSC/000/DSI .\ObjectSceneManagement\CATDMUCgrSettings.m\Objects\win_b64\mkcsc\CATDMUCgrSettings.cscdb|.\ObjectSceneManagement\CATDMUCgrSettings.m
RTV/001/CUS .\win_b64\code\bin\CATDMUCgrSettings.dll|.\ObjectSceneManagement\CATDMUCgrSettings.m
INT/000/CUS .\win_b64\code\bin\CATDMUCgrSettings.pdb|.\ObjectSceneManagement\CATDMUCgrSettings.m
@type='SHARED_LIBRARY'
@clr='false'
@kind='NATIVE'
@deliverable='true'
@built='true'
