!<mkRTViewData> v1.0.0
CSC/000/DSI .\FreeStyleResources\CATFrrUtilities.m\Objects\win_b64\mkcsc\CATFrrUtilities.cscdb|.\FreeStyleResources\CATFrrUtilities.m
@type='NONE'
@clr='false'
@kind='INCLUDED'
@deliverable='true'
@built='true'
