!<mkRTViewData> v1.0.0
CSC/000/DSI .\TopologicalOperators\TopoMatch.m\Objects\win_b64\mkcsc\TopoMatch.cscdb|.\TopologicalOperators\TopoMatch.m
@type='NONE'
@clr='false'
@kind='INCLUDED'
@deliverable='true'
@built='true'
