!<mkRTViewData> v1.0.0
CSC/000/DSI .\DNBIgpSetupCommands\DNBIgpCreateCallTask.m\Objects\win_b64\mkcsc\DNBIgpCreateCallTask.cscdb|.\DNBIgpSetupCommands\DNBIgpCreateCallTask.m
@type='NONE'
@clr='false'
@kind='INCLUDED'
@deliverable='true'
@built='true'
