!<mkRTViewData> v1.0.0
RTV/001/CUS .\win_b64\code\bin\RouV4Services.dll|.\CATRoutable\RouV4Services.m
INT/000/CUS .\win_b64\code\bin\RouV4Services.pdb|.\CATRoutable\RouV4Services.m
BTV/000/CUS .\win_b64\code\lib\RouV4Services.lib|.\CATRoutable\RouV4Services.m
CSC/000/DSI .\CATRoutable\RouV4Services.m\Objects\win_b64\mkcsc\RouV4Services.cscdb|.\CATRoutable\RouV4Services.m
INT/000/CUS .\win_b64\code\lib\RouV4Services.exp|.\CATRoutable\RouV4Services.m
@type='SHARED_LIBRARY'
@clr='false'
@kind='NATIVE'
@deliverable='true'
@built='true'
