!<mkRTViewData> v1.0.0
CSC/000/DSI .\ObjectModelerBase\CATDLNameMigr.m\Objects\win_b64\mkcsc\CATDLNameMigr.cscdb|.\ObjectModelerBase\CATDLNameMigr.m
INT/000/CUS .\win_b64\code\bin\CATDLNameMigr.pdb|.\ObjectModelerBase\CATDLNameMigr.m
RTV/001/CUS .\win_b64\code\bin\CATDLNameMigr.exe|.\ObjectModelerBase\CATDLNameMigr.m
@type='LOAD_MODULE'
@clr='false'
@kind='NATIVE'
@deliverable='true'
@built='true'
