!<mkRTViewData> v1.0.0
RTV/001/CUS .\win_b64\code\bin\CATJNIAnnotationTypeLib.dll|.\CATTPSInterfaces\CATJNIAnnotationTypeLib.m
INT/000/CUS .\win_b64\code\lib\CATJNIAnnotationTypeLib.exp|.\CATTPSInterfaces\CATJNIAnnotationTypeLib.m
CSC/000/DSI .\CATTPSInterfaces\CATJNIAnnotationTypeLib.m\Objects\win_b64\mkcsc\CATJNIAnnotationTypeLib.cscdb|.\CATTPSInterfaces\CATJNIAnnotationTypeLib.m
INT/000/CUS .\win_b64\code\bin\CATJNIAnnotationTypeLib.pdb|.\CATTPSInterfaces\CATJNIAnnotationTypeLib.m
BTV/000/CUS .\win_b64\code\lib\CATJNIAnnotationTypeLib.lib|.\CATTPSInterfaces\CATJNIAnnotationTypeLib.m
@type='SHARED_LIBRARY'
@clr='false'
@kind='NATIVE'
@deliverable='true'
@built='true'
