!<mkRTViewData> v1.0.0
CSC/000/DSI .\PCBoardBase\PCBPubIDL.m\Objects\win_b64\mkcsc\PCBPubIDL.cscdb|.\PCBoardBase\PCBPubIDL.m
@type='SHARED_LIBRARY'
@clr='false'
@kind='NATIVE'
@deliverable='true'
@built='false'
