!<mkRTViewData> v1.0.0
CSC/000/DSI .\NewTopologicalObjects\Topology.m\Objects\win_b64\mkcsc\Topology.cscdb|.\NewTopologicalObjects\Topology.m
@type='NONE'
@clr='false'
@kind='INCLUDED'
@deliverable='true'
@built='true'
