!<mkRTViewData> v1.0.0
INT/000/CUS .\win_b64\code\bin\MPConfig.pdb|.\CATIAApplicationFrame\MPConfig.m
BTV/000/CUS .\win_b64\code\lib\MPConfig.lib|.\CATIAApplicationFrame\MPConfig.m
RTV/001/CUS .\win_b64\code\bin\MPConfig.dll|.\CATIAApplicationFrame\MPConfig.m
CSC/000/DSI .\CATIAApplicationFrame\MPConfig.m\Objects\win_b64\mkcsc\MPConfig.cscdb|.\CATIAApplicationFrame\MPConfig.m
INT/000/CUS .\win_b64\code\lib\MPConfig.exp|.\CATIAApplicationFrame\MPConfig.m
@type='SHARED_LIBRARY'
@clr='false'
@kind='NATIVE'
@deliverable='true'
@built='true'
