!<mkRTViewData> v1.0.0
CSC/000/DSI .\PartDesignFeature\PartDesignFeatureV6Resources.m\Objects\win_b64\mkcsc\PartDesignFeatureV6Resources.cscdb|.\PartDesignFeature\PartDesignFeatureV6Resources.m
@type='NONE'
@clr='false'
@kind='INCLUDED'
@deliverable='true'
@built='false'
