!<mkRTViewData> v1.0.0
INT/000/CUS .\win_b64\code\lib\CATRdgItf.exp|.\CATRdgInterfaces\CATRdgItf.m
RTV/001/CUS .\win_b64\code\bin\CATRdgItf.dll|.\CATRdgInterfaces\CATRdgItf.m
CSC/000/DSI .\CATRdgInterfaces\CATRdgItf.m\Objects\win_b64\mkcsc\CATRdgItf.cscdb|.\CATRdgInterfaces\CATRdgItf.m
INT/000/CUS .\win_b64\code\bin\CATRdgItf.pdb|.\CATRdgInterfaces\CATRdgItf.m
BTV/000/CUS .\win_b64\code\lib\CATRdgItf.lib|.\CATRdgInterfaces\CATRdgItf.m
@type='SHARED_LIBRARY'
@clr='false'
@kind='NATIVE'
@deliverable='true'
@built='true'
