!<mkRTViewData> v1.0.0
INT/000/CUS .\win_b64\code\lib\CATPrsScene.exp|.\ProductStructure\CATPrsScene.m
CSC/000/DSI .\ProductStructure\CATPrsScene.m\Objects\win_b64\mkcsc\CATPrsScene.cscdb|.\ProductStructure\CATPrsScene.m
BTV/000/CUS .\win_b64\code\lib\CATPrsScene.lib|.\ProductStructure\CATPrsScene.m
RTV/001/CUS .\win_b64\code\bin\CATPrsScene.dll|.\ProductStructure\CATPrsScene.m
INT/000/CUS .\win_b64\code\bin\CATPrsScene.pdb|.\ProductStructure\CATPrsScene.m
@type='SHARED_LIBRARY'
@clr='false'
@kind='NATIVE'
@deliverable='true'
@built='true'
