!<mkRTViewData> v1.0.0
RTV/001/CUS .\win_b64\code\bin\tls12d.dll|.\DNBBuild\tls12d.m
INT/000/CUS .\win_b64\code\bin\tls12d.pdb|.\DNBBuild\tls12d.m
INT/000/CUS .\win_b64\code\lib\tls12d.exp|.\DNBBuild\tls12d.m
CSC/000/DSI .\DNBBuild\tls12d.m\Objects\win_b64\mkcsc\tls12d.cscdb|.\DNBBuild\tls12d.m
BTV/000/CUS .\win_b64\code\lib\tls12d.lib|.\DNBBuild\tls12d.m
@type='SHARED_LIBRARY'
@clr='false'
@kind='NATIVE'
@deliverable='true'
@built='true'
