!<mkRTViewData> v1.0.0
RTV/002/DSI .\win_b64\resources\msgcatalog\DbcsTest\AUTCsmUIBuildOptionsDlg.CATNls|.\AUTCsmUI\CNext.specifics_Windows_NT\resources\msgcatalog\AUTCsmUIBuildOptionsDlg.CATNls
DAT/002/CUS .\win_b64\resources\msgcatalog\AUTCsmUIGeneOptionsDlg.CATRsc|.\AUTCsmUI\CNext.specifics_Windows_NT\resources\msgcatalog\AUTCsmUIGeneOptionsDlg.CATRsc
DAT/002/CUS .\win_b64\resources\msgcatalog\AUTCsmUIGeneAddInCommandHeader.CATNls|.\AUTCsmUI\CNext.specifics_Windows_NT\resources\msgcatalog\AUTCsmUIGeneAddInCommandHeader.CATNls
RTV/002/DSI .\win_b64\resources\msgcatalog\DbcsTest\AUTCsmUIGeneOptions.CATNls|.\AUTCsmUI\CNext.specifics_Windows_NT\resources\msgcatalog\AUTCsmUIGeneOptions.CATNls
DAT/002/CUS .\win_b64\resources\msgcatalog\AUTCsmCommonPropDlg.CATRsc|.\AUTCsmUI\CNext.specifics_Windows_NT\resources\msgcatalog\AUTCsmCommonPropDlg.CATRsc
DAT/002/CUS .\win_b64\resources\graphic\icons\I_AUTCsmUIImportArrayFromText.bmp|.\AUTCsmUI\CNext.specifics_Windows_NT\resources\graphic\icons\I_AUTCsmUIImportArrayFromText.bmp
DAT/002/CUS .\win_b64\resources\graphic\icons\I_AUTCsmTypeRecordOut.bmp|.\AUTCsmUI\CNext.specifics_Windows_NT\resources\graphic\icons\I_AUTCsmTypeRecordOut.bmp
DAT/002/CUS .\win_b64\resources\msgcatalog\AUTCsmUISearchInstances.CATRsc|.\AUTCsmUI\CNext.specifics_Windows_NT\resources\msgcatalog\AUTCsmUISearchInstances.CATRsc
RTV/002/DSI .\win_b64\resources\msgcatalog\DbcsTest\AUTCsmUILibManagerDlg.CATNls|.\AUTCsmUI\CNext.specifics_Windows_NT\resources\msgcatalog\AUTCsmUILibManagerDlg.CATNls
RTV/002/DSI .\win_b64\resources\msgcatalog\DbcsTest\AUTCsmCommonPropDlg.CATNls|.\AUTCsmUI\CNext.specifics_Windows_NT\resources\msgcatalog\AUTCsmCommonPropDlg.CATNls
DAT/002/CUS .\win_b64\resources\msgcatalog\AUTCsmWorkspacePropEditDlg.CATRsc|.\AUTCsmUI\CNext.specifics_Windows_NT\resources\msgcatalog\AUTCsmWorkspacePropEditDlg.CATRsc
DAT/002/CUS .\win_b64\resources\msgcatalog\AUTCsmCommonPropDlg.CATNls|.\AUTCsmUI\CNext.specifics_Windows_NT\resources\msgcatalog\AUTCsmCommonPropDlg.CATNls
DAT/002/CUS .\win_b64\resources\graphic\icons\I_AUTCsmTypeRecordIn.bmp|.\AUTCsmUI\CNext.specifics_Windows_NT\resources\graphic\icons\I_AUTCsmTypeRecordIn.bmp
DAT/002/CUS .\win_b64\resources\graphic\icons\I_WksControlSpec.bmp|.\AUTCsmUI\CNext.specifics_Windows_NT\resources\graphic\icons\I_WksControlSpec.bmp
RTV/002/DSI .\win_b64\resources\msgcatalog\NlsTest\AUTCsmUIBuildOptionsDlg.CATNls|.\AUTCsmUI\CNext.specifics_Windows_NT\resources\msgcatalog\AUTCsmUIBuildOptionsDlg.CATNls
DAT/002/CUS .\win_b64\resources\msgcatalog\AUTCsmExploreDlg.CATNls|.\AUTCsmUI\CNext.specifics_Windows_NT\resources\msgcatalog\AUTCsmExploreDlg.CATNls
DAT/002/CUS .\win_b64\resources\msgcatalog\AUTCsmUIWorkingModeDlg.CATRsc|.\AUTCsmUI\CNext.specifics_Windows_NT\resources\msgcatalog\AUTCsmUIWorkingModeDlg.CATRsc
RTV/002/DSI .\win_b64\resources\msgcatalog\DbcsTest\AUTCsmUISearchInstancesCmd.CATNls|.\AUTCsmUI\CNext.specifics_Windows_NT\resources\msgcatalog\AUTCsmUISearchInstancesCmd.CATNls
DAT/002/CUS .\win_b64\resources\graphic\icons\I_AUTCsmTypeTuple.bmp|.\AUTCsmUI\CNext.specifics_Windows_NT\resources\graphic\icons\I_AUTCsmTypeTuple.bmp
RTV/002/DSI .\win_b64\resources\msgcatalog\NlsTest\AUTCsmUISearchInstancesCmd.CATNls|.\AUTCsmUI\CNext.specifics_Windows_NT\resources\msgcatalog\AUTCsmUISearchInstancesCmd.CATNls
RTV/002/DSI .\win_b64\resources\msgcatalog\NlsTest\AUTCsmEditTypeDlg.CATNls|.\AUTCsmUI\CNext.specifics_Windows_NT\resources\msgcatalog\AUTCsmEditTypeDlg.CATNls
DAT/002/CUS .\win_b64\resources\graphic\icons\I_WksTestingScenario.bmp|.\AUTCsmUI\CNext.specifics_Windows_NT\resources\graphic\icons\I_WksTestingScenario.bmp
DAT/002/CUS .\win_b64\resources\graphic\icons\I_AUTCsmUIADCleaner.bmp|.\AUTCsmUI\CNext.specifics_Windows_NT\resources\graphic\icons\I_AUTCsmUIADCleaner.bmp
DAT/002/CUS .\win_b64\resources\msgcatalog\AUTCsmUIGeneOptions.CATNls|.\AUTCsmUI\CNext.specifics_Windows_NT\resources\msgcatalog\AUTCsmUIGeneOptions.CATNls
RTV/002/DSI .\win_b64\resources\msgcatalog\NlsTest\AUTCsmUILibManagerCmd.CATNls|.\AUTCsmUI\CNext.specifics_Windows_NT\resources\msgcatalog\AUTCsmUILibManagerCmd.CATNls
DAT/002/CUS .\win_b64\resources\graphic\icons\I_Output.bmp|.\AUTCsmUI\CNext.specifics_Windows_NT\resources\graphic\icons\I_Output.bmp
RTV/002/DSI .\win_b64\resources\msgcatalog\NlsTest\AUTCsmSelPrdInProd.CATNls|.\AUTCsmUI\CNext.specifics_Windows_NT\resources\msgcatalog\AUTCsmSelPrdInProd.CATNls
DAT/002/CUS .\win_b64\resources\msgcatalog\AUTCsmUIStdLibsDlg.CATRsc|.\AUTCsmUI\CNext.specifics_Windows_NT\resources\msgcatalog\AUTCsmUIStdLibsDlg.CATRsc
RTV/002/DSI .\win_b64\resources\msgcatalog\DbcsTest\AUTCsmChooseStdLibDlg.CATNls|.\AUTCsmUI\CNext.specifics_Windows_NT\resources\msgcatalog\AUTCsmChooseStdLibDlg.CATNls
RTV/002/DSI .\win_b64\resources\msgcatalog\DbcsTest\AUTCsmUISaveAsCGMDlg.CATNls|.\AUTCsmUI\CNext.specifics_Windows_NT\resources\msgcatalog\AUTCsmUISaveAsCGMDlg.CATNls
DAT/002/CUS .\win_b64\resources\graphic\icons\I_AUTCsmTypeTupleInOut.bmp|.\AUTCsmUI\CNext.specifics_Windows_NT\resources\graphic\icons\I_AUTCsmTypeTupleInOut.bmp
DAT/002/CUS .\win_b64\resources\graphic\icons\I_WksInternalLogic.bmp|.\AUTCsmUI\CNext.specifics_Windows_NT\resources\graphic\icons\I_WksInternalLogic.bmp
DAT/002/CUS .\win_b64\resources\msgcatalog\AUTCsmArrayDlgFrame.CATRsc|.\AUTCsmUI\CNext.specifics_Windows_NT\resources\msgcatalog\AUTCsmArrayDlgFrame.CATRsc
DAT/002/CUS .\win_b64\resources\msgcatalog\AUTCsmEditDlg.CATNls|.\AUTCsmUI\CNext.specifics_Windows_NT\resources\msgcatalog\AUTCsmEditDlg.CATNls
DAT/002/CUS .\win_b64\resources\graphic\icons\I_AUTCsmTypeRecordInOut.bmp|.\AUTCsmUI\CNext.specifics_Windows_NT\resources\graphic\icons\I_AUTCsmTypeRecordInOut.bmp
DAT/002/CUS .\win_b64\resources\msgcatalog\AUTCsmUIBuildOptionsDlg.CATNls|.\AUTCsmUI\CNext.specifics_Windows_NT\resources\msgcatalog\AUTCsmUIBuildOptionsDlg.CATNls
DAT/002/CUS .\win_b64\resources\graphic\icons\I_AUTCsmTypeTupleOut.bmp|.\AUTCsmUI\CNext.specifics_Windows_NT\resources\graphic\icons\I_AUTCsmTypeTupleOut.bmp
DAT/002/CUS .\win_b64\resources\msgcatalog\AUTCsmUIGeneOptionsDlg.CATNls|.\AUTCsmUI\CNext.specifics_Windows_NT\resources\msgcatalog\AUTCsmUIGeneOptionsDlg.CATNls
DAT/002/CUS .\win_b64\resources\graphic\icons\I_AUTCsmNewType.bmp|.\AUTCsmUI\CNext.specifics_Windows_NT\resources\graphic\icons\I_AUTCsmNewType.bmp
DAT/002/CUS .\win_b64\resources\graphic\icons\I_AUTCsmLibOk.bmp|.\AUTCsmUI\CNext.specifics_Windows_NT\resources\graphic\icons\I_AUTCsmLibOk.bmp
DAT/002/CUS .\win_b64\resources\graphic\icons\I_AUTCsmSetAsTypeTuple.bmp|.\AUTCsmUI\CNext.specifics_Windows_NT\resources\graphic\icons\I_AUTCsmSetAsTypeTuple.bmp
RTV/002/DSI .\win_b64\resources\msgcatalog\NlsTest\AUTCsmUIWorkingModeDlg.CATNls|.\AUTCsmUI\CNext.specifics_Windows_NT\resources\msgcatalog\AUTCsmUIWorkingModeDlg.CATNls
BTV/002/CUS .\win_b64\code\productIC\AUTCsmUIIC.xml|.\AUTCsmUI
DAT/002/CUS .\win_b64\resources\graphic\icons\I_InputOutput.bmp|.\AUTCsmUI\CNext.specifics_Windows_NT\resources\graphic\icons\I_InputOutput.bmp
RTV/002/DSI .\win_b64\resources\msgcatalog\NlsTest\AUTCsmUIVerifAllCmd.CATNls|.\AUTCsmUI\CNext.specifics_Windows_NT\resources\msgcatalog\AUTCsmUIVerifAllCmd.CATNls
RTV/002/DSI .\win_b64\resources\msgcatalog\DbcsTest\AUTCsmLibPropertyPageDlg.CATNls|.\AUTCsmUI\CNext.specifics_Windows_NT\resources\msgcatalog\AUTCsmLibPropertyPageDlg.CATNls
DAT/002/CUS .\win_b64\resources\msgcatalog\AUTCsmUIGeneAddin.CATNls|.\AUTCsmUI\CNext.specifics_Windows_NT\resources\msgcatalog\AUTCsmUIGeneAddin.CATNls
RTV/002/DSI .\win_b64\resources\msgcatalog\NlsTest\AUTCsmCommonPropDlg.CATNls|.\AUTCsmUI\CNext.specifics_Windows_NT\resources\msgcatalog\AUTCsmCommonPropDlg.CATNls
DAT/002/CUS .\win_b64\resources\msgcatalog\AUTCsmUIVerifAllCmd.CATNls|.\AUTCsmUI\CNext.specifics_Windows_NT\resources\msgcatalog\AUTCsmUIVerifAllCmd.CATNls
DAT/002/CUS .\win_b64\resources\msgcatalog\AUTCsmArrayDlgFrame.CATNls|.\AUTCsmUI\CNext.specifics_Windows_NT\resources\msgcatalog\AUTCsmArrayDlgFrame.CATNls
DAT/002/CUS .\win_b64\resources\graphic\icons\I_AUTCsmUISearch.bmp|.\AUTCsmUI\CNext.specifics_Windows_NT\resources\graphic\icons\I_AUTCsmUISearch.bmp
RTV/002/DSI .\win_b64\resources\msgcatalog\DbcsTest\AUTCsmSelPrdInProd.CATNls|.\AUTCsmUI\CNext.specifics_Windows_NT\resources\msgcatalog\AUTCsmSelPrdInProd.CATNls
RTV/002/DSI .\win_b64\resources\msgcatalog\DbcsTest\AUTCsmUIGeneAddInCommandHeader.CATNls|.\AUTCsmUI\CNext.specifics_Windows_NT\resources\msgcatalog\AUTCsmUIGeneAddInCommandHeader.CATNls
DAT/002/CUS .\win_b64\resources\graphic\icons\I_AUTCsmUINotVerif.bmp|.\AUTCsmUI\CNext.specifics_Windows_NT\resources\graphic\icons\I_AUTCsmUINotVerif.bmp
RTV/002/DSI .\win_b64\resources\msgcatalog\DbcsTest\AUTCsmUISaveAsCGMCmd.CATNls|.\AUTCsmUI\CNext.specifics_Windows_NT\resources\msgcatalog\AUTCsmUISaveAsCGMCmd.CATNls
RTV/002/DSI .\win_b64\resources\msgcatalog\NlsTest\AUTCsmUIGeneAddin.CATNls|.\AUTCsmUI\CNext.specifics_Windows_NT\resources\msgcatalog\AUTCsmUIGeneAddin.CATNls
RTV/002/DSI .\win_b64\resources\msgcatalog\NlsTest\AUTCsmTypeExpressionEditorDlgFrame.CATNls|.\AUTCsmUI\CNext.specifics_Windows_NT\resources\msgcatalog\AUTCsmTypeExpressionEditorDlgFrame.CATNls
DAT/002/CUS .\win_b64\resources\graphic\icons\I_AUTCsmDelete.bmp|.\AUTCsmUI\CNext.specifics_Windows_NT\resources\graphic\icons\I_AUTCsmDelete.bmp
DAT/002/CUS .\win_b64\resources\msgcatalog\AUTCsmUILibManagerCmd.CATNls|.\AUTCsmUI\CNext.specifics_Windows_NT\resources\msgcatalog\AUTCsmUILibManagerCmd.CATNls
DAT/002/CUS .\win_b64\resources\graphic\icons\I_AUTCsmUIAddArrayLevel.bmp|.\AUTCsmUI\CNext.specifics_Windows_NT\resources\graphic\icons\I_AUTCsmUIAddArrayLevel.bmp
RTV/002/DSI .\win_b64\resources\msgcatalog\NlsTest\AUTCsmBlockPropertyDlg.CATNls|.\AUTCsmUI\CNext.specifics_Windows_NT\resources\msgcatalog\AUTCsmBlockPropertyDlg.CATNls
DAT/002/CUS .\win_b64\resources\msgcatalog\AUTCsmUIBuildOptions.CATNls|.\AUTCsmUI\CNext.specifics_Windows_NT\resources\msgcatalog\AUTCsmUIBuildOptions.CATNls
DAT/002/CUS .\win_b64\resources\msgcatalog\AUTCsmUISearchDlg.CATNls|.\AUTCsmUI\CNext.specifics_Windows_NT\resources\msgcatalog\AUTCsmUISearchDlg.CATNls
RTV/002/DSI .\win_b64\resources\msgcatalog\DbcsTest\AUTCsmTypeExpressionEditorDlgFrame.CATNls|.\AUTCsmUI\CNext.specifics_Windows_NT\resources\msgcatalog\AUTCsmTypeExpressionEditorDlgFrame.CATNls
DAT/002/CUS .\win_b64\resources\graphic\icons\I_WksSimulation.bmp|.\AUTCsmUI\CNext.specifics_Windows_NT\resources\graphic\icons\I_WksSimulation.bmp
DAT/002/CUS .\win_b64\resources\msgcatalog\AUTCsmUIStdLibs.CATNls|.\AUTCsmUI\CNext.specifics_Windows_NT\resources\msgcatalog\AUTCsmUIStdLibs.CATNls
DAT/002/CUS .\win_b64\resources\graphic\icons\I_AUTCsmUIExplore.bmp|.\AUTCsmUI\CNext.specifics_Windows_NT\resources\graphic\icons\I_AUTCsmUIExplore.bmp
RTV/002/DSI .\win_b64\resources\msgcatalog\NlsTest\AUTCsmChooseStdLibDlg.CATNls|.\AUTCsmUI\CNext.specifics_Windows_NT\resources\msgcatalog\AUTCsmChooseStdLibDlg.CATNls
DAT/002/CUS .\win_b64\resources\msgcatalog\AUTCsmExploreCmd.CATNls|.\AUTCsmUI\CNext.specifics_Windows_NT\resources\msgcatalog\AUTCsmExploreCmd.CATNls
RTV/002/DSI .\win_b64\code\productIC\AUTCsmUIIC.required|.\AUTCsmUI
RTV/002/DSI .\win_b64\resources\msgcatalog\DbcsTest\AUTCsmUIBuildOptions.CATNls|.\AUTCsmUI\CNext.specifics_Windows_NT\resources\msgcatalog\AUTCsmUIBuildOptions.CATNls
RTV/002/DSI .\win_b64\resources\msgcatalog\NlsTest\AUTCsmUIGeneOptions.CATNls|.\AUTCsmUI\CNext.specifics_Windows_NT\resources\msgcatalog\AUTCsmUIGeneOptions.CATNls
DAT/002/CUS .\win_b64\resources\msgcatalog\AUTCsmUIVerifAllCmd.CATRsc|.\AUTCsmUI\CNext.specifics_Windows_NT\resources\msgcatalog\AUTCsmUIVerifAllCmd.CATRsc
RTV/002/DSI .\win_b64\resources\msgcatalog\NlsTest\AUTCsmCreateCommand.CATNls|.\AUTCsmUI\CNext.specifics_Windows_NT\resources\msgcatalog\AUTCsmCreateCommand.CATNls
DAT/002/CUS .\win_b64\resources\msgcatalog\AUTCsmWorkspacePropEditDlg.CATNls|.\AUTCsmUI\CNext.specifics_Windows_NT\resources\msgcatalog\AUTCsmWorkspacePropEditDlg.CATNls
RTV/002/DSI .\win_b64\resources\msgcatalog\NlsTest\AUTCsmUIStdLibs.CATNls|.\AUTCsmUI\CNext.specifics_Windows_NT\resources\msgcatalog\AUTCsmUIStdLibs.CATNls
DAT/002/CUS .\win_b64\resources\graphic\icons\I_AUTCsmTupleMix.bmp|.\AUTCsmUI\CNext.specifics_Windows_NT\resources\graphic\icons\I_AUTCsmTupleMix.bmp
RTV/002/DSI .\win_b64\resources\msgcatalog\NlsTest\AUTCsmEditDlg.CATNls|.\AUTCsmUI\CNext.specifics_Windows_NT\resources\msgcatalog\AUTCsmEditDlg.CATNls
DAT/002/CUS .\win_b64\resources\graphic\icons\I_AUTCsmTypeRecord.bmp|.\AUTCsmUI\CNext.specifics_Windows_NT\resources\graphic\icons\I_AUTCsmTypeRecord.bmp
DAT/002/CUS .\win_b64\resources\msgcatalog\AUTCsmSelPrdInProd.CATNls|.\AUTCsmUI\CNext.specifics_Windows_NT\resources\msgcatalog\AUTCsmSelPrdInProd.CATNls
DAT/002/CUS .\win_b64\resources\msgcatalog\AUTCsmUIStdLibsDlg.CATNls|.\AUTCsmUI\CNext.specifics_Windows_NT\resources\msgcatalog\AUTCsmUIStdLibsDlg.CATNls
DAT/002/CUS .\win_b64\resources\graphic\icons\I_AUTCsmUIRemoveArrayLevel.bmp|.\AUTCsmUI\CNext.specifics_Windows_NT\resources\graphic\icons\I_AUTCsmUIRemoveArrayLevel.bmp
RTV/002/DSI .\win_b64\resources\msgcatalog\NlsTest\AUTCsmUILibManagerDlg.CATNls|.\AUTCsmUI\CNext.specifics_Windows_NT\resources\msgcatalog\AUTCsmUILibManagerDlg.CATNls
DAT/002/CUS .\win_b64\resources\msgcatalog\AUTCsmUISearchDlg.CATRsc|.\AUTCsmUI\CNext.specifics_Windows_NT\resources\msgcatalog\AUTCsmUISearchDlg.CATRsc
RTV/002/DSI .\win_b64\resources\msgcatalog\DbcsTest\AUTCsmUIVerifAllCmd.CATNls|.\AUTCsmUI\CNext.specifics_Windows_NT\resources\msgcatalog\AUTCsmUIVerifAllCmd.CATNls
RTV/002/DSI .\win_b64\resources\msgcatalog\NlsTest\AUTCsmUIWorkingMode.CATNls|.\AUTCsmUI\CNext.specifics_Windows_NT\resources\msgcatalog\AUTCsmUIWorkingMode.CATNls
DAT/002/CUS .\win_b64\resources\msgcatalog\AUTCsmUIStdLibs.CATRsc|.\AUTCsmUI\CNext.specifics_Windows_NT\resources\msgcatalog\AUTCsmUIStdLibs.CATRsc
RTV/002/DSI .\win_b64\resources\msgcatalog\DbcsTest\AUTCsmEditDlg.CATNls|.\AUTCsmUI\CNext.specifics_Windows_NT\resources\msgcatalog\AUTCsmEditDlg.CATNls
DAT/002/CUS .\win_b64\resources\msgcatalog\AUTCsmLibPropertyPageDlg.CATNls|.\AUTCsmUI\CNext.specifics_Windows_NT\resources\msgcatalog\AUTCsmLibPropertyPageDlg.CATNls
RTV/002/DSI .\win_b64\resources\msgcatalog\NlsTest\AUTCsmArrayDlgFrame.CATNls|.\AUTCsmUI\CNext.specifics_Windows_NT\resources\msgcatalog\AUTCsmArrayDlgFrame.CATNls
RTV/002/DSI .\win_b64\resources\msgcatalog\NlsTest\AUTCsmUIGeneAddInCommandHeader.CATNls|.\AUTCsmUI\CNext.specifics_Windows_NT\resources\msgcatalog\AUTCsmUIGeneAddInCommandHeader.CATNls
RTV/002/DSI .\win_b64\resources\msgcatalog\NlsTest\AUTCsmExploreDlg.CATNls|.\AUTCsmUI\CNext.specifics_Windows_NT\resources\msgcatalog\AUTCsmExploreDlg.CATNls
DAT/002/CUS .\win_b64\resources\msgcatalog\AUTCsmChooseStdLibDlg.CATNls|.\AUTCsmUI\CNext.specifics_Windows_NT\resources\msgcatalog\AUTCsmChooseStdLibDlg.CATNls
DAT/002/CUS .\win_b64\resources\msgcatalog\AUTCsmUIBuildOptions.CATRsc|.\AUTCsmUI\CNext.specifics_Windows_NT\resources\msgcatalog\AUTCsmUIBuildOptions.CATRsc
DAT/002/CUS .\win_b64\code\dictionary\AUTCsmUI.iid|.\AUTCsmUI\CNext.specifics_Windows_NT\code\dictionary\AUTCsmUI.iid
DAT/002/CUS .\win_b64\resources\msgcatalog\AUTCsmUIWorkingMode.CATNls|.\AUTCsmUI\CNext.specifics_Windows_NT\resources\msgcatalog\AUTCsmUIWorkingMode.CATNls
DAT/002/CUS .\win_b64\resources\msgcatalog\AUTCsmUIGeneOptions.CATRsc|.\AUTCsmUI\CNext.specifics_Windows_NT\resources\msgcatalog\AUTCsmUIGeneOptions.CATRsc
DAT/002/CUS .\win_b64\resources\graphic\icons\I_AUTCsmLibNotFound.bmp|.\AUTCsmUI\CNext.specifics_Windows_NT\resources\graphic\icons\I_AUTCsmLibNotFound.bmp
DAT/002/CUS .\win_b64\resources\msgcatalog\AUTCsmExploreDlg.CATRsc|.\AUTCsmUI\CNext.specifics_Windows_NT\resources\msgcatalog\AUTCsmExploreDlg.CATRsc
DAT/002/CUS .\win_b64\resources\msgcatalog\AUTCsmBlockPropertyDlg.CATNls|.\AUTCsmUI\CNext.specifics_Windows_NT\resources\msgcatalog\AUTCsmBlockPropertyDlg.CATNls
DAT/002/CUS .\win_b64\resources\msgcatalog\AUTCsmDefinePositionDlg.CATNls|.\AUTCsmUI\CNext.specifics_Windows_NT\resources\msgcatalog\AUTCsmDefinePositionDlg.CATNls
DAT/002/CUS .\win_b64\resources\graphic\icons\I_AUTCsmExpandType.bmp|.\AUTCsmUI\CNext.specifics_Windows_NT\resources\graphic\icons\I_AUTCsmExpandType.bmp
DAT/002/CUS .\win_b64\resources\msgcatalog\AUTCsmUILibManagerDlg.CATNls|.\AUTCsmUI\CNext.specifics_Windows_NT\resources\msgcatalog\AUTCsmUILibManagerDlg.CATNls
DAT/002/CUS .\win_b64\resources\graphic\icons\I_AUTCsmUILibManager.bmp|.\AUTCsmUI\CNext.specifics_Windows_NT\resources\graphic\icons\I_AUTCsmUILibManager.bmp
DAT/002/CUS .\win_b64\resources\msgcatalog\AUTCsmUIGeneAddInCommandHeader.CATRsc|.\AUTCsmUI\CNext.specifics_Windows_NT\resources\msgcatalog\AUTCsmUIGeneAddInCommandHeader.CATRsc
RTV/002/DSI .\win_b64\resources\msgcatalog\NlsTest\AUTCsmUIBuildOptions.CATNls|.\AUTCsmUI\CNext.specifics_Windows_NT\resources\msgcatalog\AUTCsmUIBuildOptions.CATNls
BTV/002/CUS .\win_b64\code\productIC\AUTCsmUIIC.script|.\AUTCsmUI
DAT/002/CUS .\win_b64\code\dictionary\AUTCsmUI.dic|.\AUTCsmUI\CNext.specifics_Windows_NT\code\dictionary\AUTCsmUI.dic
DAT/002/CUS .\win_b64\resources\graphic\icons\I_WksPlcMapping.bmp|.\AUTCsmUI\CNext.specifics_Windows_NT\resources\graphic\icons\I_WksPlcMapping.bmp
DAT/002/CUS .\win_b64\resources\graphic\icons\I_AUTCsmRecordMix.bmp|.\AUTCsmUI\CNext.specifics_Windows_NT\resources\graphic\icons\I_AUTCsmRecordMix.bmp
DAT/002/CUS .\win_b64\resources\graphic\icons\I_WksControlLogic.bmp|.\AUTCsmUI\CNext.specifics_Windows_NT\resources\graphic\icons\I_WksControlLogic.bmp
RTV/002/DSI .\win_b64\resources\msgcatalog\DbcsTest\AUTCsmUIWorkingModeDlg.CATNls|.\AUTCsmUI\CNext.specifics_Windows_NT\resources\msgcatalog\AUTCsmUIWorkingModeDlg.CATNls
RTV/002/DSI .\win_b64\resources\msgcatalog\NlsTest\AUTCsmUISearchDlg.CATNls|.\AUTCsmUI\CNext.specifics_Windows_NT\resources\msgcatalog\AUTCsmUISearchDlg.CATNls
RTV/002/DSI .\win_b64\resources\msgcatalog\NlsTest\AUTCsmDefinePositionDlg.CATNls|.\AUTCsmUI\CNext.specifics_Windows_NT\resources\msgcatalog\AUTCsmDefinePositionDlg.CATNls
DAT/002/CUS .\win_b64\resources\graphic\icons\I_AUTCsmSetAsTypeRecord.bmp|.\AUTCsmUI\CNext.specifics_Windows_NT\resources\graphic\icons\I_AUTCsmSetAsTypeRecord.bmp
DAT/002/CUS .\win_b64\resources\graphic\icons\I_AUTCsmUISetDefaultValue.bmp|.\AUTCsmUI\CNext.specifics_Windows_NT\resources\graphic\icons\I_AUTCsmUISetDefaultValue.bmp
DAT/002/CUS .\win_b64\resources\msgcatalog\AUTCsmCreateCommand.CATNls|.\AUTCsmUI\CNext.specifics_Windows_NT\resources\msgcatalog\AUTCsmCreateCommand.CATNls
DAT/002/CUS .\win_b64\resources\graphic\icons\I_AUTCsmTypeTupleIn.bmp|.\AUTCsmUI\CNext.specifics_Windows_NT\resources\graphic\icons\I_AUTCsmTypeTupleIn.bmp
RTV/002/DSI .\win_b64\resources\msgcatalog\DbcsTest\AUTCsmUISearchInstances.CATNls|.\AUTCsmUI\CNext.specifics_Windows_NT\resources\msgcatalog\AUTCsmUISearchInstances.CATNls
DAT/002/CUS .\win_b64\resources\msgcatalog\AUTCsmUISaveAsCGMDlg.CATRsc|.\AUTCsmUI\CNext.specifics_Windows_NT\resources\msgcatalog\AUTCsmUISaveAsCGMDlg.CATRsc
RTV/002/DSI .\win_b64\resources\msgcatalog\DbcsTest\AUTCsmExploreDlg.CATNls|.\AUTCsmUI\CNext.specifics_Windows_NT\resources\msgcatalog\AUTCsmExploreDlg.CATNls
RTV/002/DSI .\win_b64\resources\msgcatalog\DbcsTest\AUTCsmUILibManagerCmd.CATNls|.\AUTCsmUI\CNext.specifics_Windows_NT\resources\msgcatalog\AUTCsmUILibManagerCmd.CATNls
RTV/002/DSI .\win_b64\resources\msgcatalog\NlsTest\AUTCsmUISaveAsCGMCmd.CATNls|.\AUTCsmUI\CNext.specifics_Windows_NT\resources\msgcatalog\AUTCsmUISaveAsCGMCmd.CATNls
DAT/002/CUS .\win_b64\resources\graphic\icons\I_AUTCsmTypeLeaf.bmp|.\AUTCsmUI\CNext.specifics_Windows_NT\resources\graphic\icons\I_AUTCsmTypeLeaf.bmp
DAT/002/CUS .\win_b64\code\dictionary\AUTCsmUI.fact|.\AUTCsmUI\CNext.specifics_Windows_NT\code\dictionary\AUTCsmUI.fact
DAT/002/CUS .\win_b64\resources\graphic\icons\I_AUTCsmOpenFile.bmp|.\AUTCsmUI\CNext.specifics_Windows_NT\resources\graphic\icons\I_AUTCsmOpenFile.bmp
DAT/002/CUS .\win_b64\resources\msgcatalog\AUTCsmEditTypeDlg.CATNls|.\AUTCsmUI\CNext.specifics_Windows_NT\resources\msgcatalog\AUTCsmEditTypeDlg.CATNls
DAT/002/CUS .\win_b64\resources\msgcatalog\AUTCsmUIWorkingModeDlg.CATNls|.\AUTCsmUI\CNext.specifics_Windows_NT\resources\msgcatalog\AUTCsmUIWorkingModeDlg.CATNls
DAT/002/CUS .\win_b64\resources\msgcatalog\AUTCsmTypeExpressionEditorDlgFrame.CATNls|.\AUTCsmUI\CNext.specifics_Windows_NT\resources\msgcatalog\AUTCsmTypeExpressionEditorDlgFrame.CATNls
DAT/002/CUS .\win_b64\resources\graphic\icons\I_AUTCsmUISearchInstances.bmp|.\AUTCsmUI\CNext.specifics_Windows_NT\resources\graphic\icons\I_AUTCsmUISearchInstances.bmp
DAT/002/CUS .\win_b64\resources\graphic\icons\I_WksRuntimeView.bmp|.\AUTCsmUI\CNext.specifics_Windows_NT\resources\graphic\icons\I_WksRuntimeView.bmp
DAT/002/CUS .\win_b64\resources\graphic\icons\I_AUTCsmLibFound.bmp|.\AUTCsmUI\CNext.specifics_Windows_NT\resources\graphic\icons\I_AUTCsmLibFound.bmp
DAT/002/CUS .\win_b64\resources\msgcatalog\AUTCsmUISaveAsCGMCmd.CATNls|.\AUTCsmUI\CNext.specifics_Windows_NT\resources\msgcatalog\AUTCsmUISaveAsCGMCmd.CATNls
RTV/002/DSI .\win_b64\resources\msgcatalog\DbcsTest\AUTCsmWorkspacePropEditDlg.CATNls|.\AUTCsmUI\CNext.specifics_Windows_NT\resources\msgcatalog\AUTCsmWorkspacePropEditDlg.CATNls
RTV/002/DSI .\win_b64\resources\msgcatalog\NlsTest\AUTCsmExploreCmd.CATNls|.\AUTCsmUI\CNext.specifics_Windows_NT\resources\msgcatalog\AUTCsmExploreCmd.CATNls
RTV/002/DSI .\win_b64\resources\msgcatalog\DbcsTest\AUTCsmUIStdLibs.CATNls|.\AUTCsmUI\CNext.specifics_Windows_NT\resources\msgcatalog\AUTCsmUIStdLibs.CATNls
DAT/002/CUS .\win_b64\resources\graphic\icons\I_AUTCsmUIQuickCleaner.bmp|.\AUTCsmUI\CNext.specifics_Windows_NT\resources\graphic\icons\I_AUTCsmUIQuickCleaner.bmp
DAT/002/CUS .\win_b64\resources\msgcatalog\AUTCsmBlockPropertyDlg.CATRsc|.\AUTCsmUI\CNext.specifics_Windows_NT\resources\msgcatalog\AUTCsmBlockPropertyDlg.CATRsc
CSC/002/DSI .\AUTCsmUI\IdentityCard\Objects\win_b64\mkcsc\AUTCsmUI.cscdb|.\AUTCsmUI
RTV/002/DSI .\win_b64\resources\msgcatalog\NlsTest\AUTCsmLibPropertyPageDlg.CATNls|.\AUTCsmUI\CNext.specifics_Windows_NT\resources\msgcatalog\AUTCsmLibPropertyPageDlg.CATNls
RTV/002/DSI .\win_b64\resources\msgcatalog\DbcsTest\AUTCsmCreateCommand.CATNls|.\AUTCsmUI\CNext.specifics_Windows_NT\resources\msgcatalog\AUTCsmCreateCommand.CATNls
DAT/002/CUS .\win_b64\resources\msgcatalog\AUTCsmUISearchInstancesCmd.CATNls|.\AUTCsmUI\CNext.specifics_Windows_NT\resources\msgcatalog\AUTCsmUISearchInstancesCmd.CATNls
RTV/002/DSI .\win_b64\resources\msgcatalog\DbcsTest\AUTCsmUISearchDlg.CATNls|.\AUTCsmUI\CNext.specifics_Windows_NT\resources\msgcatalog\AUTCsmUISearchDlg.CATNls
RTV/002/DSI .\win_b64\resources\msgcatalog\DbcsTest\AUTCsmUIWorkingMode.CATNls|.\AUTCsmUI\CNext.specifics_Windows_NT\resources\msgcatalog\AUTCsmUIWorkingMode.CATNls
DAT/002/CUS .\win_b64\resources\msgcatalog\AUTCsmEditTypeDlg.CATRsc|.\AUTCsmUI\CNext.specifics_Windows_NT\resources\msgcatalog\AUTCsmEditTypeDlg.CATRsc
DAT/002/CUS .\win_b64\resources\msgcatalog\AUTCsmTypeExpressionEditorDlgFrame.CATRsc|.\AUTCsmUI\CNext.specifics_Windows_NT\resources\msgcatalog\AUTCsmTypeExpressionEditorDlgFrame.CATRsc
DAT/002/CUS .\win_b64\resources\graphic\icons\I_AUTCsmUIVerif.bmp|.\AUTCsmUI\CNext.specifics_Windows_NT\resources\graphic\icons\I_AUTCsmUIVerif.bmp
DAT/002/CUS .\win_b64\resources\graphic\icons\I_LibOption.bmp|.\AUTCsmUI\CNext.specifics_Windows_NT\resources\graphic\icons\I_LibOption.bmp
DAT/002/CUS .\win_b64\resources\graphic\icons\I_Ports.bmp|.\AUTCsmUI\CNext.specifics_Windows_NT\resources\graphic\icons\I_Ports.bmp
DAT/002/CUS .\win_b64\resources\msgcatalog\AUTCsmUIWorkingMode.CATRsc|.\AUTCsmUI\CNext.specifics_Windows_NT\resources\msgcatalog\AUTCsmUIWorkingMode.CATRsc
RTV/002/DSI .\win_b64\resources\msgcatalog\NlsTest\AUTCsmUIGeneOptionsDlg.CATNls|.\AUTCsmUI\CNext.specifics_Windows_NT\resources\msgcatalog\AUTCsmUIGeneOptionsDlg.CATNls
RTV/002/DSI .\win_b64\resources\msgcatalog\DbcsTest\AUTCsmUIGeneOptionsDlg.CATNls|.\AUTCsmUI\CNext.specifics_Windows_NT\resources\msgcatalog\AUTCsmUIGeneOptionsDlg.CATNls
RTV/002/DSI .\win_b64\resources\msgcatalog\DbcsTest\AUTCsmDefinePositionDlg.CATNls|.\AUTCsmUI\CNext.specifics_Windows_NT\resources\msgcatalog\AUTCsmDefinePositionDlg.CATNls
RTV/002/DSI .\win_b64\resources\msgcatalog\DbcsTest\AUTCsmBlockPropertyDlg.CATNls|.\AUTCsmUI\CNext.specifics_Windows_NT\resources\msgcatalog\AUTCsmBlockPropertyDlg.CATNls
RTV/002/DSI .\win_b64\resources\msgcatalog\NlsTest\AUTCsmUISaveAsCGMDlg.CATNls|.\AUTCsmUI\CNext.specifics_Windows_NT\resources\msgcatalog\AUTCsmUISaveAsCGMDlg.CATNls
DAT/002/CUS .\win_b64\resources\graphic\icons\I_AUTCsmSave.bmp|.\AUTCsmUI\CNext.specifics_Windows_NT\resources\graphic\icons\I_AUTCsmSave.bmp
RTV/002/DSI .\win_b64\resources\msgcatalog\NlsTest\AUTCsmWorkspacePropEditDlg.CATNls|.\AUTCsmUI\CNext.specifics_Windows_NT\resources\msgcatalog\AUTCsmWorkspacePropEditDlg.CATNls
RTV/002/DSI .\win_b64\resources\msgcatalog\DbcsTest\AUTCsmUIGeneAddin.CATNls|.\AUTCsmUI\CNext.specifics_Windows_NT\resources\msgcatalog\AUTCsmUIGeneAddin.CATNls
DAT/002/CUS .\win_b64\resources\graphic\icons\I_AUTCsmSetAsTypeLeaf.bmp|.\AUTCsmUI\CNext.specifics_Windows_NT\resources\graphic\icons\I_AUTCsmSetAsTypeLeaf.bmp
DAT/002/CUS .\win_b64\resources\msgcatalog\AUTCsmUISaveAsCGMDlg.CATNls|.\AUTCsmUI\CNext.specifics_Windows_NT\resources\msgcatalog\AUTCsmUISaveAsCGMDlg.CATNls
RTV/002/DSI .\win_b64\resources\msgcatalog\DbcsTest\AUTCsmExploreCmd.CATNls|.\AUTCsmUI\CNext.specifics_Windows_NT\resources\msgcatalog\AUTCsmExploreCmd.CATNls
DAT/002/CUS .\win_b64\resources\msgcatalog\AUTCsmUISearchInstances.CATNls|.\AUTCsmUI\CNext.specifics_Windows_NT\resources\msgcatalog\AUTCsmUISearchInstances.CATNls
RTV/002/DSI .\win_b64\resources\msgcatalog\DbcsTest\AUTCsmUIStdLibsDlg.CATNls|.\AUTCsmUI\CNext.specifics_Windows_NT\resources\msgcatalog\AUTCsmUIStdLibsDlg.CATNls
RTV/002/DSI .\win_b64\resources\msgcatalog\DbcsTest\AUTCsmArrayDlgFrame.CATNls|.\AUTCsmUI\CNext.specifics_Windows_NT\resources\msgcatalog\AUTCsmArrayDlgFrame.CATNls
RTV/002/DSI .\win_b64\resources\msgcatalog\DbcsTest\AUTCsmEditTypeDlg.CATNls|.\AUTCsmUI\CNext.specifics_Windows_NT\resources\msgcatalog\AUTCsmEditTypeDlg.CATNls
DAT/002/CUS .\win_b64\resources\graphic\icons\I_Input.bmp|.\AUTCsmUI\CNext.specifics_Windows_NT\resources\graphic\icons\I_Input.bmp
DAT/002/CUS .\win_b64\resources\graphic\I_AUTDefaultProductImage.bmp|.\AUTCsmUI\CNext.specifics_Windows_NT\resources\graphic\I_AUTDefaultProductImage.bmp
RTV/002/DSI .\win_b64\resources\msgcatalog\NlsTest\AUTCsmUISearchInstances.CATNls|.\AUTCsmUI\CNext.specifics_Windows_NT\resources\msgcatalog\AUTCsmUISearchInstances.CATNls
RTV/002/DSI .\win_b64\resources\msgcatalog\NlsTest\AUTCsmUIStdLibsDlg.CATNls|.\AUTCsmUI\CNext.specifics_Windows_NT\resources\msgcatalog\AUTCsmUIStdLibsDlg.CATNls
@type='codeFramework'
@built='true'
