!<mkRTViewData> v1.0.0
CSC/000/DSI .\GeometricOperators\Interfaces.m\Objects\win_b64\mkcsc\Interfaces.cscdb|.\GeometricOperators\Interfaces.m
@type='NONE'
@clr='false'
@kind='INCLUDED'
@deliverable='true'
@built='true'
