!<mkRTViewData> v1.0.0
DAT/002/CUS .\win_b64\resources\graphic\icons\small\I_DNBDBGControllerSynch.bmp|.\DNBDeviceBase\CNext\resources\graphic\icons\small\I_DNBDBGControllerSynch.bmp
RTV/002/DSI .\win_b64\resources\msgcatalog\DbcsTest\DNBDevCustomReadoutDlg.CATNls|.\DNBDeviceBase\CNext\resources\msgcatalog\DNBDevCustomReadoutDlg.CATNls
RTV/002/DSI .\win_b64\resources\msgcatalog\NlsTest\DNBDeviceBaseError.CATNls|.\DNBDeviceBase\CNext\resources\msgcatalog\DNBDeviceBaseError.CATNls
RTV/002/DSI .\win_b64\resources\msgcatalog\NlsTest\DNBDevCustomReadoutDlg.CATNls|.\DNBDeviceBase\CNext\resources\msgcatalog\DNBDevCustomReadoutDlg.CATNls
DAT/002/CUS .\win_b64\resources\graphic\icons\small\I_DNBIgpMaskCurrent.bmp|.\DNBDeviceBase\CNext\resources\graphic\icons\small\I_DNBIgpMaskCurrent.bmp
DAT/002/CUS .\win_b64\resources\graphic\icons\small\I_DNBGenToolProfile.bmp|.\DNBDeviceBase\CNext\resources\graphic\icons\small\I_DNBGenToolProfile.bmp
DAT/002/CUS .\win_b64\resources\graphic\icons\normal\I_DNBGenMotionProfile.bmp|.\DNBDeviceBase\CNext\resources\graphic\icons\normal\I_DNBGenMotionProfile.bmp
RTV/002/DSI .\win_b64\resources\msgcatalog\DbcsTest\DNBDevicePropertyPageEditor.CATNls|.\DNBDeviceBase\CNext\resources\msgcatalog\DNBDevicePropertyPageEditor.CATNls
RTV/002/DSI .\win_b64\resources\msgcatalog\NlsTest\DNBDevicePropertyPageDialog.CATNls|.\DNBDeviceBase\CNext\resources\msgcatalog\DNBDevicePropertyPageDialog.CATNls
DAT/002/CUS .\win_b64\resources\graphic\icons\normal\I_DnbDevice.bmp|.\DNBDeviceBase\CNext\resources\graphic\icons\normal\I_DnbDevice.bmp
DAT/002/CUS .\win_b64\resources\msgcatalog\DNBDeviceBase.CATNls|.\DNBDeviceBase\CNext\resources\msgcatalog\DNBDeviceBase.CATNls
DAT/002/CUS .\win_b64\resources\msgcatalog\DNBDevicePropertyPageDialog.CATNls|.\DNBDeviceBase\CNext\resources\msgcatalog\DNBDevicePropertyPageDialog.CATNls
DAT/002/CUS .\win_b64\resources\graphic\icons\small\I_DNBRobController.bmp|.\DNBDeviceBase\CNext\resources\graphic\icons\small\I_DNBRobController.bmp
DAT/002/CUS .\win_b64\code\dictionary\DNBDeviceBase.iid|.\DNBDeviceBase\CNext\code\dictionary\DNBDeviceBase.iid
BTV/002/CUS .\win_b64\code\productIC\DNBDeviceBaseIC.xml|.\DNBDeviceBase
RTV/002/DSI .\win_b64\resources\msgcatalog\NlsTest\DNBDeviceBase.CATNls|.\DNBDeviceBase\CNext\resources\msgcatalog\DNBDeviceBase.CATNls
DAT/002/CUS .\win_b64\resources\msgcatalog\DNBDevDataReadOutDlg.CATNls|.\DNBDeviceBase\CNext\resources\msgcatalog\DNBDevDataReadOutDlg.CATNls
DAT/002/CUS .\win_b64\code\dictionary\DNBDeviceBase.fact|.\DNBDeviceBase\CNext\code\dictionary\DNBDeviceBase.fact
DAT/002/CUS .\win_b64\resources\msgcatalog\DNBDevicePropertyPageDialog.CATRsc|.\DNBDeviceBase\CNext\resources\msgcatalog\DNBDevicePropertyPageDialog.CATRsc
DAT/002/CUS .\win_b64\resources\graphic\icons\normal\I_DNBGenAccuracyProfile.bmp|.\DNBDeviceBase\CNext\resources\graphic\icons\normal\I_DNBGenAccuracyProfile.bmp
DAT/002/CUS .\win_b64\resources\graphic\icons\normal\I_DNBDBGControllerSynch.bmp|.\DNBDeviceBase\CNext\resources\graphic\icons\normal\I_DNBDBGControllerSynch.bmp
CSC/002/DSI .\DNBDeviceBase\IdentityCard\Objects\win_b64\mkcsc\DNBDeviceBase.cscdb|.\DNBDeviceBase
DAT/002/CUS .\win_b64\resources\msgcatalog\DNBDevicePropertyPageEditor.CATRsc|.\DNBDeviceBase\CNext\resources\msgcatalog\DNBDevicePropertyPageEditor.CATRsc
DAT/002/CUS .\win_b64\resources\graphic\icons\normal\I_DNBGenObjFrameProfile.bmp|.\DNBDeviceBase\CNext\resources\graphic\icons\normal\I_DNBGenObjFrameProfile.bmp
DAT/002/CUS .\win_b64\resources\graphic\DNBDeviceAttribute.feat|.\DNBDeviceBase\CNext\resources\graphic\DNBDeviceAttribute.feat
BTV/002/CUS .\win_b64\code\productIC\DNBDeviceBaseIC.script|.\DNBDeviceBase
RTV/002/DSI .\win_b64\resources\msgcatalog\NlsTest\DNBWDMErrors.CATNls|.\DNBDeviceBase\CNext\resources\msgcatalog\DNBWDMErrors.CATNls
RTV/002/DSI .\win_b64\resources\msgcatalog\NlsTest\DNBDevDataReadOutDlg.CATNls|.\DNBDeviceBase\CNext\resources\msgcatalog\DNBDevDataReadOutDlg.CATNls
RTV/002/DSI .\win_b64\code\productIC\DNBDeviceBaseIC.required|.\DNBDeviceBase
DAT/002/CUS .\win_b64\code\dictionary\DNBDeviceBase.dic|.\DNBDeviceBase\CNext\code\dictionary\DNBDeviceBase.dic
DAT/002/CUS .\win_b64\resources\graphic\icons\normal\I_DNBGenToolProfile.bmp|.\DNBDeviceBase\CNext\resources\graphic\icons\normal\I_DNBGenToolProfile.bmp
DAT/002/CUS .\win_b64\resources\msgcatalog\DNBWDMErrors.CATNls|.\DNBDeviceBase\CNext\resources\msgcatalog\DNBWDMErrors.CATNls
DAT/002/CUS .\win_b64\resources\graphic\DNBV5Device.feat|.\DNBDeviceBase\CNext\resources\graphic\DNBV5Device.feat
DAT/002/CUS .\win_b64\resources\graphic\icons\small\I_DNBGenMotionProfile.bmp|.\DNBDeviceBase\CNext\resources\graphic\icons\small\I_DNBGenMotionProfile.bmp
DAT/002/CUS .\win_b64\resources\msgcatalog\DNBDevicePropertyPageEditor.CATNls|.\DNBDeviceBase\CNext\resources\msgcatalog\DNBDevicePropertyPageEditor.CATNls
DAT/002/CUS .\win_b64\resources\graphic\icons\normal\I_DNBIgpMaskCurrent.bmp|.\DNBDeviceBase\CNext\resources\graphic\icons\normal\I_DNBIgpMaskCurrent.bmp
DAT/002/CUS .\win_b64\resources\graphic\icons\small\I_DnbDevice.bmp|.\DNBDeviceBase\CNext\resources\graphic\icons\small\I_DnbDevice.bmp
DAT/002/CUS .\win_b64\resources\msgcatalog\DNBDevCustomReadoutDlg.CATNls|.\DNBDeviceBase\CNext\resources\msgcatalog\DNBDevCustomReadoutDlg.CATNls
DAT/002/CUS .\win_b64\resources\msgcatalog\DNBDevCustomReadoutDlg.CATRsc|.\DNBDeviceBase\CNext\resources\msgcatalog\DNBDevCustomReadoutDlg.CATRsc
DAT/002/CUS .\win_b64\resources\graphic\icons\small\I_DNBGenObjFrameProfile.bmp|.\DNBDeviceBase\CNext\resources\graphic\icons\small\I_DNBGenObjFrameProfile.bmp
RTV/002/DSI .\win_b64\resources\msgcatalog\NlsTest\DNBDevicePropertyPageEditor.CATNls|.\DNBDeviceBase\CNext\resources\msgcatalog\DNBDevicePropertyPageEditor.CATNls
DAT/002/CUS .\win_b64\resources\graphic\icons\small\I_DNBGenAccuracyProfile.bmp|.\DNBDeviceBase\CNext\resources\graphic\icons\small\I_DNBGenAccuracyProfile.bmp
RTV/002/DSI .\win_b64\resources\msgcatalog\DbcsTest\DNBDeviceBaseError.CATNls|.\DNBDeviceBase\CNext\resources\msgcatalog\DNBDeviceBaseError.CATNls
DAT/002/CUS .\win_b64\resources\msgcatalog\DNBDeviceBaseError.CATNls|.\DNBDeviceBase\CNext\resources\msgcatalog\DNBDeviceBaseError.CATNls
RTV/002/DSI .\win_b64\resources\msgcatalog\DbcsTest\DNBDevicePropertyPageDialog.CATNls|.\DNBDeviceBase\CNext\resources\msgcatalog\DNBDevicePropertyPageDialog.CATNls
RTV/002/DSI .\win_b64\resources\msgcatalog\DbcsTest\DNBWDMErrors.CATNls|.\DNBDeviceBase\CNext\resources\msgcatalog\DNBWDMErrors.CATNls
RTV/002/DSI .\win_b64\resources\msgcatalog\DbcsTest\DNBDeviceBase.CATNls|.\DNBDeviceBase\CNext\resources\msgcatalog\DNBDeviceBase.CATNls
RTV/002/DSI .\win_b64\resources\msgcatalog\DbcsTest\DNBDevDataReadOutDlg.CATNls|.\DNBDeviceBase\CNext\resources\msgcatalog\DNBDevDataReadOutDlg.CATNls
DAT/002/CUS .\win_b64\resources\graphic\icons\normal\I_DNBRobController.bmp|.\DNBDeviceBase\CNext\resources\graphic\icons\normal\I_DNBRobController.bmp
@type='codeFramework'
@built='true'
