!<mkRTViewData> v1.0.0
CSC/000/DSI .\Milling3DToolPathItf\Milling3DItfCPP.m\Objects\win_b64\mkcsc\Milling3DItfCPP.cscdb|.\Milling3DToolPathItf\Milling3DItfCPP.m
@type='NONE'
@clr='false'
@kind='INCLUDED'
@deliverable='true'
@built='true'
