!<mkRTViewData> v1.0.0
CSC/000/DSI .\MechanicalModeler\CATMmrInsert.m\Objects\win_b64\mkcsc\CATMmrInsert.cscdb|.\MechanicalModeler\CATMmrInsert.m
@type='NONE'
@clr='false'
@kind='INCLUDED'
@deliverable='true'
@built='true'
