!<mkRTViewData> v1.0.0
CSC/000/DSI .\TopologicalOperators\AdvOpeInfra.m\Objects\win_b64\mkcsc\AdvOpeInfra.cscdb|.\TopologicalOperators\AdvOpeInfra.m
@type='NONE'
@clr='false'
@kind='INCLUDED'
@deliverable='true'
@built='true'
