!<mkRTViewData> v1.0.0
INT/000/CUS .\win_b64\code\lib\CATOmbUtils.exp|.\ObjectModelerBase\CATOmbUtils.m
CSC/000/DSI .\ObjectModelerBase\CATOmbUtils.m\Objects\win_b64\mkcsc\CATOmbUtils.cscdb|.\ObjectModelerBase\CATOmbUtils.m
INT/000/CUS .\win_b64\code\bin\CATOmbUtils.pdb|.\ObjectModelerBase\CATOmbUtils.m
BTV/000/CUS .\win_b64\code\lib\CATOmbUtils.lib|.\ObjectModelerBase\CATOmbUtils.m
RTV/001/CUS .\win_b64\code\bin\CATOmbUtils.dll|.\ObjectModelerBase\CATOmbUtils.m
@type='SHARED_LIBRARY'
@clr='false'
@kind='NATIVE'
@deliverable='true'
@built='true'
