!<mkRTViewData> v1.0.0
CSC/000/DSI .\DNBParameterProfiles\DNBParameterPflFeatDic.m\Objects\win_b64\mkcsc\DNBParameterPflFeatDic.cscdb|.\DNBParameterProfiles\DNBParameterPflFeatDic.m
@type='NONE'
@clr='false'
@kind='INCLUDED'
@deliverable='true'
@built='true'
