!<mkRTViewData> v1.0.0
CSC/000/DSI .\PolyhedralOperators\CATPolyRegularizeOperators.m\Objects\win_b64\mkcsc\CATPolyRegularizeOperators.cscdb|.\PolyhedralOperators\CATPolyRegularizeOperators.m
@type='NONE'
@clr='false'
@kind='INCLUDED'
@deliverable='true'
@built='true'
