!<mkRTViewData> v1.0.0
CSC/000/DSI .\FreeStyleResources\CATFrrCPParameters.m\Objects\win_b64\mkcsc\CATFrrCPParameters.cscdb|.\FreeStyleResources\CATFrrCPParameters.m
@type='NONE'
@clr='false'
@kind='INCLUDED'
@deliverable='true'
@built='true'
