!<mkRTViewData> v1.0.0
CSC/000/DSI .\ApplicationFrame\ModelAndReps.m\Objects\win_b64\mkcsc\ModelAndReps.cscdb|.\ApplicationFrame\ModelAndReps.m
@type='NONE'
@clr='false'
@kind='INCLUDED'
@deliverable='true'
@built='true'
