CATRouPartNumber	CATRouSize	CATRouOutsideDiameter	Thickness	Width_A	Length_C	Diameter_D2	Length_E	Length_F
TUBE-CLIP-EXH-16S	1"	1.00in	0.0787in	0.787in	0.3937in	0.3307in	0.3150in	1.102in
TUBE-CLIP-EXH-20S	1 1/4"	1.25in	0.0787in	0.787in	0.3937in	0.3307in	0.3150in	1.142in
TUBE-CLIP-EXH-24S	1 1/2"	1.50in	0.0787in	0.787in	0.3937in	0.3307in	0.3150in	1.240in
TUBE-CLIP-EXH-32S	2"	2.00in	0.1181in	0.984in	0.6299in	0.3307in	0.5512in	1.516in
TUBE-CLIP-EXH-40S	2 1/2"	2.50in	0.1181in	0.984in	0.6299in	0.3307in	0.5512in	1.791in
TUBE-CLIP-EXH-48S	3"	3.00in	0.1575in	1.181in	0.6693in	0.4134in	0.5906in	2.146in
