!<mkRTViewData> v1.0.0
BTV/000/CUS .\win_b64\code\lib\CATAnalysisConnectionUUID.lib|.\CATAnalysisConnection\CATAnalysisConnectionUUID.m
CSC/000/DSI .\CATAnalysisConnection\CATAnalysisConnectionUUID.m\Objects\win_b64\mkcsc\CATAnalysisConnectionUUID.cscdb|.\CATAnalysisConnection\CATAnalysisConnectionUUID.m
@type='ARCHIVE'
@clr='false'
@kind='NATIVE'
@deliverable='true'
@built='true'
