!<mkRTViewData> v1.0.0
BTV/000/CUS .\win_b64\code\lib\DNBSimulationSettings.lib|.\DNBSimulationUI\DNBSimulationSettings.m
INT/000/CUS .\win_b64\code\bin\DNBSimulationSettings.pdb|.\DNBSimulationUI\DNBSimulationSettings.m
INT/000/CUS .\win_b64\code\lib\DNBSimulationSettings.exp|.\DNBSimulationUI\DNBSimulationSettings.m
CSC/000/DSI .\DNBSimulationUI\DNBSimulationSettings.m\Objects\win_b64\mkcsc\DNBSimulationSettings.cscdb|.\DNBSimulationUI\DNBSimulationSettings.m
RTV/001/CUS .\win_b64\code\bin\DNBSimulationSettings.dll|.\DNBSimulationUI\DNBSimulationSettings.m
@type='SHARED_LIBRARY'
@clr='false'
@kind='NATIVE'
@deliverable='true'
@built='true'
