!<mkRTViewData> v1.0.0
RTV/002/DSI .\win_b64\code\productIC\DNBReportingInterfacesIC.required|.\DNBReportingInterfaces
BTV/002/CUS .\win_b64\code\productIC\DNBReportingInterfacesIC.xml|.\DNBReportingInterfaces
CSC/002/DSI .\DNBReportingInterfaces\IdentityCard\Objects\win_b64\mkcsc\DNBReportingInterfaces.cscdb|.\DNBReportingInterfaces
DAT/002/CUS .\win_b64\code\dictionary\DNBReportingInterfaces.dic|.\DNBReportingInterfaces\CNext\code\dictionary\DNBReportingInterfaces.dic
BTV/002/CUS .\win_b64\code\productIC\DNBReportingInterfacesIC.script|.\DNBReportingInterfaces
DAT/002/CUS .\win_b64\code\dictionary\DNBReportingInterfaces.iid|.\DNBReportingInterfaces\CNext\code\dictionary\DNBReportingInterfaces.iid
@type='codeFramework'
@built='true'
