!<mkRTViewData> v1.0.0
CSC/000/DSI .\V4CGMInteroperability\M2ToV5.m\Objects\win_b64\mkcsc\M2ToV5.cscdb|.\V4CGMInteroperability\M2ToV5.m
@type='NONE'
@clr='false'
@kind='INCLUDED'
@deliverable='true'
@built='true'
