!<mkRTViewData> v1.0.0
BTV/000/CUS .\win_b64\code\lib\VVSUrlUtils.lib|.\CATVirtualVaultSystem\VVSUrlUtils.m
RTV/001/CUS .\win_b64\code\bin\VVSUrlUtils.dll|.\CATVirtualVaultSystem\VVSUrlUtils.m
CSC/000/DSI .\CATVirtualVaultSystem\VVSUrlUtils.m\Objects\win_b64\mkcsc\VVSUrlUtils.cscdb|.\CATVirtualVaultSystem\VVSUrlUtils.m
INT/000/CUS .\win_b64\code\lib\VVSUrlUtils.exp|.\CATVirtualVaultSystem\VVSUrlUtils.m
INT/000/CUS .\win_b64\code\bin\VVSUrlUtils.pdb|.\CATVirtualVaultSystem\VVSUrlUtils.m
@type='SHARED_LIBRARY'
@clr='false'
@kind='NATIVE'
@deliverable='true'
@built='true'
