!<mkRTViewData> v1.0.0
CSC/000/DSI .\CATMoldDesignUI\CATMldFlatEjectorUI.m\Objects\win_b64\mkcsc\CATMldFlatEjectorUI.cscdb|.\CATMoldDesignUI\CATMldFlatEjectorUI.m
@type='NONE'
@clr='false'
@kind='INCLUDED'
@deliverable='true'
@built='true'
