!<mkRTViewData> v1.0.0
CSC/000/DSI .\CATV4Procedural\V4Poly.m\Objects\win_b64\mkcsc\V4Poly.cscdb|.\CATV4Procedural\V4Poly.m
@type='NONE'
@clr='false'
@kind='INCLUDED'
@deliverable='true'
@built='true'
