!<mkRTViewData> v1.0.0
RTV/001/CUS .\win_b64\code\bin\CATProcessInterfaces.dll|.\DMAPSInterfaces\CATProcessInterfaces.m
CSC/000/DSI .\DMAPSInterfaces\CATProcessInterfaces.m\Objects\win_b64\mkcsc\CATProcessInterfaces.cscdb|.\DMAPSInterfaces\CATProcessInterfaces.m
BTV/000/CUS .\win_b64\code\lib\CATProcessInterfaces.lib|.\DMAPSInterfaces\CATProcessInterfaces.m
INT/000/CUS .\win_b64\code\bin\CATProcessInterfaces.pdb|.\DMAPSInterfaces\CATProcessInterfaces.m
INT/000/CUS .\win_b64\code\lib\CATProcessInterfaces.exp|.\DMAPSInterfaces\CATProcessInterfaces.m
@type='SHARED_LIBRARY'
@clr='false'
@kind='NATIVE'
@deliverable='true'
@built='true'
