!<mkRTViewData> v1.0.0
CSC/000/DSI .\CATCloudBasicResources\CATCldResMeshInria.m\Objects\win_b64\mkcsc\CATCldResMeshInria.cscdb|.\CATCloudBasicResources\CATCldResMeshInria.m
INT/000/CUS .\win_b64\code\bin\CATCldResMeshInria.pdb|.\CATCloudBasicResources\CATCldResMeshInria.m
RTV/001/CUS .\win_b64\code\bin\CATCldResMeshInria.dll|.\CATCloudBasicResources\CATCldResMeshInria.m
BTV/000/CUS .\win_b64\code\lib\CATCldResMeshInria.lib|.\CATCloudBasicResources\CATCldResMeshInria.m
INT/000/CUS .\win_b64\code\lib\CATCldResMeshInria.exp|.\CATCloudBasicResources\CATCldResMeshInria.m
@type='SHARED_LIBRARY'
@clr='false'
@kind='NATIVE'
@deliverable='true'
@built='true'
