!<mkRTViewData> v1.0.0
BTV/000/CUS .\win_b64\code\lib\PRTVISU.lib|.\PartDesignUI\PRTVISU.m
CSC/000/DSI .\PartDesignUI\PRTVISU.m\Objects\win_b64\mkcsc\PRTVISU.cscdb|.\PartDesignUI\PRTVISU.m
INT/000/CUS .\win_b64\code\bin\PRTVISU.pdb|.\PartDesignUI\PRTVISU.m
INT/000/CUS .\win_b64\code\lib\PRTVISU.exp|.\PartDesignUI\PRTVISU.m
RTV/001/CUS .\win_b64\code\bin\PRTVISU.dll|.\PartDesignUI\PRTVISU.m
@type='SHARED_LIBRARY'
@clr='false'
@kind='NATIVE'
@deliverable='true'
@built='true'
