!<mkRTViewData> v1.0.0
CSC/000/DSI .\CATMoldDesignUI\CATMldBushingUI.m\Objects\win_b64\mkcsc\CATMldBushingUI.cscdb|.\CATMoldDesignUI\CATMldBushingUI.m
@type='NONE'
@clr='false'
@kind='INCLUDED'
@deliverable='true'
@built='true'
