!<mkRTViewData> v1.0.0
CSC/000/DSI .\CATCDSMathInfra\CDSProfile.m\Objects\win_b64\mkcsc\CDSProfile.cscdb|.\CATCDSMathInfra\CDSProfile.m
@type='NONE'
@clr='false'
@kind='INCLUDED'
@deliverable='true'
@built='true'
