!<mkRTViewData> v1.0.0
CSC/000/DSI .\FunctionalTopologicalOpe\CATHybridVariableOffset.m\Objects\win_b64\mkcsc\CATHybridVariableOffset.cscdb|.\FunctionalTopologicalOpe\CATHybridVariableOffset.m
@type='NONE'
@clr='false'
@kind='INCLUDED'
@deliverable='true'
@built='true'
