!<mkRTViewData> v1.0.0
CSC/000/DSI .\DialogEngine\CATCmdDialogAgents.m\Objects\win_b64\mkcsc\CATCmdDialogAgents.cscdb|.\DialogEngine\CATCmdDialogAgents.m
@type='NONE'
@clr='false'
@kind='INCLUDED'
@deliverable='true'
@built='true'
