!<mkRTViewData> v1.0.0
CSC/000/DSI .\CATMathExactPredicates\CATExpNumbersComparisons.m\Objects\win_b64\mkcsc\CATExpNumbersComparisons.cscdb|.\CATMathExactPredicates\CATExpNumbersComparisons.m
@type='NONE'
@clr='false'
@kind='INCLUDED'
@deliverable='true'
@built='true'
