!<mkRTViewData> v1.0.0
CSC/000/DSI .\NewTopologicalObjectsCGM\CATSubdOccurence.m\Objects\win_b64\mkcsc\CATSubdOccurence.cscdb|.\NewTopologicalObjectsCGM\CATSubdOccurence.m
@type='NONE'
@clr='false'
@kind='INCLUDED'
@deliverable='true'
@built='true'
