!<mkRTViewData> v1.0.0
CSC/000/DSI .\PolyhedralVisualization\PolyModelConverters.m\Objects\win_b64\mkcsc\PolyModelConverters.cscdb|.\PolyhedralVisualization\PolyModelConverters.m
@type='NONE'
@clr='false'
@kind='INCLUDED'
@deliverable='true'
@built='true'
