!<mkRTViewData> v1.0.0
RTV/000/CUS .\win_b64\resources\graphic\icons\small\I_ConiccTgIntPt.bmp|.\SketcherUI\SktUIResourcesV5.m\src\resources\graphic\icons\small\I_ConiccTgIntPt.bmp
RTV/000/CUS .\win_b64\resources\graphic\icons\small\I_CornerConstrLineBreak.bmp|.\SketcherUI\SktUIResourcesV5.m\src\resources\graphic\icons\small\I_CornerConstrLineBreak.bmp
RTV/000/CUS .\win_b64\resources\graphic\icons\small\I_NoPropagation.bmp|.\SketcherUI\SktUIResourcesV5.m\src\resources\graphic\icons\small\I_NoPropagation.bmp
RTV/000/CUS .\win_b64\resources\graphic\icons\small\I_SktFixTogether.bmp|.\SketcherUI\SktUIResourcesV5.m\src\resources\graphic\icons\small\I_SktFixTogether.bmp
RTV/000/CUS .\win_b64\resources\graphic\icons\normal\I_SktArcTgtNoRelimitation.bmp|.\SketcherUI\SktUIResourcesV5.m\src\resources\graphic\icons\normal\I_SktArcTgtNoRelimitation.bmp
RTV/000/CUS .\win_b64\resources\graphic\icons\normal\I_Conicc5Pts.bmp|.\SketcherUI\SktUIResourcesV5.m\src\resources\graphic\icons\normal\I_Conicc5Pts.bmp
RTV/000/CUS .\win_b64\resources\graphic\icons\normal\I_SktOutput.bmp|.\SketcherUI\SktUIResourcesV5.m\src\resources\graphic\icons\normal\I_SktOutput.bmp
RTV/000/CUS .\win_b64\resources\graphic\icons\small\I_OffsetBothSide.bmp|.\SketcherUI\SktUIResourcesV5.m\src\resources\graphic\icons\small\I_OffsetBothSide.bmp
RTV/000/CUS .\win_b64\resources\graphic\icons\small\I_SktLineHor.bmp|.\SketcherUI\SktUIResourcesV5.m\src\resources\graphic\icons\small\I_SktLineHor.bmp
RTV/000/CUS .\win_b64\resources\graphic\icons\normal\I_GeomConstraint.bmp|.\SketcherUI\SktUIResourcesV5.m\src\resources\graphic\icons\normal\I_GeomConstraint.bmp
RTV/000/CUS .\win_b64\resources\graphic\icons\small\IP_LightSketchAnalysis.bmp|.\SketcherUI\SktUIResourcesV5.m\src\resources\graphic\icons\small\IP_LightSketchAnalysis.bmp
RTV/000/CUS .\win_b64\resources\graphic\icons\small\I_Conic2Tgtes.bmp|.\SketcherUI\SktUIResourcesV5.m\src\resources\graphic\icons\small\I_Conic2Tgtes.bmp
RTV/000/CUS .\win_b64\resources\graphic\icons\normal\I_Oblong.bmp|.\SketcherUI\SktUIResourcesV5.m\src\resources\graphic\icons\normal\I_Oblong.bmp
RTV/000/CUS .\win_b64\resources\graphic\icons\normal\I_LineNormalToCurve.bmp|.\SketcherUI\SktUIResourcesV5.m\src\resources\graphic\icons\normal\I_LineNormalToCurve.bmp
RTV/000/CUS .\win_b64\resources\msgcatalog\CATPanelEdit2DOperator.CATRsc|.\SketcherUI\SktUIResourcesV5.m\src\resources\msgcatalog\CATPanelEdit2DOperator.CATRsc
RTV/000/CUS .\win_b64\resources\graphic\icons\normal\I_OffsetBothSide.bmp|.\SketcherUI\SktUIResourcesV5.m\src\resources\graphic\icons\normal\I_OffsetBothSide.bmp
RTV/000/CUS .\win_b64\resources\graphic\icons\normal\I_PlayAutoLoop.bmp|.\SketcherUI\SktUIResourcesV5.m\src\resources\graphic\icons\normal\I_PlayAutoLoop.bmp
RTV/000/CUS .\win_b64\resources\graphic\icons\normal\I_HideConstructElt.bmp|.\SketcherUI\SktUIResourcesV5.m\src\resources\graphic\icons\normal\I_HideConstructElt.bmp
RTV/000/CUS .\win_b64\resources\graphic\icons\small\I_ConicCurve.bmp|.\SketcherUI\SktUIResourcesV5.m\src\resources\graphic\icons\small\I_ConicCurve.bmp
RTV/000/CUS .\win_b64\resources\graphic\icons\small\I_SktArc.bmp|.\SketcherUI\SktUIResourcesV5.m\src\resources\graphic\icons\small\I_SktArc.bmp
RTV/000/CUS .\win_b64\resources\graphic\icons\normal\I_ConicCurve.bmp|.\SketcherUI\SktUIResourcesV5.m\src\resources\graphic\icons\normal\I_ConicCurve.bmp
RTV/000/CUS .\win_b64\resources\graphic\icons\normal\I_SketchPositioningB.bmp|.\SketcherUI\SktUIResourcesV5.m\src\resources\graphic\icons\normal\I_SketchPositioningB.bmp
RTV/000/CUS .\win_b64\resources\graphic\icons\small\I_SktTranslate.bmp|.\SketcherUI\SktUIResourcesV5.m\src\resources\graphic\icons\small\I_SktTranslate.bmp
RTV/000/CUS .\win_b64\resources\graphic\icons\normal\I_CenterText.bmp|.\SketcherUI\SktUIResourcesV5.m\src\resources\graphic\icons\normal\I_CenterText.bmp
RTV/000/CUS .\win_b64\resources\graphic\icons\small\IP_SketchAnalysis.bmp|.\SketcherUI\SktUIResourcesV5.m\src\resources\graphic\icons\small\IP_SketchAnalysis.bmp
RTV/000/CUS .\win_b64\resources\graphic\icons\normal\I_ConstraintAnimate.bmp|.\SketcherUI\SktUIResourcesV5.m\src\resources\graphic\icons\normal\I_ConstraintAnimate.bmp
RTV/000/CUS .\win_b64\resources\graphic\icons\normal\I_SketchPositioningY.bmp|.\SketcherUI\SktUIResourcesV5.m\src\resources\graphic\icons\normal\I_SketchPositioningY.bmp
RTV/000/CUS .\win_b64\resources\graphic\icons\I_MaskEnvelope.bmp|.\SketcherUI\SktUIResourcesV5.m\src\resources\graphic\icons\I_MaskEnvelope.bmp
RTV/000/CUS .\win_b64\resources\graphic\icons\normal\I_2DAlignPointsChangeOrigin.bmp|.\SketcherUI\SktUIResourcesV5.m\src\resources\graphic\icons\normal\I_2DAlignPointsChangeOrigin.bmp
RTV/000/CUS .\win_b64\resources\graphic\icons\small\I_SktConnect.bmp|.\SketcherUI\SktUIResourcesV5.m\src\resources\graphic\icons\small\I_SktConnect.bmp
RTV/000/CUS .\win_b64\resources\msgcatalog\CATPanel2DLightAnalyse.CATRsc|.\SketcherUI\SktUIResourcesV5.m\src\resources\msgcatalog\CATPanel2DLightAnalyse.CATRsc
RTV/000/CUS .\win_b64\resources\graphic\icons\small\I_VerticalLeftText.bmp|.\SketcherUI\SktUIResourcesV5.m\src\resources\graphic\icons\small\I_VerticalLeftText.bmp
RTV/000/CUS .\win_b64\resources\graphic\icons\normal\I_SmartPosition.bmp|.\SketcherUI\SktUIResourcesV5.m\src\resources\graphic\icons\normal\I_SmartPosition.bmp
RTV/000/CUS .\win_b64\resources\graphic\icons\normal\I_SketchElements.bmp|.\SketcherUI\SktUIResourcesV5.m\src\resources\graphic\icons\normal\I_SketchElements.bmp
RTV/000/CUS .\win_b64\resources\graphic\icons\normal\I_2DArc1Tgt.bmp|.\SketcherUI\SktUIResourcesV5.m\src\resources\graphic\icons\normal\I_2DArc1Tgt.bmp
RTV/000/CUS .\win_b64\resources\graphic\icons\normal\I_SktCorner.bmp|.\SketcherUI\SktUIResourcesV5.m\src\resources\graphic\icons\normal\I_SktCorner.bmp
RTV/000/CUS .\win_b64\resources\graphic\icons\normal\I_CloseElement.bmp|.\SketcherUI\SktUIResourcesV5.m\src\resources\graphic\icons\normal\I_CloseElement.bmp
RTV/000/CUS .\win_b64\resources\graphic\icons\normal\I_SktConnectCurve.bmp|.\SketcherUI\SktUIResourcesV5.m\src\resources\graphic\icons\normal\I_SktConnectCurve.bmp
RTV/000/CUS .\win_b64\resources\graphic\icons\small\I_Polygon.bmp|.\SketcherUI\SktUIResourcesV5.m\src\resources\graphic\icons\small\I_Polygon.bmp
RTV/000/CUS .\win_b64\resources\graphic\icons\small\I_VerticalText.bmp|.\SketcherUI\SktUIResourcesV5.m\src\resources\graphic\icons\small\I_VerticalText.bmp
RTV/000/CUS .\win_b64\resources\graphic\icons\small\I_2DOffsetContour.bmp|.\SketcherUI\SktUIResourcesV5.m\src\resources\graphic\icons\small\I_2DOffsetContour.bmp
RTV/000/CUS .\win_b64\resources\graphic\icons\small\I_SktChamferNoRelimitation.bmp|.\SketcherUI\SktUIResourcesV5.m\src\resources\graphic\icons\small\I_SktChamferNoRelimitation.bmp
RTV/000/CUS .\win_b64\resources\graphic\icons\small\I_HideConstructElt.bmp|.\SketcherUI\SktUIResourcesV5.m\src\resources\graphic\icons\small\I_HideConstructElt.bmp
RTV/000/CUS .\win_b64\resources\graphic\icons\normal\I_2DAlignPointsAlongDir.bmp|.\SketcherUI\SktUIResourcesV5.m\src\resources\graphic\icons\normal\I_2DAlignPointsAlongDir.bmp
RTV/000/CUS .\win_b64\resources\graphic\icons\small\I_SktChamferRelimitationElement1.bmp|.\SketcherUI\SktUIResourcesV5.m\src\resources\graphic\icons\small\I_SktChamferRelimitationElement1.bmp
RTV/000/CUS .\win_b64\resources\graphic\icons\normal\I_DirText.bmp|.\SketcherUI\SktUIResourcesV5.m\src\resources\graphic\icons\normal\I_DirText.bmp
RTV/000/CUS .\win_b64\resources\graphic\icons\normal\I_AlongDirProjPt.bmp|.\SketcherUI\SktUIResourcesV5.m\src\resources\graphic\icons\normal\I_AlongDirProjPt.bmp
RTV/000/CUS .\win_b64\resources\graphic\icons\small\I_DimensConstraint.bmp|.\SketcherUI\SktUIResourcesV5.m\src\resources\graphic\icons\small\I_DimensConstraint.bmp
RTV/000/CUS .\win_b64\resources\graphic\icons\small\I_SktArcTgtRelimitationElement1.bmp|.\SketcherUI\SktUIResourcesV5.m\src\resources\graphic\icons\small\I_SktArcTgtRelimitationElement1.bmp
RTV/000/CUS .\win_b64\resources\graphic\icons\normal\I_SpacingText.bmp|.\SketcherUI\SktUIResourcesV5.m\src\resources\graphic\icons\normal\I_SpacingText.bmp
RTV/000/CUS .\win_b64\resources\graphic\icons\small\I_CurvePt.bmp|.\SketcherUI\SktUIResourcesV5.m\src\resources\graphic\icons\small\I_CurvePt.bmp
RTV/000/CUS .\win_b64\resources\graphic\icons\small\I_LineNormalToCurve.bmp|.\SketcherUI\SktUIResourcesV5.m\src\resources\graphic\icons\small\I_LineNormalToCurve.bmp
RTV/000/CUS .\win_b64\resources\graphic\icons\small\I_SktSymmetry.bmp|.\SketcherUI\SktUIResourcesV5.m\src\resources\graphic\icons\small\I_SktSymmetry.bmp
RTV/000/CUS .\win_b64\resources\graphic\icons\small\I_OffsetElement.bmp|.\SketcherUI\SktUIResourcesV5.m\src\resources\graphic\icons\small\I_OffsetElement.bmp
RTV/000/CUS .\win_b64\resources\graphic\icons\normal\I_Chamfer2DL1A.bmp|.\SketcherUI\SktUIResourcesV5.m\src\resources\graphic\icons\normal\I_Chamfer2DL1A.bmp
RTV/000/CUS .\win_b64\resources\graphic\icons\small\I_PlayOneShot.bmp|.\SketcherUI\SktUIResourcesV5.m\src\resources\graphic\icons\small\I_PlayOneShot.bmp
RTV/000/CUS .\win_b64\resources\graphic\icons\small\I_Profile2DL.bmp|.\SketcherUI\SktUIResourcesV5.m\src\resources\graphic\icons\small\I_Profile2DL.bmp
RTV/000/CUS .\win_b64\resources\graphic\icons\normal\I_SktText.bmp|.\SketcherUI\SktUIResourcesV5.m\src\resources\graphic\icons\normal\I_SktText.bmp
RTV/000/CUS .\win_b64\resources\graphic\icons\normal\I_PlayOneShot.bmp|.\SketcherUI\SktUIResourcesV5.m\src\resources\graphic\icons\normal\I_PlayOneShot.bmp
RTV/000/CUS .\win_b64\resources\graphic\icons\small\I_Chamfer2DLA.bmp|.\SketcherUI\SktUIResourcesV5.m\src\resources\graphic\icons\small\I_Chamfer2DLA.bmp
RTV/000/CUS .\win_b64\resources\graphic\icons\small\I_GeomConstraint.bmp|.\SketcherUI\SktUIResourcesV5.m\src\resources\graphic\icons\small\I_GeomConstraint.bmp
RTV/000/CUS .\win_b64\resources\graphic\icons\small\I_SktLineVert.bmp|.\SketcherUI\SktUIResourcesV5.m\src\resources\graphic\icons\small\I_SktLineVert.bmp
RTV/000/CUS .\win_b64\resources\graphic\icons\normal\I_SktDefaultRadiusCorner.bmp|.\SketcherUI\SktUIResourcesV5.m\src\resources\graphic\icons\normal\I_SktDefaultRadiusCorner.bmp
RTV/000/CUS .\win_b64\resources\graphic\icons\small\I_ChamferConstrLine.bmp|.\SketcherUI\SktUIResourcesV5.m\src\resources\graphic\icons\small\I_ChamferConstrLine.bmp
RTV/000/CUS .\win_b64\resources\graphic\icons\normal\I_AutoSearch.bmp|.\SketcherUI\SktUIResourcesV5.m\src\resources\graphic\icons\normal\I_AutoSearch.bmp
RTV/000/CUS .\win_b64\resources\graphic\icons\normal\I_VerticalRightText.bmp|.\SketcherUI\SktUIResourcesV5.m\src\resources\graphic\icons\normal\I_VerticalRightText.bmp
RTV/000/CUS .\win_b64\resources\graphic\icons\normal\I_ConstraintCopilotAndGeom.bmp|.\SketcherUI\SktUIResourcesV5.m\src\resources\graphic\icons\normal\I_ConstraintCopilotAndGeom.bmp
RTV/000/CUS .\win_b64\resources\graphic\icons\small\I_SktReverseOrientation.bmp|.\SketcherUI\SktUIResourcesV5.m\src\resources\graphic\icons\small\I_SktReverseOrientation.bmp
RTV/000/CUS .\win_b64\resources\graphic\icons\small\I_SktPointProject.bmp|.\SketcherUI\SktUIResourcesV5.m\src\resources\graphic\icons\small\I_SktPointProject.bmp
RTV/000/CUS .\win_b64\resources\graphic\icons\normal\I_NoPropagation.bmp|.\SketcherUI\SktUIResourcesV5.m\src\resources\graphic\icons\normal\I_NoPropagation.bmp
RTV/000/CUS .\win_b64\resources\graphic\icons\normal\I_Solving.bmp|.\SketcherUI\SktUIResourcesV5.m\src\resources\graphic\icons\normal\I_Solving.bmp
RTV/000/CUS .\win_b64\resources\graphic\icons\normal\I_SktHorizontal.bmp|.\SketcherUI\SktUIResourcesV5.m\src\resources\graphic\icons\normal\I_SktHorizontal.bmp
RTV/000/CUS .\win_b64\resources\graphic\icons\normal\I_DescenderText.bmp|.\SketcherUI\SktUIResourcesV5.m\src\resources\graphic\icons\normal\I_DescenderText.bmp
RTV/000/CUS .\win_b64\resources\graphic\icons\normal\IP_SketchAnalysis.bmp|.\SketcherUI\SktUIResourcesV5.m\src\resources\graphic\icons\normal\IP_SketchAnalysis.bmp
RTV/000/CUS .\win_b64\resources\graphic\icons\normal\I_BaselineText.bmp|.\SketcherUI\SktUIResourcesV5.m\src\resources\graphic\icons\normal\I_BaselineText.bmp
RTV/000/CUS .\win_b64\resources\graphic\icons\small\I_AscenderText.bmp|.\SketcherUI\SktUIResourcesV5.m\src\resources\graphic\icons\small\I_AscenderText.bmp
RTV/000/CUS .\win_b64\resources\graphic\icons\normal\I_2DOffsetContour.bmp|.\SketcherUI\SktUIResourcesV5.m\src\resources\graphic\icons\normal\I_2DOffsetContour.bmp
RTV/000/CUS .\win_b64\resources\graphic\icons\normal\I_ChamferStdLine.bmp|.\SketcherUI\SktUIResourcesV5.m\src\resources\graphic\icons\normal\I_ChamferStdLine.bmp
RTV/000/CUS .\win_b64\resources\graphic\icons\small\I_OutputAxis.bmp|.\SketcherUI\SktUIResourcesV5.m\src\resources\graphic\icons\small\I_OutputAxis.bmp
RTV/000/CUS .\win_b64\resources\graphic\icons\small\I_ParabolaFocus.bmp|.\SketcherUI\SktUIResourcesV5.m\src\resources\graphic\icons\small\I_ParabolaFocus.bmp
RTV/000/CUS .\win_b64\resources\graphic\icons\small\I_Skt3DGridParameters.bmp|.\SketcherUI\SktUIResourcesV5.m\src\resources\graphic\icons\small\I_Skt3DGridParameters.bmp
RTV/000/CUS .\win_b64\resources\graphic\icons\normal\I_SktCatalogCreation.bmp|.\SketcherUI\SktUIResourcesV5.m\src\resources\graphic\icons\normal\I_SktCatalogCreation.bmp
RTV/000/CUS .\win_b64\resources\graphic\icons\normal\I_Use3DIntersect.bmp|.\SketcherUI\SktUIResourcesV5.m\src\resources\graphic\icons\normal\I_Use3DIntersect.bmp
RTV/000/CUS .\win_b64\resources\graphic\icons\small\I_SketchNoPositioningB.bmp|.\SketcherUI\SktUIResourcesV5.m\src\resources\graphic\icons\small\I_SketchNoPositioningB.bmp
RTV/000/CUS .\win_b64\resources\graphic\icons\normal\I_ConiccTgIntPt.bmp|.\SketcherUI\SktUIResourcesV5.m\src\resources\graphic\icons\normal\I_ConiccTgIntPt.bmp
RTV/000/CUS .\win_b64\resources\graphic\icons\small\I_ConicTgte2.bmp|.\SketcherUI\SktUIResourcesV5.m\src\resources\graphic\icons\small\I_ConicTgte2.bmp
RTV/000/CUS .\win_b64\resources\msgcatalog\CATSktSelectionTypeHeader.CATRsc|.\SketcherUI\SktUIResourcesV5.m\src\resources\msgcatalog\CATSktSelectionTypeHeader.CATRsc
RTV/000/CUS .\win_b64\resources\graphic\icons\normal\I_HideCst.bmp|.\SketcherUI\SktUIResourcesV5.m\src\resources\graphic\icons\normal\I_HideCst.bmp
RTV/000/CUS .\win_b64\resources\graphic\icons\normal\I_SktQuickRelimitKeep.bmp|.\SketcherUI\SktUIResourcesV5.m\src\resources\graphic\icons\normal\I_SktQuickRelimitKeep.bmp
RTV/000/CUS .\win_b64\resources\graphic\icons\small\IF_SketchAnalysis.bmp|.\SketcherUI\SktUIResourcesV5.m\src\resources\graphic\icons\small\IF_SketchAnalysis.bmp
RTV/000/CUS .\win_b64\resources\graphic\icons\small\I_Circle3Tangent.bmp|.\SketcherUI\SktUIResourcesV5.m\src\resources\graphic\icons\small\I_Circle3Tangent.bmp
RTV/000/CUS .\win_b64\resources\graphic\icons\normal\I_RightText.bmp|.\SketcherUI\SktUIResourcesV5.m\src\resources\graphic\icons\normal\I_RightText.bmp
RTV/000/CUS .\win_b64\resources\graphic\icons\normal\I_SketcherB.bmp|.\SketcherUI\SktUIResourcesV5.m\src\resources\graphic\icons\normal\I_SketcherB.bmp
RTV/000/CUS .\win_b64\resources\graphic\icons\small\I_Skt2DMode-LINP.bmp|.\SketcherUI\SktUIResourcesV5.m\src\resources\graphic\icons\small\I_Skt2DMode-LINP.bmp
RTV/000/CUS .\win_b64\resources\graphic\icons\small\I_DisplayDiag.bmp|.\SketcherUI\SktUIResourcesV5.m\src\resources\graphic\icons\small\I_DisplayDiag.bmp
RTV/000/CUS .\win_b64\resources\graphic\icons\small\I_SktDatumUE2DL.bmp|.\SketcherUI\SktUIResourcesV5.m\src\resources\graphic\icons\small\I_SktDatumUE2DL.bmp
RTV/000/CUS .\win_b64\resources\graphic\icons\normal\I_LightSketchAnalysis.bmp|.\SketcherUI\SktUIResourcesV5.m\src\resources\graphic\icons\normal\I_LightSketchAnalysis.bmp
RTV/000/CUS .\win_b64\resources\graphic\icons\small\I_SktStretch.bmp|.\SketcherUI\SktUIResourcesV5.m\src\resources\graphic\icons\small\I_SktStretch.bmp
RTV/000/CUS .\win_b64\resources\graphic\icons\small\I_OrthoProjPt.bmp|.\SketcherUI\SktUIResourcesV5.m\src\resources\graphic\icons\small\I_OrthoProjPt.bmp
RTV/000/CUS .\win_b64\resources\graphic\icons\small\I_ComplementElement.bmp|.\SketcherUI\SktUIResourcesV5.m\src\resources\graphic\icons\small\I_ComplementElement.bmp
RTV/000/CUS .\win_b64\resources\graphic\icons\small\I_Conicc2Pts.bmp|.\SketcherUI\SktUIResourcesV5.m\src\resources\graphic\icons\small\I_Conicc2Pts.bmp
RTV/000/CUS .\win_b64\resources\graphic\icons\small\I_ConicTgte1.bmp|.\SketcherUI\SktUIResourcesV5.m\src\resources\graphic\icons\small\I_ConicTgte1.bmp
RTV/000/CUS .\win_b64\resources\graphic\icons\small\I_Conicc5Pts.bmp|.\SketcherUI\SktUIResourcesV5.m\src\resources\graphic\icons\small\I_Conicc5Pts.bmp
RTV/000/CUS .\win_b64\resources\graphic\icons\small\I_Conicc4Pts.bmp|.\SketcherUI\SktUIResourcesV5.m\src\resources\graphic\icons\small\I_Conicc4Pts.bmp
RTV/000/CUS .\win_b64\resources\graphic\icons\normal\I_NoCanoCrv.bmp|.\SketcherUI\SktUIResourcesV5.m\src\resources\graphic\icons\normal\I_NoCanoCrv.bmp
RTV/000/CUS .\win_b64\resources\graphic\icons\small\I_OutputPlane.bmp|.\SketcherUI\SktUIResourcesV5.m\src\resources\graphic\icons\small\I_OutputPlane.bmp
RTV/000/CUS .\win_b64\resources\graphic\icons\normal\I_Conic5Pts.bmp|.\SketcherUI\SktUIResourcesV5.m\src\resources\graphic\icons\normal\I_Conic5Pts.bmp
RTV/000/CUS .\win_b64\resources\graphic\icons\normal\I_Conic3Pts.bmp|.\SketcherUI\SktUIResourcesV5.m\src\resources\graphic\icons\normal\I_Conic3Pts.bmp
RTV/000/CUS .\win_b64\resources\graphic\icons\normal\I_ParabolaFocus.bmp|.\SketcherUI\SktUIResourcesV5.m\src\resources\graphic\icons\normal\I_ParabolaFocus.bmp
RTV/000/CUS .\win_b64\resources\graphic\icons\normal\I_Chamfer2DL1L2.bmp|.\SketcherUI\SktUIResourcesV5.m\src\resources\graphic\icons\normal\I_Chamfer2DL1L2.bmp
RTV/000/CUS .\win_b64\resources\graphic\icons\small\I_AutoSearchTP.bmp|.\SketcherUI\SktUIResourcesV5.m\src\resources\graphic\icons\small\I_AutoSearchTP.bmp
RTV/000/CUS .\win_b64\resources\graphic\icons\normal\I_Skt2DMode-NP.bmp|.\SketcherUI\SktUIResourcesV5.m\src\resources\graphic\icons\normal\I_Skt2DMode-NP.bmp
RTV/000/CUS .\win_b64\resources\graphic\icons\normal\I_LineOutputAxis.bmp|.\SketcherUI\SktUIResourcesV5.m\src\resources\graphic\icons\normal\I_LineOutputAxis.bmp
RTV/000/CUS .\win_b64\resources\graphic\icons\normal\I_CstMultiEdition.bmp|.\SketcherUI\SktUIResourcesV5.m\src\resources\graphic\icons\normal\I_CstMultiEdition.bmp
RTV/000/CUS .\win_b64\resources\graphic\icons\small\I_SktText.bmp|.\SketcherUI\SktUIResourcesV5.m\src\resources\graphic\icons\small\I_SktText.bmp
RTV/000/CUS .\win_b64\resources\graphic\icons\small\I_Skt2DMode-NP.bmp|.\SketcherUI\SktUIResourcesV5.m\src\resources\graphic\icons\small\I_Skt2DMode-NP.bmp
RTV/000/CUS .\win_b64\resources\graphic\icons\normal\I_No3DBackground.bmp|.\SketcherUI\SktUIResourcesV5.m\src\resources\graphic\icons\normal\I_No3DBackground.bmp
RTV/000/CUS .\win_b64\resources\graphic\icons\small\I_ConstraintCopilot.bmp|.\SketcherUI\SktUIResourcesV5.m\src\resources\graphic\icons\small\I_ConstraintCopilot.bmp
RTV/000/CUS .\win_b64\resources\graphic\icons\normal\I_SktFixTogether.bmp|.\SketcherUI\SktUIResourcesV5.m\src\resources\graphic\icons\normal\I_SktFixTogether.bmp
RTV/000/CUS .\win_b64\resources\graphic\icons\normal\I_SktChamfer2D.bmp|.\SketcherUI\SktUIResourcesV5.m\src\resources\graphic\icons\normal\I_SktChamfer2D.bmp
RTV/000/CUS .\win_b64\resources\graphic\icons\normal\I_SktChamferNoRelimitation.bmp|.\SketcherUI\SktUIResourcesV5.m\src\resources\graphic\icons\normal\I_SktChamferNoRelimitation.bmp
RTV/000/CUS .\win_b64\resources\graphic\icons\small\I_No3DBackground.bmp|.\SketcherUI\SktUIResourcesV5.m\src\resources\graphic\icons\small\I_No3DBackground.bmp
RTV/000/CUS .\win_b64\resources\graphic\icons\small\I_Use3DIsolate.bmp|.\SketcherUI\SktUIResourcesV5.m\src\resources\graphic\icons\small\I_Use3DIsolate.bmp
RTV/000/CUS .\win_b64\resources\graphic\icons\small\I_DirText.bmp|.\SketcherUI\SktUIResourcesV5.m\src\resources\graphic\icons\small\I_DirText.bmp
RTV/000/CUS .\win_b64\resources\graphic\icons\small\I_BaselineText.bmp|.\SketcherUI\SktUIResourcesV5.m\src\resources\graphic\icons\small\I_BaselineText.bmp
RTV/000/CUS .\win_b64\resources\graphic\icons\small\I_LowLightNoPick.bmp|.\SketcherUI\SktUIResourcesV5.m\src\resources\graphic\icons\small\I_LowLightNoPick.bmp
RTV/000/CUS .\win_b64\resources\graphic\icons\normal\IP_LightSketchAnalysis.bmp|.\SketcherUI\SktUIResourcesV5.m\src\resources\graphic\icons\normal\IP_LightSketchAnalysis.bmp
RTV/000/CUS .\win_b64\resources\graphic\icons\small\I_ConstraintCopilotAndGeom.bmp|.\SketcherUI\SktUIResourcesV5.m\src\resources\graphic\icons\small\I_ConstraintCopilotAndGeom.bmp
RTV/000/CUS .\win_b64\resources\graphic\icons\small\I_Skt2DMode-NV.bmp|.\SketcherUI\SktUIResourcesV5.m\src\resources\graphic\icons\small\I_Skt2DMode-NV.bmp
RTV/000/CUS .\win_b64\resources\graphic\icons\small\I_SktQuickRelimitIn.bmp|.\SketcherUI\SktUIResourcesV5.m\src\resources\graphic\icons\small\I_SktQuickRelimitIn.bmp
RTV/000/CUS .\win_b64\resources\graphic\icons\small\I_CornerStdLine.bmp|.\SketcherUI\SktUIResourcesV5.m\src\resources\graphic\icons\small\I_CornerStdLine.bmp
RTV/000/CUS .\win_b64\resources\graphic\icons\normal\I_SktArc.bmp|.\SketcherUI\SktUIResourcesV5.m\src\resources\graphic\icons\normal\I_SktArc.bmp
RTV/000/CUS .\win_b64\resources\graphic\icons\normal\I_SktLineInf.bmp|.\SketcherUI\SktUIResourcesV5.m\src\resources\graphic\icons\normal\I_SktLineInf.bmp
RTV/000/CUS .\win_b64\resources\graphic\icons\small\I_ConnectCurveC2.bmp|.\SketcherUI\SktUIResourcesV5.m\src\resources\graphic\icons\small\I_ConnectCurveC2.bmp
RTV/000/CUS .\win_b64\resources\graphic\icons\small\I_Skt2DMode.bmp|.\SketcherUI\SktUIResourcesV5.m\src\resources\graphic\icons\small\I_Skt2DMode.bmp
RTV/000/CUS .\win_b64\resources\graphic\icons\normal\I_SktPointIntersect.bmp|.\SketcherUI\SktUIResourcesV5.m\src\resources\graphic\icons\normal\I_SktPointIntersect.bmp
RTV/000/CUS .\win_b64\resources\msgcatalog\CATPanelEdit2DOffset.CATRsc|.\SketcherUI\SktUIResourcesV5.m\src\resources\msgcatalog\CATPanelEdit2DOffset.CATRsc
RTV/000/CUS .\win_b64\resources\graphic\icons\small\I_Conic3Pts.bmp|.\SketcherUI\SktUIResourcesV5.m\src\resources\graphic\icons\small\I_Conic3Pts.bmp
RTV/000/CUS .\win_b64\resources\graphic\icons\normal\I_SktOutputs.bmp|.\SketcherUI\SktUIResourcesV5.m\src\resources\graphic\icons\normal\I_SktOutputs.bmp
RTV/000/CUS .\win_b64\resources\graphic\icons\normal\I_SketchAnalysis.bmp|.\SketcherUI\SktUIResourcesV5.m\src\resources\graphic\icons\normal\I_SketchAnalysis.bmp
RTV/000/CUS .\win_b64\resources\msgcatalog\CAT3DTextDlg.CATRsc|.\SketcherUI\SktUIResourcesV5.m\src\resources\msgcatalog\CAT3DTextDlg.CATRsc
RTV/000/CUS .\win_b64\resources\graphic\icons\small\I_PlayAutoLoop.bmp|.\SketcherUI\SktUIResourcesV5.m\src\resources\graphic\icons\small\I_PlayAutoLoop.bmp
RTV/000/CUS .\win_b64\resources\graphic\icons\small\I_SktDefaultNbSides.png|.\SketcherUI\SktUIResourcesV5.m\src\resources\graphic\icons\small\I_SktDefaultNbSides.png
RTV/000/CUS .\win_b64\resources\graphic\icons\normal\I_Axis2DL.bmp|.\SketcherUI\SktUIResourcesV5.m\src\resources\graphic\icons\normal\I_Axis2DL.bmp
RTV/000/CUS .\win_b64\resources\graphic\icons\small\I_SktOutputProfile.bmp|.\SketcherUI\SktUIResourcesV5.m\src\resources\graphic\icons\small\I_SktOutputProfile.bmp
RTV/000/CUS .\win_b64\resources\graphic\icons\normal\I_Skt2DMode-LI.bmp|.\SketcherUI\SktUIResourcesV5.m\src\resources\graphic\icons\normal\I_Skt2DMode-LI.bmp
RTV/000/CUS .\win_b64\resources\graphic\icons\small\I_SktEndPtCurve.bmp|.\SketcherUI\SktUIResourcesV5.m\src\resources\graphic\icons\small\I_SktEndPtCurve.bmp
RTV/000/CUS .\win_b64\resources\graphic\icons\normal\I_SktLineVert.bmp|.\SketcherUI\SktUIResourcesV5.m\src\resources\graphic\icons\normal\I_SktLineVert.bmp
RTV/000/CUS .\win_b64\resources\graphic\icons\small\I_SketchPositioningB.bmp|.\SketcherUI\SktUIResourcesV5.m\src\resources\graphic\icons\small\I_SketchPositioningB.bmp
RTV/000/CUS .\win_b64\resources\graphic\icons\small\I_SktMirror.bmp|.\SketcherUI\SktUIResourcesV5.m\src\resources\graphic\icons\small\I_SktMirror.bmp
RTV/000/CUS .\win_b64\resources\graphic\icons\normal\I_SktSymmetry.bmp|.\SketcherUI\SktUIResourcesV5.m\src\resources\graphic\icons\normal\I_SktSymmetry.bmp
RTV/000/CUS .\win_b64\resources\graphic\icons\normal\I_Conicc2Pts.bmp|.\SketcherUI\SktUIResourcesV5.m\src\resources\graphic\icons\normal\I_Conicc2Pts.bmp
RTV/000/CUS .\win_b64\resources\graphic\icons\normal\I_ConstraintCopilot.bmp|.\SketcherUI\SktUIResourcesV5.m\src\resources\graphic\icons\normal\I_ConstraintCopilot.bmp
RTV/000/CUS .\win_b64\resources\graphic\icons\normal\I_SktChamferRelimitationElement1.bmp|.\SketcherUI\SktUIResourcesV5.m\src\resources\graphic\icons\normal\I_SktChamferRelimitationElement1.bmp
RTV/000/CUS .\win_b64\resources\graphic\icons\small\I_AutoSearch.bmp|.\SketcherUI\SktUIResourcesV5.m\src\resources\graphic\icons\small\I_AutoSearch.bmp
RTV/000/CUS .\win_b64\resources\graphic\icons\small\I_SketcherY.bmp|.\SketcherUI\SktUIResourcesV5.m\src\resources\graphic\icons\small\I_SketcherY.bmp
RTV/000/CUS .\win_b64\resources\graphic\icons\normal\I_ConicTgte1.bmp|.\SketcherUI\SktUIResourcesV5.m\src\resources\graphic\icons\normal\I_ConicTgte1.bmp
RTV/000/CUS .\win_b64\resources\graphic\icons\normal\I_ConicTgte2.bmp|.\SketcherUI\SktUIResourcesV5.m\src\resources\graphic\icons\normal\I_ConicTgte2.bmp
RTV/000/CUS .\win_b64\resources\graphic\icons\normal\I_SktReverseOrientation.bmp|.\SketcherUI\SktUIResourcesV5.m\src\resources\graphic\icons\normal\I_SktReverseOrientation.bmp
RTV/000/CUS .\win_b64\resources\graphic\icons\small\I_PointsSpaces.bmp|.\SketcherUI\SktUIResourcesV5.m\src\resources\graphic\icons\small\I_PointsSpaces.bmp
RTV/000/CUS .\win_b64\resources\graphic\icons\normal\I_PolygonIncircle.bmp|.\SketcherUI\SktUIResourcesV5.m\src\resources\graphic\icons\normal\I_PolygonIncircle.bmp
RTV/000/CUS .\win_b64\resources\graphic\icons\normal\I_SketchPositioning.bmp|.\SketcherUI\SktUIResourcesV5.m\src\resources\graphic\icons\normal\I_SketchPositioning.bmp
RTV/000/CUS .\win_b64\resources\graphic\icons\normal\I_SktCornerRelimitationElement1.bmp|.\SketcherUI\SktUIResourcesV5.m\src\resources\graphic\icons\normal\I_SktCornerRelimitationElement1.bmp
RTV/000/CUS .\win_b64\resources\graphic\icons\small\I_SktQuickRelimitOut.bmp|.\SketcherUI\SktUIResourcesV5.m\src\resources\graphic\icons\small\I_SktQuickRelimitOut.bmp
RTV/000/CUS .\win_b64\resources\graphic\icons\normal\I_AlignPoints.bmp|.\SketcherUI\SktUIResourcesV5.m\src\resources\graphic\icons\normal\I_AlignPoints.bmp
RTV/000/CUS .\win_b64\resources\graphic\icons\small\I_ChamferStdLine.bmp|.\SketcherUI\SktUIResourcesV5.m\src\resources\graphic\icons\small\I_ChamferStdLine.bmp
RTV/000/CUS .\win_b64\resources\graphic\icons\small\I_CstMultiEdition.bmp|.\SketcherUI\SktUIResourcesV5.m\src\resources\graphic\icons\small\I_CstMultiEdition.bmp
RTV/000/CUS .\win_b64\resources\graphic\icons\small\I_Use3DSilhouette_Canonical.bmp|.\SketcherUI\SktUIResourcesV5.m\src\resources\graphic\icons\small\I_Use3DSilhouette_Canonical.bmp
RTV/000/CUS .\win_b64\resources\graphic\icons\normal\IF_LightSketchAnalysis.bmp|.\SketcherUI\SktUIResourcesV5.m\src\resources\graphic\icons\normal\IF_LightSketchAnalysis.bmp
RTV/000/CUS .\win_b64\resources\graphic\icons\small\I_2DInstantiateFixTogether.bmp|.\SketcherUI\SktUIResourcesV5.m\src\resources\graphic\icons\small\I_2DInstantiateFixTogether.bmp
RTV/000/CUS .\win_b64\resources\graphic\icons\small\I_DescenderText.bmp|.\SketcherUI\SktUIResourcesV5.m\src\resources\graphic\icons\small\I_DescenderText.bmp
RTV/000/CUS .\win_b64\resources\graphic\icons\small\I_ConnectCurveC0.bmp|.\SketcherUI\SktUIResourcesV5.m\src\resources\graphic\icons\small\I_ConnectCurveC0.bmp
RTV/000/CUS .\win_b64\resources\graphic\icons\small\I_RatioText.bmp|.\SketcherUI\SktUIResourcesV5.m\src\resources\graphic\icons\small\I_RatioText.bmp
RTV/000/CUS .\win_b64\resources\graphic\icons\small\I_TgPropagation.bmp|.\SketcherUI\SktUIResourcesV5.m\src\resources\graphic\icons\small\I_TgPropagation.bmp
RTV/000/CUS .\win_b64\resources\graphic\icons\normal\I_SktConnectArc.bmp|.\SketcherUI\SktUIResourcesV5.m\src\resources\graphic\icons\normal\I_SktConnectArc.bmp
RTV/000/CUS .\win_b64\resources\graphic\icons\small\I_Conic5Pts.bmp|.\SketcherUI\SktUIResourcesV5.m\src\resources\graphic\icons\small\I_Conic5Pts.bmp
RTV/000/CUS .\win_b64\resources\graphic\icons\normal\I_Conicc4Pts.bmp|.\SketcherUI\SktUIResourcesV5.m\src\resources\graphic\icons\normal\I_Conicc4Pts.bmp
RTV/000/CUS .\win_b64\resources\graphic\icons\normal\I_RepairFixT.bmp|.\SketcherUI\SktUIResourcesV5.m\src\resources\graphic\icons\normal\I_RepairFixT.bmp
RTV/000/CUS .\win_b64\resources\graphic\icons\normal\I_SktTranslate.bmp|.\SketcherUI\SktUIResourcesV5.m\src\resources\graphic\icons\normal\I_SktTranslate.bmp
RTV/000/CUS .\win_b64\resources\graphic\icons\small\I_SktCornerNoRelimitation.bmp|.\SketcherUI\SktUIResourcesV5.m\src\resources\graphic\icons\small\I_SktCornerNoRelimitation.bmp
RTV/000/CUS .\win_b64\resources\graphic\icons\normal\I_Line2Tangent.bmp|.\SketcherUI\SktUIResourcesV5.m\src\resources\graphic\icons\normal\I_Line2Tangent.bmp
RTV/000/CUS .\win_b64\resources\graphic\icons\normal\I_SktArcTgtRelimitationElement1.bmp|.\SketcherUI\SktUIResourcesV5.m\src\resources\graphic\icons\normal\I_SktArcTgtRelimitationElement1.bmp
RTV/000/CUS .\win_b64\resources\graphic\icons\normal\I_Skt3DGridParameters.bmp|.\SketcherUI\SktUIResourcesV5.m\src\resources\graphic\icons\normal\I_Skt3DGridParameters.bmp
RTV/000/CUS .\win_b64\resources\graphic\icons\normal\I_SktDefaultNbSides.png|.\SketcherUI\SktUIResourcesV5.m\src\resources\graphic\icons\normal\I_SktDefaultNbSides.png
RTV/000/CUS .\win_b64\resources\graphic\icons\small\I_Translate2D.bmp|.\SketcherUI\SktUIResourcesV5.m\src\resources\graphic\icons\small\I_Translate2D.bmp
RTV/000/CUS .\win_b64\resources\graphic\icons\small\I_ConnectCurveC1.bmp|.\SketcherUI\SktUIResourcesV5.m\src\resources\graphic\icons\small\I_ConnectCurveC1.bmp
RTV/000/CUS .\win_b64\resources\graphic\icons\small\I_RectangleNotches.bmp|.\SketcherUI\SktUIResourcesV5.m\src\resources\graphic\icons\small\I_RectangleNotches.bmp
RTV/000/CUS .\win_b64\resources\graphic\icons\normal\I_OffsetElement.bmp|.\SketcherUI\SktUIResourcesV5.m\src\resources\graphic\icons\normal\I_OffsetElement.bmp
RTV/000/CUS .\win_b64\resources\graphic\icons\small\I_SktPerpendicular.bmp|.\SketcherUI\SktUIResourcesV5.m\src\resources\graphic\icons\small\I_SktPerpendicular.bmp
RTV/000/CUS .\win_b64\resources\graphic\icons\small\I_SktCatalogCreation.bmp|.\SketcherUI\SktUIResourcesV5.m\src\resources\graphic\icons\small\I_SktCatalogCreation.bmp
RTV/000/CUS .\win_b64\resources\msgcatalog\CATSketchSearch.CATRsc|.\SketcherUI\SktUIResourcesV5.m\src\resources\msgcatalog\CATSketchSearch.CATRsc
RTV/000/CUS .\win_b64\resources\graphic\icons\normal\I_CurvePt.bmp|.\SketcherUI\SktUIResourcesV5.m\src\resources\graphic\icons\normal\I_CurvePt.bmp
RTV/000/CUS .\win_b64\resources\graphic\icons\normal\I_2DAlignPointsHorizontal.bmp|.\SketcherUI\SktUIResourcesV5.m\src\resources\graphic\icons\normal\I_2DAlignPointsHorizontal.bmp
RTV/000/CUS .\win_b64\resources\graphic\icons\normal\I_SktFixTogetherFamily.bmp|.\SketcherUI\SktUIResourcesV5.m\src\resources\graphic\icons\normal\I_SktFixTogetherFamily.bmp
RTV/000/CUS .\win_b64\resources\graphic\icons\normal\I_Use3DSilhouette_Canonical.bmp|.\SketcherUI\SktUIResourcesV5.m\src\resources\graphic\icons\normal\I_Use3DSilhouette_Canonical.bmp
RTV/000/CUS .\win_b64\resources\graphic\icons\normal\I_LeftText.bmp|.\SketcherUI\SktUIResourcesV5.m\src\resources\graphic\icons\normal\I_LeftText.bmp
RTV/000/CUS .\win_b64\resources\graphic\icons\small\I_PlayAutoReverse.bmp|.\SketcherUI\SktUIResourcesV5.m\src\resources\graphic\icons\small\I_PlayAutoReverse.bmp
RTV/000/CUS .\win_b64\resources\graphic\icons\small\I_SktCenteredRect.bmp|.\SketcherUI\SktUIResourcesV5.m\src\resources\graphic\icons\small\I_SktCenteredRect.bmp
RTV/000/CUS .\win_b64\resources\graphic\icons\normal\I_DimensConstraint.bmp|.\SketcherUI\SktUIResourcesV5.m\src\resources\graphic\icons\normal\I_DimensConstraint.bmp
RTV/000/CUS .\win_b64\resources\graphic\icons\normal\I_OblongArc.bmp|.\SketcherUI\SktUIResourcesV5.m\src\resources\graphic\icons\normal\I_OblongArc.bmp
RTV/000/CUS .\win_b64\resources\graphic\icons\normal\I_SktLineHor.bmp|.\SketcherUI\SktUIResourcesV5.m\src\resources\graphic\icons\normal\I_SktLineHor.bmp
RTV/000/CUS .\win_b64\resources\graphic\icons\small\I_SktHorizontal.bmp|.\SketcherUI\SktUIResourcesV5.m\src\resources\graphic\icons\small\I_SktHorizontal.bmp
RTV/000/CUS .\win_b64\resources\graphic\icons\small\I_SktOutputs.bmp|.\SketcherUI\SktUIResourcesV5.m\src\resources\graphic\icons\small\I_SktOutputs.bmp
RTV/000/CUS .\win_b64\resources\graphic\icons\normal\I_Use3DSilhouetteDatum.bmp|.\SketcherUI\SktUIResourcesV5.m\src\resources\graphic\icons\normal\I_Use3DSilhouetteDatum.bmp
RTV/000/CUS .\win_b64\resources\graphic\icons\normal\I_2DAlignPointsVertical.bmp|.\SketcherUI\SktUIResourcesV5.m\src\resources\graphic\icons\normal\I_2DAlignPointsVertical.bmp
RTV/000/CUS .\win_b64\resources\graphic\icons\small\I_SktDefaultNbSides.bmp|.\SketcherUI\SktUIResourcesV5.m\src\resources\graphic\icons\small\I_SktDefaultNbSides.bmp
RTV/000/CUS .\win_b64\resources\graphic\icons\normal\I_HyperbolaFocus.bmp|.\SketcherUI\SktUIResourcesV5.m\src\resources\graphic\icons\normal\I_HyperbolaFocus.bmp
RTV/000/CUS .\win_b64\resources\graphic\icons\normal\IF_SketchAnalysis.bmp|.\SketcherUI\SktUIResourcesV5.m\src\resources\graphic\icons\normal\IF_SketchAnalysis.bmp
RTV/000/CUS .\win_b64\resources\graphic\icons\normal\I_ConnectCurveC1.bmp|.\SketcherUI\SktUIResourcesV5.m\src\resources\graphic\icons\normal\I_ConnectCurveC1.bmp
RTV/000/CUS .\win_b64\resources\graphic\icons\normal\I_ConnectCurveC0.bmp|.\SketcherUI\SktUIResourcesV5.m\src\resources\graphic\icons\normal\I_ConnectCurveC0.bmp
RTV/000/CUS .\win_b64\resources\graphic\icons\small\I_MiddleText.bmp|.\SketcherUI\SktUIResourcesV5.m\src\resources\graphic\icons\small\I_MiddleText.bmp
RTV/000/CUS .\win_b64\resources\graphic\icons\small\I_SktQuickRelimitKeep.bmp|.\SketcherUI\SktUIResourcesV5.m\src\resources\graphic\icons\small\I_SktQuickRelimitKeep.bmp
RTV/000/CUS .\win_b64\resources\graphic\icons\normal\I_ConnectCurveC2.bmp|.\SketcherUI\SktUIResourcesV5.m\src\resources\graphic\icons\normal\I_ConnectCurveC2.bmp
RTV/000/CUS .\win_b64\resources\msgcatalog\SketcherUI.CATRsc|.\SketcherUI\SktUIResourcesV5.m\src\resources\msgcatalog\SketcherUI.CATRsc
RTV/000/CUS .\win_b64\resources\graphic\icons\normal\I_ArcCircle3Pt132.bmp|.\SketcherUI\SktUIResourcesV5.m\src\resources\graphic\icons\normal\I_ArcCircle3Pt132.bmp
RTV/000/CUS .\win_b64\resources\graphic\icons\normal\I_VerticalLeftText.bmp|.\SketcherUI\SktUIResourcesV5.m\src\resources\graphic\icons\normal\I_VerticalLeftText.bmp
RTV/000/CUS .\win_b64\resources\graphic\icons\normal\I_SktBisectLine.bmp|.\SketcherUI\SktUIResourcesV5.m\src\resources\graphic\icons\normal\I_SktBisectLine.bmp
RTV/000/CUS .\win_b64\resources\graphic\icons\small\I_LeftText.bmp|.\SketcherUI\SktUIResourcesV5.m\src\resources\graphic\icons\small\I_LeftText.bmp
RTV/000/CUS .\win_b64\resources\graphic\icons\small\I_PtPropagation.bmp|.\SketcherUI\SktUIResourcesV5.m\src\resources\graphic\icons\small\I_PtPropagation.bmp
RTV/000/CUS .\win_b64\resources\graphic\icons\normal\I_SktQuickRelimitIn.bmp|.\SketcherUI\SktUIResourcesV5.m\src\resources\graphic\icons\normal\I_SktQuickRelimitIn.bmp
RTV/000/CUS .\win_b64\resources\graphic\icons\normal\I_Plane2DL.bmp|.\SketcherUI\SktUIResourcesV5.m\src\resources\graphic\icons\normal\I_Plane2DL.bmp
RTV/000/CUS .\win_b64\resources\graphic\icons\small\I_LightSketchAnalysis.bmp|.\SketcherUI\SktUIResourcesV5.m\src\resources\graphic\icons\small\I_LightSketchAnalysis.bmp
RTV/000/CUS .\win_b64\resources\graphic\icons\small\I_Use3DSilhouetteDatum.bmp|.\SketcherUI\SktUIResourcesV5.m\src\resources\graphic\icons\small\I_Use3DSilhouetteDatum.bmp
RTV/000/CUS .\win_b64\resources\graphic\icons\small\I_VerticalRightText.bmp|.\SketcherUI\SktUIResourcesV5.m\src\resources\graphic\icons\small\I_VerticalRightText.bmp
RTV/000/CUS .\win_b64\resources\graphic\icons\normal\I_ChamferConstrLine.bmp|.\SketcherUI\SktUIResourcesV5.m\src\resources\graphic\icons\normal\I_ChamferConstrLine.bmp
RTV/000/CUS .\win_b64\resources\graphic\icons\normal\I_LMGControl.bmp|.\SketcherUI\SktUIResourcesV5.m\src\resources\graphic\icons\normal\I_LMGControl.bmp
RTV/000/CUS .\win_b64\resources\graphic\icons\normal\I_AutoSearchTP.bmp|.\SketcherUI\SktUIResourcesV5.m\src\resources\graphic\icons\normal\I_AutoSearchTP.bmp
RTV/000/CUS .\win_b64\resources\graphic\icons\small\I_Skt_small_Plane.bmp|.\SketcherUI\SktUIResourcesV5.m\src\resources\graphic\icons\small\I_Skt_small_Plane.bmp
RTV/000/CUS .\win_b64\resources\graphic\icons\normal\I_OffsetOneSide.bmp|.\SketcherUI\SktUIResourcesV5.m\src\resources\graphic\icons\normal\I_OffsetOneSide.bmp
RTV/000/CUS .\win_b64\resources\graphic\icons\small\I_CornerConstrLine.bmp|.\SketcherUI\SktUIResourcesV5.m\src\resources\graphic\icons\small\I_CornerConstrLine.bmp
RTV/000/CUS .\win_b64\resources\graphic\icons\normal\I_Evaluation.bmp|.\SketcherUI\SktUIResourcesV5.m\src\resources\graphic\icons\normal\I_Evaluation.bmp
RTV/000/CUS .\win_b64\resources\graphic\icons\small\I_SketchAnalysis.bmp|.\SketcherUI\SktUIResourcesV5.m\src\resources\graphic\icons\small\I_SketchAnalysis.bmp
RTV/000/CUS .\win_b64\resources\graphic\icons\normal\I_SktCornerNoRelimitation.bmp|.\SketcherUI\SktUIResourcesV5.m\src\resources\graphic\icons\normal\I_SktCornerNoRelimitation.bmp
RTV/000/CUS .\win_b64\resources\graphic\icons\small\I_SktVertical.bmp|.\SketcherUI\SktUIResourcesV5.m\src\resources\graphic\icons\small\I_SktVertical.bmp
RTV/000/CUS .\win_b64\resources\msgcatalog\DYSCommandHeader.CATRsc|.\SketcherUI\SktUIResourcesV5.m\src\resources\msgcatalog\DYSCommandHeader.CATRsc
RTV/000/CUS .\win_b64\resources\graphic\icons\normal\I_ComplementElement.bmp|.\SketcherUI\SktUIResourcesV5.m\src\resources\graphic\icons\normal\I_ComplementElement.bmp
RTV/000/CUS .\win_b64\resources\graphic\icons\normal\I_SktConnect.bmp|.\SketcherUI\SktUIResourcesV5.m\src\resources\graphic\icons\normal\I_SktConnect.bmp
RTV/000/CUS .\win_b64\resources\graphic\icons\small\I_HyperbolaFocus.bmp|.\SketcherUI\SktUIResourcesV5.m\src\resources\graphic\icons\small\I_HyperbolaFocus.bmp
RTV/000/CUS .\win_b64\resources\graphic\icons\normal\I_OrientText.bmp|.\SketcherUI\SktUIResourcesV5.m\src\resources\graphic\icons\normal\I_OrientText.bmp
RTV/000/CUS .\win_b64\resources\graphic\icons\normal\I_SktParallel.bmp|.\SketcherUI\SktUIResourcesV5.m\src\resources\graphic\icons\normal\I_SktParallel.bmp
RTV/000/CUS .\win_b64\resources\graphic\icons\small\I_ConstraintGeom.bmp|.\SketcherUI\SktUIResourcesV5.m\src\resources\graphic\icons\small\I_ConstraintGeom.bmp
RTV/000/CUS .\win_b64\resources\graphic\icons\small\I_SktBisectLine.bmp|.\SketcherUI\SktUIResourcesV5.m\src\resources\graphic\icons\small\I_SktBisectLine.bmp
RTV/000/CUS .\win_b64\resources\graphic\icons\small\I_SktParallel.bmp|.\SketcherUI\SktUIResourcesV5.m\src\resources\graphic\icons\small\I_SktParallel.bmp
RTV/000/CUS .\win_b64\resources\graphic\icons\normal\I_VerticalText.bmp|.\SketcherUI\SktUIResourcesV5.m\src\resources\graphic\icons\normal\I_VerticalText.bmp
RTV/000/CUS .\win_b64\resources\graphic\icons\normal\I_SktPerpendicular.bmp|.\SketcherUI\SktUIResourcesV5.m\src\resources\graphic\icons\normal\I_SktPerpendicular.bmp
RTV/000/CUS .\win_b64\resources\graphic\icons\normal\I_RatioText.bmp|.\SketcherUI\SktUIResourcesV5.m\src\resources\graphic\icons\normal\I_RatioText.bmp
RTV/000/CUS .\win_b64\resources\graphic\icons\normal\I_SktCenteredParallelo.bmp|.\SketcherUI\SktUIResourcesV5.m\src\resources\graphic\icons\normal\I_SktCenteredParallelo.bmp
RTV/000/CUS .\win_b64\resources\graphic\icons\normal\I_PtPropagation.bmp|.\SketcherUI\SktUIResourcesV5.m\src\resources\graphic\icons\normal\I_PtPropagation.bmp
RTV/000/CUS .\win_b64\resources\graphic\icons\normal\I_UsualVisu.bmp|.\SketcherUI\SktUIResourcesV5.m\src\resources\graphic\icons\normal\I_UsualVisu.bmp
RTV/000/CUS .\win_b64\resources\graphic\icons\small\I_Hexagon.bmp|.\SketcherUI\SktUIResourcesV5.m\src\resources\graphic\icons\small\I_Hexagon.bmp
RTV/000/CUS .\win_b64\resources\graphic\icons\small\I_SketchNoPositioningY.bmp|.\SketcherUI\SktUIResourcesV5.m\src\resources\graphic\icons\small\I_SketchNoPositioningY.bmp
RTV/000/CUS .\win_b64\resources\graphic\icons\small\I_Plane2DL.bmp|.\SketcherUI\SktUIResourcesV5.m\src\resources\graphic\icons\small\I_Plane2DL.bmp
RTV/000/CUS .\win_b64\resources\graphic\icons\normal\I_AutoConstraint.bmp|.\SketcherUI\SktUIResourcesV5.m\src\resources\graphic\icons\normal\I_AutoConstraint.bmp
RTV/000/CUS .\win_b64\resources\graphic\icons\normal\I_Skt_small_Plane.bmp|.\SketcherUI\SktUIResourcesV5.m\src\resources\graphic\icons\normal\I_Skt_small_Plane.bmp
RTV/000/CUS .\win_b64\resources\graphic\icons\small\IP_SktPointProject.bmp|.\SketcherUI\SktUIResourcesV5.m\src\resources\graphic\icons\small\IP_SktPointProject.bmp
RTV/000/CUS .\win_b64\resources\graphic\icons\normal\I_Skt2DMode-LINP.bmp|.\SketcherUI\SktUIResourcesV5.m\src\resources\graphic\icons\normal\I_Skt2DMode-LINP.bmp
RTV/000/CUS .\win_b64\resources\graphic\icons\normal\I_SktEndPtCurve.bmp|.\SketcherUI\SktUIResourcesV5.m\src\resources\graphic\icons\normal\I_SktEndPtCurve.bmp
RTV/000/CUS .\win_b64\resources\graphic\icons\small\I_CenterText.bmp|.\SketcherUI\SktUIResourcesV5.m\src\resources\graphic\icons\small\I_CenterText.bmp
RTV/000/CUS .\win_b64\resources\graphic\icons\small\I_OffsetOneSide.bmp|.\SketcherUI\SktUIResourcesV5.m\src\resources\graphic\icons\small\I_OffsetOneSide.bmp
RTV/000/CUS .\win_b64\resources\graphic\icons\small\I_RectangleCorner.bmp|.\SketcherUI\SktUIResourcesV5.m\src\resources\graphic\icons\small\I_RectangleCorner.bmp
RTV/000/CUS .\win_b64\resources\graphic\icons\normal\I_2DInstantiateFixTogether.bmp|.\SketcherUI\SktUIResourcesV5.m\src\resources\graphic\icons\normal\I_2DInstantiateFixTogether.bmp
RTV/000/CUS .\win_b64\resources\graphic\icons\normal\I_RectangleChamfer.bmp|.\SketcherUI\SktUIResourcesV5.m\src\resources\graphic\icons\normal\I_RectangleChamfer.bmp
RTV/000/CUS .\win_b64\resources\graphic\icons\normal\I_Use3DIsolate.bmp|.\SketcherUI\SktUIResourcesV5.m\src\resources\graphic\icons\normal\I_Use3DIsolate.bmp
RTV/000/CUS .\win_b64\resources\graphic\icons\small\IP_SktConnect.bmp|.\SketcherUI\SktUIResourcesV5.m\src\resources\graphic\icons\small\IP_SktConnect.bmp
RTV/000/CUS .\win_b64\resources\graphic\icons\small\I_KeyHole.bmp|.\SketcherUI\SktUIResourcesV5.m\src\resources\graphic\icons\small\I_KeyHole.bmp
RTV/000/CUS .\win_b64\resources\graphic\icons\normal\I_CornerConstrLineNoTrim.bmp|.\SketcherUI\SktUIResourcesV5.m\src\resources\graphic\icons\normal\I_CornerConstrLineNoTrim.bmp
RTV/000/CUS .\win_b64\resources\graphic\icons\small\I_Use3DIntersect.bmp|.\SketcherUI\SktUIResourcesV5.m\src\resources\graphic\icons\small\I_Use3DIntersect.bmp
RTV/000/CUS .\win_b64\resources\graphic\icons\normal\I_Skt2DMode.bmp|.\SketcherUI\SktUIResourcesV5.m\src\resources\graphic\icons\normal\I_Skt2DMode.bmp
RTV/000/CUS .\win_b64\resources\graphic\icons\normal\I_OutputPlane.bmp|.\SketcherUI\SktUIResourcesV5.m\src\resources\graphic\icons\normal\I_OutputPlane.bmp
RTV/000/CUS .\win_b64\resources\graphic\icons\small\I_SktChamfer2D.bmp|.\SketcherUI\SktUIResourcesV5.m\src\resources\graphic\icons\small\I_SktChamfer2D.bmp
RTV/000/CUS .\win_b64\resources\graphic\icons\small\I_AutoConstraint.bmp|.\SketcherUI\SktUIResourcesV5.m\src\resources\graphic\icons\small\I_AutoConstraint.bmp
RTV/000/CUS .\win_b64\resources\graphic\icons\normal\I_PolygonCircumcircle.bmp|.\SketcherUI\SktUIResourcesV5.m\src\resources\graphic\icons\normal\I_PolygonCircumcircle.bmp
RTV/000/CUS .\win_b64\resources\graphic\icons\small\I_RectangleChamfer.bmp|.\SketcherUI\SktUIResourcesV5.m\src\resources\graphic\icons\small\I_RectangleChamfer.bmp
RTV/000/CUS .\win_b64\resources\graphic\icons\normal\I_ChamferConstrLineNoTrim.bmp|.\SketcherUI\SktUIResourcesV5.m\src\resources\graphic\icons\normal\I_ChamferConstrLineNoTrim.bmp
RTV/000/CUS .\win_b64\resources\graphic\icons\normal\I_ConstraintGeom.bmp|.\SketcherUI\SktUIResourcesV5.m\src\resources\graphic\icons\normal\I_ConstraintGeom.bmp
RTV/000/CUS .\win_b64\resources\graphic\icons\small\I_SktLineInf.bmp|.\SketcherUI\SktUIResourcesV5.m\src\resources\graphic\icons\small\I_SktLineInf.bmp
RTV/000/CUS .\win_b64\resources\graphic\icons\normal\I_RectangleCorner.bmp|.\SketcherUI\SktUIResourcesV5.m\src\resources\graphic\icons\normal\I_RectangleCorner.bmp
RTV/000/CUS .\win_b64\resources\graphic\icons\normal\IF_SktConnect.bmp|.\SketcherUI\SktUIResourcesV5.m\src\resources\graphic\icons\normal\IF_SktConnect.bmp
RTV/000/CUS .\win_b64\resources\graphic\icons\small\I_Use3DSilhouette.bmp|.\SketcherUI\SktUIResourcesV5.m\src\resources\graphic\icons\small\I_Use3DSilhouette.bmp
RTV/000/CUS .\win_b64\resources\graphic\icons\small\I_UsualVisu.bmp|.\SketcherUI\SktUIResourcesV5.m\src\resources\graphic\icons\small\I_UsualVisu.bmp
RTV/000/CUS .\win_b64\resources\graphic\icons\normal\I_SketchNoPositioning.bmp|.\SketcherUI\SktUIResourcesV5.m\src\resources\graphic\icons\normal\I_SketchNoPositioning.bmp
RTV/000/CUS .\win_b64\resources\msgcatalog\CS0WKS.CATRsc|.\SketcherUI\SktUIResourcesV5.m\src\resources\msgcatalog\CS0WKS.CATRsc
RTV/000/CUS .\win_b64\resources\graphic\icons\small\I_Line2Tangent.bmp|.\SketcherUI\SktUIResourcesV5.m\src\resources\graphic\icons\small\I_Line2Tangent.bmp
RTV/000/CUS .\win_b64\resources\graphic\icons\normal\IP_SktPointProject.bmp|.\SketcherUI\SktUIResourcesV5.m\src\resources\graphic\icons\normal\IP_SktPointProject.bmp
RTV/000/CUS .\win_b64\resources\graphic\icons\small\I_NoCanoCrv.bmp|.\SketcherUI\SktUIResourcesV5.m\src\resources\graphic\icons\small\I_NoCanoCrv.bmp
RTV/000/CUS .\win_b64\resources\graphic\icons\normal\I_OutputAxis.bmp|.\SketcherUI\SktUIResourcesV5.m\src\resources\graphic\icons\normal\I_OutputAxis.bmp
RTV/000/CUS .\win_b64\resources\graphic\icons\small\I_ChamferConstrLineBreak.bmp|.\SketcherUI\SktUIResourcesV5.m\src\resources\graphic\icons\small\I_ChamferConstrLineBreak.bmp
RTV/000/CUS .\win_b64\resources\graphic\icons\small\I_SktConnectArc.bmp|.\SketcherUI\SktUIResourcesV5.m\src\resources\graphic\icons\small\I_SktConnectArc.bmp
RTV/000/CUS .\win_b64\resources\msgcatalog\CATPanel2DAnalyse.CATRsc|.\SketcherUI\SktUIResourcesV5.m\src\resources\msgcatalog\CATPanel2DAnalyse.CATRsc
RTV/000/CUS .\win_b64\resources\graphic\icons\normal\I_SktCenteredRect.bmp|.\SketcherUI\SktUIResourcesV5.m\src\resources\graphic\icons\normal\I_SktCenteredRect.bmp
RTV/000/CUS .\win_b64\resources\graphic\icons\normal\I_PlayMultShot.bmp|.\SketcherUI\SktUIResourcesV5.m\src\resources\graphic\icons\normal\I_PlayMultShot.bmp
RTV/000/CUS .\win_b64\resources\graphic\icons\small\IF_SktConnect.bmp|.\SketcherUI\SktUIResourcesV5.m\src\resources\graphic\icons\small\IF_SktConnect.bmp
RTV/000/CUS .\win_b64\resources\graphic\icons\small\I_SketchPositioningY.bmp|.\SketcherUI\SktUIResourcesV5.m\src\resources\graphic\icons\small\I_SketchPositioningY.bmp
RTV/000/CUS .\win_b64\resources\graphic\icons\normal\I_LowLightNoPick.bmp|.\SketcherUI\SktUIResourcesV5.m\src\resources\graphic\icons\normal\I_LowLightNoPick.bmp
RTV/000/CUS .\win_b64\resources\graphic\icons\small\I_SpacingText.bmp|.\SketcherUI\SktUIResourcesV5.m\src\resources\graphic\icons\small\I_SpacingText.bmp
RTV/000/CUS .\win_b64\resources\graphic\icons\normal\I_SktQuickRelimitOut.bmp|.\SketcherUI\SktUIResourcesV5.m\src\resources\graphic\icons\normal\I_SktQuickRelimitOut.bmp
RTV/000/CUS .\win_b64\resources\graphic\icons\normal\I_CornerStdLine.bmp|.\SketcherUI\SktUIResourcesV5.m\src\resources\graphic\icons\normal\I_CornerStdLine.bmp
RTV/000/CUS .\win_b64\resources\graphic\icons\small\I_SketchElements.bmp|.\SketcherUI\SktUIResourcesV5.m\src\resources\graphic\icons\small\I_SketchElements.bmp
RTV/000/CUS .\win_b64\resources\graphic\icons\normal\I_SketchNoPositioningY.bmp|.\SketcherUI\SktUIResourcesV5.m\src\resources\graphic\icons\normal\I_SketchNoPositioningY.bmp
RTV/000/CUS .\win_b64\resources\graphic\icons\normal\I_SktStretch.bmp|.\SketcherUI\SktUIResourcesV5.m\src\resources\graphic\icons\normal\I_SktStretch.bmp
RTV/000/CUS .\win_b64\resources\graphic\icons\small\I_SktOutput.bmp|.\SketcherUI\SktUIResourcesV5.m\src\resources\graphic\icons\small\I_SktOutput.bmp
RTV/000/CUS .\win_b64\resources\graphic\icons\normal\I_PlayAutoReverse.bmp|.\SketcherUI\SktUIResourcesV5.m\src\resources\graphic\icons\normal\I_PlayAutoReverse.bmp
RTV/000/CUS .\win_b64\resources\graphic\icons\normal\I_Circle3Tangent.bmp|.\SketcherUI\SktUIResourcesV5.m\src\resources\graphic\icons\normal\I_Circle3Tangent.bmp
RTV/000/CUS .\win_b64\resources\graphic\icons\small\I_SketchPositioning.bmp|.\SketcherUI\SktUIResourcesV5.m\src\resources\graphic\icons\small\I_SketchPositioning.bmp
RTV/000/CUS .\win_b64\resources\graphic\icons\small\I_SktPointIntersect.bmp|.\SketcherUI\SktUIResourcesV5.m\src\resources\graphic\icons\small\I_SktPointIntersect.bmp
RTV/000/CUS .\win_b64\resources\graphic\icons\small\I_2DArc1Tgt.bmp|.\SketcherUI\SktUIResourcesV5.m\src\resources\graphic\icons\small\I_2DArc1Tgt.bmp
RTV/000/CUS .\win_b64\resources\graphic\icons\small\IF_SktPointProject.bmp|.\SketcherUI\SktUIResourcesV5.m\src\resources\graphic\icons\small\IF_SktPointProject.bmp
RTV/000/CUS .\win_b64\resources\graphic\icons\small\I_SktArcTgtNoRelimitation.bmp|.\SketcherUI\SktUIResourcesV5.m\src\resources\graphic\icons\small\I_SktArcTgtNoRelimitation.bmp
RTV/000/CUS .\win_b64\resources\graphic\icons\normal\I_SktMirror.bmp|.\SketcherUI\SktUIResourcesV5.m\src\resources\graphic\icons\normal\I_SktMirror.bmp
RTV/000/CUS .\win_b64\resources\msgcatalog\CATDYSHeaderWithCSO.CATRsc|.\SketcherUI\SktUIResourcesV5.m\src\resources\msgcatalog\CATDYSHeaderWithCSO.CATRsc
RTV/000/CUS .\win_b64\resources\graphic\icons\normal\I_PlaneOutputPlane.bmp|.\SketcherUI\SktUIResourcesV5.m\src\resources\graphic\icons\normal\I_PlaneOutputPlane.bmp
RTV/000/CUS .\win_b64\resources\graphic\icons\small\I_SktDefaultRadiusCorner.bmp|.\SketcherUI\SktUIResourcesV5.m\src\resources\graphic\icons\small\I_SktDefaultRadiusCorner.bmp
RTV/000/CUS .\win_b64\resources\graphic\icons\normal\I_SketcherY.bmp|.\SketcherUI\SktUIResourcesV5.m\src\resources\graphic\icons\normal\I_SketcherY.bmp
RTV/000/CUS .\win_b64\resources\graphic\icons\normal\I_ContactConstraint.bmp|.\SketcherUI\SktUIResourcesV5.m\src\resources\graphic\icons\normal\I_ContactConstraint.bmp
RTV/000/CUS .\win_b64\resources\graphic\icons\normal\IP_SktConnect.bmp|.\SketcherUI\SktUIResourcesV5.m\src\resources\graphic\icons\normal\IP_SktConnect.bmp
RTV/000/CUS .\win_b64\resources\graphic\icons\small\I_Chamfer2DL1A.bmp|.\SketcherUI\SktUIResourcesV5.m\src\resources\graphic\icons\small\I_Chamfer2DL1A.bmp
RTV/000/CUS .\win_b64\resources\graphic\icons\small\I_OblongArc.bmp|.\SketcherUI\SktUIResourcesV5.m\src\resources\graphic\icons\small\I_OblongArc.bmp
RTV/000/CUS .\win_b64\resources\graphic\icons\normal\I_CornerConstrLine.bmp|.\SketcherUI\SktUIResourcesV5.m\src\resources\graphic\icons\normal\I_CornerConstrLine.bmp
RTV/000/CUS .\win_b64\resources\graphic\icons\normal\I_SktVertical.bmp|.\SketcherUI\SktUIResourcesV5.m\src\resources\graphic\icons\normal\I_SktVertical.bmp
RTV/000/CUS .\win_b64\resources\graphic\icons\normal\I_AscenderText.bmp|.\SketcherUI\SktUIResourcesV5.m\src\resources\graphic\icons\normal\I_AscenderText.bmp
RTV/000/CUS .\win_b64\resources\graphic\icons\normal\I_SktRotate.bmp|.\SketcherUI\SktUIResourcesV5.m\src\resources\graphic\icons\normal\I_SktRotate.bmp
RTV/000/CUS .\win_b64\resources\graphic\icons\small\I_SktCornerRelimitationElement1.bmp|.\SketcherUI\SktUIResourcesV5.m\src\resources\graphic\icons\small\I_SktCornerRelimitationElement1.bmp
RTV/000/CUS .\win_b64\resources\graphic\icons\normal\I_MiddleText.bmp|.\SketcherUI\SktUIResourcesV5.m\src\resources\graphic\icons\normal\I_MiddleText.bmp
RTV/000/CUS .\win_b64\resources\graphic\icons\normal\I_EvalManual.bmp|.\SketcherUI\SktUIResourcesV5.m\src\resources\graphic\icons\normal\I_EvalManual.bmp
RTV/000/CUS .\win_b64\resources\graphic\icons\normal\I_DisplayDiag.bmp|.\SketcherUI\SktUIResourcesV5.m\src\resources\graphic\icons\normal\I_DisplayDiag.bmp
RTV/000/CUS .\win_b64\resources\graphic\icons\normal\I_LineSym.bmp|.\SketcherUI\SktUIResourcesV5.m\src\resources\graphic\icons\normal\I_LineSym.bmp
RTV/000/CUS .\win_b64\resources\graphic\icons\small\I_SktCenteredParallelo.bmp|.\SketcherUI\SktUIResourcesV5.m\src\resources\graphic\icons\small\I_SktCenteredParallelo.bmp
RTV/000/CUS .\win_b64\resources\graphic\icons\small\I_ConstraintAnimate.bmp|.\SketcherUI\SktUIResourcesV5.m\src\resources\graphic\icons\small\I_ConstraintAnimate.bmp
RTV/000/CUS .\win_b64\resources\graphic\icons\small\I_AlongDirProjPt.bmp|.\SketcherUI\SktUIResourcesV5.m\src\resources\graphic\icons\small\I_AlongDirProjPt.bmp
RTV/000/CUS .\win_b64\resources\graphic\icons\small\I_SketchNoPositioning.bmp|.\SketcherUI\SktUIResourcesV5.m\src\resources\graphic\icons\small\I_SketchNoPositioning.bmp
RTV/000/CUS .\win_b64\resources\graphic\icons\normal\I_TgPropagation.bmp|.\SketcherUI\SktUIResourcesV5.m\src\resources\graphic\icons\normal\I_TgPropagation.bmp
RTV/000/CUS .\win_b64\resources\graphic\icons\normal\I_SketchNoPositioningB.bmp|.\SketcherUI\SktUIResourcesV5.m\src\resources\graphic\icons\normal\I_SketchNoPositioningB.bmp
RTV/000/CUS .\win_b64\resources\graphic\icons\normal\I_SktDefaultNbSides.bmp|.\SketcherUI\SktUIResourcesV5.m\src\resources\graphic\icons\normal\I_SktDefaultNbSides.bmp
RTV/000/CUS .\win_b64\resources\graphic\icons\normal\I_Chamfer2DLA.bmp|.\SketcherUI\SktUIResourcesV5.m\src\resources\graphic\icons\normal\I_Chamfer2DLA.bmp
RTV/000/CUS .\win_b64\resources\graphic\icons\small\I_AlignPoints.bmp|.\SketcherUI\SktUIResourcesV5.m\src\resources\graphic\icons\small\I_AlignPoints.bmp
RTV/000/CUS .\win_b64\resources\msgcatalog\CS0WKSAlias.CATRsc|.\SketcherUI\SktUIResourcesV5.m\src\resources\msgcatalog\CS0WKSAlias.CATRsc
RTV/000/CUS .\win_b64\resources\graphic\icons\normal\I_RectangleNotches.bmp|.\SketcherUI\SktUIResourcesV5.m\src\resources\graphic\icons\normal\I_RectangleNotches.bmp
RTV/000/CUS .\win_b64\resources\graphic\icons\normal\I_SktOutputProfile.bmp|.\SketcherUI\SktUIResourcesV5.m\src\resources\graphic\icons\normal\I_SktOutputProfile.bmp
RTV/000/CUS .\win_b64\resources\graphic\icons\small\I_Evaluation.bmp|.\SketcherUI\SktUIResourcesV5.m\src\resources\graphic\icons\small\I_Evaluation.bmp
RTV/000/CUS .\win_b64\resources\graphic\icons\small\I_Oblong.bmp|.\SketcherUI\SktUIResourcesV5.m\src\resources\graphic\icons\small\I_Oblong.bmp
RTV/000/CUS .\win_b64\resources\graphic\icons\normal\I_PointsSpaces.bmp|.\SketcherUI\SktUIResourcesV5.m\src\resources\graphic\icons\normal\I_PointsSpaces.bmp
RTV/000/CUS .\win_b64\resources\graphic\icons\normal\I_Skt2DMode-NV.bmp|.\SketcherUI\SktUIResourcesV5.m\src\resources\graphic\icons\normal\I_Skt2DMode-NV.bmp
RTV/000/CUS .\win_b64\resources\graphic\icons\normal\I_Translate2D.bmp|.\SketcherUI\SktUIResourcesV5.m\src\resources\graphic\icons\normal\I_Translate2D.bmp
RTV/000/CUS .\win_b64\resources\graphic\icons\small\I_CloseElement.bmp|.\SketcherUI\SktUIResourcesV5.m\src\resources\graphic\icons\small\I_CloseElement.bmp
RTV/000/CUS .\win_b64\resources\graphic\icons\small\I_Skt2DMode-LI.bmp|.\SketcherUI\SktUIResourcesV5.m\src\resources\graphic\icons\small\I_Skt2DMode-LI.bmp
RTV/000/CUS .\win_b64\resources\graphic\icons\small\I_SktConnectCurve.bmp|.\SketcherUI\SktUIResourcesV5.m\src\resources\graphic\icons\small\I_SktConnectCurve.bmp
RTV/000/CUS .\win_b64\resources\msgcatalog\CATPanelEdit2DSpline.CATRsc|.\SketcherUI\SktUIResourcesV5.m\src\resources\msgcatalog\CATPanelEdit2DSpline.CATRsc
RTV/000/CUS .\win_b64\resources\graphic\icons\normal\I_SktDatumUE2DL.bmp|.\SketcherUI\SktUIResourcesV5.m\src\resources\graphic\icons\normal\I_SktDatumUE2DL.bmp
RTV/000/CUS .\win_b64\resources\graphic\icons\small\I_ArcCircle3Pt132.bmp|.\SketcherUI\SktUIResourcesV5.m\src\resources\graphic\icons\small\I_ArcCircle3Pt132.bmp
RTV/000/CUS .\win_b64\resources\graphic\icons\normal\I_KeyHole.bmp|.\SketcherUI\SktUIResourcesV5.m\src\resources\graphic\icons\normal\I_KeyHole.bmp
RTV/000/CUS .\win_b64\resources\graphic\icons\normal\I_Use3DSilhouette.bmp|.\SketcherUI\SktUIResourcesV5.m\src\resources\graphic\icons\normal\I_Use3DSilhouette.bmp
RTV/000/CUS .\win_b64\resources\graphic\icons\normal\I_OrthoProjPt.bmp|.\SketcherUI\SktUIResourcesV5.m\src\resources\graphic\icons\normal\I_OrthoProjPt.bmp
RTV/000/CUS .\win_b64\resources\graphic\icons\small\I_RightText.bmp|.\SketcherUI\SktUIResourcesV5.m\src\resources\graphic\icons\small\I_RightText.bmp
RTV/000/CUS .\win_b64\resources\graphic\icons\normal\I_Polygon.bmp|.\SketcherUI\SktUIResourcesV5.m\src\resources\graphic\icons\normal\I_Polygon.bmp
RTV/000/CUS .\win_b64\resources\graphic\icons\normal\I_Profile2DL.bmp|.\SketcherUI\SktUIResourcesV5.m\src\resources\graphic\icons\normal\I_Profile2DL.bmp
RTV/000/CUS .\win_b64\resources\graphic\icons\small\IF_LightSketchAnalysis.bmp|.\SketcherUI\SktUIResourcesV5.m\src\resources\graphic\icons\small\IF_LightSketchAnalysis.bmp
RTV/000/CUS .\win_b64\resources\graphic\icons\small\I_PlayMultShot.bmp|.\SketcherUI\SktUIResourcesV5.m\src\resources\graphic\icons\small\I_PlayMultShot.bmp
RTV/000/CUS .\win_b64\resources\graphic\icons\normal\I_Hexagon.bmp|.\SketcherUI\SktUIResourcesV5.m\src\resources\graphic\icons\normal\I_Hexagon.bmp
RTV/000/CUS .\win_b64\resources\graphic\icons\small\I_ContactConstraint.bmp|.\SketcherUI\SktUIResourcesV5.m\src\resources\graphic\icons\small\I_ContactConstraint.bmp
RTV/000/CUS .\win_b64\resources\graphic\icons\normal\IF_SktPointProject.bmp|.\SketcherUI\SktUIResourcesV5.m\src\resources\graphic\icons\normal\IF_SktPointProject.bmp
RTV/000/CUS .\win_b64\resources\graphic\icons\normal\I_Conic2Tgtes.bmp|.\SketcherUI\SktUIResourcesV5.m\src\resources\graphic\icons\normal\I_Conic2Tgtes.bmp
RTV/000/CUS .\win_b64\resources\graphic\icons\small\I_SktRotate.bmp|.\SketcherUI\SktUIResourcesV5.m\src\resources\graphic\icons\small\I_SktRotate.bmp
RTV/000/CUS .\win_b64\resources\graphic\icons\small\I_HideCst.bmp|.\SketcherUI\SktUIResourcesV5.m\src\resources\graphic\icons\small\I_HideCst.bmp
RTV/000/CUS .\win_b64\resources\graphic\icons\small\I_SketcherB.bmp|.\SketcherUI\SktUIResourcesV5.m\src\resources\graphic\icons\small\I_SketcherB.bmp
RTV/000/CUS .\win_b64\resources\graphic\icons\small\I_LineSym.bmp|.\SketcherUI\SktUIResourcesV5.m\src\resources\graphic\icons\small\I_LineSym.bmp
RTV/000/CUS .\win_b64\resources\graphic\icons\normal\IP_SmartPosition.bmp|.\SketcherUI\SktUIResourcesV5.m\src\resources\graphic\icons\normal\IP_SmartPosition.bmp
RTV/000/CUS .\win_b64\resources\graphic\icons\normal\I_SktPointProject.bmp|.\SketcherUI\SktUIResourcesV5.m\src\resources\graphic\icons\normal\I_SktPointProject.bmp
RTV/000/CUS .\win_b64\resources\graphic\icons\small\I_EvalManual.bmp|.\SketcherUI\SktUIResourcesV5.m\src\resources\graphic\icons\small\I_EvalManual.bmp
RTV/000/CUS .\win_b64\resources\graphic\icons\small\I_SktCorner.bmp|.\SketcherUI\SktUIResourcesV5.m\src\resources\graphic\icons\small\I_SktCorner.bmp
RTV/000/CUS .\win_b64\resources\graphic\icons\small\I_Chamfer2DL1L2.bmp|.\SketcherUI\SktUIResourcesV5.m\src\resources\graphic\icons\small\I_Chamfer2DL1L2.bmp
@type='RUNTIME_DATA'
@clr='false'
@kind='DATA'
@deliverable='true'
@built='true'
