!<mkRTViewData> v1.0.0
CSC/000/DSI .\CATAnalysisGPSInterfaces\CATGPSInterfacesUUID.m\Objects\win_b64\mkcsc\CATGPSInterfacesUUID.cscdb|.\CATAnalysisGPSInterfaces\CATGPSInterfacesUUID.m
BTV/000/CUS .\win_b64\code\lib\CATGPSInterfacesUUID.lib|.\CATAnalysisGPSInterfaces\CATGPSInterfacesUUID.m
@type='ARCHIVE'
@clr='false'
@kind='NATIVE'
@deliverable='true'
@built='true'
