!<mkRTViewData> v1.0.0
CSC/000/DSI .\ObjectModelerBaseUI\CATOmuItf.m\Objects\win_b64\mkcsc\CATOmuItf.cscdb|.\ObjectModelerBaseUI\CATOmuItf.m
RTV/001/CUS .\win_b64\code\bin\CATOmuItf.dll|.\ObjectModelerBaseUI\CATOmuItf.m
INT/000/CUS .\win_b64\code\bin\CATOmuItf.pdb|.\ObjectModelerBaseUI\CATOmuItf.m
INT/000/CUS .\win_b64\code\lib\CATOmuItf.exp|.\ObjectModelerBaseUI\CATOmuItf.m
BTV/000/CUS .\win_b64\code\lib\CATOmuItf.lib|.\ObjectModelerBaseUI\CATOmuItf.m
@type='SHARED_LIBRARY'
@clr='false'
@kind='NATIVE'
@deliverable='true'
@built='true'
