// COPYRIGHT DASSAULT SYSTEMES 2005
// here follow basic block definition
// - internal use only
// - any modification to this file must be checked before deliveries
// 
block CATEarlyShapeData {
  int $allocate #offset(2)
  int NbContour #offset(1)
  int NbOfPtPerContour #offset(2) #list 
  double $allocate #offset(1)
  double $list #offset(1)
  double Coord #offset(1) #list
  specobject $allocate #offset(1)
  specobject PatternMappingTable #offset(1)
}
