// COPYRIGHT DASSAULT SYSTEMES 2005
// here follow basic block definition
// - internal use only
// - any modification to this file must be checked before deliveries
// 
block CATEarlyExternalData #block::upgrade(CATEarlyExternalDataEvol2) {
  external $allocate #offset(1)
}
