// COPYRIGHT DASSAULT SYSTEMES 2005
// here follow basic block definition
// - internal use only
// - any modification to this file must be checked before deliveries
// 
block CATEarlyExternalDataEvol #block::upgrade(CATEarlyExternalDataEvol2) {
  int $allocate #offset(2)
  int $list #offset(1)
  component $allocate #offset(1)
  component $list #offset(1)
  external $allocate #offset(3)
}
