// COPYRIGHT DASSAULT SYSTEMES 2005
// here follow basic block definition
// - internal use only
// - any modification to this file must be checked before deliveries
// 
block CATIAReleaseBloc {
  int $allocate #offset(1)
  int `CATIARelease` #offset(1)
}
