// COPYRIGHT DASSAULT SYSTEMES 2005
// here follow basic block definition
// - internal use only
// - any modification to this file must be checked before deliveries
// 
block CATTPSDimOrientedData {
  boolean $allocate #offset(1)
  specobject $allocate #offset(1)
  specobject `OrientedBaseTTRS` #offset(1)
  boolean `VisuUpdated` #offset(1)
}
