// COPYRIGHT DASSAULT SYSTEMES 2005
// here follow basic block definition
// - internal use only
// - any modification to this file must be checked before deliveries
// 
block CATTPSNoaEnhancedData {
  boolean $allocate #offset(2)
  boolean `NoaInstCommentsEditable` #offset(1)
  boolean `NoaAssocInPosAndOrient` #offset(2)
}
