// COPYRIGHT DASSAULT SYSTEMES 2005
// here follow basic block definition
// - internal use only
// - any modification to this file must be checked before deliveries
// 
block CATTPSCaptureV4ViewData {
  external $allocate #offset(0)
  external $list #offset(1)
  external `CapturedV4Views` #offset(1) #list
}
