// COPYRIGHT DASSAULT SYSTEMES 2016
// here follow basic block definition
// - internal use only
// - any modification to this file must be checked before deliveries
// 
block CATTPSCollectionPlaneData {
  int $allocate #offset(1)
  specobject $allocate #offset(3)
  int `CollectionPlaneEnum` #offset(1)
  specobject `CollectionPlaneDF` #offset(1)
  specobject `CollectionPlaneAngleCG` #offset(2)
  specobject `CollectionPlaneAngleTED` #offset(3)
}
