// COPYRIGHT DASSAULT SYSTEMES 2005
// here follow basic block definition
// - internal use only
// - any modification to this file must be checked before deliveries
// 
block CATTransfoData {
  double $allocate #offset(12)
  double m11 #offset(1)
  double m12 #offset(2)
  double m13 #offset(3)
  double m21 #offset(4)
  double m22 #offset(5)
  double m23 #offset(6)
  double m31 #offset(7)
  double m32 #offset(8)
  double m33 #offset(9)
  double vx #offset(10)
  double vy #offset(11)
  double vz #offset(12)
}
