// COPYRIGHT DASSAULT SYSTEMES 2005
// here follow basic block definition
// - internal use only
// - any modification to this file must be checked before deliveries
// 
block CATTasSDNormalData {
  double $allocate #offset(2)
  double `Mean` #offset(1)
  double `StandardDeviation` #offset(2)
}
