// COPYRIGHT DASSAULT SYSTEMES 2005
// here follow basic block definition
// - internal use only
// - any modification to this file must be checked before deliveries
// 
block CATTPSProjectedViewData {
  double $allocate #offset(1)
  specobject $allocate #offset(1)
  double `ZFromMotherView` #offset(1)
  specobject `MotherView` #offset(1)
}
