// COPYRIGHT DASSAULT SYSTEMES 2005
// here follow basic block definition
// - internal use only
// - any modification to this file must be checked before deliveries
// 
block CATTPSCameraCache {
  int $allocate #offset(1)
  double $allocate #offset(14)
  boolean $allocate #offset(1)
  boolean `Valuate` #offset(1)
  double `XOrigin` #offset(1)
  double `YOrigin` #offset(2)
  double `ZOrigin` #offset(3)
  double `XDirection` #offset(4)
  double `YDirection` #offset(5)
  double `ZDirection` #offset(6)
  double `XZenith` #offset(7)
  double `YZenith` #offset(8)
  double `ZZenith` #offset(9)
  double `XTarget` #offset(10)
  double `YTarget` #offset(11)
  double `ZTarget` #offset(12)
  double `Angle` #offset(13)
  double `Zoom` #offset(14)
  int `Type` #offset(1)
}
