// COPYRIGHT DASSAULT SYSTEMES 2015
// here follow basic block definition
// - internal use only
// - any modification to this file must be checked before deliveries
// 
block CATTPSTolZonePlanesData {
  int $allocate #offset(1)
  specobject $allocate #offset(2)
  int `TolZonePlanesGDTType` #offset(1)
  specobject `TolZonePlanesDatum` #offset(1)
  specobject `TolZonePlanesCG` #offset(2)
}
