// COPYRIGHT DASSAULT SYSTEMES 2005
// here follow basic block definition
// - internal use only
// - any modification to this file must be checked before deliveries
// 
block CATTasSDTriangularData {
  double $allocate #offset(3)
  double `MinLimit` #offset(1)
  double `MaxLimit` #offset(2)
  double `Sommet` #offset(3)
}
