// COPYRIGHT DASSAULT SYSTEMES 2005
// here follow basic block definition
// - internal use only
// - any modification to this file must be checked before deliveries
// 
block CATTPSNoaData {
  int $allocate #offset(1)
  string $allocate #offset(2)
  specobject $allocate #offset(1)
  component $allocate #offset(1)
  int `RepresentationType` #offset(1)
  string `NoaType` #offset(1)
  string `FlagText` #offset(2)
  component `RepresentationText` #offset(1)
  specobject `RepresentationDitto` #offset(1)
}
