// COPYRIGHT DASSAULT SYSTEMES 2016
// here follow basic block definition
// - internal use only
// - any modification to this file must be checked before deliveries
// 
block CATTPSOrientationPlaneData {
  int $allocate #offset(1)
  specobject $allocate #offset(3)
  int `OrientationPlaneEnum` #offset(1)
  specobject `OrientationPlaneDF` #offset(1)
  specobject `OrientationPlaneAngleCG` #offset(2)
  specobject `OrientationPlaneAngleTED` #offset(3)
}
