// COPYRIGHT DASSAULT SYSTEMES 2010
// here follow basic block definition
// - internal use only
// - any modification to this file must be checked before deliveries
// 
block CATTPSDirectionTTRSData {
  specobject $allocate #offset(1)
  specobject `DirectionTTRS` #offset(1)
}
