// COPYRIGHT DASSAULT SYSTEMES 2013
// here follow basic block definition
// - internal use only
// - any modification to this file must be checked before deliveries
// 
block CATTPS3SegmentCompTolData {
  int $allocate #offset(2)
  boolean $allocate #offset(1)
  component $allocate #offset(2)
  int `Seg3RepeatedDatums` #offset(1)
  int `Seg3TolValueType` #offset(2)
  component `Seg3TolNumValue` #offset(1)
  component `Seg3TolTabValue` #offset(2)
  boolean `Seg3CompositeTolerance` #offset(1)
}
