// COPYRIGHT DASSAULT SYSTEMES 2005
// here follow basic block definition
// - internal use only
// - any modification to this file must be checked before deliveries
// 
block CATTPSDistancePtPtData {
  double $allocate #offset(4)
  specobject $allocate #offset(3)
  component $allocate #offset(1)
  double TZValue #offset(1)
  double TZDirX #offset(2)
  double TZDirY #offset(3)
  double TZDirZ #offset(4)
  specobject PositionSystem #offset(1)
  specobject GSMPoint1 #offset(2)
  specobject GSMPoint2 #offset(3)
  component Distribution #offset(1)
}
