// COPYRIGHT DASSAULT SYSTEMES 2005
// here follow basic block definition
// - internal use only
// - any modification to this file must be checked before deliveries
// 
block CATTPSTTRSData {
  specobject $allocate #offset(1)
  specobject $list #offset(1)
  specobject `TTRS` #offset(1) #list
}
