// COPYRIGHT DASSAULT SYSTEMES 2007
// here follow basic block definition
// - internal use only
// - any modification to this file must be checked before deliveries
// 
block CATTPSFlagNoteDataUpgrade01 {
  external $allocate #offset(1)
  external $list #offset(1)
  external `LiensUrl` #offset(1) #list
  string $allocate #offset(1)
  string `LiensStr` #offset(1) #list
}

