// COPYRIGHT DASSAULT SYSTEMES 2005
// here follow basic block definition
// - internal use only
// - any modification to this file must be checked before deliveries
// 
block PExternalList {
  external $allocate #offset(0)
  external ListExternal #offset(0) #external_link_meta_data(DFTResultMD)
}

external_link_meta_data DFTResultMD
{
	meta_data_relation -> category = "Reference2"
	meta_data_relation -> role = "DFT_Result"
	meta_data_link -> logical_reroute_button= "true"
	meta_data_link -> sync_button = "false"
	meta_data_link -> deactivation_button = "false"
}
