// COPYRIGHT DASSAULT SYSTEMES 2005
// here follow basic block definition
// - internal use only
// - any modification to this file must be checked before deliveries
// 
block POctet {
  octet $allocate #offset(1)
  octet SingleOctet #offset(1)
}
