// COPYRIGHT DASSAULT SYSTEMES 2005
// here follow basic block definition
// - internal use only
// - any modification to this file must be checked before deliveries
// 
block PSpecObject {
  specobject $allocate #offset(1)
  specobject `` #offset(1) #relative
}
// "relative" facette is necessary to allow use the same block several time in same earlyfeature.
// for Example AuxViewCstrLineEarly use PSpecObject twice:  for MainView and AuxView attribute   
// 
