// COPYRIGHT DASSAULT SYSTEMES 2005
// here follow basic block definition
// - internal use only
// - any modification to this file must be checked before deliveries
// 
block TTRSRespec {
  int $allocate #offset(2)
  component $allocate #offset(0)
  int `UserDescription` #offset(1)
  int `ClassDefinition` #offset(2)
  component `XOrigin` #offset(1)
  component `YOrigin` #offset(2)
  component `ZOrigin` #offset(3)
  component `XDirection` #offset(4)
  component `YDirection` #offset(5)
  component `ZDirection` #offset(6)
  component `Size` #offset(7)
}
