// COPYRIGHT DASSAULT SYSTEMES 2005
// here follow basic block definition
// - internal use only
// - any modification to this file must be checked before deliveries
// 
block TTRSLocalAxis {
  int $allocate #offset(1)
  double $allocate #offset(0)
  double $list #offset(1)
  int `TTRSLocalAxisComputed` #offset(1)
  double `TTRSLocalAxisValues` #offset(1) #list
}
