!<mkRTViewData> v1.0.0
RTV/001/CUS .\win_b64\code\bin\DNBDpmUtils.dll|.\DNBDpmBase\DNBDpmUtils.m
INT/000/CUS .\win_b64\code\bin\DNBDpmUtils.pdb|.\DNBDpmBase\DNBDpmUtils.m
CSC/000/DSI .\DNBDpmBase\DNBDpmUtils.m\Objects\win_b64\mkcsc\DNBDpmUtils.cscdb|.\DNBDpmBase\DNBDpmUtils.m
INT/000/CUS .\win_b64\code\lib\DNBDpmUtils.exp|.\DNBDpmBase\DNBDpmUtils.m
BTV/000/CUS .\win_b64\code\lib\DNBDpmUtils.lib|.\DNBDpmBase\DNBDpmUtils.m
@type='SHARED_LIBRARY'
@clr='false'
@kind='NATIVE'
@deliverable='true'
@built='true'
