!<mkRTViewData> v1.0.0
CSC/000/DSI .\CATCoreCavitySeparationUI\CATCCSSimplifyUI.m\Objects\win_b64\mkcsc\CATCCSSimplifyUI.cscdb|.\CATCoreCavitySeparationUI\CATCCSSimplifyUI.m
@type='NONE'
@clr='false'
@kind='INCLUDED'
@deliverable='true'
@built='true'
