!<mkRTViewData> v1.0.0
CSC/000/DSI .\KnowledgeEngine\KR0RRR.m\Objects\win_b64\mkcsc\KR0RRR.cscdb|.\KnowledgeEngine\KR0RRR.m
@type='NONE'
@clr='false'
@kind='INCLUDED'
@deliverable='true'
@built='true'
