!<mkRTViewData> v1.0.0
CSC/000/DSI .\PSNInteroperability\CATPinLauncher.m\Objects\win_b64\mkcsc\CATPinLauncher.cscdb|.\PSNInteroperability\CATPinLauncher.m
INT/000/CUS .\win_b64\code\lib\CATPinLauncher.exp|.\PSNInteroperability\CATPinLauncher.m
RTV/001/CUS .\win_b64\code\bin\CATPinLauncher.dll|.\PSNInteroperability\CATPinLauncher.m
BTV/000/CUS .\win_b64\code\lib\CATPinLauncher.lib|.\PSNInteroperability\CATPinLauncher.m
INT/000/CUS .\win_b64\code\bin\CATPinLauncher.pdb|.\PSNInteroperability\CATPinLauncher.m
@type='SHARED_LIBRARY'
@clr='false'
@kind='NATIVE'
@deliverable='true'
@built='true'
