!<mkRTViewData> v1.0.0
CSC/000/DSI .\AECGeoVisu\CATAgvRepresentation.m\Objects\win_b64\mkcsc\CATAgvRepresentation.cscdb|.\AECGeoVisu\CATAgvRepresentation.m
BTV/000/CUS .\win_b64\code\lib\CATAgvRepresentation.lib|.\AECGeoVisu\CATAgvRepresentation.m
INT/000/CUS .\win_b64\code\bin\CATAgvRepresentation.pdb|.\AECGeoVisu\CATAgvRepresentation.m
INT/000/CUS .\win_b64\code\lib\CATAgvRepresentation.exp|.\AECGeoVisu\CATAgvRepresentation.m
RTV/001/CUS .\win_b64\code\bin\CATAgvRepresentation.dll|.\AECGeoVisu\CATAgvRepresentation.m
@type='SHARED_LIBRARY'
@clr='false'
@kind='NATIVE'
@deliverable='true'
@built='true'
