PulseValue.1	136800
PulseValue.2	-153600
PulseValue.3	103200
PulseValue.4	-47600
PulseValue.5	57120
PulseValue.6	-33040
PulseValue.7	1
PulseValue.8	1
PulseValue.9	1
PulseValue.10	1
PulseValue.11	1
PulseValue.12	1
ZeroValue.1	0
ZeroValue.2	12800
ZeroValue.3	25800
ZeroValue.4	0
ZeroValue.5	0
ZeroValue.6	0
ZeroValue.7	0
ZeroValue.8	0
ZeroValue.9	0
ZeroValue.10	0
ZeroValue.11	0
ZeroValue.12	0
