!<mkRTViewData> v1.0.0
CSC/000/DSI .\PartDesignUI\PrtOffsetUI.m\Objects\win_b64\mkcsc\PrtOffsetUI.cscdb|.\PartDesignUI\PrtOffsetUI.m
@type='NONE'
@clr='false'
@kind='INCLUDED'
@deliverable='true'
@built='true'
