!<mkRTViewData> v1.0.0
CSC/000/DSI .\CATIAApplicationFrame\ViewAngleUI.m\Objects\win_b64\mkcsc\ViewAngleUI.cscdb|.\CATIAApplicationFrame\ViewAngleUI.m
@type='NONE'
@clr='false'
@kind='INCLUDED'
@deliverable='true'
@built='true'
