!<mkRTViewData> v1.0.0
CSC/000/DSI .\PortalBaseORB\PLBOremote.mj\Objects\win_b64\mkcsc\PLBOremote.cscdb|.\PortalBaseORB\PLBOremote.mj
@type='JAVA_COMMON'
@clr='false'
@kind='JAVA'
@deliverable='true'
@built='false'
