!<mkRTViewData> v1.0.0
CSC/000/DSI .\DNBIgpSetupCommands\DNBIgpLocPosAnal.m\Objects\win_b64\mkcsc\DNBIgpLocPosAnal.cscdb|.\DNBIgpSetupCommands\DNBIgpLocPosAnal.m
@type='NONE'
@clr='false'
@kind='INCLUDED'
@deliverable='true'
@built='true'
