!<mkRTViewData> v1.0.0
CSC/000/DSI .\CATFunctSystemUI\CATFsyRevEngOptions.m\Objects\win_b64\mkcsc\CATFsyRevEngOptions.cscdb|.\CATFunctSystemUI\CATFsyRevEngOptions.m
@type='SHARED_LIBRARY'
@clr='false'
@kind='NATIVE'
@deliverable='true'
@built='false'
