!<mkRTViewData> v1.0.0
CSC/000/DSI .\DraftingBaseCommands\CATDbcGDT.m\Objects\win_b64\mkcsc\CATDbcGDT.cscdb|.\DraftingBaseCommands\CATDbcGDT.m
@type='NONE'
@clr='false'
@kind='INCLUDED'
@deliverable='true'
@built='true'
