!<mkRTViewData> v1.0.0
CSC/000/DSI .\SurfacicTopoOperators\TopoPlate.m\Objects\win_b64\mkcsc\TopoPlate.cscdb|.\SurfacicTopoOperators\TopoPlate.m
@type='NONE'
@clr='false'
@kind='INCLUDED'
@deliverable='true'
@built='true'
