!<mkRTViewData> v1.0.0
CSC/000/DSI .\PolyhedralMathematics\PolyMathCurves.m\Objects\win_b64\mkcsc\PolyMathCurves.cscdb|.\PolyhedralMathematics\PolyMathCurves.m
@type='NONE'
@clr='false'
@kind='INCLUDED'
@deliverable='true'
@built='true'
