!<mkRTViewData> v1.0.0
BTV/000/CUS .\win_b64\code\lib\CATSchPS2Impl.lib|.\CATSchPlatformModeler\CATSchPS2Impl.m
RTV/001/CUS .\win_b64\code\bin\CATSchPS2Impl.dll|.\CATSchPlatformModeler\CATSchPS2Impl.m
INT/000/CUS .\win_b64\code\bin\CATSchPS2Impl.pdb|.\CATSchPlatformModeler\CATSchPS2Impl.m
INT/000/CUS .\win_b64\code\lib\CATSchPS2Impl.exp|.\CATSchPlatformModeler\CATSchPS2Impl.m
CSC/000/DSI .\CATSchPlatformModeler\CATSchPS2Impl.m\Objects\win_b64\mkcsc\CATSchPS2Impl.cscdb|.\CATSchPlatformModeler\CATSchPS2Impl.m
@type='SHARED_LIBRARY'
@clr='false'
@kind='NATIVE'
@deliverable='true'
@built='true'
