!<mkRTViewData> v1.0.0
RTV/001/CUS .\win_b64\code\bin\CATOsmUpgrade.dll|.\ObjectSpecsModeler\CATOsmUpgrade.m
CSC/000/DSI .\ObjectSpecsModeler\CATOsmUpgrade.m\Objects\win_b64\mkcsc\CATOsmUpgrade.cscdb|.\ObjectSpecsModeler\CATOsmUpgrade.m
INT/000/CUS .\win_b64\code\lib\CATOsmUpgrade.exp|.\ObjectSpecsModeler\CATOsmUpgrade.m
BTV/000/CUS .\win_b64\code\lib\CATOsmUpgrade.lib|.\ObjectSpecsModeler\CATOsmUpgrade.m
INT/000/CUS .\win_b64\code\bin\CATOsmUpgrade.pdb|.\ObjectSpecsModeler\CATOsmUpgrade.m
@type='SHARED_LIBRARY'
@clr='false'
@kind='NATIVE'
@deliverable='true'
@built='true'
