!<mkRTViewData> v1.0.0
RTV/001/CUS .\win_b64\code\bin\ElecSchematicItfCPP.dll|.\ElecSchematicItf\ElecSchematicItfCPP.m
BTV/000/CUS .\win_b64\code\lib\ElecSchematicItfCPP.lib|.\ElecSchematicItf\ElecSchematicItfCPP.m
CSC/000/DSI .\ElecSchematicItf\ElecSchematicItfCPP.m\Objects\win_b64\mkcsc\ElecSchematicItfCPP.cscdb|.\ElecSchematicItf\ElecSchematicItfCPP.m
INT/000/CUS .\win_b64\code\bin\ElecSchematicItfCPP.pdb|.\ElecSchematicItf\ElecSchematicItfCPP.m
INT/000/CUS .\win_b64\code\lib\ElecSchematicItfCPP.exp|.\ElecSchematicItf\ElecSchematicItfCPP.m
@type='SHARED_LIBRARY'
@clr='false'
@kind='NATIVE'
@deliverable='true'
@built='true'
