!<mkRTViewData> v1.0.0
CSC/000/DSI .\CATElfiniServicesItf\CATElfiniServicesItfUUID.m\Objects\win_b64\mkcsc\CATElfiniServicesItfUUID.cscdb|.\CATElfiniServicesItf\CATElfiniServicesItfUUID.m
BTV/000/CUS .\win_b64\code\lib\CATElfiniServicesItfUUID.lib|.\CATElfiniServicesItf\CATElfiniServicesItfUUID.m
@type='ARCHIVE'
@clr='false'
@kind='NATIVE'
@deliverable='true'
@built='true'
