!<mkRTViewData> v1.0.0
CSC/000/DSI .\GSMUI\CATGuiContour.m\Objects\win_b64\mkcsc\CATGuiContour.cscdb|.\GSMUI\CATGuiContour.m
INT/000/CUS .\win_b64\code\lib\CATGuiContour.exp|.\GSMUI\CATGuiContour.m
INT/000/CUS .\win_b64\code\bin\CATGuiContour.pdb|.\GSMUI\CATGuiContour.m
RTV/001/CUS .\win_b64\code\bin\CATGuiContour.dll|.\GSMUI\CATGuiContour.m
BTV/000/CUS .\win_b64\code\lib\CATGuiContour.lib|.\GSMUI\CATGuiContour.m
@type='SHARED_LIBRARY'
@clr='false'
@kind='NATIVE'
@deliverable='true'
@built='true'
