!<mkRTViewData> v1.0.0
CSC/000/DSI .\CATHealingAssistantInterfaces\CATHASItfCPP.m\Objects\win_b64\mkcsc\CATHASItfCPP.cscdb|.\CATHealingAssistantInterfaces\CATHASItfCPP.m
@type='NONE'
@clr='false'
@kind='INCLUDED'
@deliverable='true'
@built='true'
