!<mkRTViewData> v1.0.0
CSC/000/DSI .\MechanicalModelerUI\CATMcoCCP.m\Objects\win_b64\mkcsc\CATMcoCCP.cscdb|.\MechanicalModelerUI\CATMcoCCP.m
@type='NONE'
@clr='false'
@kind='INCLUDED'
@deliverable='true'
@built='true'
