!<mkRTViewData> v1.0.0
CSC/000/DSI .\ObjectSpecsModeler\CATCclLocalRef.m\Objects\win_b64\mkcsc\CATCclLocalRef.cscdb|.\ObjectSpecsModeler\CATCclLocalRef.m
@type='NONE'
@clr='false'
@kind='INCLUDED'
@deliverable='true'
@built='true'
