!<mkRTViewData> v1.0.0
CSC/000/DSI .\CATHealingAssistantInterfaces\CATHASProIDL.m\Objects\win_b64\mkcsc\CATHASProIDL.cscdb|.\CATHealingAssistantInterfaces\CATHASProIDL.m
@type='NONE'
@clr='false'
@kind='INCLUDED'
@deliverable='true'
@built='true'
