!<mkRTViewData> v1.0.0
CSC/000/DSI .\Interference\CATVpsCollision.m\Objects\win_b64\mkcsc\CATVpsCollision.cscdb|.\Interference\CATVpsCollision.m
@type='NONE'
@clr='false'
@kind='INCLUDED'
@deliverable='true'
@built='true'
