!<mkRTViewData> v1.0.0
CSC/000/DSI .\AUTLciKernel\AUTLciImplCamlHandler.m\Objects\win_b64\mkcsc\AUTLciImplCamlHandler.cscdb|.\AUTLciKernel\AUTLciImplCamlHandler.m
BTV/000/CUS .\win_b64\code\lib\AUTLciImplCamlHandler.lib|.\AUTLciKernel\AUTLciImplCamlHandler.m
@type='ARCHIVE'
@clr='false'
@kind='NATIVE'
@deliverable='true'
@built='true'
