!<mkRTViewData> v1.0.0
CSC/000/DSI .\FeatureCommands\CATFecGroupSelectionAUTO.m\Objects\win_b64\mkcsc\CATFecGroupSelectionAUTO.cscdb|.\FeatureCommands\CATFecGroupSelectionAUTO.m
@type='NONE'
@clr='false'
@kind='INCLUDED'
@deliverable='true'
@built='true'
