!<mkRTViewData> v1.0.0
CSC/000/DSI .\DNBIgpSetupModel\DNBIgpCoorSys.m\Objects\win_b64\mkcsc\DNBIgpCoorSys.cscdb|.\DNBIgpSetupModel\DNBIgpCoorSys.m
@type='NONE'
@clr='false'
@kind='INCLUDED'
@deliverable='true'
@built='true'
