!<mkRTViewData> v1.0.0
INT/000/CUS .\win_b64\code\lib\CATEdbUtil.exp|.\CATEngSystemDbModeler\CATEdbUtil.m
BTV/000/CUS .\win_b64\code\lib\CATEdbUtil.lib|.\CATEngSystemDbModeler\CATEdbUtil.m
RTV/001/CUS .\win_b64\code\bin\CATEdbUtil.dll|.\CATEngSystemDbModeler\CATEdbUtil.m
CSC/000/DSI .\CATEngSystemDbModeler\CATEdbUtil.m\Objects\win_b64\mkcsc\CATEdbUtil.cscdb|.\CATEngSystemDbModeler\CATEdbUtil.m
INT/000/CUS .\win_b64\code\bin\CATEdbUtil.pdb|.\CATEngSystemDbModeler\CATEdbUtil.m
@type='SHARED_LIBRARY'
@clr='false'
@kind='NATIVE'
@deliverable='true'
@built='true'
