!<mkRTViewData> v1.0.0
CSC/002/DSI .\DNBSystem\IdentityCard\Objects\win_b64\mkcsc\DNBSystem.cscdb|.\DNBSystem
BTV/002/CUS .\win_b64\code\productIC\DNBSystemIC.script|.\DNBSystem
BTV/002/CUS .\win_b64\code\productIC\DNBSystemIC.xml|.\DNBSystem
RTV/002/DSI .\win_b64\code\productIC\DNBSystemIC.required|.\DNBSystem
@type='codeFramework'
@built='true'
