!<mkRTViewData> v1.0.0
CSC/000/DSI .\DNBFasReporting\DNBReportToolsOptions.m\Objects\win_b64\mkcsc\DNBReportToolsOptions.cscdb|.\DNBFasReporting\DNBReportToolsOptions.m
RTV/001/CUS .\win_b64\code\bin\DNBReportToolsOptions.dll|.\DNBFasReporting\DNBReportToolsOptions.m
INT/000/CUS .\win_b64\code\bin\DNBReportToolsOptions.pdb|.\DNBFasReporting\DNBReportToolsOptions.m
INT/000/CUS .\win_b64\code\lib\DNBReportToolsOptions.exp|.\DNBFasReporting\DNBReportToolsOptions.m
BTV/000/CUS .\win_b64\code\lib\DNBReportToolsOptions.lib|.\DNBFasReporting\DNBReportToolsOptions.m
@type='SHARED_LIBRARY'
@clr='false'
@kind='NATIVE'
@deliverable='true'
@built='true'
