!<mkRTViewData> v1.0.0
BTV/002/CUS .\win_b64\code\productIC\CATPPRHubWtpInterfacesIC.script|.\CATPPRHubWtpInterfaces
DAT/002/CUS .\win_b64\code\dictionary\CATPPRHubWtpInterfaces.iid|.\CATPPRHubWtpInterfaces\CNext\code\dictionary\CATPPRHubWtpInterfaces.iid
RTV/002/DSI .\win_b64\code\productIC\CATPPRHubWtpInterfacesIC.required|.\CATPPRHubWtpInterfaces
CSC/002/DSI .\CATPPRHubWtpInterfaces\IdentityCard\Objects\win_b64\mkcsc\CATPPRHubWtpInterfaces.cscdb|.\CATPPRHubWtpInterfaces
DAT/002/CUS .\win_b64\code\dictionary\CATPPRHubWtpInterfaces.dic|.\CATPPRHubWtpInterfaces\CNext\code\dictionary\CATPPRHubWtpInterfaces.dic
BTV/002/CUS .\win_b64\code\productIC\CATPPRHubWtpInterfacesIC.xml|.\CATPPRHubWtpInterfaces
@type='codeFramework'
@built='true'
