!<mkRTViewData> v1.0.0
CSC/000/DSI .\DNBWorkInterfaces\DNBWorkInterfacesUUID.m\Objects\win_b64\mkcsc\DNBWorkInterfacesUUID.cscdb|.\DNBWorkInterfaces\DNBWorkInterfacesUUID.m
BTV/000/CUS .\win_b64\code\lib\DNBWorkInterfacesUUID.lib|.\DNBWorkInterfaces\DNBWorkInterfacesUUID.m
@type='ARCHIVE'
@clr='false'
@kind='NATIVE'
@deliverable='true'
@built='true'
