!<mkRTViewData> v1.0.0
CSC/000/DSI .\CATCoreCavitySeparationUI\CATCCSChainingEdgesUI.m\Objects\win_b64\mkcsc\CATCCSChainingEdgesUI.cscdb|.\CATCoreCavitySeparationUI\CATCCSChainingEdgesUI.m
@type='NONE'
@clr='false'
@kind='INCLUDED'
@deliverable='true'
@built='true'
