!<mkRTViewData> v1.0.0
RTV/002/DSI .\win_b64\code\productIC\CATIAAttrGroupIC.required|.\CATIAAttrGroup
CSC/002/DSI .\CATIAAttrGroup\IdentityCard\Objects\win_b64\mkcsc\CATIAAttrGroup.cscdb|.\CATIAAttrGroup
BTV/002/CUS .\win_b64\code\productIC\CATIAAttrGroupIC.xml|.\CATIAAttrGroup
BTV/002/CUS .\win_b64\code\productIC\CATIAAttrGroupIC.script|.\CATIAAttrGroup
@type='codeFramework'
@built='true'
