!<mkRTViewData> v1.0.0
CSC/000/DSI .\CATSubdivisionGeoOperators\CATSgoApprox.m\Objects\win_b64\mkcsc\CATSgoApprox.cscdb|.\CATSubdivisionGeoOperators\CATSgoApprox.m
@type='NONE'
@clr='false'
@kind='INCLUDED'
@deliverable='true'
@built='true'
