!<mkRTViewData> v1.0.0
BTV/000/CUS .\win_b64\code\lib\ProductStructureInterfacesUUID.lib|.\ProductStructureInterfaces\ProductStructureInterfacesUUID.m
CSC/000/DSI .\ProductStructureInterfaces\ProductStructureInterfacesUUID.m\Objects\win_b64\mkcsc\ProductStructureInterfacesUUID.cscdb|.\ProductStructureInterfaces\ProductStructureInterfacesUUID.m
@type='ARCHIVE'
@clr='false'
@kind='NATIVE'
@deliverable='true'
@built='true'
