!<mkRTViewData> v1.0.0
BTV/000/CUS .\win_b64\code\lib\GeometricObjectsUUID.lib|.\GeometricObjects\GeometricObjectsUUID.m
CSC/000/DSI .\GeometricObjects\GeometricObjectsUUID.m\Objects\win_b64\mkcsc\GeometricObjectsUUID.cscdb|.\GeometricObjects\GeometricObjectsUUID.m
@type='ARCHIVE'
@clr='false'
@kind='NATIVE'
@deliverable='true'
@built='true'
