!<mkRTViewData> v1.0.0
CSC/002/DSI .\AdminTools\IdentityCard\Objects\win_b64\mkcsc\AdminTools.cscdb|.\AdminTools
RTV/002/DSI .\win_b64\resources\msgcatalog\DbcsTest\CATWFTocTools.CATNls|.\AdminTools\CNext\resources\msgcatalog\CATWFTocTools.CATNls
BTV/002/CUS .\win_b64\code\productIC\AdminToolsIC.script|.\AdminTools
RTV/002/DSI .\win_b64\code\productIC\AdminToolsIC.required|.\AdminTools
RTV/002/DSI .\win_b64\resources\msgcatalog\NlsTest\CATWFTocTools.CATNls|.\AdminTools\CNext\resources\msgcatalog\CATWFTocTools.CATNls
DAT/002/CUS .\win_b64\resources\msgcatalog\CATWFTocTools.CATNls|.\AdminTools\CNext\resources\msgcatalog\CATWFTocTools.CATNls
BTV/002/CUS .\win_b64\code\productIC\AdminToolsIC.xml|.\AdminTools
@type='codeFramework'
@built='true'
