!<mkRTViewData> v1.0.0
CSC/000/DSI .\Navigator4DUI\CATDMUColorFilterBase.m\Objects\win_b64\mkcsc\CATDMUColorFilterBase.cscdb|.\Navigator4DUI\CATDMUColorFilterBase.m
@type='SHARED_LIBRARY'
@clr='false'
@kind='NATIVE'
@deliverable='true'
@built='false'
