!<mkRTViewData> v1.0.0
CSC/000/DSI .\CATV4System\V4SysFILE.m\Objects\win_b64\mkcsc\V4SysFILE.cscdb|.\CATV4System\V4SysFILE.m
@type='NONE'
@clr='false'
@kind='INCLUDED'
@deliverable='true'
@built='true'
