!<mkRTViewData> v1.0.0
RTV/001/CUS .\win_b64\code\bin\CATExpIntersectionPredicates.dll|.\CATMathExactPredicates\CATExpIntersectionPredicates.m
INT/000/CUS .\win_b64\code\lib\CATExpIntersectionPredicates.exp|.\CATMathExactPredicates\CATExpIntersectionPredicates.m
CSC/000/DSI .\CATMathExactPredicates\CATExpIntersectionPredicates.m\Objects\win_b64\mkcsc\CATExpIntersectionPredicates.cscdb|.\CATMathExactPredicates\CATExpIntersectionPredicates.m
INT/000/CUS .\win_b64\code\bin\CATExpIntersectionPredicates.pdb|.\CATMathExactPredicates\CATExpIntersectionPredicates.m
BTV/000/CUS .\win_b64\code\lib\CATExpIntersectionPredicates.lib|.\CATMathExactPredicates\CATExpIntersectionPredicates.m
@type='SHARED_LIBRARY'
@clr='false'
@kind='NATIVE'
@deliverable='true'
@built='true'
