!<mkRTViewData> v1.0.0
CSC/000/DSI .\CATIADataFormat\CATUNITools.m\Objects\win_b64\mkcsc\CATUNITools.cscdb|.\CATIADataFormat\CATUNITools.m
@type='NONE'
@clr='false'
@kind='INCLUDED'
@deliverable='true'
@built='true'
