!<mkRTViewData> v1.0.0
RTV/001/CUS .\win_b64\code\bin\CATClnPDM.dll|.\ProductStructureEnoviaV5\CATClnPDM.m
BTV/000/CUS .\win_b64\code\lib\CATClnPDM.lib|.\ProductStructureEnoviaV5\CATClnPDM.m
CSC/000/DSI .\ProductStructureEnoviaV5\CATClnPDM.m\Objects\win_b64\mkcsc\CATClnPDM.cscdb|.\ProductStructureEnoviaV5\CATClnPDM.m
INT/000/CUS .\win_b64\code\bin\CATClnPDM.pdb|.\ProductStructureEnoviaV5\CATClnPDM.m
INT/000/CUS .\win_b64\code\lib\CATClnPDM.exp|.\ProductStructureEnoviaV5\CATClnPDM.m
@type='SHARED_LIBRARY'
@clr='false'
@kind='NATIVE'
@deliverable='true'
@built='true'
