!<mkRTViewData> v1.0.0
CSC/000/DSI .\Administration\StartCAAB.m\Objects\win_b64\mkcsc\StartCAAB.cscdb|.\Administration\StartCAAB.m
RTV/001/CUS .\win_b64\code\bin\StartCAAB.exe|.\Administration\StartCAAB.m
INT/000/CUS .\win_b64\code\bin\StartCAAB.pdb|.\Administration\StartCAAB.m
@type='LOAD_MODULE'
@clr='false'
@kind='NATIVE'
@deliverable='true'
@built='true'
