!<mkRTViewData> v1.0.0
RTV/001/CUS .\win_b64\code\bin\CATGuiMidSurface.dll|.\GSMUI\CATGuiMidSurface.m
INT/000/CUS .\win_b64\code\lib\CATGuiMidSurface.exp|.\GSMUI\CATGuiMidSurface.m
CSC/000/DSI .\GSMUI\CATGuiMidSurface.m\Objects\win_b64\mkcsc\CATGuiMidSurface.cscdb|.\GSMUI\CATGuiMidSurface.m
BTV/000/CUS .\win_b64\code\lib\CATGuiMidSurface.lib|.\GSMUI\CATGuiMidSurface.m
INT/000/CUS .\win_b64\code\bin\CATGuiMidSurface.pdb|.\GSMUI\CATGuiMidSurface.m
@type='SHARED_LIBRARY'
@clr='false'
@kind='NATIVE'
@deliverable='true'
@built='true'
