!<mkRTViewData> v1.0.0
RTV/001/CUS .\win_b64\code\bin\BatchFlow.dll|.\BatchInfrastructure\BatchFlow.m
INT/000/CUS .\win_b64\code\lib\BatchFlow.exp|.\BatchInfrastructure\BatchFlow.m
CSC/000/DSI .\BatchInfrastructure\BatchFlow.m\Objects\win_b64\mkcsc\BatchFlow.cscdb|.\BatchInfrastructure\BatchFlow.m
BTV/000/CUS .\win_b64\code\lib\BatchFlow.lib|.\BatchInfrastructure\BatchFlow.m
INT/000/CUS .\win_b64\code\bin\BatchFlow.pdb|.\BatchInfrastructure\BatchFlow.m
@type='SHARED_LIBRARY'
@clr='false'
@kind='NATIVE'
@deliverable='true'
@built='true'
