!<mkRTViewData> v1.0.0
BTV/000/CUS .\win_b64\code\lib\libcef_dll_wrapper.lib|.\CATIAApplicationFrame\libcef_dll_wrapper.mext
@type='EXT_ARCHIVE'
@clr='false'
@kind='NATIVE'
@deliverable='true'
@built='true'
