!<mkRTViewData> v1.0.0
INT/000/CUS .\win_b64\code\lib\V5JsyDotNetChecker.exp|.\V5JSystem\V5JsyDotNetChecker.m
INT/000/CUS .\win_b64\code\bin\V5JsyDotNetChecker.pdb|.\V5JSystem\V5JsyDotNetChecker.m
RTV/001/CUS .\win_b64\code\bin\V5JsyDotNetChecker.dll|.\V5JSystem\V5JsyDotNetChecker.m
CSC/000/DSI .\V5JSystem\V5JsyDotNetChecker.m\Objects\win_b64\mkcsc\V5JsyDotNetChecker.cscdb|.\V5JSystem\V5JsyDotNetChecker.m
BTV/000/CUS .\win_b64\code\lib\V5JsyDotNetChecker.lib|.\V5JSystem\V5JsyDotNetChecker.m
@type='SHARED_LIBRARY'
@clr='false'
@kind='NATIVE'
@deliverable='true'
@built='true'
