!<mkRTViewData> v1.0.0
CSC/000/DSI .\GeometricObjects\YP00IMPL.m\Objects\win_b64\mkcsc\YP00IMPL.cscdb|.\GeometricObjects\YP00IMPL.m
@type='NONE'
@clr='false'
@kind='INCLUDED'
@deliverable='true'
@built='true'
