!<mkRTViewData> v1.0.0
BTV/000/CUS .\win_b64\code\lib\AUTClmItf.lib|.\AUTClmInterfaces\AUTClmItf.m
CSC/000/DSI .\AUTClmInterfaces\AUTClmItf.m\Objects\win_b64\mkcsc\AUTClmItf.cscdb|.\AUTClmInterfaces\AUTClmItf.m
INT/000/CUS .\win_b64\code\bin\AUTClmItf.pdb|.\AUTClmInterfaces\AUTClmItf.m
INT/000/CUS .\win_b64\code\lib\AUTClmItf.exp|.\AUTClmInterfaces\AUTClmItf.m
RTV/001/CUS .\win_b64\code\bin\AUTClmItf.dll|.\AUTClmInterfaces\AUTClmItf.m
@type='SHARED_LIBRARY'
@clr='false'
@kind='NATIVE'
@deliverable='true'
@built='true'
