!<mkRTViewData> v1.0.0
CSC/002/DSI .\DNBObjectModel\IdentityCard\Objects\win_b64\mkcsc\DNBObjectModel.cscdb|.\DNBObjectModel
RTV/002/DSI .\win_b64\code\productIC\DNBObjectModelIC.required|.\DNBObjectModel
BTV/002/CUS .\win_b64\code\productIC\DNBObjectModelIC.xml|.\DNBObjectModel
BTV/002/CUS .\win_b64\code\productIC\DNBObjectModelIC.script|.\DNBObjectModel
@type='codeFramework'
@built='true'
