!<mkRTViewData> v1.0.0
CSC/000/DSI .\CATSdeSettingInterfaces\CATSdeSettingInterfacesUUID.m\Objects\win_b64\mkcsc\CATSdeSettingInterfacesUUID.cscdb|.\CATSdeSettingInterfaces\CATSdeSettingInterfacesUUID.m
BTV/000/CUS .\win_b64\code\lib\CATSdeSettingInterfacesUUID.lib|.\CATSdeSettingInterfaces\CATSdeSettingInterfacesUUID.m
@type='ARCHIVE'
@clr='false'
@kind='NATIVE'
@deliverable='true'
@built='true'
