!<mkRTViewData> v1.0.0
BTV/002/CUS .\win_b64\code\productIC\DNBDpmInterfacesIC.script|.\DNBDpmInterfaces
DAT/002/CUS .\win_b64\code\dictionary\DNBDpmInterfaces.iid|.\DNBDpmInterfaces\CNext\code\dictionary\DNBDpmInterfaces.iid
RTV/002/DSI .\win_b64\code\productIC\DNBDpmInterfacesIC.required|.\DNBDpmInterfaces
BTV/002/CUS .\win_b64\code\productIC\DNBDpmInterfacesIC.xml|.\DNBDpmInterfaces
CSC/002/DSI .\DNBDpmInterfaces\IdentityCard\Objects\win_b64\mkcsc\DNBDpmInterfaces.cscdb|.\DNBDpmInterfaces
@type='codeFramework'
@built='true'
