!<mkRTViewData> v1.0.0
CSC/000/DSI .\GeometricObjects\CATCGMFusion.m\Objects\win_b64\mkcsc\CATCGMFusion.cscdb|.\GeometricObjects\CATCGMFusion.m
@type='NONE'
@clr='false'
@kind='INCLUDED'
@deliverable='true'
@built='true'
