!<mkRTViewData> v1.0.0
CSC/000/DSI .\SurfaceMachiningInterfaces\SurfaceMachiningPubIdl.m\Objects\win_b64\mkcsc\SurfaceMachiningPubIdl.cscdb|.\SurfaceMachiningInterfaces\SurfaceMachiningPubIdl.m
@type='NONE'
@clr='false'
@kind='INCLUDED'
@deliverable='true'
@built='true'
