!<mkRTViewData> v1.0.0
CSC/000/DSI .\CATCGMSkmData\CATCGMSkmData.m\Objects\win_b64\mkcsc\CATCGMSkmData.cscdb|.\CATCGMSkmData\CATCGMSkmData.m
INT/000/CUS .\win_b64\code\bin\CATCGMSkmData.pdb|.\CATCGMSkmData\CATCGMSkmData.m
BTV/000/CUS .\win_b64\code\lib\CATCGMSkmData.lib|.\CATCGMSkmData\CATCGMSkmData.m
INT/000/CUS .\win_b64\code\lib\CATCGMSkmData.exp|.\CATCGMSkmData\CATCGMSkmData.m
RTV/001/CUS .\win_b64\code\bin\CATCGMSkmData.dll|.\CATCGMSkmData\CATCGMSkmData.m
@type='SHARED_LIBRARY'
@clr='false'
@kind='NATIVE'
@deliverable='true'
@built='true'
