!<mkRTViewData> v1.0.0
CSC/000/DSI .\PPRInterfaces\PPRItfCPP.m\Objects\win_b64\mkcsc\PPRItfCPP.cscdb|.\PPRInterfaces\PPRItfCPP.m
@type='NONE'
@clr='false'
@kind='INCLUDED'
@deliverable='true'
@built='true'
