!<mkRTViewData> v1.0.0
BTV/000/CUS .\win_b64\code\lib\CATCDSPlug2DItfSWCDS.lib|.\CATCDSPlug2DItf\CATCDSPlug2DItfSWCDS.m
RTV/001/CUS .\win_b64\code\bin\CATCDSPlug2DItfSWCDS.dll|.\CATCDSPlug2DItf\CATCDSPlug2DItfSWCDS.m
INT/000/CUS .\win_b64\code\bin\CATCDSPlug2DItfSWCDS.pdb|.\CATCDSPlug2DItf\CATCDSPlug2DItfSWCDS.m
INT/000/CUS .\win_b64\code\lib\CATCDSPlug2DItfSWCDS.exp|.\CATCDSPlug2DItf\CATCDSPlug2DItfSWCDS.m
CSC/000/DSI .\CATCDSPlug2DItf\CATCDSPlug2DItfSWCDS.m\Objects\win_b64\mkcsc\CATCDSPlug2DItfSWCDS.cscdb|.\CATCDSPlug2DItf\CATCDSPlug2DItfSWCDS.m
@type='SHARED_LIBRARY'
@clr='false'
@kind='NATIVE'
@deliverable='true'
@built='true'
