!<mkRTViewData> v1.0.0
RTV/001/CUS .\win_b64\code\bin\servercommunicationPS.dll|.\DELE5Interfaces\servercommunicationPS.m
INT/000/CUS .\win_b64\code\lib\servercommunicationPS.exp|.\DELE5Interfaces\servercommunicationPS.m
BTV/000/CUS .\win_b64\code\lib\servercommunicationPS.lib|.\DELE5Interfaces\servercommunicationPS.m
INT/000/CUS .\win_b64\code\bin\servercommunicationPS.pdb|.\DELE5Interfaces\servercommunicationPS.m
CSC/000/DSI .\DELE5Interfaces\servercommunicationPS.m\Objects\win_b64\mkcsc\servercommunicationPS.cscdb|.\DELE5Interfaces\servercommunicationPS.m
@type='SHARED_LIBRARY'
@clr='false'
@kind='NATIVE'
@deliverable='true'
@built='true'
