!<mkRTViewData> v1.0.0
CSC/000/DSI .\CAACloudQsrItf\CATCldQsrCAAItf.m\Objects\win_b64\mkcsc\CATCldQsrCAAItf.cscdb|.\CAACloudQsrItf\CATCldQsrCAAItf.m
@type='NONE'
@clr='false'
@kind='INCLUDED'
@deliverable='true'
@built='true'
