!<mkRTViewData> v1.0.0
INT/000/CUS .\win_b64\code\bin\CATWebViewDialog.pdb|.\CATIAApplicationFrame\CATWebViewDialog.m
INT/000/CUS .\win_b64\code\lib\CATWebViewDialog.exp|.\CATIAApplicationFrame\CATWebViewDialog.m
BTV/000/CUS .\win_b64\code\lib\CATWebViewDialog.lib|.\CATIAApplicationFrame\CATWebViewDialog.m
CSC/000/DSI .\CATIAApplicationFrame\CATWebViewDialog.m\Objects\win_b64\mkcsc\CATWebViewDialog.cscdb|.\CATIAApplicationFrame\CATWebViewDialog.m
RTV/001/CUS .\win_b64\code\bin\CATWebViewDialog.dll|.\CATIAApplicationFrame\CATWebViewDialog.m
@type='SHARED_LIBRARY'
@clr='false'
@kind='NATIVE'
@deliverable='true'
@built='true'
