!<mkRTViewData> v1.0.0
DAT/002/CUS .\win_b64\code\dictionary\ProductStructureInterfaces.iid|.\ProductStructureInterfaces\CNext\code\dictionary\ProductStructureInterfaces.iid
RTV/002/DSI .\win_b64\code\productIC\ProductStructureInterfacesIC.required|.\ProductStructureInterfaces
CSC/002/DSI .\ProductStructureInterfaces\IdentityCard\Objects\win_b64\mkcsc\ProductStructureInterfaces.cscdb|.\ProductStructureInterfaces
BTV/002/CUS .\win_b64\code\productIC\ProductStructureInterfacesIC.script|.\ProductStructureInterfaces
BTV/002/CUS .\win_b64\code\productIC\ProductStructureInterfacesIC.xml|.\ProductStructureInterfaces
@type='codeFramework'
@built='true'
