!<mkRTViewData> v1.0.0
CSC/000/DSI .\TopologicalOperators\CATTopTool.m\Objects\win_b64\mkcsc\CATTopTool.cscdb|.\TopologicalOperators\CATTopTool.m
@type='NONE'
@clr='false'
@kind='INCLUDED'
@deliverable='true'
@built='true'
