!<mkRTViewData> v1.0.0
CSC/000/DSI .\PartDesignUI\PRTPATTCOM.m\Objects\win_b64\mkcsc\PRTPATTCOM.cscdb|.\PartDesignUI\PRTPATTCOM.m
@type='NONE'
@clr='false'
@kind='INCLUDED'
@deliverable='true'
@built='true'
