!<mkRTViewData> v1.0.0
CSC/000/DSI .\DNBDeviceActivityInterfaces\DNBDeviceActivityPubIDL.m\Objects\win_b64\mkcsc\DNBDeviceActivityPubIDL.cscdb|.\DNBDeviceActivityInterfaces\DNBDeviceActivityPubIDL.m
@type='NONE'
@clr='false'
@kind='INCLUDED'
@deliverable='true'
@built='true'
