!<mkRTViewData> v1.0.0
CSC/000/DSI .\PartDesignFeature\PRTDimVisu.m\Objects\win_b64\mkcsc\PRTDimVisu.cscdb|.\PartDesignFeature\PRTDimVisu.m
@type='NONE'
@clr='false'
@kind='INCLUDED'
@deliverable='true'
@built='true'
