!<mkRTViewData> v1.0.0
BTV/002/CUS .\win_b64\code\productIC\MathematicsIC.xml|.\Mathematics
RTV/002/DSI .\win_b64\code\productIC\MathematicsIC.required|.\Mathematics
CSC/002/DSI .\Mathematics\IdentityCard\Objects\win_b64\mkcsc\Mathematics.cscdb|.\Mathematics
BTV/002/CUS .\win_b64\code\productIC\MathematicsIC.script|.\Mathematics
@type='codeFramework'
@built='true'
