!<mkRTViewData> v1.0.0
CSC/000/DSI .\AutomationInterfaces\CATAutoItf.m\Objects\win_b64\mkcsc\CATAutoItf.cscdb|.\AutomationInterfaces\CATAutoItf.m
INT/000/CUS .\win_b64\code\lib\CATAutoItf.exp|.\AutomationInterfaces\CATAutoItf.m
BTV/000/CUS .\win_b64\code\lib\CATAutoItf.lib|.\AutomationInterfaces\CATAutoItf.m
INT/000/CUS .\win_b64\code\bin\CATAutoItf.pdb|.\AutomationInterfaces\CATAutoItf.m
RTV/001/CUS .\win_b64\code\bin\CATAutoItf.dll|.\AutomationInterfaces\CATAutoItf.m
@type='SHARED_LIBRARY'
@clr='false'
@kind='NATIVE'
@deliverable='true'
@built='true'
