!<mkRTViewData> v1.0.0
INT/000/CUS .\win_b64\code\lib\AUTLciVMBaseCpp.exp|.\AUTLciVM\AUTLciVMBaseCpp.m
RTV/001/CUS .\win_b64\code\bin\AUTLciVMBaseCpp.dll|.\AUTLciVM\AUTLciVMBaseCpp.m
INT/000/CUS .\win_b64\code\bin\AUTLciVMBaseCpp.pdb|.\AUTLciVM\AUTLciVMBaseCpp.m
BTV/000/CUS .\win_b64\code\lib\AUTLciVMBaseCpp.lib|.\AUTLciVM\AUTLciVMBaseCpp.m
CSC/000/DSI .\AUTLciVM\AUTLciVMBaseCpp.m\Objects\win_b64\mkcsc\AUTLciVMBaseCpp.cscdb|.\AUTLciVM\AUTLciVMBaseCpp.m
@type='SHARED_LIBRARY'
@clr='false'
@kind='NATIVE'
@deliverable='true'
@built='true'
