!<mkRTViewData> v1.0.0
CSC/000/DSI .\Milling2DServices\CATMfg2DBooleanServices.m\Objects\win_b64\mkcsc\CATMfg2DBooleanServices.cscdb|.\Milling2DServices\CATMfg2DBooleanServices.m
BTV/000/CUS .\win_b64\code\lib\CATMfg2DBooleanServices.lib|.\Milling2DServices\CATMfg2DBooleanServices.m
RTV/001/CUS .\win_b64\code\bin\CATMfg2DBooleanServices.dll|.\Milling2DServices\CATMfg2DBooleanServices.m
INT/000/CUS .\win_b64\code\lib\CATMfg2DBooleanServices.exp|.\Milling2DServices\CATMfg2DBooleanServices.m
INT/000/CUS .\win_b64\code\bin\CATMfg2DBooleanServices.pdb|.\Milling2DServices\CATMfg2DBooleanServices.m
@type='SHARED_LIBRARY'
@clr='false'
@kind='NATIVE'
@deliverable='true'
@built='true'
