!<mkRTViewData> v1.0.0
RTV/001/CUS .\win_b64\code\bin\CATAnnotationModeler.dll|.\CATAnnotationModeler\CATAnnotationModeler.m
BTV/000/CUS .\win_b64\code\lib\CATAnnotationModeler.lib|.\CATAnnotationModeler\CATAnnotationModeler.m
CSC/000/DSI .\CATAnnotationModeler\CATAnnotationModeler.m\Objects\win_b64\mkcsc\CATAnnotationModeler.cscdb|.\CATAnnotationModeler\CATAnnotationModeler.m
INT/000/CUS .\win_b64\code\bin\CATAnnotationModeler.pdb|.\CATAnnotationModeler\CATAnnotationModeler.m
INT/000/CUS .\win_b64\code\lib\CATAnnotationModeler.exp|.\CATAnnotationModeler\CATAnnotationModeler.m
@type='SHARED_LIBRARY'
@clr='false'
@kind='NATIVE'
@deliverable='true'
@built='true'
