!<mkRTViewData> v1.0.0
CSC/000/DSI .\Communications\CATComServices.m\Objects\win_b64\mkcsc\CATComServices.cscdb|.\Communications\CATComServices.m
INT/000/CUS .\win_b64\code\bin\CATComServices.pdb|.\Communications\CATComServices.m
BTV/000/CUS .\win_b64\code\lib\CATComServices.lib|.\Communications\CATComServices.m
INT/000/CUS .\win_b64\code\lib\CATComServices.exp|.\Communications\CATComServices.m
RTV/001/CUS .\win_b64\code\bin\CATComServices.dll|.\Communications\CATComServices.m
@type='SHARED_LIBRARY'
@clr='false'
@kind='NATIVE'
@deliverable='true'
@built='true'
