!<mkRTViewData> v1.0.0
CSC/000/DSI .\CATHealingAssistantFeature\CATHASIntegration.m\Objects\win_b64\mkcsc\CATHASIntegration.cscdb|.\CATHealingAssistantFeature\CATHASIntegration.m
@type='NONE'
@clr='false'
@kind='INCLUDED'
@deliverable='true'
@built='true'
