!<mkRTViewData> v1.0.0
RTV/001/CUS .\win_b64\code\bin\CATBatImpXMLSet.exe|.\BatchInfrastructure\CATBatImpXMLSet.m
CSC/000/DSI .\BatchInfrastructure\CATBatImpXMLSet.m\Objects\win_b64\mkcsc\CATBatImpXMLSet.cscdb|.\BatchInfrastructure\CATBatImpXMLSet.m
INT/000/CUS .\win_b64\code\bin\CATBatImpXMLSet.pdb|.\BatchInfrastructure\CATBatImpXMLSet.m
@type='LOAD_MODULE'
@clr='false'
@kind='NATIVE'
@deliverable='true'
@built='true'
