!<mkRTViewData> v1.0.0
RTV/002/DSI .\win_b64\code\productIC\Drafting2DLInterfacesIC.required|.\Drafting2DLInterfaces
BTV/002/CUS .\win_b64\code\productIC\Drafting2DLInterfacesIC.xml|.\Drafting2DLInterfaces
DAT/002/CUS .\win_b64\code\dictionary\Drafting2DLInterfaces.iid|.\Drafting2DLInterfaces\CNext\code\dictionary\Drafting2DLInterfaces.iid
BTV/002/CUS .\win_b64\code\productIC\Drafting2DLInterfacesIC.script|.\Drafting2DLInterfaces
DAT/002/CUS .\win_b64\resources\SettingsMetadata\CAT2DLToolsOptions.xml|.\Drafting2DLInterfaces\CNext\resources\SettingsMetadata\CAT2DLToolsOptions.xml
CSC/002/DSI .\Drafting2DLInterfaces\IdentityCard\Objects\win_b64\mkcsc\Drafting2DLInterfaces.cscdb|.\Drafting2DLInterfaces
@type='codeFramework'
@built='true'
