feature CATMmrTTRS #early #startup #emulator(CATTTRSModel)
{
  block RGEInteger       TTRSClass
  block RGESpecObject    Components
  block RGEInteger       Nature
  block RGESpecObject    ConstructedRGE
  block RGEBlocMath      MRGEPoint
  block RGEBlocMath      MRGELine
  block RGEBlocMath      MRGEPlane
  block RGEInteger       AssocCase
  block RGEInteger       PMP
  block RGEInteger       SurfCan
  block RGEInteger       AdmisType
  block RGEInteger       FoS
  block RGEInteger       Validity
  block CATIAReleaseBloc CATIARelease
  block TTRSLocalAxis    LocalAxis
}
