!<mkRTViewData> v1.0.0
CSC/000/DSI .\GMAdvancedOperatorsInterfaces\CATCltErrorMessages.m\Objects\win_b64\mkcsc\CATCltErrorMessages.cscdb|.\GMAdvancedOperatorsInterfaces\CATCltErrorMessages.m
@type='NONE'
@clr='false'
@kind='INCLUDED'
@deliverable='true'
@built='true'
