!<mkRTViewData> v1.0.0
RTV/002/DSI .\win_b64\code\productIC\Infra2DInterfacesIC.required|.\Infra2DInterfaces
BTV/002/CUS .\win_b64\code\productIC\Infra2DInterfacesIC.script|.\Infra2DInterfaces
BTV/002/CUS .\win_b64\code\productIC\Infra2DInterfacesIC.xml|.\Infra2DInterfaces
DAT/002/CUS .\win_b64\code\dictionary\Infra2DInterfaces.dic|.\Infra2DInterfaces\CNext\code\dictionary\Infra2DInterfaces.dic
CSC/002/DSI .\Infra2DInterfaces\IdentityCard\Objects\win_b64\mkcsc\Infra2DInterfaces.cscdb|.\Infra2DInterfaces
DAT/002/CUS .\win_b64\code\dictionary\Infra2DInterfaces.iid|.\Infra2DInterfaces\CNext\code\dictionary\Infra2DInterfaces.iid
@type='codeFramework'
@built='true'
