!<mkRTViewData> v1.0.0
RTV/000/CUS .\win_b64\docs\java\CATJavaPartTypeLib.jar|.\PartInterfaces\CATJavaPartTypeLib.mj
CSC/000/DSI .\PartInterfaces\CATJavaPartTypeLib.mj\Objects\win_b64\mkcsc\CATJavaPartTypeLib.cscdb|.\PartInterfaces\CATJavaPartTypeLib.mj
@type='JAVA_CLIENT'
@clr='false'
@kind='JAVA'
@deliverable='true'
@built='true'
