!<mkRTViewData> v1.0.0
CSC/000/DSI .\ElecSchematicItf\ElecSchematicProIDL.m\Objects\win_b64\mkcsc\ElecSchematicProIDL.cscdb|.\ElecSchematicItf\ElecSchematicProIDL.m
@type='NONE'
@clr='false'
@kind='INCLUDED'
@deliverable='true'
@built='true'
