!<mkRTViewData> v1.0.0
BTV/000/CUS .\win_b64\code\lib\CATP2PBaseUUID.lib|.\Communications\CATP2PBaseUUID.m
CSC/000/DSI .\Communications\CATP2PBaseUUID.m\Objects\win_b64\mkcsc\CATP2PBaseUUID.cscdb|.\Communications\CATP2PBaseUUID.m
@type='ARCHIVE'
@clr='false'
@kind='NATIVE'
@deliverable='true'
@built='true'
