!<mkRTViewData> v1.0.0
CSC/000/DSI .\DNBHumanSimInterfaces\DNBHumanSimItfProIDL.m\Objects\win_b64\mkcsc\DNBHumanSimItfProIDL.cscdb|.\DNBHumanSimInterfaces\DNBHumanSimItfProIDL.m
@type='NONE'
@clr='false'
@kind='INCLUDED'
@deliverable='true'
@built='true'
