!<mkRTViewData> v1.0.0
CSC/000/DSI .\CATCloudBasicResources\CATCldResProjection.m\Objects\win_b64\mkcsc\CATCldResProjection.cscdb|.\CATCloudBasicResources\CATCldResProjection.m
@type='NONE'
@clr='false'
@kind='INCLUDED'
@deliverable='true'
@built='true'
