!<mkRTViewData> v1.0.0
BTV/000/CUS .\win_b64\code\lib\DNBManufacturingLayoutItf.lib|.\DNBManufacturingLayoutItf\DNBManufacturingLayoutItf.m
RTV/001/CUS .\win_b64\code\bin\DNBManufacturingLayoutItf.dll|.\DNBManufacturingLayoutItf\DNBManufacturingLayoutItf.m
INT/000/CUS .\win_b64\code\lib\DNBManufacturingLayoutItf.exp|.\DNBManufacturingLayoutItf\DNBManufacturingLayoutItf.m
CSC/000/DSI .\DNBManufacturingLayoutItf\DNBManufacturingLayoutItf.m\Objects\win_b64\mkcsc\DNBManufacturingLayoutItf.cscdb|.\DNBManufacturingLayoutItf\DNBManufacturingLayoutItf.m
INT/000/CUS .\win_b64\code\bin\DNBManufacturingLayoutItf.pdb|.\DNBManufacturingLayoutItf\DNBManufacturingLayoutItf.m
@type='SHARED_LIBRARY'
@clr='false'
@kind='NATIVE'
@deliverable='true'
@built='true'
