!<mkRTViewData> v1.0.0
CSC/002/DSI .\CATMfgSimulationInterfaces\IdentityCard\Objects\win_b64\mkcsc\CATMfgSimulationInterfaces.cscdb|.\CATMfgSimulationInterfaces
BTV/002/CUS .\win_b64\code\productIC\CATMfgSimulationInterfacesIC.xml|.\CATMfgSimulationInterfaces
RTV/002/DSI .\win_b64\code\productIC\CATMfgSimulationInterfacesIC.required|.\CATMfgSimulationInterfaces
BTV/002/CUS .\win_b64\code\productIC\CATMfgSimulationInterfacesIC.script|.\CATMfgSimulationInterfaces
DAT/002/CUS .\win_b64\code\dictionary\CATMfgSimulationInterfaces.iid|.\CATMfgSimulationInterfaces\CNext\code\dictionary\CATMfgSimulationInterfaces.iid
@type='codeFramework'
@built='true'
