!<mkRTViewData> v1.0.0
CSC/000/DSI .\FreeFormOperators\FrFApprox.m\Objects\win_b64\mkcsc\FrFApprox.cscdb|.\FreeFormOperators\FrFApprox.m
@type='NONE'
@clr='false'
@kind='INCLUDED'
@deliverable='true'
@built='true'
