!<mkRTViewData> v1.0.0
INT/000/CUS .\win_b64\code\bin\AUTLciVmEngineImpl.pdb|.\AUTLciVM\AUTLciVmEngineImpl.m
RTV/001/CUS .\win_b64\code\bin\AUTLciVmEngineImpl.dll|.\AUTLciVM\AUTLciVmEngineImpl.m
BTV/000/CUS .\win_b64\code\lib\AUTLciVmEngineImpl.lib|.\AUTLciVM\AUTLciVmEngineImpl.m
INT/000/CUS .\win_b64\code\lib\AUTLciVmEngineImpl.exp|.\AUTLciVM\AUTLciVmEngineImpl.m
CSC/000/DSI .\AUTLciVM\AUTLciVmEngineImpl.m\Objects\win_b64\mkcsc\AUTLciVmEngineImpl.cscdb|.\AUTLciVM\AUTLciVmEngineImpl.m
@type='SHARED_LIBRARY'
@clr='false'
@kind='NATIVE'
@deliverable='true'
@built='true'
