!<mkRTViewData> v1.0.0
CSC/000/DSI .\ObjectSpecsTools\osm_uuid_gen.m\Objects\win_b64\mkcsc\osm_uuid_gen.cscdb|.\ObjectSpecsTools\osm_uuid_gen.m
INT/000/DSI .\win_b64\code\bin\osm_uuid_gen.pdb|.\ObjectSpecsTools\osm_uuid_gen.m
RTV/001/DSI .\win_b64\code\bin\osm_uuid_gen.exe|.\ObjectSpecsTools\osm_uuid_gen.m
@type='LOAD_MODULE'
@clr='false'
@kind='NATIVE'
@deliverable='false'
@built='true'
