!<mkRTViewData> v1.0.0
CSC/000/DSI .\DraftingBaseCommands\CATDbcAlignView.m\Objects\win_b64\mkcsc\CATDbcAlignView.cscdb|.\DraftingBaseCommands\CATDbcAlignView.m
@type='NONE'
@clr='false'
@kind='INCLUDED'
@deliverable='true'
@built='true'
