!<mkRTViewData> v1.0.0
CSC/000/DSI .\GeometricObjectsCGM\SubdivisionsCGM.m\Objects\win_b64\mkcsc\SubdivisionsCGM.cscdb|.\GeometricObjectsCGM\SubdivisionsCGM.m
@type='NONE'
@clr='false'
@kind='INCLUDED'
@deliverable='true'
@built='true'
