!<mkRTViewData> v1.0.0
DAT/002/CUS .\win_b64\resources\graphic\icons\I_TP.bmp|.\ObjectModelerBaseUI\CNext\resources\graphic\icons\I_TP.bmp
RTV/002/DSI .\win_b64\code\productIC\ObjectModelerBaseUIIC.required|.\ObjectModelerBaseUI
BTV/002/CUS .\win_b64\code\productIC\ObjectModelerBaseUIIC.script|.\ObjectModelerBaseUI
BTV/002/CUS .\win_b64\code\productIC\ObjectModelerBaseUIIC.xml|.\ObjectModelerBaseUI
DAT/002/CUS .\win_b64\code\dictionary\ObjectModelerBaseUI.dic|.\ObjectModelerBaseUI\CNext\code\dictionary\ObjectModelerBaseUI.dic
CSC/002/DSI .\ObjectModelerBaseUI\IdentityCard\Objects\win_b64\mkcsc\ObjectModelerBaseUI.cscdb|.\ObjectModelerBaseUI
@type='codeFramework'
@built='true'
