!<mkRTViewData> v1.0.0
RTV/000/CUS .\win_b64\code\dictionary\CGMMeshFitter.dic|.\CGMMeshFitter\CGMMeshFitterRscCNext.m\src\CNext\code\dictionary\CGMMeshFitter.dic
@type='RUNTIME_DATA'
@clr='false'
@kind='DATA'
@deliverable='true'
@built='true'
