!<mkRTViewData> v1.0.0
INT/000/CUS .\win_b64\code\lib\CATCinDispatcher.exp|.\CDMAInteroperability\CATCinDispatcher.m
INT/000/CUS .\win_b64\code\bin\CATCinDispatcher.pdb|.\CDMAInteroperability\CATCinDispatcher.m
CSC/000/DSI .\CDMAInteroperability\CATCinDispatcher.m\Objects\win_b64\mkcsc\CATCinDispatcher.cscdb|.\CDMAInteroperability\CATCinDispatcher.m
RTV/001/CUS .\win_b64\code\bin\CATCinDispatcher.dll|.\CDMAInteroperability\CATCinDispatcher.m
BTV/000/CUS .\win_b64\code\lib\CATCinDispatcher.lib|.\CDMAInteroperability\CATCinDispatcher.m
@type='SHARED_LIBRARY'
@clr='false'
@kind='NATIVE'
@deliverable='true'
@built='true'
