!<mkRTViewData> v1.0.0
BTV/000/CUS .\win_b64\code\lib\CATAfrMail.lib|.\ApplicationFrame\CATAfrMail.m
CSC/000/DSI .\ApplicationFrame\CATAfrMail.m\Objects\win_b64\mkcsc\CATAfrMail.cscdb|.\ApplicationFrame\CATAfrMail.m
RTV/001/CUS .\win_b64\code\bin\CATAfrMail.dll|.\ApplicationFrame\CATAfrMail.m
INT/000/CUS .\win_b64\code\bin\CATAfrMail.pdb|.\ApplicationFrame\CATAfrMail.m
INT/000/CUS .\win_b64\code\lib\CATAfrMail.exp|.\ApplicationFrame\CATAfrMail.m
@type='SHARED_LIBRARY'
@clr='false'
@kind='NATIVE'
@deliverable='true'
@built='true'
