!<mkRTViewData> v1.0.0
CSC/000/DSI .\SimulationCommand\CATDynClashParm.m\Objects\win_b64\mkcsc\CATDynClashParm.cscdb|.\SimulationCommand\CATDynClashParm.m
@type='NONE'
@clr='false'
@kind='INCLUDED'
@deliverable='true'
@built='true'
