!<mkRTViewData> v1.0.0
CSC/000/DSI .\CATPDMBaseInterfaces\CATPDMBasePubIDL.m\Objects\win_b64\mkcsc\CATPDMBasePubIDL.cscdb|.\CATPDMBaseInterfaces\CATPDMBasePubIDL.m
@type='NONE'
@clr='false'
@kind='INCLUDED'
@deliverable='true'
@built='true'
