!<mkRTViewData> v1.0.0
DAT/002/CUS .\win_b64\resources\graphic\icons\small\I_DNB_IPD_ImportPrdRes.bmp|.\DNBProcessUI\CNext\resources\graphic\icons\small\I_DNB_IPD_ImportPrdRes.bmp
BTV/002/CUS .\win_b64\code\productIC\DNBProcessUIIC.script|.\DNBProcessUI
DAT/002/CUS .\win_b64\resources\graphic\icons\normal\I_DNBDpmCopyProcessAndResource.bmp|.\DNBProcessUI\CNext\resources\graphic\icons\normal\I_DNBDpmCopyProcessAndResource.bmp
DAT/002/CUS .\win_b64\resources\graphic\icons\normal\I_DNBAddActivity.bmp|.\DNBProcessUI\CNext\resources\graphic\icons\normal\I_DNBAddActivity.bmp
DAT/002/CUS .\win_b64\resources\graphic\icons\small\I_DNB_IPD_CopySTDRes.bmp|.\DNBProcessUI\CNext\resources\graphic\icons\small\I_DNB_IPD_CopySTDRes.bmp
DAT/002/CUS .\win_b64\resources\graphic\icons\normal\I_DNB_IPD_BlobSave.bmp|.\DNBProcessUI\CNext\resources\graphic\icons\normal\I_DNB_IPD_BlobSave.bmp
DAT/002/CUS .\win_b64\resources\graphic\icons\small\I_DNBMfgKitCmd.bmp|.\DNBProcessUI\CNext\resources\graphic\icons\small\I_DNBMfgKitCmd.bmp
DAT/002/CUS .\win_b64\resources\graphic\icons\normal\I_Diagnostic_Options.bmp|.\DNBProcessUI\CNext\resources\graphic\icons\normal\I_Diagnostic_Options.bmp
DAT/002/CUS .\win_b64\resources\graphic\icons\normal\I_DNBMfgAssyCmd.bmp|.\DNBProcessUI\CNext\resources\graphic\icons\normal\I_DNBMfgAssyCmd.bmp
DAT/002/CUS .\win_b64\resources\msgcatalog\DNBProcFeatLibraryList.CATRsc|.\DNBProcessUI\CNext\resources\msgcatalog\DNBProcFeatLibraryList.CATRsc
DAT/002/CUS .\win_b64\resources\graphic\icons\small\I_DNB_IPD_BlobSave.bmp|.\DNBProcessUI\CNext\resources\graphic\icons\small\I_DNB_IPD_BlobSave.bmp
DAT/002/CUS .\win_b64\resources\msgcatalog\DNBProductStateNavigFolder.CATNls|.\DNBProcessUI\CNext\resources\msgcatalog\DNBProductStateNavigFolder.CATNls
DAT/002/CUS .\win_b64\resources\msgcatalog\DNBProcCmdHeader.CATRsc|.\DNBProcessUI\CNext\resources\msgcatalog\DNBProcCmdHeader.CATRsc
DAT/002/CUS .\win_b64\resources\graphic\icons\small\I_CreatePrecedence.bmp|.\DNBProcessUI\CNext\resources\graphic\icons\small\I_CreatePrecedence.bmp
DAT/002/CUS .\win_b64\resources\graphic\icons\normal\I_PrdResReorder.bmp|.\DNBProcessUI\CNext\resources\graphic\icons\normal\I_PrdResReorder.bmp
RTV/002/DSI .\win_b64\resources\msgcatalog\NlsTest\DNBProcessStateNavigFolder.CATNls|.\DNBProcessUI\CNext\resources\msgcatalog\DNBProcessStateNavigFolder.CATNls
DAT/002/CUS .\win_b64\resources\graphic\icons\normal\I_PublishPosition.bmp|.\DNBProcessUI\CNext\resources\graphic\icons\normal\I_PublishPosition.bmp
DAT/002/CUS .\win_b64\resources\graphic\icons\normal\I_DNB_IPD_LoadMfgCtx.bmp|.\DNBProcessUI\CNext\resources\graphic\icons\normal\I_DNB_IPD_LoadMfgCtx.bmp
DAT/002/CUS .\win_b64\resources\graphic\icons\small\I_DNB_IPD_LoadPrdFromProc.bmp|.\DNBProcessUI\CNext\resources\graphic\icons\small\I_DNB_IPD_LoadPrdFromProc.bmp
DAT/002/CUS .\win_b64\resources\graphic\icons\small\I_DNB_IPD_PPR_Remove.bmp|.\DNBProcessUI\CNext\resources\graphic\icons\small\I_DNB_IPD_PPR_Remove.bmp
DAT/002/CUS .\win_b64\resources\graphic\icons\small\I_DNBPertChart.bmp|.\DNBProcessUI\CNext\resources\graphic\icons\small\I_DNBPertChart.bmp
DAT/002/CUS .\win_b64\resources\graphic\icons\small\I_DNB_IPD_ListReadonly.bmp|.\DNBProcessUI\CNext\resources\graphic\icons\small\I_DNB_IPD_ListReadonly.bmp
DAT/002/CUS .\win_b64\resources\graphic\icons\normal\I_DNB_MHI_Publish.bmp|.\DNBProcessUI\CNext\resources\graphic\icons\normal\I_DNB_MHI_Publish.bmp
RTV/002/DSI .\win_b64\resources\msgcatalog\NlsTest\DNBProductStateNavigFolder.CATNls|.\DNBProcessUI\CNext\resources\msgcatalog\DNBProductStateNavigFolder.CATNls
DAT/002/CUS .\win_b64\resources\graphic\icons\small\I_DNB_IPD_NonGeo_VPM.bmp|.\DNBProcessUI\CNext\resources\graphic\icons\small\I_DNB_IPD_NonGeo_VPM.bmp
DAT/002/CUS .\win_b64\resources\graphic\icons\small\I_DNBSubTree.bmp|.\DNBProcessUI\CNext\resources\graphic\icons\small\I_DNBSubTree.bmp
DAT/002/CUS .\win_b64\resources\graphic\icons\small\I_DNB_IPD_Resource.bmp|.\DNBProcessUI\CNext\resources\graphic\icons\small\I_DNB_IPD_Resource.bmp
DAT/002/CUS .\win_b64\resources\graphic\icons\small\I_DNB_IPD_BlobDelete.bmp|.\DNBProcessUI\CNext\resources\graphic\icons\small\I_DNB_IPD_BlobDelete.bmp
RTV/002/DSI .\win_b64\resources\msgcatalog\NlsTest\DNBShowHideWCSHeader.CATNls|.\DNBProcessUI\CNext\resources\msgcatalog\DNBShowHideWCSHeader.CATNls
RTV/002/DSI .\win_b64\code\productIC\DNBProcessUIIC.required|.\DNBProcessUI
DAT/002/CUS .\win_b64\resources\graphic\icons\small\I_DNB_IPD_OpenProject.bmp|.\DNBProcessUI\CNext\resources\graphic\icons\small\I_DNB_IPD_OpenProject.bmp
DAT/002/CUS .\win_b64\resources\graphic\icons\normal\I_DNBAutoLinkActivities.bmp|.\DNBProcessUI\CNext\resources\graphic\icons\normal\I_DNBAutoLinkActivities.bmp
DAT/002/CUS .\win_b64\resources\graphic\icons\normal\I_DNB_IPD_GenerateQuickAccessLink.bmp|.\DNBProcessUI\CNext\resources\graphic\icons\normal\I_DNB_IPD_GenerateQuickAccessLink.bmp
DAT/002/CUS .\win_b64\resources\graphic\icons\normal\I_DNBShowAllASMPRC.bmp|.\DNBProcessUI\CNext\resources\graphic\icons\normal\I_DNBShowAllASMPRC.bmp
DAT/002/CUS .\win_b64\resources\graphic\icons\normal\I_DNB_IPD_UserContext.bmp|.\DNBProcessUI\CNext\resources\graphic\icons\normal\I_DNB_IPD_UserContext.bmp
DAT/002/CUS .\win_b64\resources\msgcatalog\DNBArrManipBoxHeader.CATRsc|.\DNBProcessUI\CNext\resources\msgcatalog\DNBArrManipBoxHeader.CATRsc
DAT/002/CUS .\win_b64\resources\msgcatalog\DNBArrManipBoxHeader.CATNls|.\DNBProcessUI\CNext\resources\msgcatalog\DNBArrManipBoxHeader.CATNls
DAT/002/CUS .\win_b64\resources\graphic\icons\normal\I_DNB_IPD_ShowHubDocInfo.bmp|.\DNBProcessUI\CNext\resources\graphic\icons\normal\I_DNB_IPD_ShowHubDocInfo.bmp
DAT/002/CUS .\win_b64\resources\graphic\icons\normal\I_DNB_IPD_EditVisuOfMfgCxt.bmp|.\DNBProcessUI\CNext\resources\graphic\icons\normal\I_DNB_IPD_EditVisuOfMfgCxt.bmp
DAT/002/CUS .\win_b64\resources\graphic\icons\small\I_DNB_IPD_DeepInsertAST.bmp|.\DNBProcessUI\CNext\resources\graphic\icons\small\I_DNB_IPD_DeepInsertAST.bmp
DAT/002/CUS .\win_b64\resources\graphic\icons\small\I_DNBSelectiveLoad.bmp|.\DNBProcessUI\CNext\resources\graphic\icons\small\I_DNBSelectiveLoad.bmp
DAT/002/CUS .\win_b64\resources\msgcatalog\DNBShowHideWCSHeader.CATRsc|.\DNBProcessUI\CNext\resources\msgcatalog\DNBShowHideWCSHeader.CATRsc
DAT/002/CUS .\win_b64\resources\graphic\icons\normal\I_DNBAssignImage.bmp|.\DNBProcessUI\CNext\resources\graphic\icons\normal\I_DNBAssignImage.bmp
DAT/002/CUS .\win_b64\resources\graphic\icons\small\I_DNB_IPD_VolumetricContext.bmp|.\DNBProcessUI\CNext\resources\graphic\icons\small\I_DNB_IPD_VolumetricContext.bmp
RTV/002/DSI .\win_b64\resources\msgcatalog\DbcsTest\DNBProcessWkb.CATNls|.\DNBProcessUI\CNext\resources\msgcatalog\DNBProcessWkb.CATNls
DAT/002/CUS .\win_b64\resources\graphic\icons\normal\I_DNBDpmActRenumber.bmp|.\DNBProcessUI\CNext\resources\graphic\icons\normal\I_DNBDpmActRenumber.bmp
DAT/002/CUS .\win_b64\resources\graphic\icons\small\I_DNB_IPD_MarkAlternative.bmp|.\DNBProcessUI\CNext\resources\graphic\icons\small\I_DNB_IPD_MarkAlternative.bmp
RTV/002/DSI .\win_b64\resources\msgcatalog\NlsTest\DNBProcessWkb.CATNls|.\DNBProcessUI\CNext\resources\msgcatalog\DNBProcessWkb.CATNls
DAT/002/CUS .\win_b64\resources\graphic\icons\small\I_DNB_IPD_InsertAST.bmp|.\DNBProcessUI\CNext\resources\graphic\icons\small\I_DNB_IPD_InsertAST.bmp
DAT/002/CUS .\win_b64\resources\graphic\icons\normal\I_DNB_IPD_EditStatus.bmp|.\DNBProcessUI\CNext\resources\graphic\icons\normal\I_DNB_IPD_EditStatus.bmp
DAT/002/CUS .\win_b64\resources\graphic\icons\small\I_Diagnostic_Options.bmp|.\DNBProcessUI\CNext\resources\graphic\icons\small\I_Diagnostic_Options.bmp
DAT/002/CUS .\win_b64\resources\graphic\icons\normal\I_DNBCompareTool.bmp|.\DNBProcessUI\CNext\resources\graphic\icons\normal\I_DNBCompareTool.bmp
DAT/002/CUS .\win_b64\resources\graphic\icons\small\I_DNBShowAllASMPRC.bmp|.\DNBProcessUI\CNext\resources\graphic\icons\small\I_DNBShowAllASMPRC.bmp
DAT/002/CUS .\win_b64\resources\graphic\icons\small\I_DNB_IPD_EditStatus.bmp|.\DNBProcessUI\CNext\resources\graphic\icons\small\I_DNB_IPD_EditStatus.bmp
DAT/002/CUS .\win_b64\resources\graphic\icons\small\I_DNBResourceVerification.bmp|.\DNBProcessUI\CNext\resources\graphic\icons\small\I_DNBResourceVerification.bmp
DAT/002/CUS .\win_b64\resources\graphic\icons\normal\I_DNB_IPD_PackAndGo.bmp|.\DNBProcessUI\CNext\resources\graphic\icons\normal\I_DNB_IPD_PackAndGo.bmp
RTV/002/DSI .\win_b64\resources\msgcatalog\DbcsTest\DNBShowHideWCSHeader.CATNls|.\DNBProcessUI\CNext\resources\msgcatalog\DNBShowHideWCSHeader.CATNls
DAT/002/CUS .\win_b64\resources\graphic\icons\normal\I_DNBMfgKitCmd.bmp|.\DNBProcessUI\CNext\resources\graphic\icons\normal\I_DNBMfgKitCmd.bmp
DAT/002/CUS .\win_b64\resources\graphic\icons\normal\I_DNB_IPD_EditHubDocInfo.bmp|.\DNBProcessUI\CNext\resources\graphic\icons\normal\I_DNB_IPD_EditHubDocInfo.bmp
DAT/002/CUS .\win_b64\resources\graphic\icons\normal\I_ReplaceProductPPR.bmp|.\DNBProcessUI\CNext\resources\graphic\icons\normal\I_ReplaceProductPPR.bmp
DAT/002/CUS .\win_b64\resources\graphic\icons\normal\I_DNBFirstAssignItem.bmp|.\DNBProcessUI\CNext\resources\graphic\icons\normal\I_DNBFirstAssignItem.bmp
DAT/002/CUS .\win_b64\resources\graphic\icons\small\I_DNBCompareTool.bmp|.\DNBProcessUI\CNext\resources\graphic\icons\small\I_DNBCompareTool.bmp
DAT/002/CUS .\win_b64\resources\graphic\icons\small\I_DNBGanttChart.bmp|.\DNBProcessUI\CNext\resources\graphic\icons\small\I_DNBGanttChart.bmp
DAT/002/CUS .\win_b64\resources\graphic\icons\normal\I_DisplayPCSStatus2.bmp|.\DNBProcessUI\CNext\resources\graphic\icons\normal\I_DisplayPCSStatus2.bmp
RTV/002/DSI .\win_b64\resources\msgcatalog\DbcsTest\DNBHideShowConstraintsHeader.CATNls|.\DNBProcessUI\CNext\resources\msgcatalog\DNBHideShowConstraintsHeader.CATNls
RTV/002/DSI .\win_b64\resources\msgcatalog\DbcsTest\DNBProcessStateNavigFolder.CATNls|.\DNBProcessUI\CNext\resources\msgcatalog\DNBProcessStateNavigFolder.CATNls
DAT/002/CUS .\win_b64\resources\graphic\icons\normal\I_DNB_IPD_MarkAlternative.bmp|.\DNBProcessUI\CNext\resources\graphic\icons\normal\I_DNB_IPD_MarkAlternative.bmp
DAT/002/CUS .\win_b64\resources\graphic\icons\small\I_DNB_IPD_EditVisuOfMfgCxt.bmp|.\DNBProcessUI\CNext\resources\graphic\icons\small\I_DNB_IPD_EditVisuOfMfgCxt.bmp
DAT/002/CUS .\win_b64\resources\graphic\icons\small\I_DNB_IPD_LoadMfgCtx.bmp|.\DNBProcessUI\CNext\resources\graphic\icons\small\I_DNB_IPD_LoadMfgCtx.bmp
DAT/002/CUS .\win_b64\resources\graphic\icons\small\I_DNBRecenterAct.bmp|.\DNBProcessUI\CNext\resources\graphic\icons\small\I_DNBRecenterAct.bmp
DAT/002/CUS .\win_b64\resources\graphic\icons\normal\I_DNB_IPD_PPR_Remove.bmp|.\DNBProcessUI\CNext\resources\graphic\icons\normal\I_DNB_IPD_PPR_Remove.bmp
DAT/002/CUS .\win_b64\resources\graphic\icons\small\I_DNBReplaceResource.bmp|.\DNBProcessUI\CNext\resources\graphic\icons\small\I_DNBReplaceResource.bmp
DAT/002/CUS .\win_b64\resources\graphic\icons\normal\I_DNBDpmRestoreDesign.bmp|.\DNBProcessUI\CNext\resources\graphic\icons\normal\I_DNBDpmRestoreDesign.bmp
RTV/002/DSI .\win_b64\resources\msgcatalog\NlsTest\DNBArrManipBoxHeader.CATNls|.\DNBProcessUI\CNext\resources\msgcatalog\DNBArrManipBoxHeader.CATNls
DAT/002/CUS .\win_b64\resources\graphic\icons\normal\I_DNBPositionGraph.bmp|.\DNBProcessUI\CNext\resources\graphic\icons\normal\I_DNBPositionGraph.bmp
DAT/002/CUS .\win_b64\resources\graphic\icons\normal\I_DNB_IPD_Product.bmp|.\DNBProcessUI\CNext\resources\graphic\icons\normal\I_DNB_IPD_Product.bmp
DAT/002/CUS .\win_b64\code\dictionary\DNBProcessUI.dic|.\DNBProcessUI\CNext\code\dictionary\DNBProcessUI.dic
DAT/002/CUS .\win_b64\resources\graphic\icons\normal\I_DNB_MHI_Subscribe.bmp|.\DNBProcessUI\CNext\resources\graphic\icons\normal\I_DNB_MHI_Subscribe.bmp
DAT/002/CUS .\win_b64\resources\msgcatalog\DNBHideShowConstraintsHeader.CATNls|.\DNBProcessUI\CNext\resources\msgcatalog\DNBHideShowConstraintsHeader.CATNls
DAT/002/CUS .\win_b64\resources\graphic\icons\normal\I_DNB3DAssignedViewer.bmp|.\DNBProcessUI\CNext\resources\graphic\icons\normal\I_DNB3DAssignedViewer.bmp
DAT/002/CUS .\win_b64\resources\graphic\icons\small\I_DNB3DAssignedViewer.bmp|.\DNBProcessUI\CNext\resources\graphic\icons\small\I_DNB3DAssignedViewer.bmp
DAT/002/CUS .\win_b64\resources\graphic\icons\small\I_DNB_IPD_CopyTemplProc.bmp|.\DNBProcessUI\CNext\resources\graphic\icons\small\I_DNB_IPD_CopyTemplProc.bmp
DAT/002/CUS .\win_b64\resources\graphic\icons\normal\I_DNB_IPD_CopySTDRes.bmp|.\DNBProcessUI\CNext\resources\graphic\icons\normal\I_DNB_IPD_CopySTDRes.bmp
DAT/002/CUS .\win_b64\resources\graphic\icons\normal\I_DNBReplaceResource.bmp|.\DNBProcessUI\CNext\resources\graphic\icons\normal\I_DNBReplaceResource.bmp
DAT/002/CUS .\win_b64\resources\graphic\icons\small\I_DNB_IPD_UserContext.bmp|.\DNBProcessUI\CNext\resources\graphic\icons\small\I_DNB_IPD_UserContext.bmp
DAT/002/CUS .\win_b64\resources\graphic\icons\small\I_DNBAddActivity.bmp|.\DNBProcessUI\CNext\resources\graphic\icons\small\I_DNBAddActivity.bmp
DAT/002/CUS .\win_b64\resources\graphic\icons\normal\I_DNBReparentResource.bmp|.\DNBProcessUI\CNext\resources\graphic\icons\normal\I_DNBReparentResource.bmp
DAT/002/CUS .\win_b64\resources\graphic\icons\normal\I_DNBDpmPartSelectionWindow.bmp|.\DNBProcessUI\CNext\resources\graphic\icons\normal\I_DNBDpmPartSelectionWindow.bmp
DAT/002/CUS .\win_b64\resources\graphic\icons\small\I_PublishPosition.bmp|.\DNBProcessUI\CNext\resources\graphic\icons\small\I_PublishPosition.bmp
DAT/002/CUS .\win_b64\resources\graphic\icons\normal\I_DNBGeneralAssignment.bmp|.\DNBProcessUI\CNext\resources\graphic\icons\normal\I_DNBGeneralAssignment.bmp
DAT/002/CUS .\win_b64\resources\graphic\icons\normal\I_DNB_IPD_BlobDelete.bmp|.\DNBProcessUI\CNext\resources\graphic\icons\normal\I_DNB_IPD_BlobDelete.bmp
DAT/002/CUS .\win_b64\resources\graphic\icons\normal\I_DNBValidate.bmp|.\DNBProcessUI\CNext\resources\graphic\icons\normal\I_DNBValidate.bmp
DAT/002/CUS .\win_b64\resources\graphic\icons\normal\I_DNB3DStandardViewer.bmp|.\DNBProcessUI\CNext\resources\graphic\icons\normal\I_DNB3DStandardViewer.bmp
DAT/002/CUS .\win_b64\resources\graphic\icons\normal\I_DNB_IPD_CopyTemplProc.bmp|.\DNBProcessUI\CNext\resources\graphic\icons\normal\I_DNB_IPD_CopyTemplProc.bmp
DAT/002/CUS .\win_b64\resources\graphic\icons\small\I_DNBBOMtoXML.bmp|.\DNBProcessUI\CNext\resources\graphic\icons\small\I_DNBBOMtoXML.bmp
RTV/002/DSI .\win_b64\resources\msgcatalog\DbcsTest\DNBProcCmdHeader.CATNls|.\DNBProcessUI\CNext\resources\msgcatalog\DNBProcCmdHeader.CATNls
DAT/002/CUS .\win_b64\resources\graphic\icons\small\I_DNBPositionGraph.bmp|.\DNBProcessUI\CNext\resources\graphic\icons\small\I_DNBPositionGraph.bmp
DAT/002/CUS .\win_b64\resources\graphic\icons\normal\I_ActivitySynchronisation.bmp|.\DNBProcessUI\CNext\resources\graphic\icons\normal\I_ActivitySynchronisation.bmp
DAT/002/CUS .\win_b64\resources\graphic\icons\normal\I_DNBBOM_Viewer.bmp|.\DNBProcessUI\CNext\resources\graphic\icons\normal\I_DNBBOM_Viewer.bmp
DAT/002/CUS .\win_b64\resources\msgcatalog\DNBProcCmdHeader.CATNls|.\DNBProcessUI\CNext\resources\msgcatalog\DNBProcCmdHeader.CATNls
DAT/002/CUS .\win_b64\resources\graphic\icons\normal\I_CreatePrecedence.bmp|.\DNBProcessUI\CNext\resources\graphic\icons\normal\I_CreatePrecedence.bmp
DAT/002/CUS .\win_b64\resources\graphic\icons\small\I_DNBValidate.bmp|.\DNBProcessUI\CNext\resources\graphic\icons\small\I_DNBValidate.bmp
DAT/002/CUS .\win_b64\resources\graphic\icons\small\I_DNB_IPD_CopySTDProc.bmp|.\DNBProcessUI\CNext\resources\graphic\icons\small\I_DNB_IPD_CopySTDProc.bmp
DAT/002/CUS .\win_b64\resources\msgcatalog\DNBProcessWkb.CATNls|.\DNBProcessUI\CNext\resources\msgcatalog\DNBProcessWkb.CATNls
DAT/002/CUS .\win_b64\resources\graphic\icons\small\I_DNB3DStandardViewer.bmp|.\DNBProcessUI\CNext\resources\graphic\icons\small\I_DNB3DStandardViewer.bmp
DAT/002/CUS .\win_b64\resources\graphic\icons\small\I_DNB_IPD_CreateResource.bmp|.\DNBProcessUI\CNext\resources\graphic\icons\small\I_DNB_IPD_CreateResource.bmp
DAT/002/CUS .\win_b64\resources\graphic\icons\normal\I_DNB_IPD_CopySTDProc.bmp|.\DNBProcessUI\CNext\resources\graphic\icons\normal\I_DNB_IPD_CopySTDProc.bmp
DAT/002/CUS .\win_b64\resources\graphic\icons\small\I_DNBRemoveFromPPR.bmp|.\DNBProcessUI\CNext\resources\graphic\icons\small\I_DNBRemoveFromPPR.bmp
DAT/002/CUS .\win_b64\resources\graphic\icons\small\I_DNBHideShowASMPRC.bmp|.\DNBProcessUI\CNext\resources\graphic\icons\small\I_DNBHideShowASMPRC.bmp
DAT/002/CUS .\win_b64\resources\graphic\icons\normal\I_DNBHideShowASMPRC.bmp|.\DNBProcessUI\CNext\resources\graphic\icons\normal\I_DNBHideShowASMPRC.bmp
DAT/002/CUS .\win_b64\resources\graphic\icons\normal\I_DNB_IPD_Resource.bmp|.\DNBProcessUI\CNext\resources\graphic\icons\normal\I_DNB_IPD_Resource.bmp
DAT/002/CUS .\win_b64\resources\graphic\icons\small\I_DNB_IPD_WSC.bmp|.\DNBProcessUI\CNext\resources\graphic\icons\small\I_DNB_IPD_WSC.bmp
DAT/002/CUS .\win_b64\resources\graphic\icons\normal\I_DNB_IPD_ListReadonly.bmp|.\DNBProcessUI\CNext\resources\graphic\icons\normal\I_DNB_IPD_ListReadonly.bmp
DAT/002/CUS .\win_b64\resources\graphic\icons\normal\I_DNB_IPD_ImportPrdRes.bmp|.\DNBProcessUI\CNext\resources\graphic\icons\normal\I_DNB_IPD_ImportPrdRes.bmp
BTV/002/CUS .\win_b64\code\productIC\DNBProcessUIIC.xml|.\DNBProcessUI
DAT/002/CUS .\win_b64\resources\graphic\icons\small\I_DisplayPCSStatus2.bmp|.\DNBProcessUI\CNext\resources\graphic\icons\small\I_DisplayPCSStatus2.bmp
DAT/002/CUS .\win_b64\resources\graphic\icons\normal\I_DNB_IPD_InsertAST.bmp|.\DNBProcessUI\CNext\resources\graphic\icons\normal\I_DNB_IPD_InsertAST.bmp
DAT/002/CUS .\win_b64\resources\graphic\icons\small\I_DNBAddActLibrary.bmp|.\DNBProcessUI\CNext\resources\graphic\icons\small\I_DNBAddActLibrary.bmp
DAT/002/CUS .\win_b64\resources\graphic\icons\small\I_DNBFirstAssignItem.bmp|.\DNBProcessUI\CNext\resources\graphic\icons\small\I_DNBFirstAssignItem.bmp
RTV/002/DSI .\win_b64\resources\msgcatalog\DbcsTest\DNBArrManipBoxHeader.CATNls|.\DNBProcessUI\CNext\resources\msgcatalog\DNBArrManipBoxHeader.CATNls
DAT/002/CUS .\win_b64\resources\graphic\icons\small\I_DNBBOM_Viewer.bmp|.\DNBProcessUI\CNext\resources\graphic\icons\small\I_DNBBOM_Viewer.bmp
DAT/002/CUS .\win_b64\resources\graphic\icons\small\I_DNBRscCamera.bmp|.\DNBProcessUI\CNext\resources\graphic\icons\small\I_DNBRscCamera.bmp
RTV/002/DSI .\win_b64\resources\msgcatalog\DbcsTest\DNBProductStateNavigFolder.CATNls|.\DNBProcessUI\CNext\resources\msgcatalog\DNBProductStateNavigFolder.CATNls
DAT/002/CUS .\win_b64\resources\graphic\icons\normal\I_DNB_IPD_NonGeo_LCA.bmp|.\DNBProcessUI\CNext\resources\graphic\icons\normal\I_DNB_IPD_NonGeo_LCA.bmp
DAT/002/CUS .\win_b64\resources\graphic\icons\normal\I_DNB_IPD_OpenProject.bmp|.\DNBProcessUI\CNext\resources\graphic\icons\normal\I_DNB_IPD_OpenProject.bmp
DAT/002/CUS .\win_b64\resources\msgcatalog\DNBShowHideWCSHeader.CATNls|.\DNBProcessUI\CNext\resources\msgcatalog\DNBShowHideWCSHeader.CATNls
RTV/002/DSI .\win_b64\resources\msgcatalog\NlsTest\DNBProcCmdHeader.CATNls|.\DNBProcessUI\CNext\resources\msgcatalog\DNBProcCmdHeader.CATNls
DAT/002/CUS .\win_b64\resources\graphic\icons\small\I_DNBUnassignAllItems.bmp|.\DNBProcessUI\CNext\resources\graphic\icons\small\I_DNBUnassignAllItems.bmp
DAT/002/CUS .\win_b64\resources\graphic\icons\small\I_DNB_IPD_ExtPropertyPanel.bmp|.\DNBProcessUI\CNext\resources\graphic\icons\small\I_DNB_IPD_ExtPropertyPanel.bmp
DAT/002/CUS .\win_b64\resources\graphic\icons\small\I_DNBDpmActRenumber.bmp|.\DNBProcessUI\CNext\resources\graphic\icons\small\I_DNBDpmActRenumber.bmp
DAT/002/CUS .\win_b64\resources\graphic\icons\normal\I_DNBRemoveFromPPR.bmp|.\DNBProcessUI\CNext\resources\graphic\icons\normal\I_DNBRemoveFromPPR.bmp
DAT/002/CUS .\win_b64\resources\graphic\icons\normal\I_DNBAddActLibrary.bmp|.\DNBProcessUI\CNext\resources\graphic\icons\normal\I_DNBAddActLibrary.bmp
DAT/002/CUS .\win_b64\resources\graphic\icons\small\I_DNBMfgAssyCmd.bmp|.\DNBProcessUI\CNext\resources\graphic\icons\small\I_DNBMfgAssyCmd.bmp
DAT/002/CUS .\win_b64\resources\graphic\icons\normal\I_DNB_IPD_NonGeo_VPM.bmp|.\DNBProcessUI\CNext\resources\graphic\icons\normal\I_DNB_IPD_NonGeo_VPM.bmp
DAT/002/CUS .\win_b64\resources\graphic\icons\small\I_DNB_IPD_UnLock.bmp|.\DNBProcessUI\CNext\resources\graphic\icons\small\I_DNB_IPD_UnLock.bmp
DAT/002/CUS .\win_b64\resources\graphic\icons\normal\I_DNBPertChart.bmp|.\DNBProcessUI\CNext\resources\graphic\icons\normal\I_DNBPertChart.bmp
DAT/002/CUS .\win_b64\resources\graphic\icons\normal\I_DNBDpmMAVersioningCmd.bmp|.\DNBProcessUI\CNext\resources\graphic\icons\normal\I_DNBDpmMAVersioningCmd.bmp
DAT/002/CUS .\win_b64\resources\graphic\icons\normal\I_DNBRecenterAct.bmp|.\DNBProcessUI\CNext\resources\graphic\icons\normal\I_DNBRecenterAct.bmp
DAT/002/CUS .\win_b64\resources\graphic\icons\normal\I_DNBResourceVerification.bmp|.\DNBProcessUI\CNext\resources\graphic\icons\normal\I_DNBResourceVerification.bmp
DAT/002/CUS .\win_b64\resources\graphic\icons\small\I_DNB_IPD_CreateAlternative.bmp|.\DNBProcessUI\CNext\resources\graphic\icons\small\I_DNB_IPD_CreateAlternative.bmp
RTV/002/DSI .\win_b64\resources\msgcatalog\NlsTest\DNBHideShowConstraintsHeader.CATNls|.\DNBProcessUI\CNext\resources\msgcatalog\DNBHideShowConstraintsHeader.CATNls
DAT/002/CUS .\win_b64\resources\graphic\icons\small\I_DNB_IPD_PackAndGo.bmp|.\DNBProcessUI\CNext\resources\graphic\icons\small\I_DNB_IPD_PackAndGo.bmp
DAT/002/CUS .\win_b64\resources\graphic\icons\normal\I_DNBSubTree.bmp|.\DNBProcessUI\CNext\resources\graphic\icons\normal\I_DNBSubTree.bmp
DAT/002/CUS .\win_b64\resources\graphic\icons\normal\I_DNBRscCamera.bmp|.\DNBProcessUI\CNext\resources\graphic\icons\normal\I_DNBRscCamera.bmp
DAT/002/CUS .\win_b64\resources\graphic\icons\normal\I_DNB_IPD_VolumetricContext.bmp|.\DNBProcessUI\CNext\resources\graphic\icons\normal\I_DNB_IPD_VolumetricContext.bmp
DAT/002/CUS .\win_b64\resources\graphic\icons\small\I_DNB_IPD_Find.bmp|.\DNBProcessUI\CNext\resources\graphic\icons\small\I_DNB_IPD_Find.bmp
DAT/002/CUS .\win_b64\resources\graphic\icons\small\I_DNB_IPD_ShowHubDocInfo.bmp|.\DNBProcessUI\CNext\resources\graphic\icons\small\I_DNB_IPD_ShowHubDocInfo.bmp
DAT/002/CUS .\win_b64\resources\graphic\icons\normal\I_DNB_IPD_LoadPrdFromProc.bmp|.\DNBProcessUI\CNext\resources\graphic\icons\normal\I_DNB_IPD_LoadPrdFromProc.bmp
DAT/002/CUS .\win_b64\resources\graphic\icons\normal\I_DNB_IPD_Find.bmp|.\DNBProcessUI\CNext\resources\graphic\icons\normal\I_DNB_IPD_Find.bmp
DAT/002/CUS .\win_b64\resources\graphic\icons\normal\I_DNB_IPD_ExtPropertyPanel.bmp|.\DNBProcessUI\CNext\resources\graphic\icons\normal\I_DNB_IPD_ExtPropertyPanel.bmp
DAT/002/CUS .\win_b64\resources\graphic\icons\small\I_DNBReparentActivity.bmp|.\DNBProcessUI\CNext\resources\graphic\icons\small\I_DNBReparentActivity.bmp
CSC/002/DSI .\DNBProcessUI\IdentityCard\Objects\win_b64\mkcsc\DNBProcessUI.cscdb|.\DNBProcessUI
DAT/002/CUS .\win_b64\resources\graphic\icons\small\I_DNBDpmMAVersioningCmd.bmp|.\DNBProcessUI\CNext\resources\graphic\icons\small\I_DNBDpmMAVersioningCmd.bmp
DAT/002/CUS .\win_b64\resources\graphic\icons\normal\I_DNBBOMtoXML.bmp|.\DNBProcessUI\CNext\resources\graphic\icons\normal\I_DNBBOMtoXML.bmp
DAT/002/CUS .\win_b64\resources\graphic\icons\normal\I_DNB_IPD_DeepInsertAST.bmp|.\DNBProcessUI\CNext\resources\graphic\icons\normal\I_DNB_IPD_DeepInsertAST.bmp
DAT/002/CUS .\win_b64\resources\graphic\icons\small\I_DNBGeneralAssignment.bmp|.\DNBProcessUI\CNext\resources\graphic\icons\small\I_DNBGeneralAssignment.bmp
DAT/002/CUS .\win_b64\resources\graphic\icons\small\I_DNB_IPD_EditHubDocInfo.bmp|.\DNBProcessUI\CNext\resources\graphic\icons\small\I_DNB_IPD_EditHubDocInfo.bmp
DAT/002/CUS .\win_b64\resources\graphic\icons\normal\I_DNBGanttChart.bmp|.\DNBProcessUI\CNext\resources\graphic\icons\normal\I_DNBGanttChart.bmp
DAT/002/CUS .\win_b64\resources\graphic\icons\small\I_DNBAutoLinkActivities.bmp|.\DNBProcessUI\CNext\resources\graphic\icons\small\I_DNBAutoLinkActivities.bmp
DAT/002/CUS .\win_b64\resources\graphic\icons\small\I_DNBAssignImage.bmp|.\DNBProcessUI\CNext\resources\graphic\icons\small\I_DNBAssignImage.bmp
DAT/002/CUS .\win_b64\resources\graphic\icons\small\I_PrdResReorder.bmp|.\DNBProcessUI\CNext\resources\graphic\icons\small\I_PrdResReorder.bmp
DAT/002/CUS .\win_b64\resources\graphic\icons\small\I_DNBResGanttChart.bmp|.\DNBProcessUI\CNext\resources\graphic\icons\small\I_DNBResGanttChart.bmp
DAT/002/CUS .\win_b64\resources\graphic\icons\normal\I_DNB_IPD_WSC.bmp|.\DNBProcessUI\CNext\resources\graphic\icons\normal\I_DNB_IPD_WSC.bmp
DAT/002/CUS .\win_b64\resources\graphic\icons\normal\I_DNB_IPD_UnLock.bmp|.\DNBProcessUI\CNext\resources\graphic\icons\normal\I_DNB_IPD_UnLock.bmp
DAT/002/CUS .\win_b64\resources\graphic\icons\small\I_DNBReparentResource.bmp|.\DNBProcessUI\CNext\resources\graphic\icons\small\I_DNBReparentResource.bmp
DAT/002/CUS .\win_b64\resources\msgcatalog\DNBProcessStateNavigFolder.CATNls|.\DNBProcessUI\CNext\resources\msgcatalog\DNBProcessStateNavigFolder.CATNls
DAT/002/CUS .\win_b64\resources\graphic\icons\normal\I_DNB_IPD_CreateAlternative.bmp|.\DNBProcessUI\CNext\resources\graphic\icons\normal\I_DNB_IPD_CreateAlternative.bmp
DAT/002/CUS .\win_b64\resources\graphic\icons\normal\I_DNB_IPD_CreateResource.bmp|.\DNBProcessUI\CNext\resources\graphic\icons\normal\I_DNB_IPD_CreateResource.bmp
DAT/002/CUS .\win_b64\resources\graphic\icons\small\I_DNB_IPD_NonGeo_LCA.bmp|.\DNBProcessUI\CNext\resources\graphic\icons\small\I_DNB_IPD_NonGeo_LCA.bmp
DAT/002/CUS .\win_b64\resources\graphic\icons\normal\I_DNBSelectiveLoad.bmp|.\DNBProcessUI\CNext\resources\graphic\icons\normal\I_DNBSelectiveLoad.bmp
DAT/002/CUS .\win_b64\resources\graphic\icons\normal\I_DNBUnassignAllItems.bmp|.\DNBProcessUI\CNext\resources\graphic\icons\normal\I_DNBUnassignAllItems.bmp
DAT/002/CUS .\win_b64\resources\graphic\icons\normal\I_DNBReparentActivity.bmp|.\DNBProcessUI\CNext\resources\graphic\icons\normal\I_DNBReparentActivity.bmp
DAT/002/CUS .\win_b64\resources\graphic\icons\small\I_DNBDpmRestoreDesign.bmp|.\DNBProcessUI\CNext\resources\graphic\icons\small\I_DNBDpmRestoreDesign.bmp
DAT/002/CUS .\win_b64\resources\graphic\icons\small\I_DNB_IPD_Product.bmp|.\DNBProcessUI\CNext\resources\graphic\icons\small\I_DNB_IPD_Product.bmp
DAT/002/CUS .\win_b64\resources\graphic\icons\small\I_ActivitySynchronisation.bmp|.\DNBProcessUI\CNext\resources\graphic\icons\small\I_ActivitySynchronisation.bmp
DAT/002/CUS .\win_b64\resources\graphic\icons\normal\I_DNBResGanttChart.bmp|.\DNBProcessUI\CNext\resources\graphic\icons\normal\I_DNBResGanttChart.bmp
DAT/002/CUS .\win_b64\resources\graphic\icons\small\I_DNBDpmCopyProcessAndResource.bmp|.\DNBProcessUI\CNext\resources\graphic\icons\small\I_DNBDpmCopyProcessAndResource.bmp
@type='codeFramework'
@built='true'
