!<mkRTViewData> v1.0.0
CSC/000/DSI .\ConstraintModelerUI\MoveCmd.m\Objects\win_b64\mkcsc\MoveCmd.cscdb|.\ConstraintModelerUI\MoveCmd.m
@type='NONE'
@clr='false'
@kind='INCLUDED'
@deliverable='true'
@built='true'
