!<mkRTViewData> v1.0.0
BTV/000/CUS .\win_b64\code\lib\CATCGMReplayExit.lib|.\GeometricObjects\CATCGMReplayExit.m
INT/000/CUS .\win_b64\code\bin\CATCGMReplayExit.pdb|.\GeometricObjects\CATCGMReplayExit.m
RTV/001/CUS .\win_b64\code\bin\CATCGMReplayExit.dll|.\GeometricObjects\CATCGMReplayExit.m
CSC/000/DSI .\GeometricObjects\CATCGMReplayExit.m\Objects\win_b64\mkcsc\CATCGMReplayExit.cscdb|.\GeometricObjects\CATCGMReplayExit.m
INT/000/CUS .\win_b64\code\lib\CATCGMReplayExit.exp|.\GeometricObjects\CATCGMReplayExit.m
@type='SHARED_LIBRARY'
@clr='false'
@kind='NATIVE'
@deliverable='true'
@built='true'
