!<mkRTViewData> v1.0.0
INT/000/CUS .\win_b64\code\lib\CATNewSceneBrowser.exp|.\OSMUI\CATNewSceneBrowser.m
INT/000/CUS .\win_b64\code\bin\CATNewSceneBrowser.pdb|.\OSMUI\CATNewSceneBrowser.m
RTV/001/CUS .\win_b64\code\bin\CATNewSceneBrowser.dll|.\OSMUI\CATNewSceneBrowser.m
BTV/000/CUS .\win_b64\code\lib\CATNewSceneBrowser.lib|.\OSMUI\CATNewSceneBrowser.m
CSC/000/DSI .\OSMUI\CATNewSceneBrowser.m\Objects\win_b64\mkcsc\CATNewSceneBrowser.cscdb|.\OSMUI\CATNewSceneBrowser.m
@type='SHARED_LIBRARY'
@clr='false'
@kind='NATIVE'
@deliverable='true'
@built='true'
