!<mkRTViewData> v1.0.0
CSC/000/DSI .\CATImmersiveUI\CATARTDriver.m\Objects\win_b64\mkcsc\CATARTDriver.cscdb|.\CATImmersiveUI\CATARTDriver.m
RTV/001/CUS .\win_b64\code\bin\CATARTDriver.exe|.\CATImmersiveUI\CATARTDriver.m
INT/000/CUS .\win_b64\code\bin\CATARTDriver.pdb|.\CATImmersiveUI\CATARTDriver.m
@type='LOAD_MODULE'
@clr='false'
@kind='NATIVE'
@deliverable='true'
@built='true'
