!<mkRTViewData> v1.0.0
RTV/000/CUS .\win_b64\code\bin\epsetupreadwriteadmintool.tlb|.\DELE5ClientInterfaces\epsetupreadwriteadmintoolTLB.m
@type='TYPELIB'
@clr='false'
@kind='NATIVE'
@deliverable='true'
@built='true'
