!<mkRTViewData> v1.0.0
CSC/002/DSI .\CATIACapten\IdentityCard\Objects\win_b64\mkcsc\CATIACapten.cscdb|.\CATIACapten
RTV/002/DSI .\win_b64\code\productIC\CATIACaptenIC.required|.\CATIACapten
BTV/002/CUS .\win_b64\code\productIC\CATIACaptenIC.xml|.\CATIACapten
BTV/002/CUS .\win_b64\code\productIC\CATIACaptenIC.script|.\CATIACapten
@type='codeFramework'
@built='true'
