!<mkRTViewData> v1.0.0
RTV/001/CUS .\win_b64\code\bin\CATObjectSpecsModeler.dll|.\ObjectSpecsModeler\CATObjectSpecsModeler.m
BTV/000/CUS .\win_b64\code\lib\CATObjectSpecsModeler.lib|.\ObjectSpecsModeler\CATObjectSpecsModeler.m
INT/000/CUS .\win_b64\code\bin\CATObjectSpecsModeler.pdb|.\ObjectSpecsModeler\CATObjectSpecsModeler.m
CSC/000/DSI .\ObjectSpecsModeler\CATObjectSpecsModeler.m\Objects\win_b64\mkcsc\CATObjectSpecsModeler.cscdb|.\ObjectSpecsModeler\CATObjectSpecsModeler.m
INT/000/CUS .\win_b64\code\lib\CATObjectSpecsModeler.exp|.\ObjectSpecsModeler\CATObjectSpecsModeler.m
@type='SHARED_LIBRARY'
@clr='false'
@kind='NATIVE'
@deliverable='true'
@built='true'
