!<mkRTViewData> v1.0.0
RTV/001/CUS .\win_b64\code\bin\CATUVEncoding.dll|.\VisualizationBase\CATUVEncoding.m
CSC/000/DSI .\VisualizationBase\CATUVEncoding.m\Objects\win_b64\mkcsc\CATUVEncoding.cscdb|.\VisualizationBase\CATUVEncoding.m
INT/000/CUS .\win_b64\code\lib\CATUVEncoding.exp|.\VisualizationBase\CATUVEncoding.m
INT/000/CUS .\win_b64\code\bin\CATUVEncoding.pdb|.\VisualizationBase\CATUVEncoding.m
BTV/000/CUS .\win_b64\code\lib\CATUVEncoding.lib|.\VisualizationBase\CATUVEncoding.m
@type='SHARED_LIBRARY'
@clr='false'
@kind='NATIVE'
@deliverable='true'
@built='true'
