!<mkRTViewData> v1.0.0
BTV/002/CUS .\win_b64\code\productIC\FeatureModelerExtIC.script|.\FeatureModelerExt
BTV/002/CUS .\win_b64\code\productIC\FeatureModelerExtIC.xml|.\FeatureModelerExt
RTV/002/DSI .\win_b64\code\productIC\FeatureModelerExtIC.required|.\FeatureModelerExt
CSC/002/DSI .\FeatureModelerExt\IdentityCard\Objects\win_b64\mkcsc\FeatureModelerExt.cscdb|.\FeatureModelerExt
@type='codeFramework'
@built='true'
