!<mkRTViewData> v1.0.0
INT/000/CUS .\win_b64\code\bin\CATGeoControl.pdb|.\CGMV5SpecsQuery\CATGeoControl.m
INT/000/CUS .\win_b64\code\lib\CATGeoControl.exp|.\CGMV5SpecsQuery\CATGeoControl.m
CSC/000/DSI .\CGMV5SpecsQuery\CATGeoControl.m\Objects\win_b64\mkcsc\CATGeoControl.cscdb|.\CGMV5SpecsQuery\CATGeoControl.m
RTV/001/CUS .\win_b64\code\bin\CATGeoControl.dll|.\CGMV5SpecsQuery\CATGeoControl.m
BTV/000/CUS .\win_b64\code\lib\CATGeoControl.lib|.\CGMV5SpecsQuery\CATGeoControl.m
@type='SHARED_LIBRARY'
@clr='false'
@kind='NATIVE'
@deliverable='true'
@built='true'
