document `CAAV5V6ExtMmrCCDataExtensionCatalog.CATfct` {
	history("ads","","2012-10-23 14:33",1., 0uf1ce8025-0000-1c68-5086aac300000026)
	history("ads","","2012-10-19 09:42",1., 0uf1ce8025-0000-13f4-5081207b00000025)
	history("ads","","2012-10-16 16:13",1., 0uf1ce8025-0001-7228-507d879000000024)
	history("ads","","2012-10-16 16:00",1., 0uf1ce8025-0001-55b4-507d848100000025)
	history("ads","","2012-10-16 12:13",0., 0uf1ce8025-0002-28d0-507d4f5a0000000a)
	check_revision(0uf1ce8025-0000-1c68-5086aac300000026)
	
	container `RootCont` #root #uuid(0uf1ce8025-0002-28d0-507d4f5a00000005) {
		catalog_manager `Literals.feat`
		feature `CAAV5V6ExtMmrCCDataExtension`#2 #startup #extension {
			#creation::parameter=metadata_DataExtensionCont
			#mlc::version=1.
			#uuid= 0uf1ce8025-0001-55b4-507d848100000024
			specobject `V5V6GeomFeature` #in
			component `V5V6Length` #out
		}

	}

	metadata metadata_DataExtensionCont
	 {
	   `ContType`="CAAV5V6ExtMmrDataExtensionCont"
	   `Container`="V5V6ExtMmrDataExtensionCont"
	   `Extends`=["V5V6ExtCombinedCurve"]
	   `IsLocal`=true
	  }
}
