!<mkRTViewData> v1.0.0
INT/000/CUS .\win_b64\code\bin\DNBInfrastructure.pdb|.\DNBInfrastructure\DNBInfrastructure.m
CSC/000/DSI .\DNBInfrastructure\DNBInfrastructure.m\Objects\win_b64\mkcsc\DNBInfrastructure.cscdb|.\DNBInfrastructure\DNBInfrastructure.m
INT/000/CUS .\win_b64\code\lib\DNBInfrastructure.exp|.\DNBInfrastructure\DNBInfrastructure.m
RTV/001/CUS .\win_b64\code\bin\DNBInfrastructure.dll|.\DNBInfrastructure\DNBInfrastructure.m
BTV/000/CUS .\win_b64\code\lib\DNBInfrastructure.lib|.\DNBInfrastructure\DNBInfrastructure.m
@type='SHARED_LIBRARY'
@clr='false'
@kind='NATIVE'
@deliverable='true'
@built='true'
