!<mkRTViewData> v1.0.0
BTV/000/CUS .\win_b64\code\lib\CATKWEExpr.lib|.\KnowledgeEngineUtilities\CATKWEExpr.m
RTV/001/CUS .\win_b64\code\bin\CATKWEExpr.dll|.\KnowledgeEngineUtilities\CATKWEExpr.m
INT/000/CUS .\win_b64\code\bin\CATKWEExpr.pdb|.\KnowledgeEngineUtilities\CATKWEExpr.m
CSC/000/DSI .\KnowledgeEngineUtilities\CATKWEExpr.m\Objects\win_b64\mkcsc\CATKWEExpr.cscdb|.\KnowledgeEngineUtilities\CATKWEExpr.m
INT/000/CUS .\win_b64\code\lib\CATKWEExpr.exp|.\KnowledgeEngineUtilities\CATKWEExpr.m
@type='SHARED_LIBRARY'
@clr='false'
@kind='NATIVE'
@deliverable='true'
@built='true'
