!<mkRTViewData> v1.0.0
CSC/000/DSI .\CATAnnotationModelerUI\CATAnnVisu.m\Objects\win_b64\mkcsc\CATAnnVisu.cscdb|.\CATAnnotationModelerUI\CATAnnVisu.m
@type='NONE'
@clr='false'
@kind='INCLUDED'
@deliverable='true'
@built='true'
