!<mkRTViewData> v1.0.0
RTV/002/DSI .\win_b64\code\productIC\CATSubdivisionObjectsIC.required|.\CATSubdivisionObjects
CSC/002/DSI .\CATSubdivisionObjects\IdentityCard\Objects\win_b64\mkcsc\CATSubdivisionObjects.cscdb|.\CATSubdivisionObjects
BTV/002/CUS .\win_b64\code\productIC\CATSubdivisionObjectsIC.xml|.\CATSubdivisionObjects
BTV/002/CUS .\win_b64\code\productIC\CATSubdivisionObjectsIC.script|.\CATSubdivisionObjects
@type='codeFramework'
@built='true'
