!<mkRTViewData> v1.0.0
CSC/000/DSI .\DraftingFeature\DRWPATCHOOSER.m\Objects\win_b64\mkcsc\DRWPATCHOOSER.cscdb|.\DraftingFeature\DRWPATCHOOSER.m
@type='NONE'
@clr='false'
@kind='INCLUDED'
@deliverable='true'
@built='true'
