!<mkRTViewData> v1.0.0
CSC/000/DSI .\PartDesignUI\PrtRemoveFaceUI.m\Objects\win_b64\mkcsc\PrtRemoveFaceUI.cscdb|.\PartDesignUI\PrtRemoveFaceUI.m
@type='NONE'
@clr='false'
@kind='INCLUDED'
@deliverable='true'
@built='true'
