!<mkRTViewData> v1.0.0
CSC/000/DSI .\ObjectModelerBase\CATOmbDocComposite.m\Objects\win_b64\mkcsc\CATOmbDocComposite.cscdb|.\ObjectModelerBase\CATOmbDocComposite.m
@type='NONE'
@clr='false'
@kind='INCLUDED'
@deliverable='true'
@built='true'
