!<mkRTViewData> v1.0.0
INT/000/CUS .\win_b64\code\bin\JS0SMT.pdb|.\System\JS0SMT.m
INT/000/CUS .\win_b64\code\lib\JS0SMT.exp|.\System\JS0SMT.m
CSC/000/DSI .\System\JS0SMT.m\Objects\win_b64\mkcsc\JS0SMT.cscdb|.\System\JS0SMT.m
BTV/000/CUS .\win_b64\code\lib\JS0SMT.lib|.\System\JS0SMT.m
RTV/001/CUS .\win_b64\code\bin\JS0SMT.dll|.\System\JS0SMT.m
@type='SHARED_LIBRARY'
@clr='false'
@kind='NATIVE'
@deliverable='true'
@built='true'
