!<mkRTViewData> v1.0.0
BTV/000/CUS .\win_b64\code\lib\CATGuiMultiSel.lib|.\GSMUI\CATGuiMultiSel.m
CSC/000/DSI .\GSMUI\CATGuiMultiSel.m\Objects\win_b64\mkcsc\CATGuiMultiSel.cscdb|.\GSMUI\CATGuiMultiSel.m
INT/000/CUS .\win_b64\code\lib\CATGuiMultiSel.exp|.\GSMUI\CATGuiMultiSel.m
RTV/001/CUS .\win_b64\code\bin\CATGuiMultiSel.dll|.\GSMUI\CATGuiMultiSel.m
INT/000/CUS .\win_b64\code\bin\CATGuiMultiSel.pdb|.\GSMUI\CATGuiMultiSel.m
@type='SHARED_LIBRARY'
@clr='false'
@kind='NATIVE'
@deliverable='true'
@built='true'
