!<mkRTViewData> v1.0.0
CSC/000/DSI .\GeometricObjects\CloneManager.m\Objects\win_b64\mkcsc\CloneManager.cscdb|.\GeometricObjects\CloneManager.m
@type='NONE'
@clr='false'
@kind='INCLUDED'
@deliverable='true'
@built='true'
