!<mkRTViewData> v1.0.0
RTV/000/DSI .\win_b64\resources\featurecatalog\whitelists\CATOsmAutoNumberingLevelV6.wl|.\ObjectSpecsModeler\ObjectSpecsModelerRSC_Internal.m\src\resources\featurecatalog\whitelists\CATOsmAutoNumberingLevelV6.wl
RTV/000/DSI .\win_b64\resources\featurecatalog\whitelists\CATOsmAutoNumberingLevelV5.wl|.\ObjectSpecsModeler\ObjectSpecsModelerRSC_Internal.m\src\resources\featurecatalog\whitelists\CATOsmAutoNumberingLevelV5.wl
@type='RUNTIME_DATA'
@clr='false'
@kind='DATA'
@deliverable='false'
@built='true'
