!<mkRTViewData> v1.0.0
CSC/000/DSI .\DNBEKPInterfaces\DNBEKPPubIDL.m\Objects\win_b64\mkcsc\DNBEKPPubIDL.cscdb|.\DNBEKPInterfaces\DNBEKPPubIDL.m
@type='NONE'
@clr='false'
@kind='INCLUDED'
@deliverable='true'
@built='true'
