!<mkRTViewData> v1.0.0
CSC/000/DSI .\Administration\CATSTARTCORE.m\Objects\win_b64\mkcsc\CATSTARTCORE.cscdb|.\Administration\CATSTARTCORE.m
BTV/000/DSI .\win_b64\code\lib\CATSTARTCORE.lib|.\Administration\CATSTARTCORE.m
@type='ARCHIVE'
@clr='false'
@kind='NATIVE'
@deliverable='false'
@built='true'
