!<mkRTViewData> v1.0.0
CSC/000/DSI .\GeometricObjects\Data_GeometricObjects.m\Objects\win_b64\mkcsc\Data_GeometricObjects.cscdb|.\GeometricObjects\Data_GeometricObjects.m
@type='NONE'
@clr='false'
@kind='INCLUDED'
@deliverable='true'
@built='true'
