!<mkRTViewData> v1.0.0
INT/000/CUS .\win_b64\code\bin\CATCclCatalogMigration.pdb|.\ComponentsCatalogs\CATCclCatalogMigration.m
RTV/001/CUS .\win_b64\code\bin\CATCclCatalogMigration.exe|.\ComponentsCatalogs\CATCclCatalogMigration.m
CSC/000/DSI .\ComponentsCatalogs\CATCclCatalogMigration.m\Objects\win_b64\mkcsc\CATCclCatalogMigration.cscdb|.\ComponentsCatalogs\CATCclCatalogMigration.m
@type='LOAD_MODULE'
@clr='false'
@kind='NATIVE'
@deliverable='true'
@built='true'
