!<mkRTViewData> v1.0.0
INT/000/CUS .\win_b64\code\lib\ENOVIAPlugCorba.exp|.\ENOVIAPlugIn\ENOVIAPlugCorba.m
CSC/000/DSI .\ENOVIAPlugIn\ENOVIAPlugCorba.m\Objects\win_b64\mkcsc\ENOVIAPlugCorba.cscdb|.\ENOVIAPlugIn\ENOVIAPlugCorba.m
INT/000/CUS .\win_b64\code\bin\ENOVIAPlugCorba.pdb|.\ENOVIAPlugIn\ENOVIAPlugCorba.m
RTV/001/CUS .\win_b64\code\bin\ENOVIAPlugCorba.dll|.\ENOVIAPlugIn\ENOVIAPlugCorba.m
BTV/000/CUS .\win_b64\code\lib\ENOVIAPlugCorba.lib|.\ENOVIAPlugIn\ENOVIAPlugCorba.m
@type='SHARED_LIBRARY'
@clr='false'
@kind='NATIVE'
@deliverable='true'
@built='true'
