!<mkRTViewData> v1.0.0
RTV/001/CUS .\win_b64\code\bin\CATDMUPersistency.dll|.\Navigator4DBase\CATDMUPersistency.m
BTV/000/CUS .\win_b64\code\lib\CATDMUPersistency.lib|.\Navigator4DBase\CATDMUPersistency.m
INT/000/CUS .\win_b64\code\lib\CATDMUPersistency.exp|.\Navigator4DBase\CATDMUPersistency.m
INT/000/CUS .\win_b64\code\bin\CATDMUPersistency.pdb|.\Navigator4DBase\CATDMUPersistency.m
CSC/000/DSI .\Navigator4DBase\CATDMUPersistency.m\Objects\win_b64\mkcsc\CATDMUPersistency.cscdb|.\Navigator4DBase\CATDMUPersistency.m
@type='SHARED_LIBRARY'
@clr='false'
@kind='NATIVE'
@deliverable='true'
@built='true'
