!<mkRTViewData> v1.0.0
INT/000/CUS .\win_b64\code\lib\CATMldBOMUI.exp|.\CATMoldDesignUI\CATMldBOMUI.m
CSC/000/DSI .\CATMoldDesignUI\CATMldBOMUI.m\Objects\win_b64\mkcsc\CATMldBOMUI.cscdb|.\CATMoldDesignUI\CATMldBOMUI.m
INT/000/CUS .\win_b64\code\bin\CATMldBOMUI.pdb|.\CATMoldDesignUI\CATMldBOMUI.m
RTV/001/CUS .\win_b64\code\bin\CATMldBOMUI.dll|.\CATMoldDesignUI\CATMldBOMUI.m
BTV/000/CUS .\win_b64\code\lib\CATMldBOMUI.lib|.\CATMoldDesignUI\CATMldBOMUI.m
@type='SHARED_LIBRARY'
@clr='false'
@kind='NATIVE'
@deliverable='true'
@built='true'
