!<mkRTViewData> v1.0.0
DAT/002/CUS .\win_b64\code\dictionary\CATPDMBase.dic|.\CATPDMBase\CNext\code\dictionary\CATPDMBase.dic
RTV/002/DSI .\win_b64\resources\msgcatalog\NlsTest\CATPDMNomadPathBox.CATNls|.\CATPDMBase\CNext\resources\msgcatalog\CATPDMNomadPathBox.CATNls
RTV/002/DSI .\win_b64\resources\msgcatalog\DbcsTest\CATRecServiceMsg.CATNls|.\CATPDMBase\CNext\resources\msgcatalog\CATRecServiceMsg.CATNls
RTV/002/DSI .\win_b64\resources\msgcatalog\NlsTest\CATPDMBase.CATNls|.\CATPDMBase\CNext\resources\msgcatalog\CATPDMBase.CATNls
RTV/002/DSI .\win_b64\resources\msgcatalog\NlsTest\CATPPRHubLocator.CATNls|.\CATPDMBase\CNext\resources\msgcatalog\CATPPRHubLocator.CATNls
DAT/002/CUS .\win_b64\resources\msgcatalog\CATPDMFederatorLoadDlg.CATNls|.\CATPDMBase\CNext\resources\msgcatalog\CATPDMFederatorLoadDlg.CATNls
DAT/002/CUS .\win_b64\resources\msgcatalog\CATPDMNomadPathBox.CATNls|.\CATPDMBase\CNext\resources\msgcatalog\CATPDMNomadPathBox.CATNls
RTV/002/DSI .\win_b64\resources\msgcatalog\DbcsTest\CATPDMNomadPathBox.CATNls|.\CATPDMBase\CNext\resources\msgcatalog\CATPDMNomadPathBox.CATNls
RTV/002/DSI .\win_b64\resources\msgcatalog\NlsTest\CATPDMFederatorLoadDlg.CATNls|.\CATPDMBase\CNext\resources\msgcatalog\CATPDMFederatorLoadDlg.CATNls
RTV/002/DSI .\win_b64\resources\msgcatalog\NlsTest\CATPDMEnoviaV5CAAErrors.CATNls|.\CATPDMBase\CNext\resources\msgcatalog\CATPDMEnoviaV5CAAErrors.CATNls
CSC/002/DSI .\CATPDMBase\IdentityCard\Objects\win_b64\mkcsc\CATPDMBase.cscdb|.\CATPDMBase
RTV/002/DSI .\win_b64\resources\msgcatalog\NlsTest\CATPDMUILog.CATNls|.\CATPDMBase\CNext\resources\msgcatalog\CATPDMUILog.CATNls
DAT/002/CUS .\win_b64\resources\msgcatalog\CATPDMUILog.CATNls|.\CATPDMBase\CNext\resources\msgcatalog\CATPDMUILog.CATNls
DAT/002/CUS .\win_b64\resources\msgcatalog\CATPDMNomadSessionToolbar.CATRsc|.\CATPDMBase\CNext\resources\msgcatalog\CATPDMNomadSessionToolbar.CATRsc
RTV/002/DSI .\win_b64\code\productIC\CATPDMBaseIC.required|.\CATPDMBase
DAT/002/CUS .\win_b64\resources\msgcatalog\CATInteropReporterDialogBox.CATNls|.\CATPDMBase\CNext\resources\msgcatalog\CATInteropReporterDialogBox.CATNls
RTV/002/DSI .\win_b64\resources\msgcatalog\NlsTest\CATInteropReporterDialogBox.CATNls|.\CATPDMBase\CNext\resources\msgcatalog\CATInteropReporterDialogBox.CATNls
RTV/002/DSI .\win_b64\resources\msgcatalog\NlsTest\CATPDMNomadErrors.CATNls|.\CATPDMBase\CNext\resources\msgcatalog\CATPDMNomadErrors.CATNls
DAT/002/CUS .\win_b64\resources\msgcatalog\CATPDMEnoviaV5CAAErrors.CATNls|.\CATPDMBase\CNext\resources\msgcatalog\CATPDMEnoviaV5CAAErrors.CATNls
RTV/002/DSI .\win_b64\resources\msgcatalog\DbcsTest\CATPDMNomadErrors.CATNls|.\CATPDMBase\CNext\resources\msgcatalog\CATPDMNomadErrors.CATNls
DAT/002/CUS .\win_b64\resources\msgcatalog\CATPDMErrors.CATNls|.\CATPDMBase\CNext\resources\msgcatalog\CATPDMErrors.CATNls
DAT/002/CUS .\win_b64\resources\msgcatalog\CATPDMFederatorLoadDlg.CATRsc|.\CATPDMBase\CNext\resources\msgcatalog\CATPDMFederatorLoadDlg.CATRsc
RTV/002/DSI .\win_b64\resources\msgcatalog\NlsTest\CATPDMNomadSessionToolbar.CATNls|.\CATPDMBase\CNext\resources\msgcatalog\CATPDMNomadSessionToolbar.CATNls
BTV/002/CUS .\win_b64\code\productIC\CATPDMBaseIC.xml|.\CATPDMBase
RTV/002/DSI .\win_b64\resources\msgcatalog\DbcsTest\CATPDMErrors.CATNls|.\CATPDMBase\CNext\resources\msgcatalog\CATPDMErrors.CATNls
DAT/002/CUS .\win_b64\resources\msgcatalog\CATPDMNomadSessionToolbar.CATNls|.\CATPDMBase\CNext\resources\msgcatalog\CATPDMNomadSessionToolbar.CATNls
RTV/002/DSI .\win_b64\resources\msgcatalog\NlsTest\CATPDMErrors.CATNls|.\CATPDMBase\CNext\resources\msgcatalog\CATPDMErrors.CATNls
DAT/002/CUS .\win_b64\resources\graphic\CATPDMLogOld.feat|.\CATPDMBase\CNext\resources\graphic\CATPDMLogOld.feat
DAT/002/CUS .\win_b64\resources\msgcatalog\CATPDMBase.CATNls|.\CATPDMBase\CNext\resources\msgcatalog\CATPDMBase.CATNls
DAT/002/CUS .\win_b64\resources\msgcatalog\CATPDMNomadErrors.CATNls|.\CATPDMBase\CNext\resources\msgcatalog\CATPDMNomadErrors.CATNls
RTV/002/DSI .\win_b64\resources\msgcatalog\DbcsTest\CATPDMBase.CATNls|.\CATPDMBase\CNext\resources\msgcatalog\CATPDMBase.CATNls
RTV/002/DSI .\win_b64\resources\msgcatalog\DbcsTest\CATInteropReporterDialogBox.CATNls|.\CATPDMBase\CNext\resources\msgcatalog\CATInteropReporterDialogBox.CATNls
DAT/002/CUS .\win_b64\resources\msgcatalog\CATPPRHubLocator.CATNls|.\CATPDMBase\CNext\resources\msgcatalog\CATPPRHubLocator.CATNls
RTV/002/DSI .\win_b64\resources\msgcatalog\NlsTest\CATReconcileCharacStatus.CATNls|.\CATPDMBase\CNext\resources\msgcatalog\CATReconcileCharacStatus.CATNls
DAT/002/CUS .\win_b64\resources\msgcatalog\CATRecServiceMsg.CATNls|.\CATPDMBase\CNext\resources\msgcatalog\CATRecServiceMsg.CATNls
DAT/002/CUS .\win_b64\code\dictionary\CATPDMBase.iid|.\CATPDMBase\CNext\code\dictionary\CATPDMBase.iid
RTV/002/DSI .\win_b64\resources\msgcatalog\NlsTest\CATRecServiceMsg.CATNls|.\CATPDMBase\CNext\resources\msgcatalog\CATRecServiceMsg.CATNls
DAT/002/CUS .\win_b64\resources\graphic\PDMData.feat|.\CATPDMBase\CNext\resources\graphic\PDMData.feat
RTV/002/DSI .\win_b64\resources\msgcatalog\DbcsTest\CATPDMEnoviaV5CAAErrors.CATNls|.\CATPDMBase\CNext\resources\msgcatalog\CATPDMEnoviaV5CAAErrors.CATNls
RTV/002/DSI .\win_b64\resources\msgcatalog\DbcsTest\CATPDMNomadSessionToolbar.CATNls|.\CATPDMBase\CNext\resources\msgcatalog\CATPDMNomadSessionToolbar.CATNls
RTV/002/DSI .\win_b64\resources\msgcatalog\DbcsTest\CATPPRHubLocator.CATNls|.\CATPDMBase\CNext\resources\msgcatalog\CATPPRHubLocator.CATNls
DAT/002/CUS .\win_b64\code\dictionary\AttributesMapping.dtd|.\CATPDMBase\CNext\code\dictionary\AttributesMapping.dtd
DAT/002/CUS .\win_b64\reffiles\Interop\ApplicativeAttributes\ApplicativeAttributes.dtd|.\CATPDMBase\CNext\reffiles\Interop\ApplicativeAttributes\ApplicativeAttributes.dtd
BTV/002/CUS .\win_b64\code\productIC\CATPDMBaseIC.script|.\CATPDMBase
RTV/002/DSI .\win_b64\resources\msgcatalog\DbcsTest\CATPDMFederatorLoadDlg.CATNls|.\CATPDMBase\CNext\resources\msgcatalog\CATPDMFederatorLoadDlg.CATNls
DAT/002/CUS .\win_b64\resources\msgcatalog\CATPDMUILog.CATRsc|.\CATPDMBase\CNext\resources\msgcatalog\CATPDMUILog.CATRsc
RTV/002/DSI .\win_b64\resources\msgcatalog\DbcsTest\CATPDMUILog.CATNls|.\CATPDMBase\CNext\resources\msgcatalog\CATPDMUILog.CATNls
DAT/002/CUS .\win_b64\resources\msgcatalog\CATReconcileCharacStatus.CATNls|.\CATPDMBase\CNext\resources\msgcatalog\CATReconcileCharacStatus.CATNls
RTV/002/DSI .\win_b64\resources\msgcatalog\DbcsTest\CATReconcileCharacStatus.CATNls|.\CATPDMBase\CNext\resources\msgcatalog\CATReconcileCharacStatus.CATNls
@type='codeFramework'
@built='true'
