!<mkRTViewData> v1.0.0
CSC/000/DSI .\FittingInterfaces\FittingProIDL.m\Objects\win_b64\mkcsc\FittingProIDL.cscdb|.\FittingInterfaces\FittingProIDL.m
@type='NONE'
@clr='false'
@kind='INCLUDED'
@deliverable='true'
@built='true'
