!<mkRTViewData> v1.0.0
CSC/000/DSI .\CATArrangementUI\CATArrXDocCnxCmd.m\Objects\win_b64\mkcsc\CATArrXDocCnxCmd.cscdb|.\CATArrangementUI\CATArrXDocCnxCmd.m
BTV/000/CUS .\win_b64\code\lib\CATArrXDocCnxCmd.lib|.\CATArrangementUI\CATArrXDocCnxCmd.m
INT/000/CUS .\win_b64\code\bin\CATArrXDocCnxCmd.pdb|.\CATArrangementUI\CATArrXDocCnxCmd.m
RTV/001/CUS .\win_b64\code\bin\CATArrXDocCnxCmd.dll|.\CATArrangementUI\CATArrXDocCnxCmd.m
INT/000/CUS .\win_b64\code\lib\CATArrXDocCnxCmd.exp|.\CATArrangementUI\CATArrXDocCnxCmd.m
@type='SHARED_LIBRARY'
@clr='false'
@kind='NATIVE'
@deliverable='true'
@built='true'
