!<mkRTViewData> v1.0.0
INT/000/CUS .\win_b64\code\lib\DNBDeviceActivityBase.exp|.\DNBDeviceActivityBase\DNBDeviceActivityBase.m
CSC/000/DSI .\DNBDeviceActivityBase\DNBDeviceActivityBase.m\Objects\win_b64\mkcsc\DNBDeviceActivityBase.cscdb|.\DNBDeviceActivityBase\DNBDeviceActivityBase.m
INT/000/CUS .\win_b64\code\bin\DNBDeviceActivityBase.pdb|.\DNBDeviceActivityBase\DNBDeviceActivityBase.m
BTV/000/CUS .\win_b64\code\lib\DNBDeviceActivityBase.lib|.\DNBDeviceActivityBase\DNBDeviceActivityBase.m
RTV/001/CUS .\win_b64\code\bin\DNBDeviceActivityBase.dll|.\DNBDeviceActivityBase\DNBDeviceActivityBase.m
@type='SHARED_LIBRARY'
@clr='false'
@kind='NATIVE'
@deliverable='true'
@built='true'
