!<mkRTViewData> v1.0.0
RTV/001/CUS .\win_b64\code\bin\CATStructureFeaturesInterfaces.dll|.\CATStructureFeaturesInterfaces\CATStructureFeaturesInterfaces.m
INT/000/CUS .\win_b64\code\bin\CATStructureFeaturesInterfaces.pdb|.\CATStructureFeaturesInterfaces\CATStructureFeaturesInterfaces.m
INT/000/CUS .\win_b64\code\lib\CATStructureFeaturesInterfaces.exp|.\CATStructureFeaturesInterfaces\CATStructureFeaturesInterfaces.m
CSC/000/DSI .\CATStructureFeaturesInterfaces\CATStructureFeaturesInterfaces.m\Objects\win_b64\mkcsc\CATStructureFeaturesInterfaces.cscdb|.\CATStructureFeaturesInterfaces\CATStructureFeaturesInterfaces.m
BTV/000/CUS .\win_b64\code\lib\CATStructureFeaturesInterfaces.lib|.\CATStructureFeaturesInterfaces\CATStructureFeaturesInterfaces.m
@type='SHARED_LIBRARY'
@clr='false'
@kind='NATIVE'
@deliverable='true'
@built='true'
