!<mkRTViewData> v1.0.0
BTV/002/CUS .\win_b64\code\productIC\CATClassACoreInterfacesIC.xml|.\CATClassACoreInterfaces
DAT/002/CUS .\win_b64\code\dictionary\CATClassACoreInterfaces.iid|.\CATClassACoreInterfaces\CNext\code\dictionary\CATClassACoreInterfaces.iid
BTV/002/CUS .\win_b64\code\productIC\CATClassACoreInterfacesIC.script|.\CATClassACoreInterfaces
CSC/002/DSI .\CATClassACoreInterfaces\IdentityCard\Objects\win_b64\mkcsc\CATClassACoreInterfaces.cscdb|.\CATClassACoreInterfaces
RTV/002/DSI .\win_b64\code\productIC\CATClassACoreInterfacesIC.required|.\CATClassACoreInterfaces
@type='codeFramework'
@built='true'
