!<mkRTViewData> v1.0.0
RTV/000/CUS .\win_b64\code\dictionary\CATMecModLiveUseItf.iid|.\CATMecModLiveUseItf\CATMecModLiveUseItfRSC.m\src\resource\code\dictionary\CATMecModLiveUseItf.iid
@type='RUNTIME_DATA'
@clr='false'
@kind='DATA'
@deliverable='true'
@built='true'
