!<mkRTViewData> v1.0.0
CSC/000/DSI .\DNBIgpSetupInterfaces\DNBIgpSetupPubIDL.m\Objects\win_b64\mkcsc\DNBIgpSetupPubIDL.cscdb|.\DNBIgpSetupInterfaces\DNBIgpSetupPubIDL.m
@type='NONE'
@clr='false'
@kind='INCLUDED'
@deliverable='true'
@built='true'
