!<mkRTViewData> v1.0.0
RTV/001/CUS .\win_b64\code\bin\CATPPRHubWtpItf.dll|.\CATPPRHubWtpInterfaces\CATPPRHubWtpItf.m
CSC/000/DSI .\CATPPRHubWtpInterfaces\CATPPRHubWtpItf.m\Objects\win_b64\mkcsc\CATPPRHubWtpItf.cscdb|.\CATPPRHubWtpInterfaces\CATPPRHubWtpItf.m
BTV/000/CUS .\win_b64\code\lib\CATPPRHubWtpItf.lib|.\CATPPRHubWtpInterfaces\CATPPRHubWtpItf.m
INT/000/CUS .\win_b64\code\bin\CATPPRHubWtpItf.pdb|.\CATPPRHubWtpInterfaces\CATPPRHubWtpItf.m
INT/000/CUS .\win_b64\code\lib\CATPPRHubWtpItf.exp|.\CATPPRHubWtpInterfaces\CATPPRHubWtpItf.m
@type='SHARED_LIBRARY'
@clr='false'
@kind='NATIVE'
@deliverable='true'
@built='true'
