!<mkRTViewData> v1.0.0
DAT/002/CUS .\win_b64\resources\jscript\Table.js|.\CATJDialog\CNext\resources\jscript\Table.js
DAT/002/CUS .\win_b64\resources\graphic\Theme_ENOVIA\HomeletSelectorDropDown.gif|.\CATJDialog\CNext\resources\graphic\Theme_ENOVIA\HomeletSelectorDropDown.gif
DAT/002/CUS .\win_b64\resources\graphic\Theme_ENOVIA\PortletMin.gif|.\CATJDialog\CNext\resources\graphic\Theme_ENOVIA\PortletMin.gif
DAT/002/CUS .\win_b64\resources\graphic\Theme_LCANav\PopupExpand.gif|.\CATJDialog\CNext\resources\graphic\Theme_LCANav\PopupExpand.gif
DAT/002/CUS .\win_b64\resources\graphic\Theme_LCANav\PortletKillAll.gif|.\CATJDialog\CNext\resources\graphic\Theme_LCANav\PortletKillAll.gif
DAT/002/CUS .\win_b64\resources\graphic\Theme_Dialog\PortletNext.gif|.\CATJDialog\CNext\resources\graphic\Theme_Dialog\PortletNext.gif
DAT/002/CUS .\win_b64\resources\graphic\Theme_HomePage\Tree_LP.gif|.\CATJDialog\CNext\resources\graphic\Theme_HomePage\Tree_LP.gif
RTV/002/DSI .\win_b64\resources\msgcatalog\NlsTest\MessageCatalogEditor.CATNls|.\CATJDialog\CNext.internal\resources\msgcatalog\MessageCatalogEditor.CATNls
DAT/002/CUS .\win_b64\resources\graphic\CATJDialogINFO.jpg|.\CATJDialog\CNext\resources\graphic\CATJDialogINFO.jpg
DAT/002/CUS .\win_b64\resources\graphic\Theme_Dialog\ScrollV.jpg|.\CATJDialog\CNext\resources\graphic\Theme_Dialog\ScrollV.jpg
DAT/002/CUS .\win_b64\resources\graphic\Theme_ENOVIA\ButtonD.jpg|.\CATJDialog\CNext\resources\graphic\Theme_ENOVIA\ButtonD.jpg
DAT/002/CUS .\win_b64\resources\graphic\CATThemeEditor_Skin.gif|.\CATJDialog\CNext\resources\graphic\CATThemeEditor_Skin.gif
DAT/002/CUS .\win_b64\resources\graphic\Theme_LCANav\Tree_LP.gif|.\CATJDialog\CNext\resources\graphic\Theme_LCANav\Tree_LP.gif
DAT/002/CUS .\win_b64\resources\graphic\Theme_Dialog\PortletSelectorDropDown.gif|.\CATJDialog\CNext\resources\graphic\Theme_Dialog\PortletSelectorDropDown.gif
DAT/002/CUS .\win_b64\resources\graphic\Theme_Dialog\SmallToolbar.jpg|.\CATJDialog\CNext\resources\graphic\Theme_Dialog\SmallToolbar.jpg
DAT/002/CUS .\win_b64\resources\css\JdgTableThumbnail.css|.\CATJDialog\CNext\resources\css\JdgTableThumbnail.css
DAT/002/CUS .\win_b64\resources\graphic\CAT2DViewer_ENOVWebGraphPropCmd.jpg|.\CATJDialog\CNext\resources\graphic\CAT2DViewer_ENOVWebGraphPropCmd.jpg
RTV/002/DSI .\win_b64\resources\msgcatalog\NlsTest\TabPage.CATNls|.\CATJDialog\CNext\resources\msgcatalog\TabPage.CATNls
DAT/002/CUS .\win_b64\resources\graphic\Theme_ENOVIA\CheckDisable.gif|.\CATJDialog\CNext\resources\graphic\Theme_ENOVIA\CheckDisable.gif
DAT/002/CUS .\win_b64\resources\graphic\Theme_ENOVIA\HomeletEdit.gif|.\CATJDialog\CNext\resources\graphic\Theme_ENOVIA\HomeletEdit.gif
DAT/002/CUS .\win_b64\resources\graphic\Check.gif|.\CATJDialog\CNext\resources\graphic\Check.gif
DAT/002/CUS .\win_b64\resources\widget\Wizard.XMLWidget|.\CATJDialog\CNext\resources\widget\Wizard.XMLWidget
RTV/002/DSI .\win_b64\resources\msgcatalog\NlsTest\LiveLabel.CATNls|.\CATJDialog\CNext\resources\msgcatalog\LiveLabel.CATNls
DAT/002/CUS .\win_b64\resources\graphic\Theme_Dialog\TabHighlight.jpg|.\CATJDialog\CNext\resources\graphic\Theme_Dialog\TabHighlight.jpg
DAT/002/CUS .\win_b64\resources\graphic\Theme_ENOVIA\TabNext.jpg|.\CATJDialog\CNext\resources\graphic\Theme_ENOVIA\TabNext.jpg
DAT/002/CUS .\win_b64\resources\graphic\Theme_LCANav\Tree_TW.gif|.\CATJDialog\CNext\resources\graphic\Theme_LCANav\Tree_TW.gif
DAT/002/CUS .\win_b64\resources\graphic\ShadowRightTop.jpg|.\CATJDialog\CNext\resources\graphic\ShadowRightTop.jpg
DAT/002/CUS .\win_b64\resources\graphic\Theme_Dialog\Tree_LW.gif|.\CATJDialog\CNext\resources\graphic\Theme_Dialog\Tree_LW.gif
DAT/002/CUS .\win_b64\resources\graphic\Theme_HomePage\ScrollVerticalFull.jpg|.\CATJDialog\CNext\resources\graphic\Theme_HomePage\ScrollVerticalFull.jpg
DAT/002/CUS .\win_b64\resources\graphic\Theme_Dialog\ComboArrowD.gif|.\CATJDialog\CNext\resources\graphic\Theme_Dialog\ComboArrowD.gif
RTV/002/DSI .\win_b64\resources\msgcatalog\DbcsTest\JDialogMessages.CATNls|.\CATJDialog\CNext\resources\msgcatalog\JDialogMessages.CATNls
RTV/002/DSI .\win_b64\resources\msgcatalog\DbcsTest\3DViewer.CATNls|.\CATJDialog\CNext\resources\msgcatalog\3DViewer.CATNls
RTV/002/DSI .\win_b64\resources\msgcatalog\DbcsTest\2DViewer.CATNls|.\CATJDialog\CNext\resources\msgcatalog\2DViewer.CATNls
DAT/002/CUS .\win_b64\resources\graphic\CAT3DViewer_ENOVWebMeasureItemCmd.jpg|.\CATJDialog\CNext\resources\graphic\CAT3DViewer_ENOVWebMeasureItemCmd.jpg
DAT/002/CUS .\win_b64\resources\graphic\Theme_HomePage\ComboArrowH.gif|.\CATJDialog\CNext\resources\graphic\Theme_HomePage\ComboArrowH.gif
DAT/002/CUS .\win_b64\resources\graphic\WebPartIcon_PubSub.gif|.\CATJDialog\CNext\resources\graphic\WebPartIcon_PubSub.gif
DAT/002/CUS .\win_b64\resources\graphic\Theme_ENOVIA\ComboArrow.gif|.\CATJDialog\CNext\resources\graphic\Theme_ENOVIA\ComboArrow.gif
RTV/002/DSI .\win_b64\resources\msgcatalog\NlsTest\TextField.CATNls|.\CATJDialog\CNext\resources\msgcatalog\TextField.CATNls
DAT/002/CUS .\win_b64\resources\graphic\Theme_ENOVIA\ComboArrowH.gif|.\CATJDialog\CNext\resources\graphic\Theme_ENOVIA\ComboArrowH.gif
DAT/002/CUS .\win_b64\resources\graphic\Theme_ENOVIA\PortletNext.gif|.\CATJDialog\CNext\resources\graphic\Theme_ENOVIA\PortletNext.gif
DAT/002/CUS .\win_b64\resources\graphic\Theme_HomePage\Tree_TP.gif|.\CATJDialog\CNext\resources\graphic\Theme_HomePage\Tree_TP.gif
DAT/002/CUS .\win_b64\resources\graphic\Theme_LCANav\HomeletTitleBar.jpg|.\CATJDialog\CNext\resources\graphic\Theme_LCANav\HomeletTitleBar.jpg
DAT/002/CUS .\win_b64\resources\graphic\icons\small\I_CMD_JDGDel.gif|.\CATJDialog\CNext\resources\graphic\icons\small\I_CMD_JDGDel.gif
DAT/002/CUS .\win_b64\resources\msgcatalog\WebPartFrame.CATNls|.\CATJDialog\CNext\resources\msgcatalog\WebPartFrame.CATNls
RTV/002/DSI .\win_b64\resources\msgcatalog\DbcsTest\Label.CATNls|.\CATJDialog\CNext\resources\msgcatalog\Label.CATNls
RTV/002/DSI .\win_b64\resources\msgcatalog\NlsTest\UploadBox.CATNls|.\CATJDialog\CNext\resources\msgcatalog\UploadBox.CATNls
DAT/002/CUS .\win_b64\resources\graphic\Theme_ENOVIA\MessageBoxMore.gif|.\CATJDialog\CNext\resources\graphic\Theme_ENOVIA\MessageBoxMore.gif
DAT/002/CUS .\win_b64\resources\graphic\Theme_LCANav\Select.gif|.\CATJDialog\CNext\resources\graphic\Theme_LCANav\Select.gif
DAT/002/CUS .\win_b64\resources\stylesheets\HomePage.XMLTheme|.\CATJDialog\CNext\resources\stylesheets\HomePage.XMLTheme
DAT/002/CUS .\win_b64\resources\graphic\CAT3DViewer_ENOVWebGraphPropCmd.jpg|.\CATJDialog\CNext\resources\graphic\CAT3DViewer_ENOVWebGraphPropCmd.jpg
DAT/002/CUS .\win_b64\resources\graphic\CheckBoxUncheckEnable.gif|.\CATJDialog\CNext\resources\graphic\CheckBoxUncheckEnable.gif
DAT/002/CUS .\win_b64\resources\dialog\UploadBox.XMLDlg|.\CATJDialog\CNext\resources\dialog\UploadBox.XMLDlg
DAT/002/CUS .\win_b64\resources\graphic\Theme_ENOVIA\PortletKill.gif|.\CATJDialog\CNext\resources\graphic\Theme_ENOVIA\PortletKill.gif
DAT/002/CUS .\win_b64\resources\graphic\Theme_LCANav\TableNext.gif|.\CATJDialog\CNext\resources\graphic\Theme_LCANav\TableNext.gif
RTV/002/DSI .\win_b64\resources\msgcatalog\NlsTest\LogoutButton.CATNls|.\CATJDialog\CNext\resources\msgcatalog\LogoutButton.CATNls
DAT/002/CUS .\win_b64\resources\graphic\Theme_LCANav\ComboArrow.gif|.\CATJDialog\CNext\resources\graphic\Theme_LCANav\ComboArrow.gif
DAT/002/CUS .\win_b64\resources\graphic\CATThemeEditor_Color.gif|.\CATJDialog\CNext\resources\graphic\CATThemeEditor_Color.gif
DAT/002/CUS .\win_b64\resources\graphic\DefaultToolbarIcon.jpg|.\CATJDialog\CNext\resources\graphic\DefaultToolbarIcon.jpg
DAT/002/CUS .\win_b64\resources\graphic\Theme_HomePage\ComboArrowD.gif|.\CATJDialog\CNext\resources\graphic\Theme_HomePage\ComboArrowD.gif
DAT/002/CUS .\win_b64\resources\graphic\Theme_LCANav\Tree_TP.gif|.\CATJDialog\CNext\resources\graphic\Theme_LCANav\Tree_TP.gif
DAT/002/CUS .\win_b64\resources\graphic\Theme_Dialog\HomeletSelectorDropDown.gif|.\CATJDialog\CNext\resources\graphic\Theme_Dialog\HomeletSelectorDropDown.gif
RTV/002/DSI .\win_b64\resources\msgcatalog\DbcsTest\Toolbar.CATNls|.\CATJDialog\CNext\resources\msgcatalog\Toolbar.CATNls
RTV/002/DSI .\win_b64\code\productIC\CATJDialogIC.required|.\CATJDialog
DAT/002/CUS .\win_b64\resources\graphic\JdgSearchLoading.gif|.\CATJDialog\CNext\resources\graphic\JdgSearchLoading.gif
DAT/002/CUS .\win_b64\resources\graphic\Theme_Dialog\Toolbar_Background.jpg|.\CATJDialog\CNext\resources\graphic\Theme_Dialog\Toolbar_Background.jpg
DAT/002/CUS .\win_b64\resources\graphic\Theme_ENOVIA\PortletSelectorPreFocus.gif|.\CATJDialog\CNext\resources\graphic\Theme_ENOVIA\PortletSelectorPreFocus.gif
DAT/002/CUS .\win_b64\resources\graphic\Theme_Dialog\Tree_TW.gif|.\CATJDialog\CNext\resources\graphic\Theme_Dialog\Tree_TW.gif
RTV/002/DSI .\win_b64\resources\msgcatalog\DbcsTest\Button.CATNls|.\CATJDialog\CNext\resources\msgcatalog\Button.CATNls
DAT/002/CUS .\win_b64\resources\graphic\Arrows.bmp|.\CATJDialog\CNext\resources\graphic\Arrows.bmp
DAT/002/CUS .\win_b64\resources\dialog\MessagesHistory.XMLDlg|.\CATJDialog\CNext\resources\dialog\MessagesHistory.XMLDlg
DAT/002/CUS .\win_b64\resources\graphic\Theme_HomePage\TableToolbar.jpg|.\CATJDialog\CNext\resources\graphic\Theme_HomePage\TableToolbar.jpg
DAT/002/CUS .\win_b64\resources\graphic\CheckDisable.gif|.\CATJDialog\CNext\resources\graphic\CheckDisable.gif
DAT/002/CUS .\win_b64\resources\server\RecordDriverManager.XMLServer|.\CATJDialog\CNext\resources\server\RecordDriverManager.XMLServer
RTV/002/DSI .\win_b64\resources\msgcatalog\NlsTest\Home.CATNls|.\CATJDialog\CNext\resources\msgcatalog\Home.CATNls
DAT/002/CUS .\win_b64\resources\graphic\Theme_ENOVIA\Tab.jpg|.\CATJDialog\CNext\resources\graphic\Theme_ENOVIA\Tab.jpg
DAT/002/CUS .\win_b64\resources\graphic\Theme_Dialog\RoundButtonH.jpg|.\CATJDialog\CNext\resources\graphic\Theme_Dialog\RoundButtonH.jpg
DAT/002/CUS .\win_b64\resources\msgcatalog\JDialogMessages.CATNls|.\CATJDialog\CNext\resources\msgcatalog\JDialogMessages.CATNls
RTV/002/DSI .\win_b64\resources\msgcatalog\DbcsTest\MessagesHistory.CATNls|.\CATJDialog\CNext\resources\msgcatalog\MessagesHistory.CATNls
DAT/002/CUS .\win_b64\resources\graphic\Theme_LCANav\TabBorder.gif|.\CATJDialog\CNext\resources\graphic\Theme_LCANav\TabBorder.gif
CSC/002/DSI .\CATJDialog\IdentityCard\Objects\win_b64\mkcsc\CATJDialog.cscdb|.\CATJDialog
DAT/002/CUS .\win_b64\resources\graphic\Theme_HomePage\ScrollHorizontalEmpty.jpg|.\CATJDialog\CNext\resources\graphic\Theme_HomePage\ScrollHorizontalEmpty.jpg
RTV/002/DSI .\win_b64\resources\msgcatalog\DbcsTest\CATCommandDesc.CATNls|.\CATJDialog\CNext\resources\msgcatalog\CATCommandDesc.CATNls
DAT/002/CUS .\win_b64\resources\graphic\Theme_ENOVIA\UncheckDisable.gif|.\CATJDialog\CNext\resources\graphic\Theme_ENOVIA\UncheckDisable.gif
RTV/002/DSI .\win_b64\resources\msgcatalog\DbcsTest\SettingRepository.CATNls|.\CATJDialog\CNext\resources\msgcatalog\SettingRepository.CATNls
RTV/002/DSI .\win_b64\resources\msgcatalog\DbcsTest\CATCmdContainerTooltips.CATNls|.\CATJDialog\CNext\resources\msgcatalog\CATCmdContainerTooltips.CATNls
DAT/002/CUS .\win_b64\resources\graphic\Shortcut.gif|.\CATJDialog\CNext\resources\graphic\Shortcut.gif
DAT/002/CUS .\win_b64\resources\msgcatalog\Link.CATNls|.\CATJDialog\CNext\resources\msgcatalog\Link.CATNls
DAT/002/CUS .\win_b64\resources\graphic\CheckBoxUncheckDisable.gif|.\CATJDialog\CNext\resources\graphic\CheckBoxUncheckDisable.gif
RTV/002/DSI .\win_b64\resources\msgcatalog\NlsTest\Tree.CATNls|.\CATJDialog\CNext\resources\msgcatalog\Tree.CATNls
DAT/002/CUS .\win_b64\resources\graphic\CAT3DViewer_Rotate.jpg|.\CATJDialog\CNext\resources\graphic\CAT3DViewer_Rotate.jpg
DAT/002/CUS .\win_b64\resources\graphic\WebPartBannerLeft_PubSub.gif|.\CATJDialog\CNext\resources\graphic\WebPartBannerLeft_PubSub.gif
DAT/002/CUS .\win_b64\resources\widget\Label.XMLWidget|.\CATJDialog\CNext\resources\widget\Label.XMLWidget
DAT/002/CUS .\win_b64\resources\graphic\Theme_HomePage\ShadingRight.jpg|.\CATJDialog\CNext\resources\graphic\Theme_HomePage\ShadingRight.jpg
DAT/002/CUS .\win_b64\resources\graphic\jdgfilter_off.gif|.\CATJDialog\CNext\resources\graphic\jdgfilter_off.gif
DAT/002/CUS .\win_b64\resources\widget\Browser.XMLWidget|.\CATJDialog\CNext\resources\widget\Browser.XMLWidget
DAT/002/CUS .\win_b64\resources\graphic\I_Msg_Info_Big.gif|.\CATJDialog\CNext\resources\graphic\I_Msg_Info_Big.gif
DAT/002/CUS .\win_b64\resources\graphic\Theme_HomePage\TableNext.gif|.\CATJDialog\CNext\resources\graphic\Theme_HomePage\TableNext.gif
DAT/002/CUS .\win_b64\resources\widget\UserDialog.XMLWidget|.\CATJDialog\CNext\resources\widget\UserDialog.XMLWidget
RTV/002/DSI .\win_b64\resources\msgcatalog\NlsTest\Viewer.CATNls|.\CATJDialog\CNext\resources\msgcatalog\Viewer.CATNls
DAT/002/CUS .\win_b64\resources\server\CATAsyncCallback.XMLServer|.\CATJDialog\CNext\resources\server\CATAsyncCallback.XMLServer
RTV/002/DSI .\win_b64\resources\msgcatalog\NlsTest\Toolbar.CATNls|.\CATJDialog\CNext\resources\msgcatalog\Toolbar.CATNls
DAT/002/CUS .\win_b64\resources\graphic\Theme_LCANav\Tree_T.gif|.\CATJDialog\CNext\resources\graphic\Theme_LCANav\Tree_T.gif
RTV/002/DSI .\win_b64\resources\msgcatalog\DbcsTest\Browser.CATNls|.\CATJDialog\CNext\resources\msgcatalog\Browser.CATNls
RTV/002/DSI .\win_b64\resources\msgcatalog\DbcsTest\DateEditor.CATNls|.\CATJDialog\CNext\resources\msgcatalog\DateEditor.CATNls
DAT/002/CUS .\win_b64\resources\graphic\ENOVIAV5.jpg|.\CATJDialog\CNext\resources\graphic\ENOVIAV5.jpg
DAT/002/CUS .\win_b64\resources\graphic\Theme_Dialog\PopupExpand.gif|.\CATJDialog\CNext\resources\graphic\Theme_Dialog\PopupExpand.gif
DAT/002/CUS .\win_b64\resources\msgcatalog\CATCommandDesc.CATNls|.\CATJDialog\CNext\resources\msgcatalog\CATCommandDesc.CATNls
DAT/002/CUS .\win_b64\resources\widget\LongText.XMLWidget|.\CATJDialog\CNext\resources\widget\LongText.XMLWidget
IDA/002/DSI .\win_b64\resources\msgcatalog\MessageCatalogEditor.CATNls|.\CATJDialog\CNext.internal\resources\msgcatalog\MessageCatalogEditor.CATNls
RTV/002/DSI .\win_b64\resources\msgcatalog\DbcsTest\MessageCatalogSelector.CATNls|.\CATJDialog\CNext.internal\resources\msgcatalog\MessageCatalogSelector.CATNls
DAT/002/CUS .\win_b64\resources\graphic\Theme_Dialog\Tree_L.gif|.\CATJDialog\CNext\resources\graphic\Theme_Dialog\Tree_L.gif
DAT/002/CUS .\win_b64\resources\graphic\Theme_ENOVIA\BannerBg.jpg|.\CATJDialog\CNext\resources\graphic\Theme_ENOVIA\BannerBg.jpg
DAT/002/CUS .\win_b64\resources\graphic\Theme_HomePage\ScrollHorizontalFull.jpg|.\CATJDialog\CNext\resources\graphic\Theme_HomePage\ScrollHorizontalFull.jpg
DAT/002/CUS .\win_b64\resources\graphic\Theme_Dialog\PortletRestore.gif|.\CATJDialog\CNext\resources\graphic\Theme_Dialog\PortletRestore.gif
DAT/002/CUS .\win_b64\resources\graphic\Workbook_FolderSearch.gif|.\CATJDialog\CNext\resources\graphic\Workbook_FolderSearch.gif
RTV/002/DSI .\win_b64\resources\msgcatalog\NlsTest\CardContainer.CATNls|.\CATJDialog\CNext\resources\msgcatalog\CardContainer.CATNls
DAT/002/CUS .\win_b64\resources\graphic\Theme_ENOVIA\Uncheck.gif|.\CATJDialog\CNext\resources\graphic\Theme_ENOVIA\Uncheck.gif
RTV/002/DSI .\win_b64\resources\msgcatalog\DbcsTest\WebLink.CATNls|.\CATJDialog\CNext\resources\msgcatalog\WebLink.CATNls
DAT/002/CUS .\win_b64\resources\graphic\icons\small\I_CMD_JDGHelp.gif|.\CATJDialog\CNext\resources\graphic\icons\small\I_CMD_JDGHelp.gif
DAT/002/CUS .\win_b64\resources\graphic\Theme_Dialog\Toolbar_Button.JPG|.\CATJDialog\CNext\resources\graphic\Theme_Dialog\Toolbar_Button.JPG
DAT/002/CUS .\win_b64\resources\jscript\JdgTableThumbnail.js|.\CATJDialog\CNext\resources\jscript\JdgTableThumbnail.js
DAT/002/CUS .\win_b64\resources\graphic\CAT2DViewer_ENOVWebAnnotationCmd.jpg|.\CATJDialog\CNext\resources\graphic\CAT2DViewer_ENOVWebAnnotationCmd.jpg
DAT/002/CUS .\win_b64\resources\graphic\CAT3DViewer_ENOVWebDocListCmd.jpg|.\CATJDialog\CNext\resources\graphic\CAT3DViewer_ENOVWebDocListCmd.jpg
DAT/002/CUS .\win_b64\resources\graphic\SystemToolbar_Settings.gif|.\CATJDialog\CNext\resources\graphic\SystemToolbar_Settings.gif
DAT/002/CUS .\win_b64\resources\graphic\icons\normal\I_CMD_JDGLogoff.gif|.\CATJDialog\CNext\resources\graphic\icons\normal\I_CMD_JDGLogoff.gif
DAT/002/CUS .\win_b64\resources\graphic\Theme_LCANav\PortletSelectorPreFocus.gif|.\CATJDialog\CNext\resources\graphic\Theme_LCANav\PortletSelectorPreFocus.gif
DAT/002/CUS .\win_b64\resources\graphic\Workbook_FolderDS.gif|.\CATJDialog\CNext\resources\graphic\Workbook_FolderDS.gif
DAT/002/CUS .\win_b64\resources\servlet\upload2.XMLServlet|.\CATJDialog\CNext\resources\servlet\upload2.XMLServlet
DAT/002/CUS .\win_b64\resources\graphic\Folder.gif|.\CATJDialog\CNext\resources\graphic\Folder.gif
DAT/002/CUS .\win_b64\resources\graphic\Theme_HomePage\PortletSelectorPreFocus.gif|.\CATJDialog\CNext\resources\graphic\Theme_HomePage\PortletSelectorPreFocus.gif
RTV/002/DSI .\win_b64\resources\msgcatalog\NlsTest\Table.CATNls|.\CATJDialog\CNext\resources\msgcatalog\Table.CATNls
DAT/002/CUS .\win_b64\resources\graphic\CalendarOK.gif|.\CATJDialog\CNext\resources\graphic\CalendarOK.gif
DAT/002/CUS .\win_b64\resources\graphic\Next.gif|.\CATJDialog\CNext\resources\graphic\Next.gif
DAT/002/CUS .\win_b64\resources\jscript\WorkArea.js|.\CATJDialog\CNext\resources\jscript\WorkArea.js
DAT/002/CUS .\win_b64\resources\graphic\Theme_LCANav\PortletMin.gif|.\CATJDialog\CNext\resources\graphic\Theme_LCANav\PortletMin.gif
DAT/002/CUS .\win_b64\resources\graphic\Theme_Dialog\CATJDialogDown.gif|.\CATJDialog\CNext\resources\graphic\Theme_Dialog\CATJDialogDown.gif
DAT/002/CUS .\win_b64\resources\jscript\Menu.js|.\CATJDialog\CNext\resources\jscript\Menu.js
DAT/002/CUS .\win_b64\resources\servlet\tree.XMLServlet|.\CATJDialog\CNext\resources\servlet\tree.XMLServlet
DAT/002/CUS .\win_b64\resources\graphic\Theme_ENOVIA\SortedAsc.gif|.\CATJDialog\CNext\resources\graphic\Theme_ENOVIA\SortedAsc.gif
DAT/002/CUS .\win_b64\resources\graphic\Theme_HomePage\PortletRestore.gif|.\CATJDialog\CNext\resources\graphic\Theme_HomePage\PortletRestore.gif
DAT/002/CUS .\win_b64\resources\msgcatalog\TextField.CATNls|.\CATJDialog\CNext\resources\msgcatalog\TextField.CATNls
DAT/002/CUS .\win_b64\resources\graphic\Theme_Dialog\TableToolbarHighlight.jpg|.\CATJDialog\CNext\resources\graphic\Theme_Dialog\TableToolbarHighlight.jpg
DAT/002/CUS .\win_b64\resources\graphic\Toolbar_Button.gif|.\CATJDialog\CNext\resources\graphic\Toolbar_Button.gif
DAT/002/CUS .\win_b64\resources\graphic\Theme_HomePage\Tree_L.gif|.\CATJDialog\CNext\resources\graphic\Theme_HomePage\Tree_L.gif
DAT/002/CUS .\win_b64\resources\graphic\Theme_LCANav\ComboArrowD.gif|.\CATJDialog\CNext\resources\graphic\Theme_LCANav\ComboArrowD.gif
DAT/002/CUS .\win_b64\resources\server\CATSecurityManager.XMLServer|.\CATJDialog\CNext\resources\server\CATSecurityManager.XMLServer
DAT/002/CUS .\win_b64\resources\widget\LiveLabel.XMLWidget|.\CATJDialog\CNext\resources\widget\LiveLabel.XMLWidget
DAT/002/CUS .\win_b64\resources\graphic\CAT2DViewer_ENOVWebDocListCmd.jpg|.\CATJDialog\CNext\resources\graphic\CAT2DViewer_ENOVWebDocListCmd.jpg
DAT/002/CUS .\win_b64\resources\graphic\CAT3DViewer_ENOVWebAnnotationCmd.jpg|.\CATJDialog\CNext\resources\graphic\CAT3DViewer_ENOVWebAnnotationCmd.jpg
DAT/002/CUS .\win_b64\resources\graphic\CalendarKO.gif|.\CATJDialog\CNext\resources\graphic\CalendarKO.gif
DAT/002/CUS .\win_b64\resources\graphic\CheckBoxCheckDisable.gif|.\CATJDialog\CNext\resources\graphic\CheckBoxCheckDisable.gif
DAT/002/CUS .\win_b64\resources\graphic\Theme_HomePage\ScrollArrowBottom.jpg|.\CATJDialog\CNext\resources\graphic\Theme_HomePage\ScrollArrowBottom.jpg
DAT/002/CUS .\win_b64\resources\graphic\CAT2DViewer_ZoomArea.jpg|.\CATJDialog\CNext\resources\graphic\CAT2DViewer_ZoomArea.jpg
DAT/002/CUS .\win_b64\resources\graphic\Theme_HomePage\Tree_T.gif|.\CATJDialog\CNext\resources\graphic\Theme_HomePage\Tree_T.gif
DAT/002/CUS .\win_b64\resources\dialog\AskBox.XMLDlg|.\CATJDialog\CNext\resources\dialog\AskBox.XMLDlg
RTV/002/DSI .\win_b64\resources\msgcatalog\DbcsTest\CATMessageBox.CATNls|.\CATJDialog\CNext\resources\msgcatalog\CATMessageBox.CATNls
DAT/002/CUS .\win_b64\resources\graphic\Theme_HomePage\Tree_V.gif|.\CATJDialog\CNext\resources\graphic\Theme_HomePage\Tree_V.gif
DAT/002/CUS .\win_b64\resources\graphic\Theme_LCANav\TableBack.gif|.\CATJDialog\CNext\resources\graphic\Theme_LCANav\TableBack.gif
DAT/002/CUS .\win_b64\resources\graphic\Theme_Dialog\TableBack.gif|.\CATJDialog\CNext\resources\graphic\Theme_Dialog\TableBack.gif
DAT/002/CUS .\win_b64\resources\graphic\Theme_ENOVIA\ComboArrowD.gif|.\CATJDialog\CNext\resources\graphic\Theme_ENOVIA\ComboArrowD.gif
DAT/002/CUS .\win_b64\resources\graphic\CollapseRight.gif|.\CATJDialog\CNext\resources\graphic\CollapseRight.gif
DAT/002/CUS .\win_b64\resources\graphic\Theme_Dialog\SortedAsc.gif|.\CATJDialog\CNext\resources\graphic\Theme_Dialog\SortedAsc.gif
DAT/002/CUS .\win_b64\resources\graphic\Theme_HomePage\ShadingSelected.jpg|.\CATJDialog\CNext\resources\graphic\Theme_HomePage\ShadingSelected.jpg
DAT/002/CUS .\win_b64\resources\graphic\Theme_HomePage\TabBorder.jpg|.\CATJDialog\CNext\resources\graphic\Theme_HomePage\TabBorder.jpg
DAT/002/CUS .\win_b64\resources\graphic\Theme_Dialog\ColumnLine.jpg|.\CATJDialog\CNext\resources\graphic\Theme_Dialog\ColumnLine.jpg
DAT/002/CUS .\win_b64\resources\graphic\Theme_LCANav\Tree_LM.gif|.\CATJDialog\CNext\resources\graphic\Theme_LCANav\Tree_LM.gif
DAT/002/CUS .\win_b64\resources\graphic\Theme_ENOVIA\TabPrevious.jpg|.\CATJDialog\CNext\resources\graphic\Theme_ENOVIA\TabPrevious.jpg
DAT/002/CUS .\win_b64\resources\jscript\Calendar.js|.\CATJDialog\CNext\resources\jscript\Calendar.js
DAT/002/CUS .\win_b64\resources\graphic\CAT3DViewer_ENOVWebMeasurerCmd.jpg|.\CATJDialog\CNext\resources\graphic\CAT3DViewer_ENOVWebMeasurerCmd.jpg
DAT/002/CUS .\win_b64\resources\graphic\Theme_ENOVIA\Button.jpg|.\CATJDialog\CNext\resources\graphic\Theme_ENOVIA\Button.jpg
DAT/002/CUS .\win_b64\resources\graphic\CollapseLeftH.gif|.\CATJDialog\CNext\resources\graphic\CollapseLeftH.gif
DAT/002/CUS .\win_b64\resources\widget\UploadButton.XMLWidget|.\CATJDialog\CNext\resources\widget\UploadButton.XMLWidget
RTV/002/DSI .\win_b64\resources\msgcatalog\DbcsTest\Link.CATNls|.\CATJDialog\CNext\resources\msgcatalog\Link.CATNls
DAT/002/CUS .\win_b64\resources\graphic\Theme_Dialog\TableShiftRight.gif|.\CATJDialog\CNext\resources\graphic\Theme_Dialog\TableShiftRight.gif
DAT/002/CUS .\win_b64\resources\graphic\Theme_HomePage\ScrollVerticalEmpty.jpg|.\CATJDialog\CNext\resources\graphic\Theme_HomePage\ScrollVerticalEmpty.jpg
DAT/002/CUS .\win_b64\resources\server\CATTransientCtrl.XMLServer|.\CATJDialog\CNext\resources\server\CATTransientCtrl.XMLServer
DAT/002/CUS .\win_b64\resources\properties\CATCommandContainer_html.properties|.\CATJDialog\CNext\resources\properties\CATCommandContainer_html.properties
RTV/002/DSI .\win_b64\resources\msgcatalog\NlsTest\CATCmdContainerTooltips.CATNls|.\CATJDialog\CNext\resources\msgcatalog\CATCmdContainerTooltips.CATNls
DAT/002/CUS .\win_b64\resources\widget\3DViewer.XMLWidget|.\CATJDialog\CNext\resources\widget\3DViewer.XMLWidget
RTV/002/DSI .\win_b64\resources\msgcatalog\DbcsTest\DialogFrame.CATNls|.\CATJDialog\CNext\resources\msgcatalog\DialogFrame.CATNls
DAT/002/CUS .\win_b64\resources\graphic\Theme_ENOVIA\TableShiftLeft.gif|.\CATJDialog\CNext\resources\graphic\Theme_ENOVIA\TableShiftLeft.gif
DAT/002/CUS .\win_b64\resources\graphic\Theme_LCANav\TableShiftRight.gif|.\CATJDialog\CNext\resources\graphic\Theme_LCANav\TableShiftRight.gif
DAT/002/CUS .\win_b64\resources\graphic\Theme_LCANav\PortletSelectorDropDown.gif|.\CATJDialog\CNext\resources\graphic\Theme_LCANav\PortletSelectorDropDown.gif
DAT/002/CUS .\win_b64\resources\graphic\Theme_Dialog\WebPartFrame.jpg|.\CATJDialog\CNext\resources\graphic\Theme_Dialog\WebPartFrame.jpg
DAT/002/CUS .\win_b64\resources\graphic\Theme_HomePage\HomeletSelectorPreFocus.gif|.\CATJDialog\CNext\resources\graphic\Theme_HomePage\HomeletSelectorPreFocus.gif
DAT/002/CUS .\win_b64\resources\graphic\Theme_Dialog\Select.gif|.\CATJDialog\CNext\resources\graphic\Theme_Dialog\Select.gif
DAT/002/CUS .\win_b64\resources\graphic\Theme_ENOVIA\PortletMax.gif|.\CATJDialog\CNext\resources\graphic\Theme_ENOVIA\PortletMax.gif
DAT/002/CUS .\win_b64\resources\widget\Tree.XMLWidget|.\CATJDialog\CNext\resources\widget\Tree.XMLWidget
DAT/002/CUS .\win_b64\resources\graphic\CAT3DViewer_ZoomArea.jpg|.\CATJDialog\CNext\resources\graphic\CAT3DViewer_ZoomArea.jpg
DAT/002/CUS .\win_b64\resources\graphic\Theme_ENOVIA\Tree_LM.gif|.\CATJDialog\CNext\resources\graphic\Theme_ENOVIA\Tree_LM.gif
IDA/002/DSI .\win_b64\resources\dialog\MessageCatalogEditor.XMLDlg|.\CATJDialog\CNext.internal\resources\dialog\MessageCatalogEditor.XMLDlg
RTV/002/DSI .\win_b64\resources\msgcatalog\NlsTest\UploadButton.CATNls|.\CATJDialog\CNext\resources\msgcatalog\UploadButton.CATNls
DAT/002/CUS .\win_b64\resources\msgcatalog\LongText.CATNls|.\CATJDialog\CNext\resources\msgcatalog\LongText.CATNls
DAT/002/CUS .\win_b64\resources\graphic\Theme_HomePage\TabGrey.jpg|.\CATJDialog\CNext\resources\graphic\Theme_HomePage\TabGrey.jpg
RTV/002/DSI .\win_b64\resources\msgcatalog\NlsTest\Link.CATNls|.\CATJDialog\CNext\resources\msgcatalog\Link.CATNls
RTV/002/DSI .\win_b64\resources\msgcatalog\DbcsTest\Viewer.CATNls|.\CATJDialog\CNext\resources\msgcatalog\Viewer.CATNls
DAT/002/CUS .\win_b64\resources\graphic\Theme_Dialog\SortedDesc.gif|.\CATJDialog\CNext\resources\graphic\Theme_Dialog\SortedDesc.gif
DAT/002/CUS .\win_b64\resources\graphic\WorkbookShading.jpg|.\CATJDialog\CNext\resources\graphic\WorkbookShading.jpg
DAT/002/CUS .\win_b64\resources\graphic\Theme_HomePage\ColumnLine.jpg|.\CATJDialog\CNext\resources\graphic\Theme_HomePage\ColumnLine.jpg
DAT/002/CUS .\win_b64\resources\graphic\I_Msg_Info.gif|.\CATJDialog\CNext\resources\graphic\I_Msg_Info.gif
RTV/002/DSI .\win_b64\resources\msgcatalog\NlsTest\JDialogPrefs.CATNls|.\CATJDialog\CNext\resources\msgcatalog\JDialogPrefs.CATNls
DAT/002/CUS .\win_b64\resources\graphic\EditCellCorner.gif|.\CATJDialog\CNext\resources\graphic\EditCellCorner.gif
DAT/002/CUS .\win_b64\resources\graphic\CheckBoxCheckEnable.gif|.\CATJDialog\CNext\resources\graphic\CheckBoxCheckEnable.gif
DAT/002/CUS .\win_b64\resources\graphic\Theme_Dialog\TabNextDisable.jpg|.\CATJDialog\CNext\resources\graphic\Theme_Dialog\TabNextDisable.jpg
DAT/002/CUS .\win_b64\resources\graphic\Theme_HomePage\PortletKillAll.gif|.\CATJDialog\CNext\resources\graphic\Theme_HomePage\PortletKillAll.gif
DAT/002/CUS .\win_b64\resources\graphic\Theme_LCANav\Tree_TM.gif|.\CATJDialog\CNext\resources\graphic\Theme_LCANav\Tree_TM.gif
DAT/002/CUS .\win_b64\resources\widget\2DViewer.XMLWidget|.\CATJDialog\CNext\resources\widget\2DViewer.XMLWidget
DAT/002/CUS .\win_b64\resources\msgcatalog\CardContainer.CATNls|.\CATJDialog\CNext\resources\msgcatalog\CardContainer.CATNls
DAT/002/CUS .\win_b64\resources\msgcatalog\Toolbar.CATNls|.\CATJDialog\CNext\resources\msgcatalog\Toolbar.CATNls
RTV/002/DSI .\win_b64\resources\msgcatalog\NlsTest\DialogFrame.CATNls|.\CATJDialog\CNext\resources\msgcatalog\DialogFrame.CATNls
DAT/002/CUS .\win_b64\resources\graphic\WebPartIcon_News.gif|.\CATJDialog\CNext\resources\graphic\WebPartIcon_News.gif
DAT/002/CUS .\win_b64\resources\graphic\Theme_HomePage\PopupExpand.gif|.\CATJDialog\CNext\resources\graphic\Theme_HomePage\PopupExpand.gif
DAT/002/CUS .\win_b64\resources\jscript\PopupWindow.js|.\CATJDialog\CNext\resources\jscript\PopupWindow.js
DAT/002/CUS .\win_b64\resources\widget\LogoutButton.XMLWidget|.\CATJDialog\CNext\resources\widget\LogoutButton.XMLWidget
RTV/002/DSI .\win_b64\resources\msgcatalog\NlsTest\WebPartFrame.CATNls|.\CATJDialog\CNext\resources\msgcatalog\WebPartFrame.CATNls
DAT/002/CUS .\win_b64\resources\graphic\Theme_HomePage\ShadingLeft.jpg|.\CATJDialog\CNext\resources\graphic\Theme_HomePage\ShadingLeft.jpg
RTV/002/DSI .\win_b64\resources\msgcatalog\DbcsTest\JDialogTheme.CATNls|.\CATJDialog\CNext\resources\msgcatalog\JDialogTheme.CATNls
DAT/002/CUS .\win_b64\resources\graphic\Theme_Dialog\TableNext.gif|.\CATJDialog\CNext\resources\graphic\Theme_Dialog\TableNext.gif
DAT/002/CUS .\win_b64\resources\graphic\icons\small\I_CMD_JDGEdit.gif|.\CATJDialog\CNext\resources\graphic\icons\small\I_CMD_JDGEdit.gif
DAT/002/CUS .\win_b64\resources\graphic\Theme_ENOVIA\Check.gif|.\CATJDialog\CNext\resources\graphic\Theme_ENOVIA\Check.gif
RTV/002/DSI .\win_b64\resources\msgcatalog\DbcsTest\OptionPanel.CATNls|.\CATJDialog\CNext\resources\msgcatalog\OptionPanel.CATNls
DAT/002/CUS .\win_b64\resources\graphic\Theme_ENOVIA\Tree_TM.gif|.\CATJDialog\CNext\resources\graphic\Theme_ENOVIA\Tree_TM.gif
DAT/002/CUS .\win_b64\resources\graphic\Theme_ENOVIA\Tree_Menu.gif|.\CATJDialog\CNext\resources\graphic\Theme_ENOVIA\Tree_Menu.gif
DAT/002/CUS .\win_b64\resources\msgcatalog\Table.CATNls|.\CATJDialog\CNext\resources\msgcatalog\Table.CATNls
DAT/002/CUS .\win_b64\resources\graphic\WebPartBannerLeft_Actions.gif|.\CATJDialog\CNext\resources\graphic\WebPartBannerLeft_Actions.gif
RTV/002/DSI .\win_b64\resources\msgcatalog\DbcsTest\LongText.CATNls|.\CATJDialog\CNext\resources\msgcatalog\LongText.CATNls
DAT/002/CUS .\win_b64\resources\graphic\WebPartBannerTop_PubSub.gif|.\CATJDialog\CNext\resources\graphic\WebPartBannerTop_PubSub.gif
DAT/002/CUS .\win_b64\resources\graphic\I_Msg_Warning_Big.gif|.\CATJDialog\CNext\resources\graphic\I_Msg_Warning_Big.gif
DAT/002/CUS .\win_b64\resources\graphic\ShadowRightBottom.jpg|.\CATJDialog\CNext\resources\graphic\ShadowRightBottom.jpg
DAT/002/CUS .\win_b64\resources\jscript\Tree.js|.\CATJDialog\CNext\resources\jscript\Tree.js
DAT/002/CUS .\win_b64\resources\msgcatalog\Calendar.CATNls|.\CATJDialog\CNext\resources\msgcatalog\Calendar.CATNls
RTV/002/DSI .\win_b64\resources\msgcatalog\DbcsTest\UserDialog.CATNls|.\CATJDialog\CNext\resources\msgcatalog\UserDialog.CATNls
RTV/002/DSI .\win_b64\resources\msgcatalog\NlsTest\DocumentManager.CATNls|.\CATJDialog\CNext\resources\msgcatalog\DocumentManager.CATNls
DAT/002/CUS .\win_b64\resources\graphic\Theme_LCANav\ToolbarBg.gif|.\CATJDialog\CNext\resources\graphic\Theme_LCANav\ToolbarBg.gif
DAT/002/CUS .\win_b64\resources\widget\Viewer.XMLWidget|.\CATJDialog\CNext\resources\widget\Viewer.XMLWidget
DAT/002/CUS .\win_b64\resources\graphic\Theme_Dialog\Tree_LP.gif|.\CATJDialog\CNext\resources\graphic\Theme_Dialog\Tree_LP.gif
RTV/002/DSI .\win_b64\resources\msgcatalog\DbcsTest\Tree.CATNls|.\CATJDialog\CNext\resources\msgcatalog\Tree.CATNls
DAT/002/CUS .\win_b64\resources\graphic\Theme_ENOVIA\PopupExpand.gif|.\CATJDialog\CNext\resources\graphic\Theme_ENOVIA\PopupExpand.gif
DAT/002/CUS .\win_b64\resources\graphic\Workbook_FolderDS.jpg|.\CATJDialog\CNext\resources\graphic\Workbook_FolderDS.jpg
DAT/002/CUS .\win_b64\resources\msgcatalog\JDialogTheme.CATNls|.\CATJDialog\CNext\resources\msgcatalog\JDialogTheme.CATNls
RTV/002/DSI .\win_b64\resources\msgcatalog\NlsTest\GeneratedImage.CATNls|.\CATJDialog\CNext\resources\msgcatalog\GeneratedImage.CATNls
DAT/002/CUS .\win_b64\resources\graphic\Theme_Dialog\HomeletSelectorPreFocus.gif|.\CATJDialog\CNext\resources\graphic\Theme_Dialog\HomeletSelectorPreFocus.gif
DAT/002/CUS .\win_b64\resources\graphic\icons\normal\I_CMD_JDGDel.gif|.\CATJDialog\CNext\resources\graphic\icons\normal\I_CMD_JDGDel.gif
DAT/002/CUS .\win_b64\resources\graphic\ComboArrow.gif|.\CATJDialog\CNext\resources\graphic\ComboArrow.gif
DAT/002/CUS .\win_b64\resources\graphic\Theme_HomePage\Tree_LM.gif|.\CATJDialog\CNext\resources\graphic\Theme_HomePage\Tree_LM.gif
DAT/002/CUS .\win_b64\resources\graphic\Theme_LCANav\ToolbarExpArrow.gif|.\CATJDialog\CNext\resources\graphic\Theme_LCANav\ToolbarExpArrow.gif
DAT/002/CUS .\win_b64\resources\graphic\Theme_ENOVIA\WebPartFrame.jpg|.\CATJDialog\CNext\resources\graphic\Theme_ENOVIA\WebPartFrame.jpg
DAT/002/CUS .\win_b64\resources\graphic\Toolbar_VS.gif|.\CATJDialog\CNext\resources\graphic\Toolbar_VS.gif
DAT/002/CUS .\win_b64\resources\widget\ComboBox.XMLWidget|.\CATJDialog\CNext\resources\widget\ComboBox.XMLWidget
DAT/002/CUS .\win_b64\resources\graphic\jdgfilter_ok.gif|.\CATJDialog\CNext\resources\graphic\jdgfilter_ok.gif
DAT/002/CUS .\win_b64\resources\graphic\Theme_HomePage\PortletPrevious.gif|.\CATJDialog\CNext\resources\graphic\Theme_HomePage\PortletPrevious.gif
DAT/002/CUS .\win_b64\resources\widget\Table.XMLWidget|.\CATJDialog\CNext\resources\widget\Table.XMLWidget
DAT/002/CUS .\win_b64\resources\widget\Toolbar.XMLWidget|.\CATJDialog\CNext\resources\widget\Toolbar.XMLWidget
RTV/002/DSI .\win_b64\resources\msgcatalog\DbcsTest\GeneratedImage.CATNls|.\CATJDialog\CNext\resources\msgcatalog\GeneratedImage.CATNls
RTV/002/DSI .\win_b64\resources\msgcatalog\NlsTest\WebLink.CATNls|.\CATJDialog\CNext\resources\msgcatalog\WebLink.CATNls
DAT/002/CUS .\win_b64\resources\graphic\Theme_Dialog\TableToolbar.jpg|.\CATJDialog\CNext\resources\graphic\Theme_Dialog\TableToolbar.jpg
DAT/002/CUS .\win_b64\resources\graphic\Theme_HomePage\HomeletSelectorDropDown.gif|.\CATJDialog\CNext\resources\graphic\Theme_HomePage\HomeletSelectorDropDown.gif
DAT/002/CUS .\win_b64\resources\graphic\Theme_ENOVIA\PortletSelectorDropDown.gif|.\CATJDialog\CNext\resources\graphic\Theme_ENOVIA\PortletSelectorDropDown.gif
RTV/002/DSI .\win_b64\resources\msgcatalog\DbcsTest\LogoutButton.CATNls|.\CATJDialog\CNext\resources\msgcatalog\LogoutButton.CATNls
DAT/002/CUS .\win_b64\resources\graphic\WorkbookShadingH.jpg|.\CATJDialog\CNext\resources\graphic\WorkbookShadingH.jpg
DAT/002/CUS .\win_b64\resources\graphic\Theme_ENOVIA\CATJDialogDown.gif|.\CATJDialog\CNext\resources\graphic\Theme_ENOVIA\CATJDialogDown.gif
DAT/002/CUS .\win_b64\resources\graphic\Theme_LCANav\MessageBoxMore.gif|.\CATJDialog\CNext\resources\graphic\Theme_LCANav\MessageBoxMore.gif
DAT/002/CUS .\win_b64\resources\msgcatalog\ComboBox.CATNls|.\CATJDialog\CNext\resources\msgcatalog\ComboBox.CATNls
RTV/002/DSI .\win_b64\resources\msgcatalog\DbcsTest\LiveLabel.CATNls|.\CATJDialog\CNext\resources\msgcatalog\LiveLabel.CATNls
DAT/002/CUS .\win_b64\resources\graphic\CalendarD.gif|.\CATJDialog\CNext\resources\graphic\CalendarD.gif
DAT/002/CUS .\win_b64\resources\graphic\Theme_Dialog\ButtonHighlight.jpg|.\CATJDialog\CNext\resources\graphic\Theme_Dialog\ButtonHighlight.jpg
DAT/002/CUS .\win_b64\resources\graphic\Theme_Dialog\Tree_V.gif|.\CATJDialog\CNext\resources\graphic\Theme_Dialog\Tree_V.gif
DAT/002/CUS .\win_b64\resources\command\JDialogCommands.XMLCmdIndex|.\CATJDialog\CNext\resources\command\JDialogCommands.XMLCmdIndex
DAT/002/CUS .\win_b64\resources\servlet\draw.XMLServlet|.\CATJDialog\CNext\resources\servlet\draw.XMLServlet
IDA/002/DSI .\win_b64\CATJDialogReleaseNotes.htm|.\CATJDialog\CNext.internal\CATJDialogReleaseNotes.htm
DAT/002/CUS .\win_b64\resources\graphic\Theme_Dialog\Toolbar_BackgroundV.jpg|.\CATJDialog\CNext\resources\graphic\Theme_Dialog\Toolbar_BackgroundV.jpg
DAT/002/CUS .\win_b64\resources\graphic\blank.gif|.\CATJDialog\CNext\resources\graphic\blank.gif
DAT/002/CUS .\win_b64\resources\graphic\jdgfilter_adv.gif|.\CATJDialog\CNext\resources\graphic\jdgfilter_adv.gif
DAT/002/CUS .\win_b64\resources\msgcatalog\UserDialog.CATNls|.\CATJDialog\CNext\resources\msgcatalog\UserDialog.CATNls
DAT/002/CUS .\win_b64\resources\servlet\kill.XMLServlet|.\CATJDialog\CNext\resources\servlet\kill.XMLServlet
DAT/002/CUS .\win_b64\resources\msgcatalog\MessagesHistory.CATNls|.\CATJDialog\CNext\resources\msgcatalog\MessagesHistory.CATNls
DAT/002/CUS .\win_b64\resources\graphic\Theme_HomePage\Tree_TM.gif|.\CATJDialog\CNext\resources\graphic\Theme_HomePage\Tree_TM.gif
RTV/002/DSI .\win_b64\resources\msgcatalog\NlsTest\Wizard.CATNls|.\CATJDialog\CNext\resources\msgcatalog\Wizard.CATNls
DAT/002/CUS .\win_b64\resources\graphic\RadioDisable.bmp|.\CATJDialog\CNext\resources\graphic\RadioDisable.bmp
DAT/002/CUS .\win_b64\resources\graphic\Theme_LCANav\TabNextDisable.gif|.\CATJDialog\CNext\resources\graphic\Theme_LCANav\TabNextDisable.gif
DAT/002/CUS .\win_b64\resources\msgcatalog\LiveLabel.CATNls|.\CATJDialog\CNext\resources\msgcatalog\LiveLabel.CATNls
DAT/002/CUS .\win_b64\resources\graphic\Toolbar_HS.gif|.\CATJDialog\CNext\resources\graphic\Toolbar_HS.gif
DAT/002/CUS .\win_b64\resources\graphic\Theme_Dialog\Tree_TP.gif|.\CATJDialog\CNext\resources\graphic\Theme_Dialog\Tree_TP.gif
DAT/002/CUS .\win_b64\resources\HTML\CATJDialogLogOut.html|.\CATJDialog\CNext\resources\HTML\CATJDialogLogOut.html
DAT/002/CUS .\win_b64\resources\graphic\Theme_LCANav\TableShiftLeft.gif|.\CATJDialog\CNext\resources\graphic\Theme_LCANav\TableShiftLeft.gif
DAT/002/CUS .\win_b64\resources\graphic\Theme_HomePage\Select.gif|.\CATJDialog\CNext\resources\graphic\Theme_HomePage\Select.gif
RTV/002/DSI .\win_b64\resources\msgcatalog\NlsTest\ComboBox.CATNls|.\CATJDialog\CNext\resources\msgcatalog\ComboBox.CATNls
DAT/002/CUS .\win_b64\resources\msgcatalog\Browser.CATNls|.\CATJDialog\CNext\resources\msgcatalog\Browser.CATNls
DAT/002/CUS .\win_b64\resources\graphic\Theme_ENOVIA\SortedDesc.gif|.\CATJDialog\CNext\resources\graphic\Theme_ENOVIA\SortedDesc.gif
DAT/002/CUS .\win_b64\resources\graphic\Theme_LCANav\HomeletSelectorDropDown.gif|.\CATJDialog\CNext\resources\graphic\Theme_LCANav\HomeletSelectorDropDown.gif
RTV/002/DSI .\win_b64\resources\msgcatalog\DbcsTest\MessageCatalogEditor.CATNls|.\CATJDialog\CNext.internal\resources\msgcatalog\MessageCatalogEditor.CATNls
DAT/002/CUS .\win_b64\resources\graphic\Theme_Dialog\Button.jpg|.\CATJDialog\CNext\resources\graphic\Theme_Dialog\Button.jpg
DAT/002/CUS .\win_b64\resources\graphic\Theme_LCANav\Tree_L.gif|.\CATJDialog\CNext\resources\graphic\Theme_LCANav\Tree_L.gif
DAT/002/CUS .\win_b64\resources\jscript\ComboBox.js|.\CATJDialog\CNext\resources\jscript\ComboBox.js
RTV/002/DSI .\win_b64\resources\msgcatalog\NlsTest\ErrorBox.CATNls|.\CATJDialog\CNext\resources\msgcatalog\ErrorBox.CATNls
RTV/002/DSI .\win_b64\resources\msgcatalog\NlsTest\CATMessageBox.CATNls|.\CATJDialog\CNext\resources\msgcatalog\CATMessageBox.CATNls
DAT/002/CUS .\win_b64\resources\graphic\Theme_HomePage\PortletMax.gif|.\CATJDialog\CNext\resources\graphic\Theme_HomePage\PortletMax.gif
DAT/002/CUS .\win_b64\resources\graphic\Theme_HomePage\Tree_LW.gif|.\CATJDialog\CNext\resources\graphic\Theme_HomePage\Tree_LW.gif
RTV/002/DSI .\win_b64\resources\msgcatalog\DbcsTest\DocumentManager.CATNls|.\CATJDialog\CNext\resources\msgcatalog\DocumentManager.CATNls
DAT/002/CUS .\win_b64\resources\graphic\Theme_Dialog\Banner.jpg|.\CATJDialog\CNext\resources\graphic\Theme_Dialog\Banner.jpg
DAT/002/CUS .\win_b64\resources\graphic\Theme_HomePage\ScrollArrowTop.jpg|.\CATJDialog\CNext\resources\graphic\Theme_HomePage\ScrollArrowTop.jpg
DAT/002/CUS .\win_b64\resources\jscript\MessageArea.js|.\CATJDialog\CNext\resources\jscript\MessageArea.js
DAT/002/CUS .\win_b64\resources\graphic\CAT2DViewer_ENOVWebViewListCmd.jpg|.\CATJDialog\CNext\resources\graphic\CAT2DViewer_ENOVWebViewListCmd.jpg
DAT/002/CUS .\win_b64\resources\stylesheets\ENOVIA.XMLTheme_Toolbar|.\CATJDialog\CNext\resources\stylesheets\ENOVIA.XMLTheme_Toolbar
DAT/002/CUS .\win_b64\resources\graphic\Theme_LCANav\SortedAsc.gif|.\CATJDialog\CNext\resources\graphic\Theme_LCANav\SortedAsc.gif
DAT/002/CUS .\win_b64\resources\graphic\Theme_Dialog\RoundButton.jpg|.\CATJDialog\CNext\resources\graphic\Theme_Dialog\RoundButton.jpg
BTV/002/CUS .\win_b64\code\productIC\CATJDialogIC.xml|.\CATJDialog
IDA/002/DSI .\win_b64\resources\dialog\MessageCatalogSelector.XMLDlg|.\CATJDialog\CNext.internal\resources\dialog\MessageCatalogSelector.XMLDlg
RTV/002/DSI .\win_b64\resources\msgcatalog\NlsTest\OptionPanel.CATNls|.\CATJDialog\CNext\resources\msgcatalog\OptionPanel.CATNls
DAT/002/CUS .\win_b64\resources\graphic\Theme_ENOVIA\CATJDialogUp.gif|.\CATJDialog\CNext\resources\graphic\Theme_ENOVIA\CATJDialogUp.gif
DAT/002/CUS .\win_b64\resources\graphic\Theme_HomePage\PortletNext.gif|.\CATJDialog\CNext\resources\graphic\Theme_HomePage\PortletNext.gif
DAT/002/CUS .\win_b64\resources\graphic\Theme_HomePage\TableShiftRight.gif|.\CATJDialog\CNext\resources\graphic\Theme_HomePage\TableShiftRight.gif
DAT/002/CUS .\win_b64\resources\graphic\Theme_LCANav\TabPreviousDisable.gif|.\CATJDialog\CNext\resources\graphic\Theme_LCANav\TabPreviousDisable.gif
DAT/002/CUS .\win_b64\resources\graphic\Theme_ENOVIA\Tree_T.gif|.\CATJDialog\CNext\resources\graphic\Theme_ENOVIA\Tree_T.gif
DAT/002/CUS .\win_b64\resources\msgcatalog\DialogFrame.CATNls|.\CATJDialog\CNext\resources\msgcatalog\DialogFrame.CATNls
DAT/002/CUS .\win_b64\resources\graphic\CAT3DViewer_Zoom.jpg|.\CATJDialog\CNext\resources\graphic\CAT3DViewer_Zoom.jpg
DAT/002/CUS .\win_b64\resources\graphic\Theme_Dialog\Toolbar_ButtonH.jpg|.\CATJDialog\CNext\resources\graphic\Theme_Dialog\Toolbar_ButtonH.jpg
DAT/002/CUS .\win_b64\resources\msgcatalog\CATCmdContainerTooltips.CATNls|.\CATJDialog\CNext\resources\msgcatalog\CATCmdContainerTooltips.CATNls
DAT/002/CUS .\win_b64\resources\graphic\Theme_Dialog\SmallToolbarH.jpg|.\CATJDialog\CNext\resources\graphic\Theme_Dialog\SmallToolbarH.jpg
DAT/002/CUS .\win_b64\resources\widget\Link.XMLWidget|.\CATJDialog\CNext\resources\widget\Link.XMLWidget
DAT/002/CUS .\win_b64\resources\graphic\Theme_ENOVIA\PortletKillAll.gif|.\CATJDialog\CNext\resources\graphic\Theme_ENOVIA\PortletKillAll.gif
DAT/002/CUS .\win_b64\resources\msgcatalog\Viewer.CATNls|.\CATJDialog\CNext\resources\msgcatalog\Viewer.CATNls
RTV/002/DSI .\win_b64\resources\msgcatalog\NlsTest\DialogBox.CATNls|.\CATJDialog\CNext\resources\msgcatalog\DialogBox.CATNls
DAT/002/CUS .\win_b64\resources\graphic\Theme_HomePage\Tree_TW.gif|.\CATJDialog\CNext\resources\graphic\Theme_HomePage\Tree_TW.gif
RTV/002/DSI .\win_b64\resources\msgcatalog\DbcsTest\ComboBox.CATNls|.\CATJDialog\CNext\resources\msgcatalog\ComboBox.CATNls
RTV/002/DSI .\win_b64\resources\msgcatalog\DbcsTest\UploadButton.CATNls|.\CATJDialog\CNext\resources\msgcatalog\UploadButton.CATNls
DAT/002/CUS .\win_b64\resources\jscript\TooltipText.js|.\CATJDialog\CNext\resources\jscript\TooltipText.js
RTV/002/DSI .\win_b64\resources\msgcatalog\NlsTest\CATCommandDesc.CATNls|.\CATJDialog\CNext\resources\msgcatalog\CATCommandDesc.CATNls
DAT/002/CUS .\win_b64\resources\graphic\Theme_ENOVIA\Select.gif|.\CATJDialog\CNext\resources\graphic\Theme_ENOVIA\Select.gif
RTV/002/DSI .\win_b64\resources\msgcatalog\NlsTest\Button.CATNls|.\CATJDialog\CNext\resources\msgcatalog\Button.CATNls
DAT/002/CUS .\win_b64\resources\graphic\CollapseRightH.gif|.\CATJDialog\CNext\resources\graphic\CollapseRightH.gif
DAT/002/CUS .\win_b64\resources\graphic\Theme_LCANav\ToolbarSep.gif|.\CATJDialog\CNext\resources\graphic\Theme_LCANav\ToolbarSep.gif
RTV/002/DSI .\win_b64\resources\msgcatalog\NlsTest\2DViewer.CATNls|.\CATJDialog\CNext\resources\msgcatalog\2DViewer.CATNls
DAT/002/CUS .\win_b64\resources\graphic\CAT3DViewer_ENOVWebViewListCmd.jpg|.\CATJDialog\CNext\resources\graphic\CAT3DViewer_ENOVWebViewListCmd.jpg
DAT/002/CUS .\win_b64\resources\graphic\Theme_Dialog\PortletSelectorPreFocus.gif|.\CATJDialog\CNext\resources\graphic\Theme_Dialog\PortletSelectorPreFocus.gif
DAT/002/CUS .\win_b64\resources\jscript\Scroller.js|.\CATJDialog\CNext\resources\jscript\Scroller.js
DAT/002/CUS .\win_b64\resources\graphic\Theme_LCANav\PortletTitleBar.jpg|.\CATJDialog\CNext\resources\graphic\Theme_LCANav\PortletTitleBar.jpg
DAT/002/CUS .\win_b64\resources\graphic\Theme_Dialog\HomeletEdit.gif|.\CATJDialog\CNext\resources\graphic\Theme_Dialog\HomeletEdit.gif
DAT/002/CUS .\win_b64\resources\graphic\RadioUnCheck.gif|.\CATJDialog\CNext\resources\graphic\RadioUnCheck.gif
DAT/002/CUS .\win_b64\resources\servlet\html.XMLServlet|.\CATJDialog\CNext\resources\servlet\html.XMLServlet
DAT/002/CUS .\win_b64\resources\graphic\Theme_HomePage\ScrollArrowLeft.jpg|.\CATJDialog\CNext\resources\graphic\Theme_HomePage\ScrollArrowLeft.jpg
DAT/002/CUS .\win_b64\resources\graphic\Theme_HomePage\Tree_Menu.bmp|.\CATJDialog\CNext\resources\graphic\Theme_HomePage\Tree_Menu.bmp
DAT/002/CUS .\win_b64\resources\graphic\Theme_Dialog\PortletMax.gif|.\CATJDialog\CNext\resources\graphic\Theme_Dialog\PortletMax.gif
DAT/002/CUS .\win_b64\resources\widget\WebPartFrame.XMLWidget|.\CATJDialog\CNext\resources\widget\WebPartFrame.XMLWidget
DAT/002/CUS .\win_b64\resources\graphic\jdgfilter_on.gif|.\CATJDialog\CNext\resources\graphic\jdgfilter_on.gif
DAT/002/CUS .\win_b64\resources\msgcatalog\JDialogCommands.CATNls|.\CATJDialog\CNext\resources\msgcatalog\JDialogCommands.CATNls
DAT/002/CUS .\win_b64\resources\widget\FileUploader.XMLWidget|.\CATJDialog\CNext\resources\widget\FileUploader.XMLWidget
DAT/002/CUS .\win_b64\resources\graphic\CAT2DViewer_Zoom.jpg|.\CATJDialog\CNext\resources\graphic\CAT2DViewer_Zoom.jpg
DAT/002/CUS .\win_b64\resources\graphic\Theme_HomePage\Button.jpg|.\CATJDialog\CNext\resources\graphic\Theme_HomePage\Button.jpg
DAT/002/CUS .\win_b64\resources\graphic\Theme_HomePage\ShadingRightSelected.jpg|.\CATJDialog\CNext\resources\graphic\Theme_HomePage\ShadingRightSelected.jpg
DAT/002/CUS .\win_b64\resources\stylesheets\ENOVIA.XMLTheme|.\CATJDialog\CNext\resources\stylesheets\ENOVIA.XMLTheme
DAT/002/CUS .\win_b64\resources\graphic\CAT3DViewer_ENOVWebPrintCmd.jpg|.\CATJDialog\CNext\resources\graphic\CAT3DViewer_ENOVWebPrintCmd.jpg
DAT/002/CUS .\win_b64\resources\graphic\Theme_LCANav\SortedDesc.gif|.\CATJDialog\CNext\resources\graphic\Theme_LCANav\SortedDesc.gif
DAT/002/CUS .\win_b64\resources\graphic\icons\normal\I_CMD_JDGAdministration.gif|.\CATJDialog\CNext\resources\graphic\icons\normal\I_CMD_JDGAdministration.gif
DAT/002/CUS .\win_b64\resources\msgcatalog\Home.CATNls|.\CATJDialog\CNext\resources\msgcatalog\Home.CATNls
RTV/002/DSI .\win_b64\resources\msgcatalog\DbcsTest\CardContainer.CATNls|.\CATJDialog\CNext\resources\msgcatalog\CardContainer.CATNls
DAT/002/CUS .\win_b64\resources\graphic\CAT3DViewer_ENOVWebTabletOptionsCmd.jpg|.\CATJDialog\CNext\resources\graphic\CAT3DViewer_ENOVWebTabletOptionsCmd.jpg
DAT/002/CUS .\win_b64\resources\graphic\I_Msg_Error.gif|.\CATJDialog\CNext\resources\graphic\I_Msg_Error.gif
DAT/002/CUS .\win_b64\resources\graphic\Theme_LCANav\Tree_Menu.gif|.\CATJDialog\CNext\resources\graphic\Theme_LCANav\Tree_Menu.gif
DAT/002/CUS .\win_b64\resources\graphic\I_Msg_OK.gif|.\CATJDialog\CNext\resources\graphic\I_Msg_OK.gif
DAT/002/CUS .\win_b64\resources\msgcatalog\LogoutButton.CATNls|.\CATJDialog\CNext\resources\msgcatalog\LogoutButton.CATNls
RTV/002/DSI .\win_b64\resources\msgcatalog\DbcsTest\Table.CATNls|.\CATJDialog\CNext\resources\msgcatalog\Table.CATNls
DAT/002/CUS .\win_b64\resources\graphic\Theme_LCANav\Tree_V.gif|.\CATJDialog\CNext\resources\graphic\Theme_LCANav\Tree_V.gif
RTV/002/DSI .\win_b64\resources\msgcatalog\NlsTest\3DViewer.CATNls|.\CATJDialog\CNext\resources\msgcatalog\3DViewer.CATNls
DAT/002/CUS .\win_b64\resources\graphic\I_Msg_Error_Big.gif|.\CATJDialog\CNext\resources\graphic\I_Msg_Error_Big.gif
DAT/002/CUS .\win_b64\resources\graphic\Theme_Dialog\PortletTitleBar.gif|.\CATJDialog\CNext\resources\graphic\Theme_Dialog\PortletTitleBar.gif
DAT/002/CUS .\win_b64\resources\graphic\Theme_ENOVIA\Tree_LW.gif|.\CATJDialog\CNext\resources\graphic\Theme_ENOVIA\Tree_LW.gif
DAT/002/CUS .\win_b64\resources\graphic\icons\normal\I_CMD_JDGHelp.gif|.\CATJDialog\CNext\resources\graphic\icons\normal\I_CMD_JDGHelp.gif
DAT/002/CUS .\win_b64\resources\graphic\ShadowLeftBottom.jpg|.\CATJDialog\CNext\resources\graphic\ShadowLeftBottom.jpg
DAT/002/CUS .\win_b64\resources\graphic\Theme_Dialog\PortletMin.gif|.\CATJDialog\CNext\resources\graphic\Theme_Dialog\PortletMin.gif
DAT/002/CUS .\win_b64\resources\graphic\Theme_LCANav\PortletRestore.gif|.\CATJDialog\CNext\resources\graphic\Theme_LCANav\PortletRestore.gif
DAT/002/CUS .\win_b64\resources\graphic\icons\normal\I_CMD_JDGC2A.gif|.\CATJDialog\CNext\resources\graphic\icons\normal\I_CMD_JDGC2A.gif
RTV/002/DSI .\win_b64\resources\msgcatalog\NlsTest\Calendar.CATNls|.\CATJDialog\CNext\resources\msgcatalog\Calendar.CATNls
DAT/002/CUS .\win_b64\resources\msgcatalog\CAT3DViewer.CATNls|.\CATJDialog\CNext\resources\msgcatalog\CAT3DViewer.CATNls
DAT/002/CUS .\win_b64\resources\servlet\htmlmenu.XMLServlet|.\CATJDialog\CNext\resources\servlet\htmlmenu.XMLServlet
RTV/002/DSI .\win_b64\resources\msgcatalog\NlsTest\Frame.CATNls|.\CATJDialog\CNext\resources\msgcatalog\Frame.CATNls
DAT/002/CUS .\win_b64\resources\graphic\TopShading.jpg|.\CATJDialog\CNext\resources\graphic\TopShading.jpg
DAT/002/CUS .\win_b64\resources\graphic\Theme_ENOVIA\ButtonH.jpg|.\CATJDialog\CNext\resources\graphic\Theme_ENOVIA\ButtonH.jpg
DAT/002/CUS .\win_b64\resources\graphic\CAT2DViewer_ENOVWebPrintCmd.jpg|.\CATJDialog\CNext\resources\graphic\CAT2DViewer_ENOVWebPrintCmd.jpg
DAT/002/CUS .\win_b64\resources\jscript\CAT2DViewer.js|.\CATJDialog\CNext\resources\jscript\CAT2DViewer.js
DAT/002/CUS .\win_b64\resources\widget\DateEditor.XMLWidget|.\CATJDialog\CNext\resources\widget\DateEditor.XMLWidget
DAT/002/CUS .\win_b64\resources\graphic\I_Msg_Warning.gif|.\CATJDialog\CNext\resources\graphic\I_Msg_Warning.gif
RTV/002/DSI .\win_b64\resources\msgcatalog\NlsTest\MessageCatalogSelector.CATNls|.\CATJDialog\CNext.internal\resources\msgcatalog\MessageCatalogSelector.CATNls
DAT/002/CUS .\win_b64\resources\graphic\CAT2DViewer_ENOVWebTabletOptionsCmd.jpg|.\CATJDialog\CNext\resources\graphic\CAT2DViewer_ENOVWebTabletOptionsCmd.jpg
DAT/002/CUS .\win_b64\resources\jscript\CATJDialog.js|.\CATJDialog\CNext\resources\jscript\CATJDialog.js
DAT/002/CUS .\win_b64\resources\stylesheets\Dialog.XMLTheme|.\CATJDialog\CNext\resources\stylesheets\Dialog.XMLTheme
DAT/002/CUS .\win_b64\resources\servlet\css.XMLServlet|.\CATJDialog\CNext\resources\servlet\css.XMLServlet
DAT/002/CUS .\win_b64\resources\graphic\Theme_HomePage\Shading.jpg|.\CATJDialog\CNext\resources\graphic\Theme_HomePage\Shading.jpg
DAT/002/CUS .\win_b64\resources\graphic\Theme_LCANav\PortletMax.gif|.\CATJDialog\CNext\resources\graphic\Theme_LCANav\PortletMax.gif
DAT/002/CUS .\win_b64\resources\widget\CardContainer.XMLWidget|.\CATJDialog\CNext\resources\widget\CardContainer.XMLWidget
DAT/002/CUS .\win_b64\resources\graphic\Theme_LCANav\ButtonH.jpg|.\CATJDialog\CNext\resources\graphic\Theme_LCANav\ButtonH.jpg
DAT/002/CUS .\win_b64\resources\graphic\Theme_LCANav\PortletKill.gif|.\CATJDialog\CNext\resources\graphic\Theme_LCANav\PortletKill.gif
DAT/002/CUS .\win_b64\resources\msgcatalog\Label.CATNls|.\CATJDialog\CNext\resources\msgcatalog\Label.CATNls
DAT/002/CUS .\win_b64\resources\graphic\Theme_Dialog\ColumnHeaderR.jpg|.\CATJDialog\CNext\resources\graphic\Theme_Dialog\ColumnHeaderR.jpg
DAT/002/CUS .\win_b64\resources\widget\GeneratedImage.XMLWidget|.\CATJDialog\CNext\resources\widget\GeneratedImage.XMLWidget
RTV/002/DSI .\win_b64\resources\msgcatalog\DbcsTest\DialogBox.CATNls|.\CATJDialog\CNext\resources\msgcatalog\DialogBox.CATNls
DAT/002/CUS .\win_b64\resources\graphic\RedLed.gif|.\CATJDialog\CNext\resources\graphic\RedLed.gif
DAT/002/CUS .\win_b64\resources\graphic\Theme_HomePage\TableShiftLeft.gif|.\CATJDialog\CNext\resources\graphic\Theme_HomePage\TableShiftLeft.gif
DAT/002/CUS .\win_b64\resources\graphic\Theme_HomePage\Background.jpg|.\CATJDialog\CNext\resources\graphic\Theme_HomePage\Background.jpg
DAT/002/CUS .\win_b64\resources\graphic\Theme_ENOVIA\TabPreviousDisable.jpg|.\CATJDialog\CNext\resources\graphic\Theme_ENOVIA\TabPreviousDisable.jpg
DAT/002/CUS .\win_b64\resources\graphic\GreenLed.gif|.\CATJDialog\CNext\resources\graphic\GreenLed.gif
RTV/002/DSI .\win_b64\resources\msgcatalog\DbcsTest\ErrorBox.CATNls|.\CATJDialog\CNext\resources\msgcatalog\ErrorBox.CATNls
DAT/002/CUS .\win_b64\resources\graphic\Theme_ENOVIA\Tree_TW.gif|.\CATJDialog\CNext\resources\graphic\Theme_ENOVIA\Tree_TW.gif
DAT/002/CUS .\win_b64\resources\graphic\Theme_LCANav\PortletNext.gif|.\CATJDialog\CNext\resources\graphic\Theme_LCANav\PortletNext.gif
RTV/002/DSI .\win_b64\resources\msgcatalog\NlsTest\Browser.CATNls|.\CATJDialog\CNext\resources\msgcatalog\Browser.CATNls
DAT/002/CUS .\win_b64\resources\jscript\CAT3DViewer.js|.\CATJDialog\CNext\resources\jscript\CAT3DViewer.js
DAT/002/CUS .\win_b64\resources\graphic\SystemToolbar_Exit.gif|.\CATJDialog\CNext\resources\graphic\SystemToolbar_Exit.gif
DAT/002/CUS .\win_b64\resources\dialog\Home.XMLDlg|.\CATJDialog\CNext\resources\dialog\Home.XMLDlg
DAT/002/CUS .\win_b64\resources\graphic\CATJDialogERROR.jpg|.\CATJDialog\CNext\resources\graphic\CATJDialogERROR.jpg
DAT/002/CUS .\win_b64\resources\graphic\WebPartBannerLeft_News.gif|.\CATJDialog\CNext\resources\graphic\WebPartBannerLeft_News.gif
DAT/002/CUS .\win_b64\resources\graphic\Theme_HomePage\CATJDialogDown.gif|.\CATJDialog\CNext\resources\graphic\Theme_HomePage\CATJDialogDown.gif
DAT/002/CUS .\win_b64\resources\graphic\Workbook_FolderRemote.gif|.\CATJDialog\CNext\resources\graphic\Workbook_FolderRemote.gif
DAT/002/CUS .\win_b64\resources\widget\UploadForm.XMLWidget|.\CATJDialog\CNext\resources\widget\UploadForm.XMLWidget
IDA/002/DSI .\win_b64\resources\msgcatalog\French\MessageCatalogEditor.CATNls|.\CATJDialog\CNext.internal\resources\msgcatalog\French\MessageCatalogEditor.CATNls
DAT/002/CUS .\win_b64\resources\graphic\Theme_HomePage\ColumnHeader.jpg|.\CATJDialog\CNext\resources\graphic\Theme_HomePage\ColumnHeader.jpg
DAT/002/CUS .\win_b64\resources\graphic\Workbook_Administration.gif|.\CATJDialog\CNext\resources\graphic\Workbook_Administration.gif
DAT/002/CUS .\win_b64\resources\graphic\Theme_LCANav\UncheckDisable.gif|.\CATJDialog\CNext\resources\graphic\Theme_LCANav\UncheckDisable.gif
DAT/002/CUS .\win_b64\resources\msgcatalog\OptionPanel.CATNls|.\CATJDialog\CNext\resources\msgcatalog\OptionPanel.CATNls
DAT/002/CUS .\win_b64\resources\stylesheets\LCANav.XMLTheme_CJK|.\CATJDialog\CNext\resources\stylesheets\LCANav.XMLTheme_CJK
DAT/002/CUS .\win_b64\resources\graphic\CAT3DViewer_Previous.jpg|.\CATJDialog\CNext\resources\graphic\CAT3DViewer_Previous.jpg
DAT/002/CUS .\win_b64\resources\graphic\Theme_HomePage\TableBack.gif|.\CATJDialog\CNext\resources\graphic\Theme_HomePage\TableBack.gif
DAT/002/CUS .\win_b64\resources\msgcatalog\ErrorBox.CATNls|.\CATJDialog\CNext\resources\msgcatalog\ErrorBox.CATNls
DAT/002/CUS .\win_b64\resources\msgcatalog\GeneratedImage.CATNls|.\CATJDialog\CNext\resources\msgcatalog\GeneratedImage.CATNls
DAT/002/CUS .\win_b64\resources\dialog\MessageBox.XMLDlg|.\CATJDialog\CNext\resources\dialog\MessageBox.XMLDlg
DAT/002/CUS .\win_b64\resources\graphic\Theme_LCANav\HomeletEdit.gif|.\CATJDialog\CNext\resources\graphic\Theme_LCANav\HomeletEdit.gif
DAT/002/CUS .\win_b64\resources\graphic\icons\small\I_CMD_JDGLogoff.gif|.\CATJDialog\CNext\resources\graphic\icons\small\I_CMD_JDGLogoff.gif
DAT/002/CUS .\win_b64\resources\graphic\Calendar.gif|.\CATJDialog\CNext\resources\graphic\Calendar.gif
DAT/002/CUS .\win_b64\resources\graphic\Theme_HomePage\Banner.jpg|.\CATJDialog\CNext\resources\graphic\Theme_HomePage\Banner.jpg
DAT/002/CUS .\win_b64\resources\graphic\Theme_LCANav\Check.gif|.\CATJDialog\CNext\resources\graphic\Theme_LCANav\Check.gif
DAT/002/CUS .\win_b64\resources\msgcatalog\DialogBox.CATNls|.\CATJDialog\CNext\resources\msgcatalog\DialogBox.CATNls
RTV/002/DSI .\win_b64\resources\msgcatalog\DbcsTest\Wizard.CATNls|.\CATJDialog\CNext\resources\msgcatalog\Wizard.CATNls
DAT/002/CUS .\win_b64\resources\graphic\CATCreateODTLogo.jpg|.\CATJDialog\CNext\resources\graphic\CATCreateODTLogo.jpg
DAT/002/CUS .\win_b64\resources\graphic\Link.gif|.\CATJDialog\CNext\resources\graphic\Link.gif
RTV/002/DSI .\win_b64\resources\msgcatalog\DbcsTest\WebPartFrame.CATNls|.\CATJDialog\CNext\resources\msgcatalog\WebPartFrame.CATNls
DAT/002/CUS .\win_b64\resources\dialog\SettingRepository.XMLDlg|.\CATJDialog\CNext\resources\dialog\SettingRepository.XMLDlg
DAT/002/CUS .\win_b64\resources\graphic\Theme_HomePage\PortletTitleBar.gif|.\CATJDialog\CNext\resources\graphic\Theme_HomePage\PortletTitleBar.gif
RTV/002/DSI .\win_b64\resources\msgcatalog\DbcsTest\Home.CATNls|.\CATJDialog\CNext\resources\msgcatalog\Home.CATNls
DAT/002/CUS .\win_b64\resources\graphic\Theme_Dialog\HorizontalShading.jpg|.\CATJDialog\CNext\resources\graphic\Theme_Dialog\HorizontalShading.jpg
DAT/002/CUS .\win_b64\resources\graphic\UncheckDisable.gif|.\CATJDialog\CNext\resources\graphic\UncheckDisable.gif
DAT/002/CUS .\win_b64\resources\graphic\Theme_Dialog\ColumnHeader.jpg|.\CATJDialog\CNext\resources\graphic\Theme_Dialog\ColumnHeader.jpg
DAT/002/CUS .\win_b64\resources\graphic\Uncheck.gif|.\CATJDialog\CNext\resources\graphic\Uncheck.gif
RTV/002/DSI .\win_b64\resources\msgcatalog\NlsTest\CAT3DViewer.CATNls|.\CATJDialog\CNext\resources\msgcatalog\CAT3DViewer.CATNls
RTV/002/DSI .\win_b64\resources\msgcatalog\NlsTest\RadioButton.CATNls|.\CATJDialog\CNext\resources\msgcatalog\RadioButton.CATNls
DAT/002/CUS .\win_b64\resources\msgcatalog\UploadBox.CATNls|.\CATJDialog\CNext\resources\msgcatalog\UploadBox.CATNls
DAT/002/CUS .\win_b64\resources\widget\TabPage.XMLWidget|.\CATJDialog\CNext\resources\widget\TabPage.XMLWidget
DAT/002/CUS .\win_b64\resources\graphic\Theme_LCANav\TabNext.gif|.\CATJDialog\CNext\resources\graphic\Theme_LCANav\TabNext.gif
DAT/002/CUS .\win_b64\resources\graphic\Theme_Dialog\Tree_LM.gif|.\CATJDialog\CNext\resources\graphic\Theme_Dialog\Tree_LM.gif
DAT/002/CUS .\win_b64\resources\graphic\WebPartBannerTop_Actions.gif|.\CATJDialog\CNext\resources\graphic\WebPartBannerTop_Actions.gif
RTV/002/DSI .\win_b64\resources\msgcatalog\DbcsTest\JDialogPrefs.CATNls|.\CATJDialog\CNext\resources\msgcatalog\JDialogPrefs.CATNls
DAT/002/CUS .\win_b64\resources\graphic\Theme_Dialog\Toolbar_ButtonV.JPG|.\CATJDialog\CNext\resources\graphic\Theme_Dialog\Toolbar_ButtonV.JPG
DAT/002/CUS .\win_b64\resources\graphic\Theme_Dialog\Tree_Menu.gif|.\CATJDialog\CNext\resources\graphic\Theme_Dialog\Tree_Menu.gif
RTV/002/DSI .\win_b64\resources\msgcatalog\DbcsTest\CAT3DViewer.CATNls|.\CATJDialog\CNext\resources\msgcatalog\CAT3DViewer.CATNls
DAT/002/CUS .\win_b64\resources\graphic\CAT2DViewer_Previous.jpg|.\CATJDialog\CNext\resources\graphic\CAT2DViewer_Previous.jpg
BTV/002/CUS .\win_b64\code\productIC\CATJDialogIC.script|.\CATJDialog
DAT/002/CUS .\win_b64\resources\graphic\Theme_HomePage\WizardBottom.jpg|.\CATJDialog\CNext\resources\graphic\Theme_HomePage\WizardBottom.jpg
RTV/002/DSI .\win_b64\resources\msgcatalog\DbcsTest\TextField.CATNls|.\CATJDialog\CNext\resources\msgcatalog\TextField.CATNls
RTV/002/DSI .\win_b64\resources\msgcatalog\NlsTest\UserDialog.CATNls|.\CATJDialog\CNext\resources\msgcatalog\UserDialog.CATNls
DAT/002/CUS .\win_b64\resources\graphic\Theme_Dialog\ButtonDisabled.jpg|.\CATJDialog\CNext\resources\graphic\Theme_Dialog\ButtonDisabled.jpg
DAT/002/CUS .\win_b64\resources\graphic\Theme_HomePage\CATJDialogUp.gif|.\CATJDialog\CNext\resources\graphic\Theme_HomePage\CATJDialogUp.gif
DAT/002/CUS .\win_b64\resources\graphic\Theme_LCANav\HomeletSelectorPreFocus.gif|.\CATJDialog\CNext\resources\graphic\Theme_LCANav\HomeletSelectorPreFocus.gif
DAT/002/CUS .\win_b64\resources\graphic\Workbook_Home.gif|.\CATJDialog\CNext\resources\graphic\Workbook_Home.gif
DAT/002/CUS .\win_b64\resources\graphic\Theme_Dialog\Tree_Menu.bmp|.\CATJDialog\CNext\resources\graphic\Theme_Dialog\Tree_Menu.bmp
DAT/002/CUS .\win_b64\resources\odtdriver\Path.XMLRecordDriver|.\CATJDialog\CNext\resources\odtdriver\Path.XMLRecordDriver
DAT/002/CUS .\win_b64\resources\graphic\Previous.gif|.\CATJDialog\CNext\resources\graphic\Previous.gif
DAT/002/CUS .\win_b64\resources\msgcatalog\CheckBox.CATNls|.\CATJDialog\CNext\resources\msgcatalog\CheckBox.CATNls
DAT/002/CUS .\win_b64\resources\graphic\Theme_HomePage\ComboArrow.gif|.\CATJDialog\CNext\resources\graphic\Theme_HomePage\ComboArrow.gif
DAT/002/CUS .\win_b64\resources\graphic\Theme_LCANav\PortletPrevious.gif|.\CATJDialog\CNext\resources\graphic\Theme_LCANav\PortletPrevious.gif
DAT/002/CUS .\win_b64\resources\graphic\Theme_HomePage\Tree_Menu.gif|.\CATJDialog\CNext\resources\graphic\Theme_HomePage\Tree_Menu.gif
DAT/002/CUS .\win_b64\resources\graphic\Workbook_Search.jpg|.\CATJDialog\CNext\resources\graphic\Workbook_Search.jpg
DAT/002/CUS .\win_b64\resources\graphic\Theme_ENOVIA\PortletTitleBar.gif|.\CATJDialog\CNext\resources\graphic\Theme_ENOVIA\PortletTitleBar.gif
DAT/002/CUS .\win_b64\resources\graphic\Workbook_FolderSearch.jpg|.\CATJDialog\CNext\resources\graphic\Workbook_FolderSearch.jpg
RTV/002/DSI .\win_b64\resources\msgcatalog\NlsTest\JDialogTheme.CATNls|.\CATJDialog\CNext\resources\msgcatalog\JDialogTheme.CATNls
DAT/002/CUS .\win_b64\resources\graphic\Computer.gif|.\CATJDialog\CNext\resources\graphic\Computer.gif
DAT/002/CUS .\win_b64\resources\graphic\Theme_ENOVIA\TableNext.gif|.\CATJDialog\CNext\resources\graphic\Theme_ENOVIA\TableNext.gif
DAT/002/CUS .\win_b64\resources\dialog\JDialogTheme.XMLDlg|.\CATJDialog\CNext\resources\dialog\JDialogTheme.XMLDlg
RTV/002/DSI .\win_b64\resources\msgcatalog\DbcsTest\CAT2DViewer.CATNls|.\CATJDialog\CNext\resources\msgcatalog\CAT2DViewer.CATNls
RTV/002/DSI .\win_b64\resources\msgcatalog\DbcsTest\Frame.CATNls|.\CATJDialog\CNext\resources\msgcatalog\Frame.CATNls
DAT/002/CUS .\win_b64\resources\graphic\Theme_LCANav\Tab.gif|.\CATJDialog\CNext\resources\graphic\Theme_LCANav\Tab.gif
DAT/002/CUS .\win_b64\resources\graphic\Theme_LCANav\Uncheck.gif|.\CATJDialog\CNext\resources\graphic\Theme_LCANav\Uncheck.gif
DAT/002/CUS .\win_b64\resources\graphic\CATJDialogViewerLogo.jpg|.\CATJDialog\CNext\resources\graphic\CATJDialogViewerLogo.jpg
RTV/002/DSI .\win_b64\resources\msgcatalog\NlsTest\DateEditor.CATNls|.\CATJDialog\CNext\resources\msgcatalog\DateEditor.CATNls
DAT/002/CUS .\win_b64\resources\graphic\Theme_Dialog\TabSelected.jpg|.\CATJDialog\CNext\resources\graphic\Theme_Dialog\TabSelected.jpg
DAT/002/CUS .\win_b64\resources\graphic\Theme_Dialog\Tree_TM.gif|.\CATJDialog\CNext\resources\graphic\Theme_Dialog\Tree_TM.gif
RTV/002/DSI .\win_b64\resources\msgcatalog\NlsTest\CheckBox.CATNls|.\CATJDialog\CNext\resources\msgcatalog\CheckBox.CATNls
DAT/002/CUS .\win_b64\resources\graphic\Theme_Dialog\CATJDialogUp.gif|.\CATJDialog\CNext\resources\graphic\Theme_Dialog\CATJDialogUp.gif
DAT/002/CUS .\win_b64\resources\graphic\Theme_HomePage\Desktop.jpg|.\CATJDialog\CNext\resources\graphic\Theme_HomePage\Desktop.jpg
DAT/002/CUS .\win_b64\resources\widget\TextField.XMLWidget|.\CATJDialog\CNext\resources\widget\TextField.XMLWidget
DAT/002/CUS .\win_b64\resources\graphic\Theme_HomePage\ColumnHeaderR.jpg|.\CATJDialog\CNext\resources\graphic\Theme_HomePage\ColumnHeaderR.jpg
DAT/002/CUS .\win_b64\resources\graphic\Theme_LCANav\CheckDisable.gif|.\CATJDialog\CNext\resources\graphic\Theme_LCANav\CheckDisable.gif
DAT/002/CUS .\win_b64\resources\graphic\Theme_ENOVIA\PortletRestore.gif|.\CATJDialog\CNext\resources\graphic\Theme_ENOVIA\PortletRestore.gif
DAT/002/CUS .\win_b64\resources\msgcatalog\CAT2DViewer.CATNls|.\CATJDialog\CNext\resources\msgcatalog\CAT2DViewer.CATNls
RTV/002/DSI .\win_b64\resources\msgcatalog\NlsTest\MessagesHistory.CATNls|.\CATJDialog\CNext\resources\msgcatalog\MessagesHistory.CATNls
DAT/002/CUS .\win_b64\resources\graphic\CAT3DViewer_Pan.jpg|.\CATJDialog\CNext\resources\graphic\CAT3DViewer_Pan.jpg
DAT/002/CUS .\win_b64\resources\graphic\Theme_ENOVIA\Tree_L.gif|.\CATJDialog\CNext\resources\graphic\Theme_ENOVIA\Tree_L.gif
IDA/002/DSI .\win_b64\resources\msgcatalog\MessageCatalogSelector.CATNls|.\CATJDialog\CNext.internal\resources\msgcatalog\MessageCatalogSelector.CATNls
DAT/002/CUS .\win_b64\resources\jscript\CATViewerWSRP.js|.\CATJDialog\CNext\resources\jscript\CATViewerWSRP.js
RTV/002/DSI .\win_b64\resources\msgcatalog\DbcsTest\CheckBox.CATNls|.\CATJDialog\CNext\resources\msgcatalog\CheckBox.CATNls
DAT/002/CUS .\win_b64\resources\stylesheets\LCANav.XMLTheme|.\CATJDialog\CNext\resources\stylesheets\LCANav.XMLTheme
RTV/002/DSI .\win_b64\resources\msgcatalog\NlsTest\JDialogCommands.CATNls|.\CATJDialog\CNext\resources\msgcatalog\JDialogCommands.CATNls
DAT/002/CUS .\win_b64\resources\graphic\Theme_LCANav\ComboArrowH.gif|.\CATJDialog\CNext\resources\graphic\Theme_LCANav\ComboArrowH.gif
RTV/002/DSI .\win_b64\resources\msgcatalog\DbcsTest\TabPage.CATNls|.\CATJDialog\CNext\resources\msgcatalog\TabPage.CATNls
DAT/002/CUS .\win_b64\resources\graphic\SystemToolbar_Help.gif|.\CATJDialog\CNext\resources\graphic\SystemToolbar_Help.gif
DAT/002/CUS .\win_b64\resources\graphic\Theme_LCANav\TabPrevious.gif|.\CATJDialog\CNext\resources\graphic\Theme_LCANav\TabPrevious.gif
DAT/002/CUS .\win_b64\resources\graphic\Theme_LCANav\ToolbarSepH.gif|.\CATJDialog\CNext\resources\graphic\Theme_LCANav\ToolbarSepH.gif
DAT/002/CUS .\win_b64\resources\server\CATJdgCmdDesc.XMLServer|.\CATJDialog\CNext\resources\server\CATJdgCmdDesc.XMLServer
DAT/002/CUS .\win_b64\resources\graphic\Theme_LCANav\ButtonD.jpg|.\CATJDialog\CNext\resources\graphic\Theme_LCANav\ButtonD.jpg
DAT/002/CUS .\win_b64\resources\graphic\Theme_Dialog\ComboArrowH.gif|.\CATJDialog\CNext\resources\graphic\Theme_Dialog\ComboArrowH.gif
DAT/002/CUS .\win_b64\resources\graphic\icons\small\I_CMD_JDGAdministration.gif|.\CATJDialog\CNext\resources\graphic\icons\small\I_CMD_JDGAdministration.gif
DAT/002/CUS .\win_b64\resources\graphic\CollapseLeft.gif|.\CATJDialog\CNext\resources\graphic\CollapseLeft.gif
DAT/002/CUS .\win_b64\resources\graphic\Theme_ENOVIA\Tree_LP.gif|.\CATJDialog\CNext\resources\graphic\Theme_ENOVIA\Tree_LP.gif
RTV/002/DSI .\win_b64\resources\msgcatalog\NlsTest\LongText.CATNls|.\CATJDialog\CNext\resources\msgcatalog\LongText.CATNls
DAT/002/CUS .\win_b64\resources\graphic\Workbook_Home.jpg|.\CATJDialog\CNext\resources\graphic\Workbook_Home.jpg
DAT/002/CUS .\win_b64\resources\msgcatalog\TabPage.CATNls|.\CATJDialog\CNext\resources\msgcatalog\TabPage.CATNls
DAT/002/CUS .\win_b64\resources\msgcatalog\DateEditor.CATNls|.\CATJDialog\CNext\resources\msgcatalog\DateEditor.CATNls
DAT/002/CUS .\win_b64\resources\graphic\Globe.gif|.\CATJDialog\CNext\resources\graphic\Globe.gif
DAT/002/CUS .\win_b64\resources\graphic\Theme_Dialog\PortletPrevious.gif|.\CATJDialog\CNext\resources\graphic\Theme_Dialog\PortletPrevious.gif
DAT/002/CUS .\win_b64\resources\widget\Frame.XMLWidget|.\CATJDialog\CNext\resources\widget\Frame.XMLWidget
DAT/002/CUS .\win_b64\resources\graphic\Theme_Dialog\Tree_T.gif|.\CATJDialog\CNext\resources\graphic\Theme_Dialog\Tree_T.gif
DAT/002/CUS .\win_b64\resources\graphic\Theme_ENOVIA\TableBack.gif|.\CATJDialog\CNext\resources\graphic\Theme_ENOVIA\TableBack.gif
DAT/002/CUS .\win_b64\resources\graphic\Theme_HomePage\MessageBoxMore.gif|.\CATJDialog\CNext\resources\graphic\Theme_HomePage\MessageBoxMore.gif
DAT/002/CUS .\win_b64\resources\graphic\Theme_HomePage\SortedAsc.gif|.\CATJDialog\CNext\resources\graphic\Theme_HomePage\SortedAsc.gif
DAT/002/CUS .\win_b64\resources\graphic\CATJDialogWARNING.jpg|.\CATJDialog\CNext\resources\graphic\CATJDialogWARNING.jpg
DAT/002/CUS .\win_b64\resources\graphic\RadioDisable.gif|.\CATJDialog\CNext\resources\graphic\RadioDisable.gif
DAT/002/CUS .\win_b64\resources\graphic\icons\small\I_CMD_JDGC2A.gif|.\CATJDialog\CNext\resources\graphic\icons\small\I_CMD_JDGC2A.gif
DAT/002/CUS .\win_b64\resources\graphic\CAT2DViewer_Pan.jpg|.\CATJDialog\CNext\resources\graphic\CAT2DViewer_Pan.jpg
DAT/002/CUS .\win_b64\resources\msgcatalog\3DViewer.CATNls|.\CATJDialog\CNext\resources\msgcatalog\3DViewer.CATNls
DAT/002/CUS .\win_b64\resources\msgcatalog\WebLink.CATNls|.\CATJDialog\CNext\resources\msgcatalog\WebLink.CATNls
RTV/002/DSI .\win_b64\resources\msgcatalog\NlsTest\JDialogMessages.CATNls|.\CATJDialog\CNext\resources\msgcatalog\JDialogMessages.CATNls
DAT/002/CUS .\win_b64\resources\graphic\Theme_Dialog\PortletKill.gif|.\CATJDialog\CNext\resources\graphic\Theme_Dialog\PortletKill.gif
DAT/002/CUS .\win_b64\resources\graphic\Theme_HomePage\ShadingLeftSelected.jpg|.\CATJDialog\CNext\resources\graphic\Theme_HomePage\ShadingLeftSelected.jpg
DAT/002/CUS .\win_b64\resources\msgcatalog\Tree.CATNls|.\CATJDialog\CNext\resources\msgcatalog\Tree.CATNls
DAT/002/CUS .\win_b64\resources\graphic\Theme_Dialog\PortletKillAll.gif|.\CATJDialog\CNext\resources\graphic\Theme_Dialog\PortletKillAll.gif
DAT/002/CUS .\win_b64\resources\graphic\Theme_HomePage\BannerBg.jpg|.\CATJDialog\CNext\resources\graphic\Theme_HomePage\BannerBg.jpg
DAT/002/CUS .\win_b64\resources\widget\RadioButton.XMLWidget|.\CATJDialog\CNext\resources\widget\RadioButton.XMLWidget
DAT/002/CUS .\win_b64\resources\graphic\Theme_ENOVIA\TabNextDisable.jpg|.\CATJDialog\CNext\resources\graphic\Theme_ENOVIA\TabNextDisable.jpg
DAT/002/CUS .\win_b64\resources\graphic\icons\normal\I_CMD_JDGEdit.gif|.\CATJDialog\CNext\resources\graphic\icons\normal\I_CMD_JDGEdit.gif
DAT/002/CUS .\win_b64\resources\msgcatalog\Button.CATNls|.\CATJDialog\CNext\resources\msgcatalog\Button.CATNls
DAT/002/CUS .\win_b64\resources\graphic\Theme_Dialog\TabNext.jpg|.\CATJDialog\CNext\resources\graphic\Theme_Dialog\TabNext.jpg
RTV/002/DSI .\win_b64\resources\msgcatalog\DbcsTest\Calendar.CATNls|.\CATJDialog\CNext\resources\msgcatalog\Calendar.CATNls
DAT/002/CUS .\win_b64\resources\msgcatalog\UploadButton.CATNls|.\CATJDialog\CNext\resources\msgcatalog\UploadButton.CATNls
DAT/002/CUS .\win_b64\resources\graphic\Theme_HomePage\TableToolbarHighlight.jpg|.\CATJDialog\CNext\resources\graphic\Theme_HomePage\TableToolbarHighlight.jpg
DAT/002/CUS .\win_b64\resources\msgcatalog\JDialogPrefs.CATNls|.\CATJDialog\CNext\resources\msgcatalog\JDialogPrefs.CATNls
DAT/002/CUS .\win_b64\resources\graphic\Theme_HomePage\PortletSelectorDropDown.gif|.\CATJDialog\CNext\resources\graphic\Theme_HomePage\PortletSelectorDropDown.gif
DAT/002/CUS .\win_b64\resources\graphic\jdgfilter_delete.gif|.\CATJDialog\CNext\resources\graphic\jdgfilter_delete.gif
DAT/002/CUS .\win_b64\resources\graphic\Theme_Dialog\ComboArrow.gif|.\CATJDialog\CNext\resources\graphic\Theme_Dialog\ComboArrow.gif
DAT/002/CUS .\win_b64\resources\graphic\CAT3DViewer_Reframe.jpg|.\CATJDialog\CNext\resources\graphic\CAT3DViewer_Reframe.jpg
IDA/002/DSI .\win_b64\startup\JSystem.prp|.\CATJDialog\CNext.internal\startup\JSystem.prp
DAT/002/CUS .\win_b64\resources\graphic\Theme_HomePage\PortletMin.gif|.\CATJDialog\CNext\resources\graphic\Theme_HomePage\PortletMin.gif
DAT/002/CUS .\win_b64\resources\graphic\CheckDisable.bmp|.\CATJDialog\CNext\resources\graphic\CheckDisable.bmp
DAT/002/CUS .\win_b64\resources\graphic\Theme_Dialog\ScrollH.jpg|.\CATJDialog\CNext\resources\graphic\Theme_Dialog\ScrollH.jpg
DAT/002/CUS .\win_b64\resources\graphic\Theme_ENOVIA\Tree_TP.gif|.\CATJDialog\CNext\resources\graphic\Theme_ENOVIA\Tree_TP.gif
DAT/002/CUS .\win_b64\resources\graphic\Theme_HomePage\PortletKill.gif|.\CATJDialog\CNext\resources\graphic\Theme_HomePage\PortletKill.gif
DAT/002/CUS .\win_b64\resources\graphic\Theme_Dialog\Tab.jpg|.\CATJDialog\CNext\resources\graphic\Theme_Dialog\Tab.jpg
DAT/002/CUS .\win_b64\resources\msgcatalog\SettingRepository.CATNls|.\CATJDialog\CNext\resources\msgcatalog\SettingRepository.CATNls
DAT/002/CUS .\win_b64\resources\servlet\applet.XMLServlet|.\CATJDialog\CNext\resources\servlet\applet.XMLServlet
DAT/002/CUS .\win_b64\resources\widget\CheckBox.XMLWidget|.\CATJDialog\CNext\resources\widget\CheckBox.XMLWidget
DAT/002/CUS .\win_b64\resources\msgcatalog\2DViewer.CATNls|.\CATJDialog\CNext\resources\msgcatalog\2DViewer.CATNls
DAT/002/CUS .\win_b64\resources\graphic\Theme_Dialog\TabPrevious.jpg|.\CATJDialog\CNext\resources\graphic\Theme_Dialog\TabPrevious.jpg
DAT/002/CUS .\win_b64\resources\graphic\WebPartIcon_Actions.gif|.\CATJDialog\CNext\resources\graphic\WebPartIcon_Actions.gif
DAT/002/CUS .\win_b64\resources\servlet\hcb.XMLServlet|.\CATJDialog\CNext\resources\servlet\hcb.XMLServlet
DAT/002/CUS .\win_b64\resources\graphic\CATJDialogEnovia80.jpg|.\CATJDialog\CNext\resources\graphic\CATJDialogEnovia80.jpg
DAT/002/CUS .\win_b64\resources\graphic\Theme_LCANav\WebPartFrame.gif|.\CATJDialog\CNext\resources\graphic\Theme_LCANav\WebPartFrame.gif
DAT/002/CUS .\win_b64\resources\graphic\Theme_HomePage\ScrollArrowRight.jpg|.\CATJDialog\CNext\resources\graphic\Theme_HomePage\ScrollArrowRight.jpg
DAT/002/CUS .\win_b64\resources\graphic\WebPartBannerTop_News.gif|.\CATJDialog\CNext\resources\graphic\WebPartBannerTop_News.gif
DAT/002/CUS .\win_b64\resources\graphic\Workbook_ENOVIA.gif|.\CATJDialog\CNext\resources\graphic\Workbook_ENOVIA.gif
DAT/002/CUS .\win_b64\resources\graphic\Theme_HomePage\SortedDesc.gif|.\CATJDialog\CNext\resources\graphic\Theme_HomePage\SortedDesc.gif
DAT/002/CUS .\win_b64\resources\graphic\I_Msg_KO.gif|.\CATJDialog\CNext\resources\graphic\I_Msg_KO.gif
DAT/002/CUS .\win_b64\resources\graphic\Theme_Dialog\TableShiftLeft.gif|.\CATJDialog\CNext\resources\graphic\Theme_Dialog\TableShiftLeft.gif
RTV/002/DSI .\win_b64\resources\msgcatalog\DbcsTest\UploadBox.CATNls|.\CATJDialog\CNext\resources\msgcatalog\UploadBox.CATNls
DAT/002/CUS .\win_b64\resources\graphic\Theme_ENOVIA\TableShiftRight.gif|.\CATJDialog\CNext\resources\graphic\Theme_ENOVIA\TableShiftRight.gif
DAT/002/CUS .\win_b64\resources\graphic\Theme_ENOVIA\Tree_V.gif|.\CATJDialog\CNext\resources\graphic\Theme_ENOVIA\Tree_V.gif
DAT/002/CUS .\win_b64\resources\widget\DialogFrame.XMLWidget|.\CATJDialog\CNext\resources\widget\DialogFrame.XMLWidget
RTV/002/DSI .\win_b64\resources\msgcatalog\NlsTest\CAT2DViewer.CATNls|.\CATJDialog\CNext\resources\msgcatalog\CAT2DViewer.CATNls
DAT/002/CUS .\win_b64\resources\graphic\CAT3DViewer_ENOVWebSectionCmd.jpg|.\CATJDialog\CNext\resources\graphic\CAT3DViewer_ENOVWebSectionCmd.jpg
RTV/002/DSI .\win_b64\resources\msgcatalog\DbcsTest\JDialogCommands.CATNls|.\CATJDialog\CNext\resources\msgcatalog\JDialogCommands.CATNls
DAT/002/CUS .\win_b64\resources\jscript\CATViewer.js|.\CATJDialog\CNext\resources\jscript\CATViewer.js
RTV/002/DSI .\win_b64\resources\msgcatalog\NlsTest\SettingRepository.CATNls|.\CATJDialog\CNext\resources\msgcatalog\SettingRepository.CATNls
DAT/002/CUS .\win_b64\resources\graphic\Theme_Dialog\TabPreviousDisable.jpg|.\CATJDialog\CNext\resources\graphic\Theme_Dialog\TabPreviousDisable.jpg
DAT/002/CUS .\win_b64\resources\graphic\Theme_Dialog\Toolbar_ButtonHV.jpg|.\CATJDialog\CNext\resources\graphic\Theme_Dialog\Toolbar_ButtonHV.jpg
DAT/002/CUS .\win_b64\resources\graphic\Theme_LCANav\ToolbarExpArrowH.gif|.\CATJDialog\CNext\resources\graphic\Theme_LCANav\ToolbarExpArrowH.gif
DAT/002/CUS .\win_b64\resources\msgcatalog\DocumentManager.CATNls|.\CATJDialog\CNext\resources\msgcatalog\DocumentManager.CATNls
RTV/002/DSI .\win_b64\resources\msgcatalog\NlsTest\Label.CATNls|.\CATJDialog\CNext\resources\msgcatalog\Label.CATNls
DAT/002/CUS .\win_b64\resources\graphic\Theme_HomePage\ButtonDisabled.jpg|.\CATJDialog\CNext\resources\graphic\Theme_HomePage\ButtonDisabled.jpg
DAT/002/CUS .\win_b64\resources\widget\WebLink.XMLWidget|.\CATJDialog\CNext\resources\widget\WebLink.XMLWidget
DAT/002/CUS .\win_b64\resources\dialog\ErrorBox.XMLDlg|.\CATJDialog\CNext\resources\dialog\ErrorBox.XMLDlg
DAT/002/CUS .\win_b64\resources\graphic\CAT2DViewer_Next.jpg|.\CATJDialog\CNext\resources\graphic\CAT2DViewer_Next.jpg
DAT/002/CUS .\win_b64\resources\graphic\CAT2DViewer_Reframe.jpg|.\CATJDialog\CNext\resources\graphic\CAT2DViewer_Reframe.jpg
DAT/002/CUS .\win_b64\resources\servlet\xcb.XMLServlet|.\CATJDialog\CNext\resources\servlet\xcb.XMLServlet
DAT/002/CUS .\win_b64\resources\widget\OptionPanel.XMLWidget|.\CATJDialog\CNext\resources\widget\OptionPanel.XMLWidget
DAT/002/CUS .\win_b64\resources\graphic\Theme_HomePage\HomeletEdit.gif|.\CATJDialog\CNext\resources\graphic\Theme_HomePage\HomeletEdit.gif
DAT/002/CUS .\win_b64\resources\msgcatalog\RadioButton.CATNls|.\CATJDialog\CNext\resources\msgcatalog\RadioButton.CATNls
RTV/002/DSI .\win_b64\resources\msgcatalog\DbcsTest\RadioButton.CATNls|.\CATJDialog\CNext\resources\msgcatalog\RadioButton.CATNls
DAT/002/CUS .\win_b64\resources\graphic\Theme_Dialog\TabBorder.jpg|.\CATJDialog\CNext\resources\graphic\Theme_Dialog\TabBorder.jpg
DAT/002/CUS .\win_b64\resources\graphic\Theme_LCANav\Tree_LW.gif|.\CATJDialog\CNext\resources\graphic\Theme_LCANav\Tree_LW.gif
DAT/002/CUS .\win_b64\resources\widget\Button.XMLWidget|.\CATJDialog\CNext\resources\widget\Button.XMLWidget
DAT/002/CUS .\win_b64\resources\widget\DialogBox.XMLWidget|.\CATJDialog\CNext\resources\widget\DialogBox.XMLWidget
DAT/002/CUS .\win_b64\resources\graphic\Workbook_Search.gif|.\CATJDialog\CNext\resources\graphic\Workbook_Search.gif
DAT/002/CUS .\win_b64\resources\graphic\Toolbar_ButtonH.gif|.\CATJDialog\CNext\resources\graphic\Toolbar_ButtonH.gif
DAT/002/CUS .\win_b64\resources\odtdriver\RowNb.XMLRecordDriver|.\CATJDialog\CNext\resources\odtdriver\RowNb.XMLRecordDriver
DAT/002/CUS .\win_b64\resources\graphic\Workbook_FolderRemote.jpg|.\CATJDialog\CNext\resources\graphic\Workbook_FolderRemote.jpg
DAT/002/CUS .\win_b64\resources\graphic\File.gif|.\CATJDialog\CNext\resources\graphic\File.gif
DAT/002/CUS .\win_b64\resources\graphic\RadioCheck.gif|.\CATJDialog\CNext\resources\graphic\RadioCheck.gif
DAT/002/CUS .\win_b64\resources\msgcatalog\Wizard.CATNls|.\CATJDialog\CNext\resources\msgcatalog\Wizard.CATNls
DAT/002/CUS .\win_b64\resources\graphic\CATThemeEditor_Font.gif|.\CATJDialog\CNext\resources\graphic\CATThemeEditor_Font.gif
DAT/002/CUS .\win_b64\resources\msgcatalog\Frame.CATNls|.\CATJDialog\CNext\resources\msgcatalog\Frame.CATNls
DAT/002/CUS .\win_b64\resources\graphic\slider.cur|.\CATJDialog\CNext\resources\graphic\slider.cur
DAT/002/CUS .\win_b64\resources\graphic\Theme_ENOVIA\PortletPrevious.gif|.\CATJDialog\CNext\resources\graphic\Theme_ENOVIA\PortletPrevious.gif
DAT/002/CUS .\win_b64\resources\msgcatalog\CATMessageBox.CATNls|.\CATJDialog\CNext\resources\msgcatalog\CATMessageBox.CATNls
DAT/002/CUS .\win_b64\resources\graphic\Theme_Dialog\MessageBoxMore.gif|.\CATJDialog\CNext\resources\graphic\Theme_Dialog\MessageBoxMore.gif
DAT/002/CUS .\win_b64\resources\graphic\Theme_ENOVIA\HomeletSelectorPreFocus.gif|.\CATJDialog\CNext\resources\graphic\Theme_ENOVIA\HomeletSelectorPreFocus.gif
DAT/002/CUS .\win_b64\resources\servlet\xml.XMLServlet|.\CATJDialog\CNext\resources\servlet\xml.XMLServlet
DAT/002/CUS .\win_b64\resources\graphic\Theme_LCANav\Button.jpg|.\CATJDialog\CNext\resources\graphic\Theme_LCANav\Button.jpg
DAT/002/CUS .\win_b64\resources\jscript\FSCollapser.js|.\CATJDialog\CNext\resources\jscript\FSCollapser.js
IDA/002/DSI .\win_b64\resources\msgcatalog\French\MessageCatalogSelector.CATNls|.\CATJDialog\CNext.internal\resources\msgcatalog\French\MessageCatalogSelector.CATNls
DAT/002/CUS .\win_b64\resources\graphic\CAT3DViewer_Next.jpg|.\CATJDialog\CNext\resources\graphic\CAT3DViewer_Next.jpg
DAT/002/CUS .\win_b64\resources\servlet\xml2.XMLServlet|.\CATJDialog\CNext\resources\servlet\xml2.XMLServlet
@type='codeFramework'
@built='true'
