!<mkRTViewData> v1.0.0
INT/000/CUS .\win_b64\code\lib\XGMModel.exp|.\CATXGMOperators\XGMModel.m
BTV/000/CUS .\win_b64\code\lib\XGMModel.lib|.\CATXGMOperators\XGMModel.m
RTV/001/CUS .\win_b64\code\bin\XGMModel.dll|.\CATXGMOperators\XGMModel.m
CSC/000/DSI .\CATXGMOperators\XGMModel.m\Objects\win_b64\mkcsc\XGMModel.cscdb|.\CATXGMOperators\XGMModel.m
INT/000/CUS .\win_b64\code\bin\XGMModel.pdb|.\CATXGMOperators\XGMModel.m
@type='SHARED_LIBRARY'
@clr='false'
@kind='NATIVE'
@deliverable='true'
@built='true'
