!<mkRTViewData> v1.0.0
INT/000/CUS .\win_b64\code\lib\CATExpertDriver.exp|.\KnowledgeEngineOM\CATExpertDriver.m
RTV/001/CUS .\win_b64\code\bin\CATExpertDriver.dll|.\KnowledgeEngineOM\CATExpertDriver.m
CSC/000/DSI .\KnowledgeEngineOM\CATExpertDriver.m\Objects\win_b64\mkcsc\CATExpertDriver.cscdb|.\KnowledgeEngineOM\CATExpertDriver.m
BTV/000/CUS .\win_b64\code\lib\CATExpertDriver.lib|.\KnowledgeEngineOM\CATExpertDriver.m
INT/000/CUS .\win_b64\code\bin\CATExpertDriver.pdb|.\KnowledgeEngineOM\CATExpertDriver.m
@type='SHARED_LIBRARY'
@clr='false'
@kind='NATIVE'
@deliverable='true'
@built='true'
