!<mkRTViewData> v1.0.0
CSC/000/DSI .\GMPolyOperators\GMPolyBodyServices.m\Objects\win_b64\mkcsc\GMPolyBodyServices.cscdb|.\GMPolyOperators\GMPolyBodyServices.m
@type='NONE'
@clr='false'
@kind='INCLUDED'
@deliverable='true'
@built='true'
