!<mkRTViewData> v1.0.0
INT/000/CUS .\win_b64\code\lib\CATCGMCleaner.exp|.\CGMV5Interoperability\CATCGMCleaner.m
CSC/000/DSI .\CGMV5Interoperability\CATCGMCleaner.m\Objects\win_b64\mkcsc\CATCGMCleaner.cscdb|.\CGMV5Interoperability\CATCGMCleaner.m
INT/000/CUS .\win_b64\code\bin\CATCGMCleaner.pdb|.\CGMV5Interoperability\CATCGMCleaner.m
BTV/000/CUS .\win_b64\code\lib\CATCGMCleaner.lib|.\CGMV5Interoperability\CATCGMCleaner.m
RTV/001/CUS .\win_b64\code\bin\CATCGMCleaner.dll|.\CGMV5Interoperability\CATCGMCleaner.m
@type='SHARED_LIBRARY'
@clr='false'
@kind='NATIVE'
@deliverable='true'
@built='true'
