!<mkRTViewData> v1.0.0
CSC/000/DSI .\CATIABaseIAO\IAODataPack.m\Objects\win_b64\mkcsc\IAODataPack.cscdb|.\CATIABaseIAO\IAODataPack.m
@type='NONE'
@clr='false'
@kind='INCLUDED'
@deliverable='true'
@built='true'
