!<mkRTViewData> v1.0.0
INT/000/CUS .\win_b64\code\lib\CATSkuCommands.exp|.\SketcherUI\CATSkuCommands.m
INT/000/CUS .\win_b64\code\bin\CATSkuCommands.pdb|.\SketcherUI\CATSkuCommands.m
CSC/000/DSI .\SketcherUI\CATSkuCommands.m\Objects\win_b64\mkcsc\CATSkuCommands.cscdb|.\SketcherUI\CATSkuCommands.m
BTV/000/CUS .\win_b64\code\lib\CATSkuCommands.lib|.\SketcherUI\CATSkuCommands.m
RTV/001/CUS .\win_b64\code\bin\CATSkuCommands.dll|.\SketcherUI\CATSkuCommands.m
@type='SHARED_LIBRARY'
@clr='false'
@kind='NATIVE'
@deliverable='true'
@built='true'
