!<mkRTViewData> v1.0.0
INT/000/CUS .\win_b64\code\bin\VPMSettings.pdb|.\VPMServices\VPMSettings.m
CSC/000/DSI .\VPMServices\VPMSettings.m\Objects\win_b64\mkcsc\VPMSettings.cscdb|.\VPMServices\VPMSettings.m
RTV/001/CUS .\win_b64\code\bin\VPMSettings.exe|.\VPMServices\VPMSettings.m
@type='LOAD_MODULE'
@clr='false'
@kind='NATIVE'
@deliverable='true'
@built='true'
