!<mkRTViewData> v1.0.0
CSC/000/DSI .\DNBIgpSetupModel\DNBIgpManip.m\Objects\win_b64\mkcsc\DNBIgpManip.cscdb|.\DNBIgpSetupModel\DNBIgpManip.m
@type='NONE'
@clr='false'
@kind='INCLUDED'
@deliverable='true'
@built='true'
