!<mkRTViewData> v1.0.0
CSC/000/DSI .\GeometricObjectsCATIA\YP00FACT.m\Objects\win_b64\mkcsc\YP00FACT.cscdb|.\GeometricObjectsCATIA\YP00FACT.m
@type='NONE'
@clr='false'
@kind='INCLUDED'
@deliverable='true'
@built='true'
