!<mkRTViewData> v1.0.0
RTV/002/DSI .\win_b64\code\productIC\DNBManufacturingLayoutItfIC.required|.\DNBManufacturingLayoutItf
CSC/002/DSI .\DNBManufacturingLayoutItf\IdentityCard\Objects\win_b64\mkcsc\DNBManufacturingLayoutItf.cscdb|.\DNBManufacturingLayoutItf
BTV/002/CUS .\win_b64\code\productIC\DNBManufacturingLayoutItfIC.xml|.\DNBManufacturingLayoutItf
DAT/002/CUS .\win_b64\code\dictionary\DNBManufacturingLayoutItf.iid|.\DNBManufacturingLayoutItf\CNext\code\dictionary\DNBManufacturingLayoutItf.iid
BTV/002/CUS .\win_b64\code\productIC\DNBManufacturingLayoutItfIC.script|.\DNBManufacturingLayoutItf
@type='codeFramework'
@built='true'
