!<mkRTViewData> v1.0.0
CSC/000/DSI .\DraftingInterfaces\DraftingItfCPP.m\Objects\win_b64\mkcsc\DraftingItfCPP.cscdb|.\DraftingInterfaces\DraftingItfCPP.m
@type='NONE'
@clr='false'
@kind='INCLUDED'
@deliverable='true'
@built='true'
