!<mkRTViewData> v1.0.0
RTV/002/DSI .\win_b64\code\productIC\DNBRobotInterfacesIC.required|.\DNBRobotInterfaces
BTV/002/CUS .\win_b64\code\productIC\DNBRobotInterfacesIC.script|.\DNBRobotInterfaces
DAT/002/CUS .\win_b64\code\dictionary\DNBRobotInterfaces.iid|.\DNBRobotInterfaces\CNext\code\dictionary\DNBRobotInterfaces.iid
BTV/002/CUS .\win_b64\code\productIC\DNBRobotInterfacesIC.xml|.\DNBRobotInterfaces
CSC/002/DSI .\DNBRobotInterfaces\IdentityCard\Objects\win_b64\mkcsc\DNBRobotInterfaces.cscdb|.\DNBRobotInterfaces
DAT/002/CUS .\win_b64\code\dictionary\DNBRobotInterfaces.dic|.\DNBRobotInterfaces\CNext\code\dictionary\DNBRobotInterfaces.dic
@type='codeFramework'
@built='true'
