!<mkRTViewData> v1.0.0
CSC/000/DSI .\Communications\CATComDrvMQcs.m\Objects\win_b64\mkcsc\CATComDrvMQcs.cscdb|.\Communications\CATComDrvMQcs.m
@type='SHARED_LIBRARY'
@clr='false'
@kind='NATIVE'
@deliverable='true'
@built='false'
