!<mkRTViewData> v1.0.0
INT/000/CUS .\win_b64\code\bin\JREChecker.pdb|.\V5JSystem\V5JsyJRECheckerCmd.m
CSC/000/DSI .\V5JSystem\V5JsyJRECheckerCmd.m\Objects\win_b64\mkcsc\V5JsyJRECheckerCmd.cscdb|.\V5JSystem\V5JsyJRECheckerCmd.m
RTV/001/CUS .\win_b64\code\bin\JREChecker.exe|.\V5JSystem\V5JsyJRECheckerCmd.m
@type='LOAD_MODULE'
@clr='false'
@kind='NATIVE'
@deliverable='true'
@built='true'
