!<mkRTViewData> v1.0.0
RTV/001/CUS .\win_b64\code\bin\PRSINGLEUSER.dll|.\DatabaseServices\PRSINGLEUSER.m
BTV/000/CUS .\win_b64\code\lib\PRSINGLEUSER.lib|.\DatabaseServices\PRSINGLEUSER.m
CSC/000/DSI .\DatabaseServices\PRSINGLEUSER.m\Objects\win_b64\mkcsc\PRSINGLEUSER.cscdb|.\DatabaseServices\PRSINGLEUSER.m
INT/000/CUS .\win_b64\code\lib\PRSINGLEUSER.exp|.\DatabaseServices\PRSINGLEUSER.m
INT/000/CUS .\win_b64\code\bin\PRSINGLEUSER.pdb|.\DatabaseServices\PRSINGLEUSER.m
@type='SHARED_LIBRARY'
@clr='false'
@kind='NATIVE'
@deliverable='true'
@built='true'
