!<mkRTViewData> v1.0.0
CSC/000/DSI .\DNBIgpSetupCommands\DNBIgpMount.m\Objects\win_b64\mkcsc\DNBIgpMount.cscdb|.\DNBIgpSetupCommands\DNBIgpMount.m
@type='NONE'
@clr='false'
@kind='INCLUDED'
@deliverable='true'
@built='true'
