!<mkRTViewData> v1.0.0
INT/000/CUS .\win_b64\code\bin\CATCinDocument.pdb|.\CDMAInteroperability\CATCinDocument.m
BTV/000/CUS .\win_b64\code\lib\CATCinDocument.lib|.\CDMAInteroperability\CATCinDocument.m
RTV/001/CUS .\win_b64\code\bin\CATCinDocument.dll|.\CDMAInteroperability\CATCinDocument.m
INT/000/CUS .\win_b64\code\lib\CATCinDocument.exp|.\CDMAInteroperability\CATCinDocument.m
CSC/000/DSI .\CDMAInteroperability\CATCinDocument.m\Objects\win_b64\mkcsc\CATCinDocument.cscdb|.\CDMAInteroperability\CATCinDocument.m
@type='SHARED_LIBRARY'
@clr='false'
@kind='NATIVE'
@deliverable='true'
@built='true'
