!<mkRTViewData> v1.0.0
CSC/000/DSI .\GSMUI\CATGuiWrapSurface.m\Objects\win_b64\mkcsc\CATGuiWrapSurface.cscdb|.\GSMUI\CATGuiWrapSurface.m
INT/000/CUS .\win_b64\code\lib\CATGuiWrapSurface.exp|.\GSMUI\CATGuiWrapSurface.m
RTV/001/CUS .\win_b64\code\bin\CATGuiWrapSurface.dll|.\GSMUI\CATGuiWrapSurface.m
INT/000/CUS .\win_b64\code\bin\CATGuiWrapSurface.pdb|.\GSMUI\CATGuiWrapSurface.m
BTV/000/CUS .\win_b64\code\lib\CATGuiWrapSurface.lib|.\GSMUI\CATGuiWrapSurface.m
@type='SHARED_LIBRARY'
@clr='false'
@kind='NATIVE'
@deliverable='true'
@built='true'
