!<mkRTViewData> v1.0.0
CSC/000/DSI .\CATCoreCavityInterfaces\CATCCSInterfacesUUID.m\Objects\win_b64\mkcsc\CATCCSInterfacesUUID.cscdb|.\CATCoreCavityInterfaces\CATCCSInterfacesUUID.m
BTV/000/CUS .\win_b64\code\lib\CATCCSInterfacesUUID.lib|.\CATCoreCavityInterfaces\CATCCSInterfacesUUID.m
@type='ARCHIVE'
@clr='false'
@kind='NATIVE'
@deliverable='true'
@built='true'
