!<mkRTViewData> v1.0.0
INT/000/CUS .\win_b64\code\bin\CATPdgExposedView.pdb|.\PartDesignFeature\CATPdgExposedView.m
BTV/000/CUS .\win_b64\code\lib\CATPdgExposedView.lib|.\PartDesignFeature\CATPdgExposedView.m
INT/000/CUS .\win_b64\code\lib\CATPdgExposedView.exp|.\PartDesignFeature\CATPdgExposedView.m
RTV/001/CUS .\win_b64\code\bin\CATPdgExposedView.dll|.\PartDesignFeature\CATPdgExposedView.m
CSC/000/DSI .\PartDesignFeature\CATPdgExposedView.m\Objects\win_b64\mkcsc\CATPdgExposedView.cscdb|.\PartDesignFeature\CATPdgExposedView.m
@type='SHARED_LIBRARY'
@clr='false'
@kind='NATIVE'
@deliverable='true'
@built='true'
