!<mkRTViewData> v1.0.0
RTV/001/CUS .\win_b64\code\bin\AUTCmnView.dll|.\AUTCmn\AUTCmnView.m
CSC/000/DSI .\AUTCmn\AUTCmnView.m\Objects\win_b64\mkcsc\AUTCmnView.cscdb|.\AUTCmn\AUTCmnView.m
INT/000/CUS .\win_b64\code\bin\AUTCmnView.pdb|.\AUTCmn\AUTCmnView.m
INT/000/CUS .\win_b64\code\lib\AUTCmnView.exp|.\AUTCmn\AUTCmnView.m
BTV/000/CUS .\win_b64\code\lib\AUTCmnView.lib|.\AUTCmn\AUTCmnView.m
@type='SHARED_LIBRARY'
@clr='false'
@kind='NATIVE'
@deliverable='true'
@built='true'
