!<mkRTViewData> v1.0.0
CSC/000/DSI .\CATAnnotationModeler\CATAnnBase.m\Objects\win_b64\mkcsc\CATAnnBase.cscdb|.\CATAnnotationModeler\CATAnnBase.m
@type='NONE'
@clr='false'
@kind='INCLUDED'
@deliverable='true'
@built='true'
