!<mkRTViewData> v1.0.0
BTV/000/CUS .\win_b64\code\lib\CATWGDiagramInterfacesUUID.lib|.\CATWGDiagramInterfaces\CATWGDiagramInterfacesUUID.m
CSC/000/DSI .\CATWGDiagramInterfaces\CATWGDiagramInterfacesUUID.m\Objects\win_b64\mkcsc\CATWGDiagramInterfacesUUID.cscdb|.\CATWGDiagramInterfaces\CATWGDiagramInterfacesUUID.m
@type='ARCHIVE'
@clr='false'
@kind='NATIVE'
@deliverable='true'
@built='true'
