!<mkRTViewData> v1.0.0
CSC/000/DSI .\ProductStructure\AS0STNAV.m\Objects\win_b64\mkcsc\AS0STNAV.cscdb|.\ProductStructure\AS0STNAV.m
@type='NONE'
@clr='false'
@kind='INCLUDED'
@deliverable='true'
@built='true'
