!<mkRTViewData> v1.0.0
CSC/000/DSI .\Mathematics\Mesures64.m\Objects\win_b64\mkcsc\Mesures64.cscdb|.\Mathematics\Mesures64.m
@type='NONE'
@clr='false'
@kind='INCLUDED'
@deliverable='true'
@built='true'
