!<mkRTViewData> v1.0.0
INT/000/CUS .\win_b64\code\lib\CATClnMaterial.exp|.\Material\CATClnMaterial.m
RTV/001/CUS .\win_b64\code\bin\CATClnMaterial.dll|.\Material\CATClnMaterial.m
BTV/000/CUS .\win_b64\code\lib\CATClnMaterial.lib|.\Material\CATClnMaterial.m
CSC/000/DSI .\Material\CATClnMaterial.m\Objects\win_b64\mkcsc\CATClnMaterial.cscdb|.\Material\CATClnMaterial.m
INT/000/CUS .\win_b64\code\bin\CATClnMaterial.pdb|.\Material\CATClnMaterial.m
@type='SHARED_LIBRARY'
@clr='false'
@kind='NATIVE'
@deliverable='true'
@built='true'
