!<mkRTViewData> v1.0.0
CSC/000/DSI .\DraftingUI\CATDuiMVAnalyse.m\Objects\win_b64\mkcsc\CATDuiMVAnalyse.cscdb|.\DraftingUI\CATDuiMVAnalyse.m
@type='NONE'
@clr='false'
@kind='INCLUDED'
@deliverable='true'
@built='true'
