!<mkRTViewData> v1.0.0
CSC/000/DSI .\DNBReportingInterfaces\DNBReportingPubIDL.m\Objects\win_b64\mkcsc\DNBReportingPubIDL.cscdb|.\DNBReportingInterfaces\DNBReportingPubIDL.m
@type='NONE'
@clr='false'
@kind='INCLUDED'
@deliverable='true'
@built='true'
