!<mkRTViewData> v1.0.0
RTV/000/CUS .\win_b64\docs\javaserver\PLBcorbaProxy.jar|.\V5JSystem\PLBcorbaProxy.mj
RTV/000/CUS .\win_b64\docs\java\PLBcorbaProxy.jar|.\V5JSystem\PLBcorbaProxy.mj
CSC/000/DSI .\V5JSystem\PLBcorbaProxy.mj\Objects\win_b64\mkcsc\PLBcorbaProxy.cscdb|.\V5JSystem\PLBcorbaProxy.mj
@type='JAVA_COMMON'
@clr='false'
@kind='JAVA'
@deliverable='true'
@built='true'
