!<mkRTViewData> v1.0.0
INT/000/CUS .\win_b64\code\bin\CATGmoOperators.pdb|.\GSMModel\CATGmoOperators.m
INT/000/CUS .\win_b64\code\lib\CATGmoOperators.exp|.\GSMModel\CATGmoOperators.m
BTV/000/CUS .\win_b64\code\lib\CATGmoOperators.lib|.\GSMModel\CATGmoOperators.m
RTV/001/CUS .\win_b64\code\bin\CATGmoOperators.dll|.\GSMModel\CATGmoOperators.m
CSC/000/DSI .\GSMModel\CATGmoOperators.m\Objects\win_b64\mkcsc\CATGmoOperators.cscdb|.\GSMModel\CATGmoOperators.m
@type='SHARED_LIBRARY'
@clr='false'
@kind='NATIVE'
@deliverable='true'
@built='true'
