!<mkRTViewData> v1.0.0
CSC/000/DSI .\Mainwin\CATMainwinInit.m\Objects\win_b64\mkcsc\CATMainwinInit.cscdb|.\Mainwin\CATMainwinInit.m
@type='SHARED_LIBRARY'
@clr='false'
@kind='NATIVE'
@deliverable='true'
@built='false'
