!<mkRTViewData> v1.0.0
CSC/000/DSI .\CATCoreCavitySeparationUI\CATCCSPartingSurfaceUI.m\Objects\win_b64\mkcsc\CATCCSPartingSurfaceUI.cscdb|.\CATCoreCavitySeparationUI\CATCCSPartingSurfaceUI.m
@type='NONE'
@clr='false'
@kind='INCLUDED'
@deliverable='true'
@built='true'
