!<mkRTViewData> v1.0.0
BTV/000/CUS .\win_b64\code\lib\CATClnFIT.lib|.\FittingSimulation\CATClnFIT.m
RTV/001/CUS .\win_b64\code\bin\CATClnFIT.dll|.\FittingSimulation\CATClnFIT.m
INT/000/CUS .\win_b64\code\lib\CATClnFIT.exp|.\FittingSimulation\CATClnFIT.m
CSC/000/DSI .\FittingSimulation\CATClnFIT.m\Objects\win_b64\mkcsc\CATClnFIT.cscdb|.\FittingSimulation\CATClnFIT.m
INT/000/CUS .\win_b64\code\bin\CATClnFIT.pdb|.\FittingSimulation\CATClnFIT.m
@type='SHARED_LIBRARY'
@clr='false'
@kind='NATIVE'
@deliverable='true'
@built='true'
