!<mkRTViewData> v1.0.0
RTV/000/CUS .\win_b64\resources\msgcatalog\CATPrtPropertyEditor.CATRsc|.\PartDesignFeature\PartDesignFeatureV5Resources.m\src\resources\msgcatalog\CATPrtPropertyEditor.CATRsc
@type='RUNTIME_DATA'
@clr='false'
@kind='DATA'
@deliverable='true'
@built='true'
