!<mkRTViewData> v1.0.0
CSC/000/DSI .\TopologicalOperatorsLight\HybOper.m\Objects\win_b64\mkcsc\HybOper.cscdb|.\TopologicalOperatorsLight\HybOper.m
@type='NONE'
@clr='false'
@kind='INCLUDED'
@deliverable='true'
@built='true'
