!<mkRTViewData> v1.0.0
CSC/000/DSI .\CATReporterModeler\CATRpmXML.m\Objects\win_b64\mkcsc\CATRpmXML.cscdb|.\CATReporterModeler\CATRpmXML.m
INT/000/CUS .\win_b64\code\bin\CATRpmXML.pdb|.\CATReporterModeler\CATRpmXML.m
RTV/001/CUS .\win_b64\code\bin\CATRpmXML.dll|.\CATReporterModeler\CATRpmXML.m
BTV/000/CUS .\win_b64\code\lib\CATRpmXML.lib|.\CATReporterModeler\CATRpmXML.m
INT/000/CUS .\win_b64\code\lib\CATRpmXML.exp|.\CATReporterModeler\CATRpmXML.m
@type='SHARED_LIBRARY'
@clr='false'
@kind='NATIVE'
@deliverable='true'
@built='true'
