!<mkRTViewData> v1.0.0
INT/000/CUS .\win_b64\code\bin\CATGuiCurve.pdb|.\GSMUI\CATGuiCurve.m
BTV/000/CUS .\win_b64\code\lib\CATGuiCurve.lib|.\GSMUI\CATGuiCurve.m
RTV/001/CUS .\win_b64\code\bin\CATGuiCurve.dll|.\GSMUI\CATGuiCurve.m
CSC/000/DSI .\GSMUI\CATGuiCurve.m\Objects\win_b64\mkcsc\CATGuiCurve.cscdb|.\GSMUI\CATGuiCurve.m
INT/000/CUS .\win_b64\code\lib\CATGuiCurve.exp|.\GSMUI\CATGuiCurve.m
@type='SHARED_LIBRARY'
@clr='false'
@kind='NATIVE'
@deliverable='true'
@built='true'
