!<mkRTViewData> v1.0.0
CSC/000/DSI .\MechanicalModelerUI\MechanicalModelerUIUUID.m\Objects\win_b64\mkcsc\MechanicalModelerUIUUID.cscdb|.\MechanicalModelerUI\MechanicalModelerUIUUID.m
BTV/000/CUS .\win_b64\code\lib\MechanicalModelerUIUUID.lib|.\MechanicalModelerUI\MechanicalModelerUIUUID.m
@type='ARCHIVE'
@clr='false'
@kind='NATIVE'
@deliverable='true'
@built='true'
