!<mkRTViewData> v1.0.0
CSC/000/DSI .\PartDesignUI\CATPDGUESCCP.m\Objects\win_b64\mkcsc\CATPDGUESCCP.cscdb|.\PartDesignUI\CATPDGUESCCP.m
@type='NONE'
@clr='false'
@kind='INCLUDED'
@deliverable='true'
@built='true'
