!<mkRTViewData> v1.0.0
CSC/000/DSI .\CATArrangement\CATArrangementUUID.m\Objects\win_b64\mkcsc\CATArrangementUUID.cscdb|.\CATArrangement\CATArrangementUUID.m
BTV/000/CUS .\win_b64\code\lib\CATArrangementUUID.lib|.\CATArrangement\CATArrangementUUID.m
@type='ARCHIVE'
@clr='false'
@kind='NATIVE'
@deliverable='true'
@built='true'
