!<mkRTViewData> v1.0.0
BTV/000/CUS .\win_b64\code\lib\ObjectModelerCATSDMUUID.lib|.\ObjectModelerCATSDM\ObjectModelerCATSDMUUID.m
CSC/000/DSI .\ObjectModelerCATSDM\ObjectModelerCATSDMUUID.m\Objects\win_b64\mkcsc\ObjectModelerCATSDMUUID.cscdb|.\ObjectModelerCATSDM\ObjectModelerCATSDMUUID.m
@type='ARCHIVE'
@clr='false'
@kind='NATIVE'
@deliverable='true'
@built='true'
