!<mkRTViewData> v1.0.0
CSC/000/DSI .\DNBResSensorInterfaces\DNBResSensorInterfacesUUID.m\Objects\win_b64\mkcsc\DNBResSensorInterfacesUUID.cscdb|.\DNBResSensorInterfaces\DNBResSensorInterfacesUUID.m
BTV/000/CUS .\win_b64\code\lib\DNBResSensorInterfacesUUID.lib|.\DNBResSensorInterfaces\DNBResSensorInterfacesUUID.m
@type='ARCHIVE'
@clr='false'
@kind='NATIVE'
@deliverable='true'
@built='true'
