!<mkRTViewData> v1.0.0
CSC/000/DSI .\System\SmartCATIALicense.m\Objects\win_b64\mkcsc\SmartCATIALicense.cscdb|.\System\SmartCATIALicense.m
@type='SHARED_LIBRARY'
@clr='false'
@kind='NATIVE'
@deliverable='true'
@built='false'
