!<mkRTViewData> v1.0.0
DAT/002/CUS .\win_b64\resources\graphic\icons\small\IP_WkIGRIPDeviceBuilder.bmp|.\DNBDeviceBuildingUI\CNext\resources\graphic\icons\small\IP_WkIGRIPDeviceBuilder.bmp
DAT/002/CUS .\win_b64\resources\graphic\icons\small\I_DNBDOFLimits.bmp|.\DNBDeviceBuildingUI\CNext\resources\graphic\icons\small\I_DNBDOFLimits.bmp
DAT/002/CUS .\win_b64\resources\graphic\icons\IP_WkAsIGRIPDeviceBuilder.bmp|.\DNBDeviceBuildingUI\CNext\resources\graphic\icons\IP_WkAsIGRIPDeviceBuilder.bmp
DAT/002/CUS .\win_b64\resources\graphic\icons\normal\I_DevTaskCmd.bmp|.\DNBDeviceBuildingUI\CNext\resources\graphic\icons\normal\I_DevTaskCmd.bmp
DAT/002/CUS .\win_b64\resources\graphic\icons\normal\IP_WkIGRIPDeviceBuilder.bmp|.\DNBDeviceBuildingUI\CNext\resources\graphic\icons\normal\IP_WkIGRIPDeviceBuilder.bmp
DAT/002/CUS .\win_b64\resources\graphic\icons\normal\I_DNBDOFLimits.bmp|.\DNBDeviceBuildingUI\CNext\resources\graphic\icons\normal\I_DNBDOFLimits.bmp
DAT/002/CUS .\win_b64\resources\graphic\icons\small\I_DNBJointRelation.bmp|.\DNBDeviceBuildingUI\CNext\resources\graphic\icons\small\I_DNBJointRelation.bmp
DAT/002/CUS .\win_b64\resources\graphic\icons\normal\I_DNBPlcmtFrms.bmp|.\DNBDeviceBuildingUI\CNext\resources\graphic\icons\normal\I_DNBPlcmtFrms.bmp
DAT/002/CUS .\win_b64\resources\graphic\icons\small\I_MaxJtSpeedAndAccl.bmp|.\DNBDeviceBuildingUI\CNext\resources\graphic\icons\small\I_MaxJtSpeedAndAccl.bmp
DAT/002/CUS .\win_b64\resources\graphic\icons\normal\I_WkIGRIPDeviceBuilder.bmp|.\DNBDeviceBuildingUI\CNext\resources\graphic\icons\normal\I_WkIGRIPDeviceBuilder.bmp
DAT/002/CUS .\win_b64\resources\graphic\icons\normal\I_DNBFrmSizeFrame.bmp|.\DNBDeviceBuildingUI\CNext\resources\graphic\icons\normal\I_DNBFrmSizeFrame.bmp
DAT/002/CUS .\win_b64\code\dictionary\DNBDeviceBuildingUI.iid|.\DNBDeviceBuildingUI\CNext\code\dictionary\DNBDeviceBuildingUI.iid
DAT/002/CUS .\win_b64\resources\graphic\icons\IF_WkAsIGRIPDeviceBuilder.bmp|.\DNBDeviceBuildingUI\CNext\resources\graphic\icons\IF_WkAsIGRIPDeviceBuilder.bmp
DAT/002/CUS .\win_b64\resources\graphic\icons\normal\I_DNBDBGSelectProdMode.bmp|.\DNBDeviceBuildingUI\CNext\resources\graphic\icons\normal\I_DNBDBGSelectProdMode.bmp
DAT/002/CUS .\win_b64\resources\msgcatalog\DNBDeviceWorkshop.CATRsc|.\DNBDeviceBuildingUI\CNext\resources\msgcatalog\DNBDeviceWorkshop.CATRsc
DAT/002/CUS .\win_b64\resources\graphic\icons\I_WkAsIGRIPDeviceBuilder.bmp|.\DNBDeviceBuildingUI\CNext\resources\graphic\icons\I_WkAsIGRIPDeviceBuilder.bmp
DAT/002/CUS .\win_b64\code\dictionary\DNBDeviceBuildingUI.dic|.\DNBDeviceBuildingUI\CNext\code\dictionary\DNBDeviceBuildingUI.dic
DAT/002/CUS .\win_b64\resources\msgcatalog\DNBDeviceWorkshop.CATNls|.\DNBDeviceBuildingUI\CNext\resources\msgcatalog\DNBDeviceWorkshop.CATNls
DAT/002/CUS .\win_b64\resources\msgcatalog\DNBDeviceBldSettingFramesOfIntEditor.CATRsc|.\DNBDeviceBuildingUI\CNext\resources\msgcatalog\DNBDeviceBldSettingFramesOfIntEditor.CATRsc
RTV/002/DSI .\win_b64\resources\msgcatalog\DbcsTest\DNBDeviceBldSettingFramesOfIntEditor.CATNls|.\DNBDeviceBuildingUI\CNext\resources\msgcatalog\DNBDeviceBldSettingFramesOfIntEditor.CATNls
RTV/002/DSI .\win_b64\resources\msgcatalog\NlsTest\DNBDeviceBldSettingFramesOfIntFrame.CATNls|.\DNBDeviceBuildingUI\CNext\resources\msgcatalog\DNBDeviceBldSettingFramesOfIntFrame.CATNls
DAT/002/CUS .\win_b64\resources\msgcatalog\DNBDeviceWorkshopCmdHeader.CATNls|.\DNBDeviceBuildingUI\CNext\resources\msgcatalog\DNBDeviceWorkshopCmdHeader.CATNls
DAT/002/CUS .\win_b64\resources\graphic\icons\normal\I_DNBCustomFrame.bmp|.\DNBDeviceBuildingUI\CNext\resources\graphic\icons\normal\I_DNBCustomFrame.bmp
DAT/002/CUS .\win_b64\resources\graphic\icons\normal\I_DNBDesignFrame.bmp|.\DNBDeviceBuildingUI\CNext\resources\graphic\icons\normal\I_DNBDesignFrame.bmp
DAT/002/CUS .\win_b64\resources\graphic\icons\normal\I_DNBDBGSelectDevMode.bmp|.\DNBDeviceBuildingUI\CNext\resources\graphic\icons\normal\I_DNBDBGSelectDevMode.bmp
DAT/002/CUS .\win_b64\resources\graphic\icons\normal\I_DNBJointRelation.bmp|.\DNBDeviceBuildingUI\CNext\resources\graphic\icons\normal\I_DNBJointRelation.bmp
DAT/002/CUS .\win_b64\resources\graphic\icons\small\I_WkIGRIPDeviceBuilder.bmp|.\DNBDeviceBuildingUI\CNext\resources\graphic\icons\small\I_WkIGRIPDeviceBuilder.bmp
DAT/002/CUS .\win_b64\resources\graphic\icons\small\I_DNBIKParams.bmp|.\DNBDeviceBuildingUI\CNext\resources\graphic\icons\small\I_DNBIKParams.bmp
RTV/002/DSI .\win_b64\resources\msgcatalog\NlsTest\DNBDeviceBldSettingFramesOfIntEditor.CATNls|.\DNBDeviceBuildingUI\CNext\resources\msgcatalog\DNBDeviceBldSettingFramesOfIntEditor.CATNls
RTV/002/DSI .\win_b64\resources\msgcatalog\NlsTest\DNBDeviceWorkshopCmdHeader.CATNls|.\DNBDeviceBuildingUI\CNext\resources\msgcatalog\DNBDeviceWorkshopCmdHeader.CATNls
DAT/002/CUS .\win_b64\resources\graphic\icons\normal\I_CreateFrameOfInterest.bmp|.\DNBDeviceBuildingUI\CNext\resources\graphic\icons\normal\I_CreateFrameOfInterest.bmp
DAT/002/CUS .\win_b64\resources\graphic\icons\small\I_DNBTimetable.bmp|.\DNBDeviceBuildingUI\CNext\resources\graphic\icons\small\I_DNBTimetable.bmp
RTV/002/DSI .\win_b64\resources\msgcatalog\NlsTest\DNBDBGSelectRadioHeader.CATNls|.\DNBDeviceBuildingUI\CNext\resources\msgcatalog\DNBDBGSelectRadioHeader.CATNls
DAT/002/CUS .\win_b64\resources\SettingsMetadata\DNBDBldFramesOfIntSettings.xml|.\DNBDeviceBuildingUI\CNext\resources\SettingsMetadata\DNBDBldFramesOfIntSettings.xml
CSC/002/DSI .\DNBDeviceBuildingUI\IdentityCard\Objects\win_b64\mkcsc\DNBDeviceBuildingUI.cscdb|.\DNBDeviceBuildingUI
DAT/002/CUS .\win_b64\resources\graphic\icons\IF_WkNvIGRIPDeviceBuilder.bmp|.\DNBDeviceBuildingUI\CNext\resources\graphic\icons\IF_WkNvIGRIPDeviceBuilder.bmp
DAT/002/CUS .\win_b64\resources\msgcatalog\DNBDeviceBldSettingFramesOfIntEditor.CATNls|.\DNBDeviceBuildingUI\CNext\resources\msgcatalog\DNBDeviceBldSettingFramesOfIntEditor.CATNls
DAT/002/CUS .\win_b64\resources\graphic\icons\I_WkNvIGRIPDeviceBuilder.bmp|.\DNBDeviceBuildingUI\CNext\resources\graphic\icons\I_WkNvIGRIPDeviceBuilder.bmp
DAT/002/CUS .\win_b64\resources\msgcatalog\DNBDeviceWorkshopCmdHeader.CATRsc|.\DNBDeviceBuildingUI\CNext\resources\msgcatalog\DNBDeviceWorkshopCmdHeader.CATRsc
RTV/002/DSI .\win_b64\resources\msgcatalog\DbcsTest\DNBDeviceBldSettingFramesOfIntFrame.CATNls|.\DNBDeviceBuildingUI\CNext\resources\msgcatalog\DNBDeviceBldSettingFramesOfIntFrame.CATNls
DAT/002/CUS .\win_b64\resources\msgcatalog\DNBDeviceBldSettingFramesOfIntFrame.CATNls|.\DNBDeviceBuildingUI\CNext\resources\msgcatalog\DNBDeviceBldSettingFramesOfIntFrame.CATNls
DAT/002/CUS .\win_b64\resources\msgcatalog\DNBDBGSelectRadioHeader.CATNls|.\DNBDeviceBuildingUI\CNext\resources\msgcatalog\DNBDBGSelectRadioHeader.CATNls
RTV/002/DSI .\win_b64\resources\msgcatalog\DbcsTest\DNBDBGSelectRadioHeader.CATNls|.\DNBDeviceBuildingUI\CNext\resources\msgcatalog\DNBDBGSelectRadioHeader.CATNls
RTV/002/DSI .\win_b64\resources\msgcatalog\DbcsTest\DNBDeviceWorkshopCmdHeader.CATNls|.\DNBDeviceBuildingUI\CNext\resources\msgcatalog\DNBDeviceWorkshopCmdHeader.CATNls
DAT/002/CUS .\win_b64\resources\graphic\icons\normal\IF_WkIGRIPDeviceBuilder.bmp|.\DNBDeviceBuildingUI\CNext\resources\graphic\icons\normal\IF_WkIGRIPDeviceBuilder.bmp
DAT/002/CUS .\win_b64\resources\graphic\icons\normal\I_TagVisualisation.bmp|.\DNBDeviceBuildingUI\CNext\resources\graphic\icons\normal\I_TagVisualisation.bmp
RTV/002/DSI .\win_b64\resources\msgcatalog\DbcsTest\DNBDeviceWorkshop.CATNls|.\DNBDeviceBuildingUI\CNext\resources\msgcatalog\DNBDeviceWorkshop.CATNls
DAT/002/CUS .\win_b64\resources\graphic\icons\small\I_DNBToolTip.bmp|.\DNBDeviceBuildingUI\CNext\resources\graphic\icons\small\I_DNBToolTip.bmp
DAT/002/CUS .\win_b64\resources\msgcatalog\DNBDeviceWorkshopAlias.CATRsc|.\DNBDeviceBuildingUI\CNext\resources\msgcatalog\DNBDeviceWorkshopAlias.CATRsc
DAT/002/CUS .\win_b64\resources\graphic\icons\normal\I_DNBDBGSelectFeatMode.bmp|.\DNBDeviceBuildingUI\CNext\resources\graphic\icons\normal\I_DNBDBGSelectFeatMode.bmp
DAT/002/CUS .\win_b64\resources\graphic\icons\small\I_DNBDBGSelectFeatMode.bmp|.\DNBDeviceBuildingUI\CNext\resources\graphic\icons\small\I_DNBDBGSelectFeatMode.bmp
DAT/002/CUS .\win_b64\resources\graphic\icons\normal\I_DNBBaseFrame.bmp|.\DNBDeviceBuildingUI\CNext\resources\graphic\icons\normal\I_DNBBaseFrame.bmp
DAT/002/CUS .\win_b64\resources\graphic\icons\normal\I_DNBIKParams.bmp|.\DNBDeviceBuildingUI\CNext\resources\graphic\icons\normal\I_DNBIKParams.bmp
DAT/002/CUS .\win_b64\resources\graphic\icons\normal\I_DNBToolFrame.bmp|.\DNBDeviceBuildingUI\CNext\resources\graphic\icons\normal\I_DNBToolFrame.bmp
DAT/002/CUS .\win_b64\resources\graphic\icons\small\I_DevTaskCmd.bmp|.\DNBDeviceBuildingUI\CNext\resources\graphic\icons\small\I_DevTaskCmd.bmp
DAT/002/CUS .\win_b64\resources\graphic\icons\normal\I_MaxJtSpeedAndAccl.bmp|.\DNBDeviceBuildingUI\CNext\resources\graphic\icons\normal\I_MaxJtSpeedAndAccl.bmp
DAT/002/CUS .\win_b64\resources\graphic\icons\small\IF_WkIGRIPDeviceBuilder.bmp|.\DNBDeviceBuildingUI\CNext\resources\graphic\icons\small\IF_WkIGRIPDeviceBuilder.bmp
DAT/002/CUS .\win_b64\resources\graphic\icons\small\I_TagVisualisation.bmp|.\DNBDeviceBuildingUI\CNext\resources\graphic\icons\small\I_TagVisualisation.bmp
BTV/002/CUS .\win_b64\code\productIC\DNBDeviceBuildingUIIC.xml|.\DNBDeviceBuildingUI
DAT/002/CUS .\win_b64\resources\graphic\icons\normal\I_DNBToolTip.bmp|.\DNBDeviceBuildingUI\CNext\resources\graphic\icons\normal\I_DNBToolTip.bmp
DAT/002/CUS .\win_b64\resources\graphic\icons\normal\I_DNBTimetable.bmp|.\DNBDeviceBuildingUI\CNext\resources\graphic\icons\normal\I_DNBTimetable.bmp
DAT/002/CUS .\win_b64\resources\graphic\icons\small\I_DNBPlcmtFrms.bmp|.\DNBDeviceBuildingUI\CNext\resources\graphic\icons\small\I_DNBPlcmtFrms.bmp
RTV/002/DSI .\win_b64\code\productIC\DNBDeviceBuildingUIIC.required|.\DNBDeviceBuildingUI
DAT/002/CUS .\win_b64\resources\graphic\icons\normal\I_DNBHomePosition.bmp|.\DNBDeviceBuildingUI\CNext\resources\graphic\icons\normal\I_DNBHomePosition.bmp
DAT/002/CUS .\win_b64\resources\graphic\icons\small\I_DNBDBGSelectProdMode.bmp|.\DNBDeviceBuildingUI\CNext\resources\graphic\icons\small\I_DNBDBGSelectProdMode.bmp
DAT/002/CUS .\win_b64\resources\graphic\icons\small\I_DNBDBGSelectDevMode.bmp|.\DNBDeviceBuildingUI\CNext\resources\graphic\icons\small\I_DNBDBGSelectDevMode.bmp
RTV/002/DSI .\win_b64\resources\msgcatalog\NlsTest\DNBDeviceWorkshop.CATNls|.\DNBDeviceBuildingUI\CNext\resources\msgcatalog\DNBDeviceWorkshop.CATNls
BTV/002/CUS .\win_b64\code\productIC\DNBDeviceBuildingUIIC.script|.\DNBDeviceBuildingUI
DAT/002/CUS .\win_b64\code\dictionary\DNBDeviceBuildingUI.fact|.\DNBDeviceBuildingUI\CNext\code\dictionary\DNBDeviceBuildingUI.fact
DAT/002/CUS .\win_b64\resources\graphic\icons\small\I_DNBHomePosition.bmp|.\DNBDeviceBuildingUI\CNext\resources\graphic\icons\small\I_DNBHomePosition.bmp
DAT/002/CUS .\win_b64\resources\graphic\icons\IP_WkNvIGRIPDeviceBuilder.bmp|.\DNBDeviceBuildingUI\CNext\resources\graphic\icons\IP_WkNvIGRIPDeviceBuilder.bmp
@type='codeFramework'
@built='true'
