!<mkRTViewData> v1.0.0
BTV/000/CUS .\win_b64\code\lib\CATMmrUUID.lib|.\MechanicalModeler\CATMmrUUID.m
CSC/000/DSI .\MechanicalModeler\CATMmrUUID.m\Objects\win_b64\mkcsc\CATMmrUUID.cscdb|.\MechanicalModeler\CATMmrUUID.m
@type='ARCHIVE'
@clr='false'
@kind='NATIVE'
@deliverable='true'
@built='true'
