!<mkRTViewData> v1.0.0
CSC/000/DSI .\PolyhedralBodyOperators\PolyBodyMeasures.m\Objects\win_b64\mkcsc\PolyBodyMeasures.cscdb|.\PolyhedralBodyOperators\PolyBodyMeasures.m
@type='NONE'
@clr='false'
@kind='INCLUDED'
@deliverable='true'
@built='true'
