!<mkRTViewData> v1.0.0
CSC/000/DSI .\DNBSimulationCommands\DNBAnalysisConfigCmd.m\Objects\win_b64\mkcsc\DNBAnalysisConfigCmd.cscdb|.\DNBSimulationCommands\DNBAnalysisConfigCmd.m
@type='NONE'
@clr='false'
@kind='INCLUDED'
@deliverable='true'
@built='true'
