!<mkRTViewData> v1.0.0
CSC/000/DSI .\TopologicalOperators\aBOO.m\Objects\win_b64\mkcsc\aBOO.cscdb|.\TopologicalOperators\aBOO.m
@type='NONE'
@clr='false'
@kind='INCLUDED'
@deliverable='true'
@built='true'
