!<mkRTViewData> v1.0.0
CSC/000/DSI .\DraftingUI\DFTInfraUI.m\Objects\win_b64\mkcsc\DFTInfraUI.cscdb|.\DraftingUI\DFTInfraUI.m
@type='NONE'
@clr='false'
@kind='INCLUDED'
@deliverable='true'
@built='true'
