!<mkRTViewData> v1.0.0
BTV/000/CUS .\win_b64\code\lib\CATEdbEnovPlugClient.lib|.\CATEngSystemDbModeler\CATEdbEnovPlugClient.m
INT/000/CUS .\win_b64\code\bin\CATEdbEnovPlugClient.pdb|.\CATEngSystemDbModeler\CATEdbEnovPlugClient.m
INT/000/CUS .\win_b64\code\lib\CATEdbEnovPlugClient.exp|.\CATEngSystemDbModeler\CATEdbEnovPlugClient.m
RTV/001/CUS .\win_b64\code\bin\CATEdbEnovPlugClient.dll|.\CATEngSystemDbModeler\CATEdbEnovPlugClient.m
CSC/000/DSI .\CATEngSystemDbModeler\CATEdbEnovPlugClient.m\Objects\win_b64\mkcsc\CATEdbEnovPlugClient.cscdb|.\CATEngSystemDbModeler\CATEdbEnovPlugClient.m
@type='SHARED_LIBRARY'
@clr='false'
@kind='NATIVE'
@deliverable='true'
@built='true'
