!<mkRTViewData> v1.0.0
CSC/000/DSI .\AutomationInterfaces\AutomationInterfacesUUID.m\Objects\win_b64\mkcsc\AutomationInterfacesUUID.cscdb|.\AutomationInterfaces\AutomationInterfacesUUID.m
BTV/000/CUS .\win_b64\code\lib\AutomationInterfacesUUID.lib|.\AutomationInterfaces\AutomationInterfacesUUID.m
@type='ARCHIVE'
@clr='false'
@kind='NATIVE'
@deliverable='true'
@built='true'
