!<mkRTViewData> v1.0.0
INT/000/CUS .\win_b64\code\bin\CATCuiOptions.pdb|.\ComponentsCatalogs\CATCuiOptions.m
RTV/001/CUS .\win_b64\code\bin\CATCuiOptions.dll|.\ComponentsCatalogs\CATCuiOptions.m
BTV/000/CUS .\win_b64\code\lib\CATCuiOptions.lib|.\ComponentsCatalogs\CATCuiOptions.m
INT/000/CUS .\win_b64\code\lib\CATCuiOptions.exp|.\ComponentsCatalogs\CATCuiOptions.m
CSC/000/DSI .\ComponentsCatalogs\CATCuiOptions.m\Objects\win_b64\mkcsc\CATCuiOptions.cscdb|.\ComponentsCatalogs\CATCuiOptions.m
@type='SHARED_LIBRARY'
@clr='false'
@kind='NATIVE'
@deliverable='true'
@built='true'
