!<mkRTViewData> v1.0.0
INT/000/CUS .\win_b64\code\lib\CATDMUSearch.exp|.\Navigator4DBase\CATDMUSearch.m
CSC/000/DSI .\Navigator4DBase\CATDMUSearch.m\Objects\win_b64\mkcsc\CATDMUSearch.cscdb|.\Navigator4DBase\CATDMUSearch.m
BTV/000/CUS .\win_b64\code\lib\CATDMUSearch.lib|.\Navigator4DBase\CATDMUSearch.m
INT/000/CUS .\win_b64\code\bin\CATDMUSearch.pdb|.\Navigator4DBase\CATDMUSearch.m
RTV/001/CUS .\win_b64\code\bin\CATDMUSearch.dll|.\Navigator4DBase\CATDMUSearch.m
@type='SHARED_LIBRARY'
@clr='false'
@kind='NATIVE'
@deliverable='true'
@built='true'
