!<mkRTViewData> v1.0.0
RTV/001/CUS .\win_b64\code\bin\AUTDldItfCPP.dll|.\AUTDldInterfaces\AUTDldItfCPP.m
CSC/000/DSI .\AUTDldInterfaces\AUTDldItfCPP.m\Objects\win_b64\mkcsc\AUTDldItfCPP.cscdb|.\AUTDldInterfaces\AUTDldItfCPP.m
INT/000/CUS .\win_b64\code\lib\AUTDldItfCPP.exp|.\AUTDldInterfaces\AUTDldItfCPP.m
INT/000/CUS .\win_b64\code\bin\AUTDldItfCPP.pdb|.\AUTDldInterfaces\AUTDldItfCPP.m
BTV/000/CUS .\win_b64\code\lib\AUTDldItfCPP.lib|.\AUTDldInterfaces\AUTDldItfCPP.m
@type='SHARED_LIBRARY'
@clr='false'
@kind='NATIVE'
@deliverable='true'
@built='true'
