!<mkRTViewData> v1.0.0
BTV/000/CUS .\win_b64\code\lib\CATSchUtilities.lib|.\CATSchPlatformModeler\CATSchUtilities.m
CSC/000/DSI .\CATSchPlatformModeler\CATSchUtilities.m\Objects\win_b64\mkcsc\CATSchUtilities.cscdb|.\CATSchPlatformModeler\CATSchUtilities.m
INT/000/CUS .\win_b64\code\lib\CATSchUtilities.exp|.\CATSchPlatformModeler\CATSchUtilities.m
INT/000/CUS .\win_b64\code\bin\CATSchUtilities.pdb|.\CATSchPlatformModeler\CATSchUtilities.m
RTV/001/CUS .\win_b64\code\bin\CATSchUtilities.dll|.\CATSchPlatformModeler\CATSchUtilities.m
@type='SHARED_LIBRARY'
@clr='false'
@kind='NATIVE'
@deliverable='true'
@built='true'
