PartNumber	MPS_InsideSize (mm)	MPS_Diameter (mm)	MPS_Length (mm)	Pipe_Length (mm)	Pipe_OutsideDiameter (mm)
MPS_RGP_50mm_12in	20	50	72	304.8	60.325
MPS_RGP_70mm_12in	40	70	72	304.8	88.9
MPS_RGP_100mm_12in	60	100	74	304.8	114.3
MPS_RGP_150mm_12in	90	150	80	304.8	168.275
MPS_RGP_200mm_12in	120	200	80	304.8	219.075
MPS_RGP_300mm_12in	180	300	80	304.8	323.85
