!<mkRTViewData> v1.0.0
CSC/000/DSI .\CATCoreCavityInterfaces\CATCCSItf.m\Objects\win_b64\mkcsc\CATCCSItf.cscdb|.\CATCoreCavityInterfaces\CATCCSItf.m
@type='NONE'
@clr='false'
@kind='INCLUDED'
@deliverable='true'
@built='true'
