!<mkRTViewData> v1.0.0
INT/000/CUS .\win_b64\code\bin\CATMmlBRepMode.pdb|.\MechanicalModelerLive\CATMmlBRepMode.m
BTV/000/CUS .\win_b64\code\lib\CATMmlBRepMode.lib|.\MechanicalModelerLive\CATMmlBRepMode.m
INT/000/CUS .\win_b64\code\lib\CATMmlBRepMode.exp|.\MechanicalModelerLive\CATMmlBRepMode.m
RTV/001/CUS .\win_b64\code\bin\CATMmlBRepMode.dll|.\MechanicalModelerLive\CATMmlBRepMode.m
CSC/000/DSI .\MechanicalModelerLive\CATMmlBRepMode.m\Objects\win_b64\mkcsc\CATMmlBRepMode.cscdb|.\MechanicalModelerLive\CATMmlBRepMode.m
@type='SHARED_LIBRARY'
@clr='false'
@kind='NATIVE'
@deliverable='true'
@built='true'
