!<mkRTViewData> v1.0.0
CSC/000/DSI .\XMLParser\CATBinaryXml.m\Objects\win_b64\mkcsc\CATBinaryXml.cscdb|.\XMLParser\CATBinaryXml.m
RTV/001/CUS .\win_b64\code\bin\CATBinaryXml.dll|.\XMLParser\CATBinaryXml.m
INT/000/CUS .\win_b64\code\lib\CATBinaryXml.exp|.\XMLParser\CATBinaryXml.m
INT/000/CUS .\win_b64\code\bin\CATBinaryXml.pdb|.\XMLParser\CATBinaryXml.m
BTV/000/CUS .\win_b64\code\lib\CATBinaryXml.lib|.\XMLParser\CATBinaryXml.m
@type='SHARED_LIBRARY'
@clr='false'
@kind='NATIVE'
@deliverable='true'
@built='true'
