!<mkRTViewData> v1.0.0
INT/000/CUS .\win_b64\code\bin\CATGuiCircle.pdb|.\GSMUI\CATGuiCircle.m
RTV/001/CUS .\win_b64\code\bin\CATGuiCircle.dll|.\GSMUI\CATGuiCircle.m
CSC/000/DSI .\GSMUI\CATGuiCircle.m\Objects\win_b64\mkcsc\CATGuiCircle.cscdb|.\GSMUI\CATGuiCircle.m
BTV/000/CUS .\win_b64\code\lib\CATGuiCircle.lib|.\GSMUI\CATGuiCircle.m
INT/000/CUS .\win_b64\code\lib\CATGuiCircle.exp|.\GSMUI\CATGuiCircle.m
@type='SHARED_LIBRARY'
@clr='false'
@kind='NATIVE'
@deliverable='true'
@built='true'
