!<mkRTViewData> v1.0.0
CSC/000/DSI .\CORBAServerBase\CORBAServerBaseUUID.m\Objects\win_b64\mkcsc\CORBAServerBaseUUID.cscdb|.\CORBAServerBase\CORBAServerBaseUUID.m
BTV/000/CUS .\win_b64\code\lib\CORBAServerBaseUUID.lib|.\CORBAServerBase\CORBAServerBaseUUID.m
@type='ARCHIVE'
@clr='false'
@kind='NATIVE'
@deliverable='true'
@built='true'
