!<mkRTViewData> v1.0.0
RTV/001/CUS .\win_b64\code\bin\CATWkAssyInterface.dll|.\CATAssemblyInterfaces\CATWkAssyInterface.m
CSC/000/DSI .\CATAssemblyInterfaces\CATWkAssyInterface.m\Objects\win_b64\mkcsc\CATWkAssyInterface.cscdb|.\CATAssemblyInterfaces\CATWkAssyInterface.m
INT/000/CUS .\win_b64\code\bin\CATWkAssyInterface.pdb|.\CATAssemblyInterfaces\CATWkAssyInterface.m
BTV/000/CUS .\win_b64\code\lib\CATWkAssyInterface.lib|.\CATAssemblyInterfaces\CATWkAssyInterface.m
INT/000/CUS .\win_b64\code\lib\CATWkAssyInterface.exp|.\CATAssemblyInterfaces\CATWkAssyInterface.m
@type='SHARED_LIBRARY'
@clr='false'
@kind='NATIVE'
@deliverable='true'
@built='true'
