!<mkRTViewData> v1.0.0
CSC/000/DSI .\CDMAInteroperability\CATCinAttrMappingCommands.m\Objects\win_b64\mkcsc\CATCinAttrMappingCommands.cscdb|.\CDMAInteroperability\CATCinAttrMappingCommands.m
INT/000/CUS .\win_b64\code\lib\CATCinAttrMappingCommands.exp|.\CDMAInteroperability\CATCinAttrMappingCommands.m
BTV/000/CUS .\win_b64\code\lib\CATCinAttrMappingCommands.lib|.\CDMAInteroperability\CATCinAttrMappingCommands.m
INT/000/CUS .\win_b64\code\bin\CATCinAttrMappingCommands.pdb|.\CDMAInteroperability\CATCinAttrMappingCommands.m
RTV/001/CUS .\win_b64\code\bin\CATCinAttrMappingCommands.dll|.\CDMAInteroperability\CATCinAttrMappingCommands.m
@type='SHARED_LIBRARY'
@clr='false'
@kind='NATIVE'
@deliverable='true'
@built='true'
