!<mkRTViewData> v1.0.0
BTV/000/CUS .\win_b64\code\lib\DNBHumanModelingInterfacesUUID.lib|.\DNBHumanModelingInterfaces\DNBHumanModelingInterfacesUUID.m
CSC/000/DSI .\DNBHumanModelingInterfaces\DNBHumanModelingInterfacesUUID.m\Objects\win_b64\mkcsc\DNBHumanModelingInterfacesUUID.cscdb|.\DNBHumanModelingInterfaces\DNBHumanModelingInterfacesUUID.m
@type='ARCHIVE'
@clr='false'
@kind='NATIVE'
@deliverable='true'
@built='true'
