!<mkRTViewData> v1.0.0
RTV/000/CUS .\win_b64\code\bin\browsercompaccessbase.tlb|.\DELE5Interfaces\browsercompaccessbaseTLB.m
@type='TYPELIB'
@clr='false'
@kind='NATIVE'
@deliverable='true'
@built='true'
