!<mkRTViewData> v1.0.0
CSC/000/DSI .\KnowledgeInterfaces\KnowledgeInterfacesUUID.m\Objects\win_b64\mkcsc\KnowledgeInterfacesUUID.cscdb|.\KnowledgeInterfaces\KnowledgeInterfacesUUID.m
BTV/000/CUS .\win_b64\code\lib\KnowledgeInterfacesUUID.lib|.\KnowledgeInterfaces\KnowledgeInterfacesUUID.m
@type='ARCHIVE'
@clr='false'
@kind='NATIVE'
@deliverable='true'
@built='true'
