!<mkRTViewData> v1.0.0
CSC/000/DSI .\CATIPDAdapterImpl\DNBIPDWarmStart.m\Objects\win_b64\mkcsc\DNBIPDWarmStart.cscdb|.\CATIPDAdapterImpl\DNBIPDWarmStart.m
INT/000/CUS .\win_b64\code\bin\DNBIPDWarmStart.pdb|.\CATIPDAdapterImpl\DNBIPDWarmStart.m
BTV/000/CUS .\win_b64\code\lib\DNBIPDWarmStart.lib|.\CATIPDAdapterImpl\DNBIPDWarmStart.m
RTV/001/CUS .\win_b64\code\bin\DNBIPDWarmStart.dll|.\CATIPDAdapterImpl\DNBIPDWarmStart.m
INT/000/CUS .\win_b64\code\lib\DNBIPDWarmStart.exp|.\CATIPDAdapterImpl\DNBIPDWarmStart.m
@type='SHARED_LIBRARY'
@clr='false'
@kind='NATIVE'
@deliverable='true'
@built='true'
