!<mkRTViewData> v1.0.0
INT/000/CUS .\win_b64\code\bin\DNBMHISimRollupCmd.pdb|.\DNBHubCommands\DNBMHISimRollupCmd.m
RTV/001/CUS .\win_b64\code\bin\DNBMHISimRollupCmd.dll|.\DNBHubCommands\DNBMHISimRollupCmd.m
BTV/000/CUS .\win_b64\code\lib\DNBMHISimRollupCmd.lib|.\DNBHubCommands\DNBMHISimRollupCmd.m
INT/000/CUS .\win_b64\code\lib\DNBMHISimRollupCmd.exp|.\DNBHubCommands\DNBMHISimRollupCmd.m
CSC/000/DSI .\DNBHubCommands\DNBMHISimRollupCmd.m\Objects\win_b64\mkcsc\DNBMHISimRollupCmd.cscdb|.\DNBHubCommands\DNBMHISimRollupCmd.m
@type='SHARED_LIBRARY'
@clr='false'
@kind='NATIVE'
@deliverable='true'
@built='true'
