!<mkRTViewData> v1.0.0
BTV/000/CUS .\win_b64\code\lib\DNBEHMItf.lib|.\DNBEHMInterfaces\DNBEHMItf.m
INT/000/CUS .\win_b64\code\bin\DNBEHMItf.pdb|.\DNBEHMInterfaces\DNBEHMItf.m
CSC/000/DSI .\DNBEHMInterfaces\DNBEHMItf.m\Objects\win_b64\mkcsc\DNBEHMItf.cscdb|.\DNBEHMInterfaces\DNBEHMItf.m
RTV/001/CUS .\win_b64\code\bin\DNBEHMItf.dll|.\DNBEHMInterfaces\DNBEHMItf.m
INT/000/CUS .\win_b64\code\lib\DNBEHMItf.exp|.\DNBEHMInterfaces\DNBEHMItf.m
@type='SHARED_LIBRARY'
@clr='false'
@kind='NATIVE'
@deliverable='true'
@built='true'
