!<mkRTViewData> v1.0.0
BTV/000/CUS .\win_b64\code\lib\CommonSetupDLLA.lib|.\Administration\CommonSetupDLLA.m
CSC/000/DSI .\Administration\CommonSetupDLLA.m\Objects\win_b64\mkcsc\CommonSetupDLLA.cscdb|.\Administration\CommonSetupDLLA.m
INT/000/CUS .\win_b64\code\bin\CommonSetupDLLA.pdb|.\Administration\CommonSetupDLLA.m
RTV/001/CUS .\win_b64\code\bin\CommonSetupDLLA.dll|.\Administration\CommonSetupDLLA.m
INT/000/CUS .\win_b64\code\lib\CommonSetupDLLA.exp|.\Administration\CommonSetupDLLA.m
@type='SHARED_LIBRARY'
@clr='false'
@kind='NATIVE'
@deliverable='true'
@built='true'
