!<mkRTViewData> v1.0.0
RTV/000/CUS .\win_b64\resources\msgcatalog\Japanese\TopOpIntErrors.txt|.\TopologicalOperators\TopologicalOperatorsRscCNext.m\src\CNext\resources\msgcatalog\Japanese\TopOpIntErrors.txt
RTV/000/CUS .\win_b64\resources\msgcatalog\German\CATTopologicalOperators.CATNls|G:\CXR27\BSFNLS\TopologicalOperators\TopologicalOperatorsRscCNext.m\src\CNext\resources\msgcatalog\German\CATTopologicalOperators.CATNls
RTV/000/CUS .\win_b64\resources\msgcatalog\French\CATTopologicalOperators.CATNls|G:\CXR27\BSFNLS\TopologicalOperators\TopologicalOperatorsRscCNext.m\src\CNext\resources\msgcatalog\French\CATTopologicalOperators.CATNls
RTV/000/DSI .\win_b64\resources\msgcatalog\DbcsTest\CATTopologicalOperators.CATNls|.\TopologicalOperators\TopologicalOperatorsRscCNext.m\src\CNext\resources\msgcatalog\CATTopologicalOperators.CATNls
RTV/000/CUS .\win_b64\resources\msgcatalog\Korean\CATTopologicalOperators.CATNls|G:\CXR27\BSFNLS\TopologicalOperators\TopologicalOperatorsRscCNext.m\src\CNext\resources\msgcatalog\Korean\CATTopologicalOperators.CATNls
RTV/000/CUS .\win_b64\resources\msgcatalog\German\TopOpInErrors.txt|.\TopologicalOperators\TopologicalOperatorsRscCNext.m\src\CNext\resources\msgcatalog\German\TopOpInErrors.txt
RTV/000/CUS .\win_b64\resources\msgcatalog\Japanese\TopOpInErrors.txt|.\TopologicalOperators\TopologicalOperatorsRscCNext.m\src\CNext\resources\msgcatalog\Japanese\TopOpInErrors.txt
RTV/000/DSI .\win_b64\resources\msgcatalog\NlsTest\CATTopologicalOperators.CATNls|.\TopologicalOperators\TopologicalOperatorsRscCNext.m\src\CNext\resources\msgcatalog\CATTopologicalOperators.CATNls
RTV/000/CUS .\win_b64\resources\msgcatalog\Simplified_Chinese\CATTopologicalOperators.CATNls|G:\CXR27\BSFNLS\TopologicalOperators\TopologicalOperatorsRscCNext.m\src\CNext\resources\msgcatalog\Simplified_Chinese\CATTopologicalOperators.CATNls
RTV/000/CUS .\win_b64\resources\msgcatalog\Russian\CATTopologicalOperators.CATNls|G:\CXR27\BSFNLS\TopologicalOperators\TopologicalOperatorsRscCNext.m\src\CNext\resources\msgcatalog\Russian\CATTopologicalOperators.CATNls
RTV/000/CUS .\win_b64\resources\msgcatalog\Italian\CATTopologicalOperators.CATNls|G:\CXR27\BSFNLS\TopologicalOperators\TopologicalOperatorsRscCNext.m\src\CNext\resources\msgcatalog\Italian\CATTopologicalOperators.CATNls
RTV/000/CUS .\win_b64\resources\msgcatalog\Japanese\CATTopologicalOperators.CATNls|G:\CXR27\BSFNLS\TopologicalOperators\TopologicalOperatorsRscCNext.m\src\CNext\resources\msgcatalog\Japanese\CATTopologicalOperators.CATNls
RTV/000/CUS .\win_b64\resources\msgcatalog\German\TopOpIntErrors.txt|.\TopologicalOperators\TopologicalOperatorsRscCNext.m\src\CNext\resources\msgcatalog\German\TopOpIntErrors.txt
RTV/000/CUS .\win_b64\resources\msgcatalog\CATTopologicalOperators.CATNls|.\TopologicalOperators\TopologicalOperatorsRscCNext.m\src\CNext\resources\msgcatalog\CATTopologicalOperators.CATNls
@type='RUNTIME_DATA'
@clr='false'
@kind='DATA'
@deliverable='true'
@built='true'
