!<mkRTViewData> v1.0.0
RTV/002/DSI .\win_b64\code\productIC\CATDataExchControlIntfIC.required|.\CATDataExchControlIntf
BTV/002/CUS .\win_b64\code\productIC\CATDataExchControlIntfIC.script|.\CATDataExchControlIntf
BTV/002/CUS .\win_b64\code\productIC\CATDataExchControlIntfIC.xml|.\CATDataExchControlIntf
CSC/002/DSI .\CATDataExchControlIntf\IdentityCard\Objects\win_b64\mkcsc\CATDataExchControlIntf.cscdb|.\CATDataExchControlIntf
@type='codeFramework'
@built='true'
