!<mkRTViewData> v1.0.0
CSC/000/DSI .\DNBRobotBase\DNBRobotAuxDevices.m\Objects\win_b64\mkcsc\DNBRobotAuxDevices.cscdb|.\DNBRobotBase\DNBRobotAuxDevices.m
@type='NONE'
@clr='false'
@kind='INCLUDED'
@deliverable='true'
@built='true'
