!<mkRTViewData> v1.0.0
INT/000/CUS .\win_b64\code\lib\V5JsyClrInitializer.exp|.\V5JSystem\V5JsyClrInitializer.m
CSC/000/DSI .\V5JSystem\V5JsyClrInitializer.m\Objects\win_b64\mkcsc\V5JsyClrInitializer.cscdb|.\V5JSystem\V5JsyClrInitializer.m
BTV/000/CUS .\win_b64\code\lib\V5JsyClrInitializer.lib|.\V5JSystem\V5JsyClrInitializer.m
RTV/001/CUS .\win_b64\code\bin\V5JsyClrInitializer.dll|.\V5JSystem\V5JsyClrInitializer.m
INT/000/CUS .\win_b64\code\bin\V5JsyClrInitializer.pdb|.\V5JSystem\V5JsyClrInitializer.m
@type='SHARED_LIBRARY'
@clr='false'
@kind='NATIVE'
@deliverable='true'
@built='true'
