!<mkRTViewData> v1.0.0
CSC/000/DSI .\PartDesignUI\PrtParentChildren.m\Objects\win_b64\mkcsc\PrtParentChildren.cscdb|.\PartDesignUI\PrtParentChildren.m
@type='NONE'
@clr='false'
@kind='INCLUDED'
@deliverable='true'
@built='true'
