!<mkRTViewData> v1.0.0
CSC/000/DSI .\ObjectModelerBase\CATOmbExtendedMemory.m\Objects\win_b64\mkcsc\CATOmbExtendedMemory.cscdb|.\ObjectModelerBase\CATOmbExtendedMemory.m
@type='NONE'
@clr='false'
@kind='INCLUDED'
@deliverable='true'
@built='true'
