!<mkRTViewData> v1.0.0
RTV/000/CUS .\win_b64\docs\java\CATJavaGenKweTypeLib.jar|.\GenKnowledgeInterfaces\CATJavaGenKweTypeLib.mj
CSC/000/DSI .\GenKnowledgeInterfaces\CATJavaGenKweTypeLib.mj\Objects\win_b64\mkcsc\CATJavaGenKweTypeLib.cscdb|.\GenKnowledgeInterfaces\CATJavaGenKweTypeLib.mj
@type='JAVA_CLIENT'
@clr='false'
@kind='JAVA'
@deliverable='true'
@built='true'
