!<mkRTViewData> v1.0.0
RTV/001/CUS .\win_b64\code\bin\ldap2enovia.exe|.\CORBAServerInfra\GW0LdapToEnovia.m
CSC/000/DSI .\CORBAServerInfra\GW0LdapToEnovia.m\Objects\win_b64\mkcsc\GW0LdapToEnovia.cscdb|.\CORBAServerInfra\GW0LdapToEnovia.m
INT/000/CUS .\win_b64\code\bin\ldap2enovia.pdb|.\CORBAServerInfra\GW0LdapToEnovia.m
@type='LOAD_MODULE'
@clr='false'
@kind='NATIVE'
@deliverable='true'
@built='true'
