!<mkRTViewData> v1.0.0
RTV/000/CUS .\win_b64\docs\javaserver\CATJWSInfraImpl.jar|.\CATJWSInfra\CATJWSInfraImpl.mj
CSC/000/DSI .\CATJWSInfra\CATJWSInfraImpl.mj\Objects\win_b64\mkcsc\CATJWSInfraImpl.cscdb|.\CATJWSInfra\CATJWSInfraImpl.mj
@type='JAVA_SERVER'
@clr='false'
@kind='JAVA'
@deliverable='true'
@built='true'
