!<mkRTViewData> v1.0.0
RTV/001/CUS .\win_b64\code\bin\ENOCD5UserExitsItf.dll|.\ENOCD5Interfaces\ENOCD5UserExitsItf.m
BTV/000/CUS .\win_b64\code\lib\ENOCD5UserExitsItf.lib|.\ENOCD5Interfaces\ENOCD5UserExitsItf.m
INT/000/CUS .\win_b64\code\lib\ENOCD5UserExitsItf.exp|.\ENOCD5Interfaces\ENOCD5UserExitsItf.m
CSC/000/DSI .\ENOCD5Interfaces\ENOCD5UserExitsItf.m\Objects\win_b64\mkcsc\ENOCD5UserExitsItf.cscdb|.\ENOCD5Interfaces\ENOCD5UserExitsItf.m
INT/000/CUS .\win_b64\code\bin\ENOCD5UserExitsItf.pdb|.\ENOCD5Interfaces\ENOCD5UserExitsItf.m
@type='SHARED_LIBRARY'
@clr='false'
@kind='NATIVE'
@deliverable='true'
@built='true'
