!<mkRTViewData> v1.0.0
BTV/000/CUS .\win_b64\code\lib\DataExchangeBaseRepsItfUUID.lib|.\DataExchangeBaseRepsItf\DataExchangeBaseRepsItfUUID.m
CSC/000/DSI .\DataExchangeBaseRepsItf\DataExchangeBaseRepsItfUUID.m\Objects\win_b64\mkcsc\DataExchangeBaseRepsItfUUID.cscdb|.\DataExchangeBaseRepsItf\DataExchangeBaseRepsItfUUID.m
@type='ARCHIVE'
@clr='false'
@kind='NATIVE'
@deliverable='true'
@built='true'
