!<mkRTViewData> v1.0.0
CSC/000/DSI .\PartDesignUI\PartDesignUI.m\Objects\win_b64\mkcsc\PartDesignUI.cscdb|.\PartDesignUI\PartDesignUI.m
RTV/000/CUS .\win_b64\code\dictionary\PartDesignUI.dic|.\PartDesignUI\PartDesignUI.m
@type='NONE'
@clr='false'
@kind='INCLUDED'
@deliverable='true'
@built='true'
