!<mkRTViewData> v1.0.0
CSC/000/DSI .\PolygonalTools\PolygonalLayers.m\Objects\win_b64\mkcsc\PolygonalLayers.cscdb|.\PolygonalTools\PolygonalLayers.m
@type='NONE'
@clr='false'
@kind='INCLUDED'
@deliverable='true'
@built='true'
