!<mkRTViewData> v1.0.0
CSC/000/DSI .\CATShmInterfaces\CATShmInterfacesCPP.m\Objects\win_b64\mkcsc\CATShmInterfacesCPP.cscdb|.\CATShmInterfaces\CATShmInterfacesCPP.m
@type='NONE'
@clr='false'
@kind='INCLUDED'
@deliverable='true'
@built='true'
