!<mkRTViewData> v1.0.0
BTV/000/CUS .\win_b64\code\lib\CATLifAutomation.lib|.\LiteralFeatures\CATLifAutomation.m
INT/000/CUS .\win_b64\code\lib\CATLifAutomation.exp|.\LiteralFeatures\CATLifAutomation.m
RTV/001/CUS .\win_b64\code\bin\CATLifAutomation.dll|.\LiteralFeatures\CATLifAutomation.m
INT/000/CUS .\win_b64\code\bin\CATLifAutomation.pdb|.\LiteralFeatures\CATLifAutomation.m
CSC/000/DSI .\LiteralFeatures\CATLifAutomation.m\Objects\win_b64\mkcsc\CATLifAutomation.cscdb|.\LiteralFeatures\CATLifAutomation.m
@type='SHARED_LIBRARY'
@clr='false'
@kind='NATIVE'
@deliverable='true'
@built='true'
