!<mkRTViewData> v1.0.0
RTV/000/CUS .\win_b64\code\dictionary\CDMOperatorsInterfaces.iid|.\CDMOperatorsInterfaces\CDMOperatorsInterfacesRscCNext.m\src\CNext\code\dictionary\CDMOperatorsInterfaces.iid
@type='RUNTIME_DATA'
@clr='false'
@kind='DATA'
@deliverable='true'
@built='true'
