!<mkRTViewData> v1.0.0
BTV/000/CUS .\win_b64\code\lib\PrjMngtItf.lib|.\PrjMngtInterfaces\PrjMngtItf.m
INT/000/CUS .\win_b64\code\bin\PrjMngtItf.pdb|.\PrjMngtInterfaces\PrjMngtItf.m
CSC/000/DSI .\PrjMngtInterfaces\PrjMngtItf.m\Objects\win_b64\mkcsc\PrjMngtItf.cscdb|.\PrjMngtInterfaces\PrjMngtItf.m
RTV/001/CUS .\win_b64\code\bin\PrjMngtItf.dll|.\PrjMngtInterfaces\PrjMngtItf.m
INT/000/CUS .\win_b64\code\lib\PrjMngtItf.exp|.\PrjMngtInterfaces\PrjMngtItf.m
@type='SHARED_LIBRARY'
@clr='false'
@kind='NATIVE'
@deliverable='true'
@built='true'
