!<mkRTViewData> v1.0.0
RTV/001/CUS .\win_b64\code\bin\CAT3DXmlInterfaces.dll|.\CAT3DXmlInterfaces\CAT3DXmlInterfaces.m
INT/000/CUS .\win_b64\code\lib\CAT3DXmlInterfaces.exp|.\CAT3DXmlInterfaces\CAT3DXmlInterfaces.m
CSC/000/DSI .\CAT3DXmlInterfaces\CAT3DXmlInterfaces.m\Objects\win_b64\mkcsc\CAT3DXmlInterfaces.cscdb|.\CAT3DXmlInterfaces\CAT3DXmlInterfaces.m
INT/000/CUS .\win_b64\code\bin\CAT3DXmlInterfaces.pdb|.\CAT3DXmlInterfaces\CAT3DXmlInterfaces.m
BTV/000/CUS .\win_b64\code\lib\CAT3DXmlInterfaces.lib|.\CAT3DXmlInterfaces\CAT3DXmlInterfaces.m
@type='SHARED_LIBRARY'
@clr='false'
@kind='NATIVE'
@deliverable='true'
@built='true'
