!<mkRTViewData> v1.0.0
CSC/000/DSI .\CATTPSInterfaces\CATTPSItfCPP.m\Objects\win_b64\mkcsc\CATTPSItfCPP.cscdb|.\CATTPSInterfaces\CATTPSItfCPP.m
@type='NONE'
@clr='false'
@kind='INCLUDED'
@deliverable='true'
@built='true'
