!<mkRTViewData> v1.0.0
CSC/000/DSI .\TopologicalOperatorsLight\RIBLight.m\Objects\win_b64\mkcsc\RIBLight.cscdb|.\TopologicalOperatorsLight\RIBLight.m
@type='NONE'
@clr='false'
@kind='INCLUDED'
@deliverable='true'
@built='true'
