!<mkRTViewData> v1.0.0
CSC/000/DSI .\AECGeoVisu\V4AECServices.m\Objects\win_b64\mkcsc\V4AECServices.cscdb|.\AECGeoVisu\V4AECServices.m
@type='NONE'
@clr='false'
@kind='INCLUDED'
@deliverable='true'
@built='true'
