!<mkRTViewData> v1.0.0
BTV/000/CUS .\win_b64\code\lib\MigrateThreadStandardToXML.lib|.\PartDesignUI\MigrateThreadStandardToXML.m
INT/000/CUS .\win_b64\code\bin\MigrateThreadStandardToXML.pdb|.\PartDesignUI\MigrateThreadStandardToXML.m
INT/000/CUS .\win_b64\code\lib\MigrateThreadStandardToXML.exp|.\PartDesignUI\MigrateThreadStandardToXML.m
CSC/000/DSI .\PartDesignUI\MigrateThreadStandardToXML.m\Objects\win_b64\mkcsc\MigrateThreadStandardToXML.cscdb|.\PartDesignUI\MigrateThreadStandardToXML.m
RTV/001/CUS .\win_b64\code\bin\MigrateThreadStandardToXML.dll|.\PartDesignUI\MigrateThreadStandardToXML.m
@type='SHARED_LIBRARY'
@clr='false'
@kind='NATIVE'
@deliverable='true'
@built='true'
