!<mkRTViewData> v1.0.0
INT/000/CUS .\win_b64\code\lib\JS0PCC.exp|.\System\JS0PCC.m
INT/000/CUS .\win_b64\code\bin\JS0PCC.pdb|.\System\JS0PCC.m
CSC/000/DSI .\System\JS0PCC.m\Objects\win_b64\mkcsc\JS0PCC.cscdb|.\System\JS0PCC.m
RTV/001/CUS .\win_b64\code\bin\JS0PCC.dll|.\System\JS0PCC.m
BTV/000/CUS .\win_b64\code\lib\JS0PCC.lib|.\System\JS0PCC.m
@type='EL_LIBRARY'
@clr='false'
@kind='NATIVE'
@deliverable='true'
@built='true'
