!<mkRTViewData> v1.0.0
CSC/000/DSI .\MechanicalModeler\CATMfImport.m\Objects\win_b64\mkcsc\CATMfImport.cscdb|.\MechanicalModeler\CATMfImport.m
@type='NONE'
@clr='false'
@kind='INCLUDED'
@deliverable='true'
@built='true'
