!<mkRTViewData> v1.0.0
CSC/000/DSI .\DNBInverseKinInterfaces\DNBInverseKinPubIDL.m\Objects\win_b64\mkcsc\DNBInverseKinPubIDL.cscdb|.\DNBInverseKinInterfaces\DNBInverseKinPubIDL.m
@type='NONE'
@clr='false'
@kind='INCLUDED'
@deliverable='true'
@built='true'
