!<mkRTViewData> v1.0.0
BTV/000/CUS .\win_b64\code\lib\CATDlgStandard.lib|.\Dialog\CATDlgStandard.m
RTV/001/CUS .\win_b64\code\bin\CATDlgStandard.dll|.\Dialog\CATDlgStandard.m
INT/000/CUS .\win_b64\code\lib\CATDlgStandard.exp|.\Dialog\CATDlgStandard.m
INT/000/CUS .\win_b64\code\bin\CATDlgStandard.pdb|.\Dialog\CATDlgStandard.m
CSC/000/DSI .\Dialog\CATDlgStandard.m\Objects\win_b64\mkcsc\CATDlgStandard.cscdb|.\Dialog\CATDlgStandard.m
@type='SHARED_LIBRARY'
@clr='false'
@kind='NATIVE'
@deliverable='true'
@built='true'
