!<mkRTViewData> v1.0.0
CSC/000/DSI .\CATCDSV5Driver\VarSweepDriver.m\Objects\win_b64\mkcsc\VarSweepDriver.cscdb|.\CATCDSV5Driver\VarSweepDriver.m
@type='NONE'
@clr='false'
@kind='INCLUDED'
@deliverable='true'
@built='true'
