!<mkRTViewData> v1.0.0
INT/000/CUS .\win_b64\code\lib\AUTClmUI.exp|.\AUTClmUI\AUTClmUI.m
CSC/000/DSI .\AUTClmUI\AUTClmUI.m\Objects\win_b64\mkcsc\AUTClmUI.cscdb|.\AUTClmUI\AUTClmUI.m
BTV/000/CUS .\win_b64\code\lib\AUTClmUI.lib|.\AUTClmUI\AUTClmUI.m
RTV/001/CUS .\win_b64\code\bin\AUTClmUI.dll|.\AUTClmUI\AUTClmUI.m
INT/000/CUS .\win_b64\code\bin\AUTClmUI.pdb|.\AUTClmUI\AUTClmUI.m
@type='SHARED_LIBRARY'
@clr='false'
@kind='NATIVE'
@deliverable='true'
@built='true'
