!<mkRTViewData> v1.0.0
BTV/000/CUS .\win_b64\code\lib\CATAnalysisInterface.lib|.\CATAnalysisInterfaces\CATAnalysisInterface.m
RTV/001/CUS .\win_b64\code\bin\CATAnalysisInterface.dll|.\CATAnalysisInterfaces\CATAnalysisInterface.m
INT/000/CUS .\win_b64\code\bin\CATAnalysisInterface.pdb|.\CATAnalysisInterfaces\CATAnalysisInterface.m
INT/000/CUS .\win_b64\code\lib\CATAnalysisInterface.exp|.\CATAnalysisInterfaces\CATAnalysisInterface.m
CSC/000/DSI .\CATAnalysisInterfaces\CATAnalysisInterface.m\Objects\win_b64\mkcsc\CATAnalysisInterface.cscdb|.\CATAnalysisInterfaces\CATAnalysisInterface.m
@type='SHARED_LIBRARY'
@clr='false'
@kind='NATIVE'
@deliverable='true'
@built='true'
