!<mkRTViewData> v1.0.0
BTV/000/CUS .\win_b64\code\lib\CATAxisBody.lib|.\TopologicalOperatorsLight\CATAxisBody.m
INT/000/CUS .\win_b64\code\bin\CATAxisBody.pdb|.\TopologicalOperatorsLight\CATAxisBody.m
RTV/001/CUS .\win_b64\code\bin\CATAxisBody.dll|.\TopologicalOperatorsLight\CATAxisBody.m
INT/000/CUS .\win_b64\code\lib\CATAxisBody.exp|.\TopologicalOperatorsLight\CATAxisBody.m
CSC/000/DSI .\TopologicalOperatorsLight\CATAxisBody.m\Objects\win_b64\mkcsc\CATAxisBody.cscdb|.\TopologicalOperatorsLight\CATAxisBody.m
RTV/000/CUS .\win_b64\code\dictionary\TopologicalOperatorsLight.dic|.\TopologicalOperatorsLight\CATAxisBody.m
@type='SHARED_LIBRARY'
@clr='false'
@kind='NATIVE'
@deliverable='true'
@built='true'
