!<mkRTViewData> v1.0.0
CSC/000/DSI .\DraftingBaseCommands\CATDbcDimension.m\Objects\win_b64\mkcsc\CATDbcDimension.cscdb|.\DraftingBaseCommands\CATDbcDimension.m
@type='NONE'
@clr='false'
@kind='INCLUDED'
@deliverable='true'
@built='true'
