!<mkRTViewData> v1.0.0
CSC/000/DSI .\PolyhedralBodyOperators\PolyBodyDistance.m\Objects\win_b64\mkcsc\PolyBodyDistance.cscdb|.\PolyhedralBodyOperators\PolyBodyDistance.m
@type='NONE'
@clr='false'
@kind='INCLUDED'
@deliverable='true'
@built='true'
