!<mkRTViewData> v1.0.0
RTV/000/DSI .\win_b64\resources\msgcatalog\DbcsTest\CATPolyhedralOperators.CATNls|.\PolyhedralOperators\PolyhedralOperatorsRscCNext.m\src\CNext\resources\msgcatalog\CATPolyhedralOperators.CATNls
RTV/000/CUS .\win_b64\resources\msgcatalog\Italian\CATPolyhedralOperators.CATNls|G:\CXR27\BSFNLS\PolyhedralOperators\PolyhedralOperatorsRscCNext.m\src\CNext\resources\msgcatalog\Italian\CATPolyhedralOperators.CATNls
RTV/000/CUS .\win_b64\resources\msgcatalog\CATPolyhedralOperators.CATNls|.\PolyhedralOperators\PolyhedralOperatorsRscCNext.m\src\CNext\resources\msgcatalog\CATPolyhedralOperators.CATNls
RTV/000/CUS .\win_b64\resources\msgcatalog\Japanese\CATPolyhedralOperators.CATNls|G:\CXR27\BSFNLS\PolyhedralOperators\PolyhedralOperatorsRscCNext.m\src\CNext\resources\msgcatalog\Japanese\CATPolyhedralOperators.CATNls
RTV/000/CUS .\win_b64\resources\msgcatalog\Korean\CATPolyhedralOperators.CATNls|G:\CXR27\BSFNLS\PolyhedralOperators\PolyhedralOperatorsRscCNext.m\src\CNext\resources\msgcatalog\Korean\CATPolyhedralOperators.CATNls
RTV/000/CUS .\win_b64\resources\msgcatalog\German\CATPolyhedralOperators.CATNls|G:\CXR27\BSFNLS\PolyhedralOperators\PolyhedralOperatorsRscCNext.m\src\CNext\resources\msgcatalog\German\CATPolyhedralOperators.CATNls
RTV/000/CUS .\win_b64\resources\msgcatalog\Russian\CATPolyhedralOperators.CATNls|G:\CXR27\BSFNLS\PolyhedralOperators\PolyhedralOperatorsRscCNext.m\src\CNext\resources\msgcatalog\Russian\CATPolyhedralOperators.CATNls
RTV/000/CUS .\win_b64\resources\msgcatalog\French\CATPolyhedralOperators.CATNls|G:\CXR27\BSFNLS\PolyhedralOperators\PolyhedralOperatorsRscCNext.m\src\CNext\resources\msgcatalog\French\CATPolyhedralOperators.CATNls
RTV/000/CUS .\win_b64\resources\msgcatalog\Simplified_Chinese\CATPolyhedralOperators.CATNls|G:\CXR27\BSFNLS\PolyhedralOperators\PolyhedralOperatorsRscCNext.m\src\CNext\resources\msgcatalog\Simplified_Chinese\CATPolyhedralOperators.CATNls
RTV/000/DSI .\win_b64\resources\msgcatalog\NlsTest\CATPolyhedralOperators.CATNls|.\PolyhedralOperators\PolyhedralOperatorsRscCNext.m\src\CNext\resources\msgcatalog\CATPolyhedralOperators.CATNls
@type='RUNTIME_DATA'
@clr='false'
@kind='DATA'
@deliverable='true'
@built='true'
