!<mkRTViewData> v1.0.0
RTV/000/CUS .\win_b64\docs\javaserver\CATJdgWorkplace.jar|.\CATJDialog\CATJdgWorkplace.mj
RTV/000/CUS .\win_b64\docs\java\CATJdgWorkplace.jar|.\CATJDialog\CATJdgWorkplace.mj
CSC/000/DSI .\CATJDialog\CATJdgWorkplace.mj\Objects\win_b64\mkcsc\CATJdgWorkplace.cscdb|.\CATJDialog\CATJdgWorkplace.mj
@type='JAVA_COMMON'
@clr='false'
@kind='JAVA'
@deliverable='true'
@built='true'
