!<mkRTViewData> v1.0.0
INT/000/CUS .\win_b64\code\bin\CATCinProdStructInterop.pdb|.\CDMAInteroperability\CATCinProdStructInterop.m
BTV/000/CUS .\win_b64\code\lib\CATCinProdStructInterop.lib|.\CDMAInteroperability\CATCinProdStructInterop.m
RTV/001/CUS .\win_b64\code\bin\CATCinProdStructInterop.dll|.\CDMAInteroperability\CATCinProdStructInterop.m
INT/000/CUS .\win_b64\code\lib\CATCinProdStructInterop.exp|.\CDMAInteroperability\CATCinProdStructInterop.m
CSC/000/DSI .\CDMAInteroperability\CATCinProdStructInterop.m\Objects\win_b64\mkcsc\CATCinProdStructInterop.cscdb|.\CDMAInteroperability\CATCinProdStructInterop.m
@type='SHARED_LIBRARY'
@clr='false'
@kind='NATIVE'
@deliverable='true'
@built='true'
