!<mkRTViewData> v1.0.0
CSC/000/DSI .\PartDesignFeature\PRTGenFTA.m\Objects\win_b64\mkcsc\PRTGenFTA.cscdb|.\PartDesignFeature\PRTGenFTA.m
@type='NONE'
@clr='false'
@kind='INCLUDED'
@deliverable='true'
@built='true'
