!<mkRTViewData> v1.0.0
BTV/000/CUS .\win_b64\code\lib\CATShmInterfacesUUID.lib|.\CATShmInterfaces\CATShmInterfacesUUID.m
CSC/000/DSI .\CATShmInterfaces\CATShmInterfacesUUID.m\Objects\win_b64\mkcsc\CATShmInterfacesUUID.cscdb|.\CATShmInterfaces\CATShmInterfacesUUID.m
@type='ARCHIVE'
@clr='false'
@kind='NATIVE'
@deliverable='true'
@built='true'
