!<mkRTViewData> v1.0.0
INT/000/CUS .\win_b64\code\lib\CATMachinistAlgosServicesWTT.exp|.\MachinistAlgosServicesWTT\CATMachinistAlgosServicesWTT.m
INT/000/CUS .\win_b64\code\bin\CATMachinistAlgosServicesWTT.pdb|.\MachinistAlgosServicesWTT\CATMachinistAlgosServicesWTT.m
BTV/000/CUS .\win_b64\code\lib\CATMachinistAlgosServicesWTT.lib|.\MachinistAlgosServicesWTT\CATMachinistAlgosServicesWTT.m
RTV/001/CUS .\win_b64\code\bin\CATMachinistAlgosServicesWTT.dll|.\MachinistAlgosServicesWTT\CATMachinistAlgosServicesWTT.m
CSC/000/DSI .\MachinistAlgosServicesWTT\CATMachinistAlgosServicesWTT.m\Objects\win_b64\mkcsc\CATMachinistAlgosServicesWTT.cscdb|.\MachinistAlgosServicesWTT\CATMachinistAlgosServicesWTT.m
@type='SHARED_LIBRARY'
@clr='false'
@kind='NATIVE'
@deliverable='true'
@built='true'
