!<mkRTViewData> v1.0.0
INT/000/CUS .\win_b64\code\lib\relationPS.exp|.\DELE5Interfaces\relationPS.m
BTV/000/CUS .\win_b64\code\lib\relationPS.lib|.\DELE5Interfaces\relationPS.m
RTV/001/CUS .\win_b64\code\bin\relationPS.dll|.\DELE5Interfaces\relationPS.m
CSC/000/DSI .\DELE5Interfaces\relationPS.m\Objects\win_b64\mkcsc\relationPS.cscdb|.\DELE5Interfaces\relationPS.m
INT/000/CUS .\win_b64\code\bin\relationPS.pdb|.\DELE5Interfaces\relationPS.m
@type='SHARED_LIBRARY'
@clr='false'
@kind='NATIVE'
@deliverable='true'
@built='true'
