!<mkRTViewData> v1.0.0
RTV/001/CUS .\win_b64\code\bin\CATMMediaImageFormat.dll|.\Multimedia\CATMMediaImageFormat.m
BTV/000/CUS .\win_b64\code\lib\CATMMediaImageFormat.lib|.\Multimedia\CATMMediaImageFormat.m
CSC/000/DSI .\Multimedia\CATMMediaImageFormat.m\Objects\win_b64\mkcsc\CATMMediaImageFormat.cscdb|.\Multimedia\CATMMediaImageFormat.m
INT/000/CUS .\win_b64\code\lib\CATMMediaImageFormat.exp|.\Multimedia\CATMMediaImageFormat.m
INT/000/CUS .\win_b64\code\bin\CATMMediaImageFormat.pdb|.\Multimedia\CATMMediaImageFormat.m
@type='EL_LIBRARY'
@clr='false'
@kind='NATIVE'
@deliverable='true'
@built='true'
