!<mkRTViewData> v1.0.0
CSC/000/DSI .\SimulationInterfaces\CATJavaSimulationTypeLib.mj\Objects\win_b64\mkcsc\CATJavaSimulationTypeLib.cscdb|.\SimulationInterfaces\CATJavaSimulationTypeLib.mj
RTV/000/CUS .\win_b64\docs\java\CATJavaSimulationTypeLib.jar|.\SimulationInterfaces\CATJavaSimulationTypeLib.mj
@type='JAVA_CLIENT'
@clr='false'
@kind='JAVA'
@deliverable='true'
@built='true'
