!<mkRTViewData> v1.0.0
CSC/000/DSI .\MechanicalModeler\CATMmrBrepReport.m\Objects\win_b64\mkcsc\CATMmrBrepReport.cscdb|.\MechanicalModeler\CATMmrBrepReport.m
@type='NONE'
@clr='false'
@kind='INCLUDED'
@deliverable='true'
@built='true'
