!<mkRTViewData> v1.0.0
CSC/000/DSI .\PartDesignUI\PRTDRAFTUI.m\Objects\win_b64\mkcsc\PRTDRAFTUI.cscdb|.\PartDesignUI\PRTDRAFTUI.m
@type='NONE'
@clr='false'
@kind='INCLUDED'
@deliverable='true'
@built='true'
