!<mkRTViewData> v1.0.0
CSC/000/DSI .\CATIABaseIAO\CATIAPrmArray.m\Objects\win_b64\mkcsc\CATIAPrmArray.cscdb|.\CATIABaseIAO\CATIAPrmArray.m
@type='NONE'
@clr='false'
@kind='INCLUDED'
@deliverable='true'
@built='true'
