!<mkRTViewData> v1.0.0
BTV/000/CUS .\win_b64\code\lib\DNBResourceProgramInterfacesUUID.lib|.\DNBResourceProgramInterfaces\DNBResourceProgramInterfacesUUID.m
CSC/000/DSI .\DNBResourceProgramInterfaces\DNBResourceProgramInterfacesUUID.m\Objects\win_b64\mkcsc\DNBResourceProgramInterfacesUUID.cscdb|.\DNBResourceProgramInterfaces\DNBResourceProgramInterfacesUUID.m
@type='ARCHIVE'
@clr='false'
@kind='NATIVE'
@deliverable='true'
@built='true'
