!<mkRTViewData> v1.0.0
CSC/000/DSI .\MecModInterfaces\CATMmNotifs.m\Objects\win_b64\mkcsc\CATMmNotifs.cscdb|.\MecModInterfaces\CATMmNotifs.m
@type='NONE'
@clr='false'
@kind='INCLUDED'
@deliverable='true'
@built='true'
