!<mkRTViewData> v1.0.0
CSC/000/DSI .\SMTInterfaces\SMTInterfacesItfCPP.m\Objects\win_b64\mkcsc\SMTInterfacesItfCPP.cscdb|.\SMTInterfaces\SMTInterfacesItfCPP.m
@type='NONE'
@clr='false'
@kind='INCLUDED'
@deliverable='true'
@built='true'
