!<mkRTViewData> v1.0.0
INT/000/CUS .\win_b64\code\bin\AUTCsmUIItf.pdb|.\AUTCsmUIInterfaces\AUTCsmUIItf.m
INT/000/CUS .\win_b64\code\lib\AUTCsmUIItf.exp|.\AUTCsmUIInterfaces\AUTCsmUIItf.m
RTV/001/CUS .\win_b64\code\bin\AUTCsmUIItf.dll|.\AUTCsmUIInterfaces\AUTCsmUIItf.m
CSC/000/DSI .\AUTCsmUIInterfaces\AUTCsmUIItf.m\Objects\win_b64\mkcsc\AUTCsmUIItf.cscdb|.\AUTCsmUIInterfaces\AUTCsmUIItf.m
BTV/000/CUS .\win_b64\code\lib\AUTCsmUIItf.lib|.\AUTCsmUIInterfaces\AUTCsmUIItf.m
@type='SHARED_LIBRARY'
@clr='false'
@kind='NATIVE'
@deliverable='true'
@built='true'
