!<mkRTViewData> v1.0.0
RTV/000/CUS .\win_b64\docs\javaserver\xmltools.jar|.\JXMLParser\xmltools.mj
CSC/000/DSI .\JXMLParser\xmltools.mj\Objects\win_b64\mkcsc\xmltools.cscdb|.\JXMLParser\xmltools.mj
RTV/000/CUS .\win_b64\docs\java\xmltools.jar|.\JXMLParser\xmltools.mj
@type='JAVA_COMMON'
@clr='false'
@kind='JAVA'
@deliverable='true'
@built='true'
