!<mkRTViewData> v1.0.0
CSC/000/DSI .\PartDesignFeature\PRTSHELL.m\Objects\win_b64\mkcsc\PRTSHELL.cscdb|.\PartDesignFeature\PRTSHELL.m
@type='NONE'
@clr='false'
@kind='INCLUDED'
@deliverable='true'
@built='true'
