!<mkRTViewData> v1.0.0
CSC/000/DSI .\Administration\UninstDocByCancelMsg.m\Objects\win_b64\mkcsc\UninstDocByCancelMsg.cscdb|.\Administration\UninstDocByCancelMsg.m
@type='LOAD_MODULE'
@clr='false'
@kind='NATIVE'
@deliverable='true'
@built='false'
