!<mkRTViewData> v1.0.0
CSC/000/DSI .\VisualizationBase\CATVizSpaceDevice.m\Objects\win_b64\mkcsc\CATVizSpaceDevice.cscdb|.\VisualizationBase\CATVizSpaceDevice.m
@type='NONE'
@clr='false'
@kind='INCLUDED'
@deliverable='true'
@built='true'
