!<mkRTViewData> v1.0.0
INT/000/CUS .\win_b64\code\bin\VE0IFONT.pdb|.\Visualization\VE0IFONT.m
CSC/000/DSI .\Visualization\VE0IFONT.m\Objects\win_b64\mkcsc\VE0IFONT.cscdb|.\Visualization\VE0IFONT.m
RTV/001/CUS .\win_b64\code\bin\VE0IFONT.exe|.\Visualization\VE0IFONT.m
@type='LOAD_MODULE'
@clr='false'
@kind='NATIVE'
@deliverable='true'
@built='true'
