!<mkRTViewData> v1.0.0
CSC/000/DSI .\CATStrFunctionalInterfaces\CATSfmPubIDL.m\Objects\win_b64\mkcsc\CATSfmPubIDL.cscdb|.\CATStrFunctionalInterfaces\CATSfmPubIDL.m
@type='NONE'
@clr='false'
@kind='INCLUDED'
@deliverable='true'
@built='true'
