!<mkRTViewData> v1.0.0
CSC/000/DSI .\KnowledgeModeler\CATLifBehaviour.m\Objects\win_b64\mkcsc\CATLifBehaviour.cscdb|.\KnowledgeModeler\CATLifBehaviour.m
@type='NONE'
@clr='false'
@kind='INCLUDED'
@deliverable='true'
@built='true'
