// Copyright Dassault Systemes 2007
document `CAAMmrCombinedCurveCatalog.CATfct` {
	container CATFeatCont #root {
		feature CombinedCurve#2 GeometricalElement3D#7@`MechMod.feat` #startup {
			specobject Curve1 #in
			specobject Curve2 #in
			specobject Direction1 #in
			specobject Direction2 #in
                  int Desactive #in
		}
	}
}
