!<mkRTViewData> v1.0.0
INT/000/CUS .\win_b64\code\bin\PathServices.pdb|.\CATDataCompatibilityInfra\PathServices.m
INT/000/CUS .\win_b64\code\lib\PathServices.exp|.\CATDataCompatibilityInfra\PathServices.m
RTV/001/CUS .\win_b64\code\bin\PathServices.dll|.\CATDataCompatibilityInfra\PathServices.m
BTV/000/CUS .\win_b64\code\lib\PathServices.lib|.\CATDataCompatibilityInfra\PathServices.m
CSC/000/DSI .\CATDataCompatibilityInfra\PathServices.m\Objects\win_b64\mkcsc\PathServices.cscdb|.\CATDataCompatibilityInfra\PathServices.m
@type='SHARED_LIBRARY'
@clr='false'
@kind='NATIVE'
@deliverable='true'
@built='true'
