!<mkRTViewData> v1.0.0
CSC/000/DSI .\VisualizationBase\VisCGAST.m\Objects\win_b64\mkcsc\VisCGAST.cscdb|.\VisualizationBase\VisCGAST.m
@type='NONE'
@clr='false'
@kind='INCLUDED'
@deliverable='true'
@built='true'
