!<mkRTViewData> v1.0.0
INT/000/CUS .\win_b64\code\bin\GE0MAIN.pdb|.\DNBGraphEditor\GE0MAIN.m
BTV/000/CUS .\win_b64\code\lib\GE0MAIN.lib|.\DNBGraphEditor\GE0MAIN.m
RTV/001/CUS .\win_b64\code\bin\GE0MAIN.dll|.\DNBGraphEditor\GE0MAIN.m
INT/000/CUS .\win_b64\code\lib\GE0MAIN.exp|.\DNBGraphEditor\GE0MAIN.m
CSC/000/DSI .\DNBGraphEditor\GE0MAIN.m\Objects\win_b64\mkcsc\GE0MAIN.cscdb|.\DNBGraphEditor\GE0MAIN.m
@type='SHARED_LIBRARY'
@clr='false'
@kind='NATIVE'
@deliverable='true'
@built='true'
