!<mkRTViewData> v1.0.0
CSC/000/DSI .\CATSubdivisionMeshAdvOperators\CATSmaDeformSubdivision.m\Objects\win_b64\mkcsc\CATSmaDeformSubdivision.cscdb|.\CATSubdivisionMeshAdvOperators\CATSmaDeformSubdivision.m
@type='NONE'
@clr='false'
@kind='INCLUDED'
@deliverable='true'
@built='true'
