!<mkRTViewData> v1.0.0
CSC/000/DSI .\CurveBasedTopoOperators\DTKSweep.m\Objects\win_b64\mkcsc\DTKSweep.cscdb|.\CurveBasedTopoOperators\DTKSweep.m
@type='NONE'
@clr='false'
@kind='INCLUDED'
@deliverable='true'
@built='true'
