!<mkRTViewData> v1.0.0
CSC/000/DSI .\MechanicalModeler\CATMmrViewsAndResults.m\Objects\win_b64\mkcsc\CATMmrViewsAndResults.cscdb|.\MechanicalModeler\CATMmrViewsAndResults.m
@type='NONE'
@clr='false'
@kind='INCLUDED'
@deliverable='true'
@built='true'
