!<mkRTViewData> v1.0.0
CSC/000/DSI .\CATCoreCavitySeparationUI\CATCCSFacesOrientationUI.m\Objects\win_b64\mkcsc\CATCCSFacesOrientationUI.cscdb|.\CATCoreCavitySeparationUI\CATCCSFacesOrientationUI.m
@type='NONE'
@clr='false'
@kind='INCLUDED'
@deliverable='true'
@built='true'
