!<mkRTViewData> v1.0.0
RTV/001/CUS .\win_b64\code\bin\CATPidItfCPP.dll|.\CATPIDiagramInterfaces\CATPidItfCPP.m
INT/000/CUS .\win_b64\code\lib\CATPidItfCPP.exp|.\CATPIDiagramInterfaces\CATPidItfCPP.m
CSC/000/DSI .\CATPIDiagramInterfaces\CATPidItfCPP.m\Objects\win_b64\mkcsc\CATPidItfCPP.cscdb|.\CATPIDiagramInterfaces\CATPidItfCPP.m
BTV/000/CUS .\win_b64\code\lib\CATPidItfCPP.lib|.\CATPIDiagramInterfaces\CATPidItfCPP.m
INT/000/CUS .\win_b64\code\bin\CATPidItfCPP.pdb|.\CATPIDiagramInterfaces\CATPidItfCPP.m
@type='SHARED_LIBRARY'
@clr='false'
@kind='NATIVE'
@deliverable='true'
@built='true'
