!<mkRTViewData> v1.0.0
BTV/000/CUS .\win_b64\code\lib\CATSMTInterfaces.lib|.\SMTInterfaces\CATSMTInterfaces.m
INT/000/CUS .\win_b64\code\lib\CATSMTInterfaces.exp|.\SMTInterfaces\CATSMTInterfaces.m
INT/000/CUS .\win_b64\code\bin\CATSMTInterfaces.pdb|.\SMTInterfaces\CATSMTInterfaces.m
RTV/001/CUS .\win_b64\code\bin\CATSMTInterfaces.dll|.\SMTInterfaces\CATSMTInterfaces.m
CSC/000/DSI .\SMTInterfaces\CATSMTInterfaces.m\Objects\win_b64\mkcsc\CATSMTInterfaces.cscdb|.\SMTInterfaces\CATSMTInterfaces.m
@type='SHARED_LIBRARY'
@clr='false'
@kind='NATIVE'
@deliverable='true'
@built='true'
