!<mkRTViewData> v1.0.0
CSC/000/DSI .\CATV4Topology\V4Topo2.m\Objects\win_b64\mkcsc\V4Topo2.cscdb|.\CATV4Topology\V4Topo2.m
@type='NONE'
@clr='false'
@kind='INCLUDED'
@deliverable='true'
@built='true'
