!<mkRTViewData> v1.0.0
CSC/000/DSI .\DELE5Interfaces\lockmngPS.m\Objects\win_b64\mkcsc\lockmngPS.cscdb|.\DELE5Interfaces\lockmngPS.m
INT/000/CUS .\win_b64\code\bin\lockmngPS.pdb|.\DELE5Interfaces\lockmngPS.m
RTV/001/CUS .\win_b64\code\bin\lockmngPS.dll|.\DELE5Interfaces\lockmngPS.m
INT/000/CUS .\win_b64\code\lib\lockmngPS.exp|.\DELE5Interfaces\lockmngPS.m
BTV/000/CUS .\win_b64\code\lib\lockmngPS.lib|.\DELE5Interfaces\lockmngPS.m
@type='SHARED_LIBRARY'
@clr='false'
@kind='NATIVE'
@deliverable='true'
@built='true'
