!<mkRTViewData> v1.0.0
CSC/000/DSI .\MechanicalModeler\CATMmrBrepFtr.m\Objects\win_b64\mkcsc\CATMmrBrepFtr.cscdb|.\MechanicalModeler\CATMmrBrepFtr.m
@type='NONE'
@clr='false'
@kind='INCLUDED'
@deliverable='true'
@built='true'
