!<mkRTViewData> v1.0.0
CSC/000/DSI .\MultiProcessing\JS0X0MRP.m\Objects\win_b64\mkcsc\JS0X0MRP.cscdb|.\MultiProcessing\JS0X0MRP.m
@type='SHARED_LIBRARY'
@clr='false'
@kind='NATIVE'
@deliverable='true'
@built='false'
