!<mkRTViewData> v1.0.0
CSC/000/DSI .\InfInterfaces\InfItfCPP.m\Objects\win_b64\mkcsc\InfItfCPP.cscdb|.\InfInterfaces\InfItfCPP.m
@type='NONE'
@clr='false'
@kind='INCLUDED'
@deliverable='true'
@built='true'
