!<mkRTViewData> v1.0.0
INT/000/CUS .\win_b64\code\bin\CATPDMReconcileService.pdb|.\CATPDMReconcile\CATPDMReconcileService.m
INT/000/CUS .\win_b64\code\lib\CATPDMReconcileService.exp|.\CATPDMReconcile\CATPDMReconcileService.m
RTV/001/CUS .\win_b64\code\bin\CATPDMReconcileService.dll|.\CATPDMReconcile\CATPDMReconcileService.m
BTV/000/CUS .\win_b64\code\lib\CATPDMReconcileService.lib|.\CATPDMReconcile\CATPDMReconcileService.m
CSC/000/DSI .\CATPDMReconcile\CATPDMReconcileService.m\Objects\win_b64\mkcsc\CATPDMReconcileService.cscdb|.\CATPDMReconcile\CATPDMReconcileService.m
@type='SHARED_LIBRARY'
@clr='false'
@kind='NATIVE'
@deliverable='true'
@built='true'
