!<mkRTViewData> v1.0.0
BTV/000/CUS .\win_b64\code\lib\CATEdbUUID.lib|.\CATEngSystemDbModeler\CATEdbUUID.m
CSC/000/DSI .\CATEngSystemDbModeler\CATEdbUUID.m\Objects\win_b64\mkcsc\CATEdbUUID.cscdb|.\CATEngSystemDbModeler\CATEdbUUID.m
@type='ARCHIVE'
@clr='false'
@kind='NATIVE'
@deliverable='true'
@built='true'
