!<mkRTViewData> v1.0.0
INT/000/CUS .\win_b64\code\bin\CATIAENV.pdb|.\Administration\JS0CENV.m
CSC/000/DSI .\Administration\JS0CENV.m\Objects\win_b64\mkcsc\JS0CENV.cscdb|.\Administration\JS0CENV.m
RTV/001/CUS .\win_b64\code\bin\CATIAENV.exe|.\Administration\JS0CENV.m
@type='LOAD_MODULE'
@clr='false'
@kind='NATIVE'
@deliverable='true'
@built='true'
