1.2446mm
1.651mm
1.7272mm
2.1082mm
2.2352mm
2.3114mm
2.413mm
2.7686mm
2.8702mm
3.0226mm
3.048mm
3.2004mm
3.3782mm
3.556mm
3.683mm
3.7338mm
3.9116mm
4.5466mm
4.7752mm
4.8514mm
5.08mm
5.1562mm
5.4864mm
5.5372mm
5.5626mm
6.35mm
7.0104mm
7.1374mm
7.4676mm
7.62mm
7.8232mm
8.7376mm
9.0932mm
9.525mm
9.7028mm
10.16mm
11.0744mm
11.1252mm
14.0208mm
15.24mm
