!<mkRTViewData> v1.0.0
CSC/000/DSI .\DELE5Interfaces\transactiontestPS.m\Objects\win_b64\mkcsc\transactiontestPS.cscdb|.\DELE5Interfaces\transactiontestPS.m
RTV/001/CUS .\win_b64\code\bin\transactiontestPS.dll|.\DELE5Interfaces\transactiontestPS.m
INT/000/CUS .\win_b64\code\bin\transactiontestPS.pdb|.\DELE5Interfaces\transactiontestPS.m
INT/000/CUS .\win_b64\code\lib\transactiontestPS.exp|.\DELE5Interfaces\transactiontestPS.m
BTV/000/CUS .\win_b64\code\lib\transactiontestPS.lib|.\DELE5Interfaces\transactiontestPS.m
@type='SHARED_LIBRARY'
@clr='false'
@kind='NATIVE'
@deliverable='true'
@built='true'
