!<mkRTViewData> v1.0.0
CSC/000/DSI .\PartDesignFeature\PRTCHAMFER.m\Objects\win_b64\mkcsc\PRTCHAMFER.cscdb|.\PartDesignFeature\PRTCHAMFER.m
@type='NONE'
@clr='false'
@kind='INCLUDED'
@deliverable='true'
@built='true'
