!<mkRTViewData> v1.0.0
INT/000/CUS .\win_b64\code\lib\CATFsyWorkbench.exp|.\CATFunctSystemUI\CATFsyWorkbench.m
INT/000/CUS .\win_b64\code\bin\CATFsyWorkbench.pdb|.\CATFunctSystemUI\CATFsyWorkbench.m
BTV/000/CUS .\win_b64\code\lib\CATFsyWorkbench.lib|.\CATFunctSystemUI\CATFsyWorkbench.m
RTV/001/CUS .\win_b64\code\bin\CATFsyWorkbench.dll|.\CATFunctSystemUI\CATFsyWorkbench.m
CSC/000/DSI .\CATFunctSystemUI\CATFsyWorkbench.m\Objects\win_b64\mkcsc\CATFsyWorkbench.cscdb|.\CATFunctSystemUI\CATFsyWorkbench.m
@type='SHARED_LIBRARY'
@clr='false'
@kind='NATIVE'
@deliverable='true'
@built='true'
