PulseValue.1	822857
PulseValue.2	-1031370
PulseValue.3	860471
PulseValue.4	-870000
PulseValue.5	796444
PulseValue.6	-438772
PulseValue.7	0
PulseValue.8	1
PulseValue.9	1
PulseValue.10	1
PulseValue.11	1
PulseValue.12	1
ZeroValue.1	0
ZeroValue.2	0
ZeroValue.3	0
ZeroValue.4	0
ZeroValue.5	0
ZeroValue.6	0
ZeroValue.7	0
ZeroValue.8	0
ZeroValue.9	0
ZeroValue.10	0
ZeroValue.11	0
ZeroValue.12	0
