PulseValue.1	640000
PulseValue.2	-580000
PulseValue.3	612000
PulseValue.4	-298667
PulseValue.5	-283429
PulseValue.6	-268190
PulseValue.7	0
PulseValue.8	1
PulseValue.9	1
PulseValue.10	1
PulseValue.11	1
PulseValue.12	1
ZeroValue.1	0
ZeroValue.2	145000
ZeroValue.3	0
ZeroValue.4	0
ZeroValue.5	0
ZeroValue.6	0
ZeroValue.7	0
ZeroValue.8	0
ZeroValue.9	0
ZeroValue.10	0
ZeroValue.11	0
ZeroValue.12	0
