PulseValue.1	470000
PulseValue.2	-594000
PulseValue.3	444000
PulseValue.4	-320000
PulseValue.5	320000
PulseValue.6	-182857
PulseValue.7	1
PulseValue.8	1
PulseValue.9	1
PulseValue.10	1
PulseValue.11	1
PulseValue.12	1
ZeroValue.1	0
ZeroValue.2	148500
ZeroValue.3	0
ZeroValue.4	0
ZeroValue.5	80000
ZeroValue.6	0
ZeroValue.7	0
ZeroValue.8	0
ZeroValue.9	0
ZeroValue.10	0
ZeroValue.11	0
ZeroValue.12	0
