PulseValue.1	684000
PulseValue.2	-840923
PulseValue.3	684000
PulseValue.4	-845500
PulseValue.5	788480
PulseValue.6	-440168
PulseValue.7	1
PulseValue.8	1
PulseValue.9	1
PulseValue.10	1
PulseValue.11	1
PulseValue.12	1
ZeroValue.1	0
ZeroValue.2	0
ZeroValue.3	171000
ZeroValue.4	0
ZeroValue.5	0
ZeroValue.6	0
ZeroValue.7	0
ZeroValue.8	0
ZeroValue.9	0
ZeroValue.10	0
ZeroValue.11	0
ZeroValue.12	0
