!<mkRTViewData> v1.0.0
CSC/000/DSI .\CATMoldDesignUI\CATMldDowelPinUI.m\Objects\win_b64\mkcsc\CATMldDowelPinUI.cscdb|.\CATMoldDesignUI\CATMldDowelPinUI.m
@type='NONE'
@clr='false'
@kind='INCLUDED'
@deliverable='true'
@built='true'
