!<mkRTViewData> v1.0.0
CSC/000/DSI .\DNBD5DataImport\DELMIACreateCatalog.m\Objects\win_b64\mkcsc\DELMIACreateCatalog.cscdb|.\DNBD5DataImport\DELMIACreateCatalog.m
RTV/001/CUS .\win_b64\code\bin\DELMIACreateCatalog.exe|.\DNBD5DataImport\DELMIACreateCatalog.m
INT/000/CUS .\win_b64\code\bin\DELMIACreateCatalog.pdb|.\DNBD5DataImport\DELMIACreateCatalog.m
@type='LOAD_MODULE'
@clr='false'
@kind='NATIVE'
@deliverable='true'
@built='true'
