!<mkRTViewData> v1.0.0
BTV/000/CUS .\win_b64\code\lib\CATGmoWireModel.lib|.\GSMModel\CATGmoWireModel.m
INT/000/CUS .\win_b64\code\bin\CATGmoWireModel.pdb|.\GSMModel\CATGmoWireModel.m
INT/000/CUS .\win_b64\code\lib\CATGmoWireModel.exp|.\GSMModel\CATGmoWireModel.m
RTV/001/CUS .\win_b64\code\bin\CATGmoWireModel.dll|.\GSMModel\CATGmoWireModel.m
CSC/000/DSI .\GSMModel\CATGmoWireModel.m\Objects\win_b64\mkcsc\CATGmoWireModel.cscdb|.\GSMModel\CATGmoWireModel.m
@type='SHARED_LIBRARY'
@clr='false'
@kind='NATIVE'
@deliverable='true'
@built='true'
