!<mkRTViewData> v1.0.0
CSC/000/DSI .\CATCloudEditorResources\CATCldResMeshExtend.m\Objects\win_b64\mkcsc\CATCldResMeshExtend.cscdb|.\CATCloudEditorResources\CATCldResMeshExtend.m
@type='NONE'
@clr='false'
@kind='INCLUDED'
@deliverable='true'
@built='true'
