!<mkRTViewData> v1.0.0
RTV/002/DSI .\win_b64\code\productIC\CATCGMSkmDataItfIC.required|.\CATCGMSkmDataItf
BTV/002/CUS .\win_b64\code\productIC\CATCGMSkmDataItfIC.xml|.\CATCGMSkmDataItf
BTV/002/CUS .\win_b64\code\productIC\CATCGMSkmDataItfIC.script|.\CATCGMSkmDataItf
CSC/002/DSI .\CATCGMSkmDataItf\IdentityCard\Objects\win_b64\mkcsc\CATCGMSkmDataItf.cscdb|.\CATCGMSkmDataItf
@type='codeFramework'
@built='true'
