!<mkRTViewData> v1.0.0
CSC/000/DSI .\CORBAServerInfra\GW0SRVSetting.m\Objects\win_b64\mkcsc\GW0SRVSetting.cscdb|.\CORBAServerInfra\GW0SRVSetting.m
INT/000/CUS .\win_b64\code\bin\GW0SRVSetting.pdb|.\CORBAServerInfra\GW0SRVSetting.m
RTV/001/CUS .\win_b64\code\bin\GW0SRVSetting.exe|.\CORBAServerInfra\GW0SRVSetting.m
@type='LOAD_MODULE'
@clr='false'
@kind='NATIVE'
@deliverable='true'
@built='true'
