!<mkRTViewData> v1.0.0
RTV/001/CUS .\win_b64\code\bin\PartAndNCGMDataExchange.dll|.\PartDesignDataExchange\PartAndNCGMDataExchange.m
INT/000/CUS .\win_b64\code\lib\PartAndNCGMDataExchange.exp|.\PartDesignDataExchange\PartAndNCGMDataExchange.m
CSC/000/DSI .\PartDesignDataExchange\PartAndNCGMDataExchange.m\Objects\win_b64\mkcsc\PartAndNCGMDataExchange.cscdb|.\PartDesignDataExchange\PartAndNCGMDataExchange.m
INT/000/CUS .\win_b64\code\bin\PartAndNCGMDataExchange.pdb|.\PartDesignDataExchange\PartAndNCGMDataExchange.m
BTV/000/CUS .\win_b64\code\lib\PartAndNCGMDataExchange.lib|.\PartDesignDataExchange\PartAndNCGMDataExchange.m
@type='SHARED_LIBRARY'
@clr='false'
@kind='NATIVE'
@deliverable='true'
@built='true'
