!<mkRTViewData> v1.0.0
INT/000/CUS .\win_b64\code\bin\CATXML4C3.pdb|.\XMLParser\CATXML4C3.m
RTV/001/CUS .\win_b64\code\bin\CATXML4C3.dll|.\XMLParser\CATXML4C3.m
BTV/000/CUS .\win_b64\code\lib\CATXML4C3.lib|.\XMLParser\CATXML4C3.m
CSC/000/DSI .\XMLParser\CATXML4C3.m\Objects\win_b64\mkcsc\CATXML4C3.cscdb|.\XMLParser\CATXML4C3.m
INT/000/CUS .\win_b64\code\lib\CATXML4C3.exp|.\XMLParser\CATXML4C3.m
@type='SHARED_LIBRARY'
@clr='false'
@kind='NATIVE'
@deliverable='true'
@built='true'
