!<mkRTViewData> v1.0.0
CSC/000/DSI .\Infra2DInterfaces\Infra2DItfCPP.m\Objects\win_b64\mkcsc\Infra2DItfCPP.cscdb|.\Infra2DInterfaces\Infra2DItfCPP.m
INT/000/CUS .\win_b64\code\lib\Infra2DItfCPP.exp|.\Infra2DInterfaces\Infra2DItfCPP.m
INT/000/CUS .\win_b64\code\bin\Infra2DItfCPP.pdb|.\Infra2DInterfaces\Infra2DItfCPP.m
RTV/001/CUS .\win_b64\code\bin\Infra2DItfCPP.dll|.\Infra2DInterfaces\Infra2DItfCPP.m
BTV/000/CUS .\win_b64\code\lib\Infra2DItfCPP.lib|.\Infra2DInterfaces\Infra2DItfCPP.m
@type='SHARED_LIBRARY'
@clr='false'
@kind='NATIVE'
@deliverable='true'
@built='true'
