!<mkRTViewData> v1.0.0
CSC/002/DSI .\CATV4Topology\IdentityCard\Objects\win_b64\mkcsc\CATV4Topology.cscdb|.\CATV4Topology
RTV/002/DSI .\win_b64\code\productIC\CATV4TopologyIC.required|.\CATV4Topology
BTV/002/CUS .\win_b64\code\productIC\CATV4TopologyIC.script|.\CATV4Topology
BTV/002/CUS .\win_b64\code\productIC\CATV4TopologyIC.xml|.\CATV4Topology
@type='codeFramework'
@built='true'
