!<mkRTViewData> v1.0.0
CSC/000/DSI .\CATAnnotationModeler\CATAnnStyle.m\Objects\win_b64\mkcsc\CATAnnStyle.cscdb|.\CATAnnotationModeler\CATAnnStyle.m
@type='NONE'
@clr='false'
@kind='INCLUDED'
@deliverable='true'
@built='true'
