!<mkRTViewData> v1.0.0
CSC/000/DSI .\ApplicationFrame\CATAfrUUID.m\Objects\win_b64\mkcsc\CATAfrUUID.cscdb|.\ApplicationFrame\CATAfrUUID.m
BTV/000/CUS .\win_b64\code\lib\CATAfrUUID.lib|.\ApplicationFrame\CATAfrUUID.m
@type='ARCHIVE'
@clr='false'
@kind='NATIVE'
@deliverable='true'
@built='true'
