!<mkRTViewData> v1.0.0
CSC/000/DSI .\CORBAServerInfra\GW0Runner.m\Objects\win_b64\mkcsc\GW0Runner.cscdb|.\CORBAServerInfra\GW0Runner.m
@type='LOAD_MODULE'
@clr='false'
@kind='NATIVE'
@deliverable='true'
@built='false'
