!<mkRTViewData> v1.0.0
BTV/002/CUS .\win_b64\code\productIC\CATSmaInterfacesIC.script|.\CATSmaInterfaces
DAT/002/CUS .\win_b64\code\dictionary\CATSmaInterfaces.iid|.\CATSmaInterfaces\CNext\code\dictionary\CATSmaInterfaces.iid
RTV/002/DSI .\win_b64\code\productIC\CATSmaInterfacesIC.required|.\CATSmaInterfaces
BTV/002/CUS .\win_b64\code\productIC\CATSmaInterfacesIC.xml|.\CATSmaInterfaces
CSC/002/DSI .\CATSmaInterfaces\IdentityCard\Objects\win_b64\mkcsc\CATSmaInterfaces.cscdb|.\CATSmaInterfaces
@type='codeFramework'
@built='true'
