!<mkRTViewData> v1.0.0
CSC/000/DSI .\NewTopologicalObjects\BOOERROR.m\Objects\win_b64\mkcsc\BOOERROR.cscdb|.\NewTopologicalObjects\BOOERROR.m
@type='NONE'
@clr='false'
@kind='INCLUDED'
@deliverable='true'
@built='true'
