!<mkRTViewData> v1.0.0
INT/000/CUS .\win_b64\code\bin\CATLieUnit.pdb|.\LiteralsEditor\CATLieUnit.m
INT/000/CUS .\win_b64\code\lib\CATLieUnit.exp|.\LiteralsEditor\CATLieUnit.m
RTV/001/CUS .\win_b64\code\bin\CATLieUnit.dll|.\LiteralsEditor\CATLieUnit.m
CSC/000/DSI .\LiteralsEditor\CATLieUnit.m\Objects\win_b64\mkcsc\CATLieUnit.cscdb|.\LiteralsEditor\CATLieUnit.m
BTV/000/CUS .\win_b64\code\lib\CATLieUnit.lib|.\LiteralsEditor\CATLieUnit.m
@type='SHARED_LIBRARY'
@clr='false'
@kind='NATIVE'
@deliverable='true'
@built='true'
