!<mkRTViewData> v1.0.0
INT/000/CUS .\win_b64\code\lib\AUTCmnTools.exp|.\AUTCmn\AUTCmnTools.m
RTV/001/CUS .\win_b64\code\bin\AUTCmnTools.dll|.\AUTCmn\AUTCmnTools.m
INT/000/CUS .\win_b64\code\bin\AUTCmnTools.pdb|.\AUTCmn\AUTCmnTools.m
CSC/000/DSI .\AUTCmn\AUTCmnTools.m\Objects\win_b64\mkcsc\AUTCmnTools.cscdb|.\AUTCmn\AUTCmnTools.m
BTV/000/CUS .\win_b64\code\lib\AUTCmnTools.lib|.\AUTCmn\AUTCmnTools.m
@type='SHARED_LIBRARY'
@clr='false'
@kind='NATIVE'
@deliverable='true'
@built='true'
