!<mkRTViewData> v1.0.0
CSC/000/DSI .\CATPIDiagramInterfaces\CATPIDPubIDL.m\Objects\win_b64\mkcsc\CATPIDPubIDL.cscdb|.\CATPIDiagramInterfaces\CATPIDPubIDL.m
@type='NONE'
@clr='false'
@kind='INCLUDED'
@deliverable='true'
@built='true'
