!<mkRTViewData> v1.0.0
CSC/000/DSI .\GenerativeKnowledgeUI\CATLoopUI.m\Objects\win_b64\mkcsc\CATLoopUI.cscdb|.\GenerativeKnowledgeUI\CATLoopUI.m
@type='NONE'
@clr='false'
@kind='INCLUDED'
@deliverable='true'
@built='true'
