!<mkRTViewData> v1.0.0
INT/000/CUS .\win_b64\code\bin\CATCCSInterfaces.pdb|.\CATCoreCavityInterfaces\CATCCSInterfaces.m
RTV/001/CUS .\win_b64\code\bin\CATCCSInterfaces.dll|.\CATCoreCavityInterfaces\CATCCSInterfaces.m
INT/000/CUS .\win_b64\code\lib\CATCCSInterfaces.exp|.\CATCoreCavityInterfaces\CATCCSInterfaces.m
BTV/000/CUS .\win_b64\code\lib\CATCCSInterfaces.lib|.\CATCoreCavityInterfaces\CATCCSInterfaces.m
CSC/000/DSI .\CATCoreCavityInterfaces\CATCCSInterfaces.m\Objects\win_b64\mkcsc\CATCCSInterfaces.cscdb|.\CATCoreCavityInterfaces\CATCCSInterfaces.m
@type='SHARED_LIBRARY'
@clr='false'
@kind='NATIVE'
@deliverable='true'
@built='true'
