!<mkRTViewData> v1.0.0
CSC/000/DSI .\CATArrangementInterfaces\CATArrangementPubIDL.m\Objects\win_b64\mkcsc\CATArrangementPubIDL.cscdb|.\CATArrangementInterfaces\CATArrangementPubIDL.m
@type='NONE'
@clr='false'
@kind='INCLUDED'
@deliverable='true'
@built='true'
