!<mkRTViewData> v1.0.0
BTV/000/CUS .\win_b64\code\lib\CATAnalysisToolsUUID.lib|.\CATAnalysisTools\CATAnalysisToolsUUID.m
CSC/000/DSI .\CATAnalysisTools\CATAnalysisToolsUUID.m\Objects\win_b64\mkcsc\CATAnalysisToolsUUID.cscdb|.\CATAnalysisTools\CATAnalysisToolsUUID.m
@type='ARCHIVE'
@clr='false'
@kind='NATIVE'
@deliverable='true'
@built='true'
