!<mkRTViewData> v1.0.0
CSC/000/DSI .\CATV4System\CATC4sLicensing.m\Objects\win_b64\mkcsc\CATC4sLicensing.cscdb|.\CATV4System\CATC4sLicensing.m
@type='SHARED_LIBRARY'
@clr='false'
@kind='NATIVE'
@deliverable='true'
@built='false'
