!<mkRTViewData> v1.0.0
CSC/000/DSI .\CATCoreCavitySeparationUI\CATCCSCompareModelUI.m\Objects\win_b64\mkcsc\CATCCSCompareModelUI.cscdb|.\CATCoreCavitySeparationUI\CATCCSCompareModelUI.m
@type='NONE'
@clr='false'
@kind='INCLUDED'
@deliverable='true'
@built='true'
