!<mkRTViewData> v1.0.0
BTV/000/DSI .\win_b64\code\lib\JS0DSLUTILS.lib|.\LCCommon\JS0DSLUTILS.m
CSC/000/DSI .\LCCommon\JS0DSLUTILS.m\Objects\win_b64\mkcsc\JS0DSLUTILS.cscdb|.\LCCommon\JS0DSLUTILS.m
@type='ARCHIVE'
@clr='false'
@kind='NATIVE'
@deliverable='false'
@built='true'
