!<mkRTViewData> v1.0.0
RTV/001/CUS .\win_b64\code\bin\CATSysAsk.exe|.\System\CATSysAsk.m
CSC/000/DSI .\System\CATSysAsk.m\Objects\win_b64\mkcsc\CATSysAsk.cscdb|.\System\CATSysAsk.m
INT/000/CUS .\win_b64\code\bin\CATSysAsk.pdb|.\System\CATSysAsk.m
@type='LOAD_MODULE'
@clr='false'
@kind='NATIVE'
@deliverable='true'
@built='true'
