!<mkRTViewData> v1.0.0
BTV/000/CUS .\win_b64\code\lib\CATARTDaemon.lib|.\CATImmersiveUI\CATARTDaemon.m
CSC/000/DSI .\CATImmersiveUI\CATARTDaemon.m\Objects\win_b64\mkcsc\CATARTDaemon.cscdb|.\CATImmersiveUI\CATARTDaemon.m
INT/000/CUS .\win_b64\code\lib\CATARTDaemon.exp|.\CATImmersiveUI\CATARTDaemon.m
INT/000/CUS .\win_b64\code\bin\CATARTDaemon.pdb|.\CATImmersiveUI\CATARTDaemon.m
RTV/001/CUS .\win_b64\code\bin\CATARTDaemon.dll|.\CATImmersiveUI\CATARTDaemon.m
@type='SHARED_LIBRARY'
@clr='false'
@kind='NATIVE'
@deliverable='true'
@built='true'
