!<mkRTViewData> v1.0.0
CSC/000/DSI .\CGMV5SpecsQuery\CATGeoClean.m\Objects\win_b64\mkcsc\CATGeoClean.cscdb|.\CGMV5SpecsQuery\CATGeoClean.m
BTV/000/CUS .\win_b64\code\lib\CATGeoClean.lib|.\CGMV5SpecsQuery\CATGeoClean.m
INT/000/CUS .\win_b64\code\lib\CATGeoClean.exp|.\CGMV5SpecsQuery\CATGeoClean.m
INT/000/CUS .\win_b64\code\bin\CATGeoClean.pdb|.\CGMV5SpecsQuery\CATGeoClean.m
RTV/001/CUS .\win_b64\code\bin\CATGeoClean.dll|.\CGMV5SpecsQuery\CATGeoClean.m
@type='SHARED_LIBRARY'
@clr='false'
@kind='NATIVE'
@deliverable='true'
@built='true'
