!<mkRTViewData> v1.0.0
CSC/000/DSI .\CATSdeSettingInterfaces\CATSdeSettingItfCPP.m\Objects\win_b64\mkcsc\CATSdeSettingItfCPP.cscdb|.\CATSdeSettingInterfaces\CATSdeSettingItfCPP.m
@type='NONE'
@clr='false'
@kind='INCLUDED'
@deliverable='true'
@built='true'
