!<mkRTViewData> v1.0.0
RTV/000/CUS .\win_b64\docs\javaserver\xmlapi.jar|.\JXMLParser\xmlapi.mj
RTV/000/CUS .\win_b64\docs\java\xmlapi.jar|.\JXMLParser\xmlapi.mj
CSC/000/DSI .\JXMLParser\xmlapi.mj\Objects\win_b64\mkcsc\xmlapi.cscdb|.\JXMLParser\xmlapi.mj
@type='JAVA_COMMON'
@clr='false'
@kind='JAVA'
@deliverable='true'
@built='true'
