!<mkRTViewData> v1.0.0
CSC/000/DSI .\CATSmInterfaces\CATSmInterfacesTSRC.m\Objects\win_b64\mkcsc\CATSmInterfacesTSRC.cscdb|.\CATSmInterfaces\CATSmInterfacesTSRC.m
@type='NONE'
@clr='false'
@kind='INCLUDED'
@deliverable='true'
@built='true'
