!<mkRTViewData> v1.0.0
CSC/000/DSI .\DialogEngine\DI0APPLI.m\Objects\win_b64\mkcsc\DI0APPLI.cscdb|.\DialogEngine\DI0APPLI.m
@type='NONE'
@clr='false'
@kind='INCLUDED'
@deliverable='true'
@built='true'
