ASB0001
ASB0002
ASB0003
ASB0004
ASB0005
ASB0006
ASB0007
ASB0008
ASB0009
ASB0010
ASB0011
ASB0012
ASB0013
ASB0014
ASB0015
ASB0016
ASB0017
ASB0018
ASB0019
ASB0020
ASB0021
ASB0022
ASB0023
ASB0024
ASB0025
ASB0026
ASB0027
ASB0028
ASB0029
ASB0030
ASB0031
ASB0032
ASB0033
ASB0034
ASB0035
ASE0001
ASE0002
ASE0003
ASE0004
ASE0005
ASE0006
ASE0007
ASE0008
ASE0009
ASE0010
ASE0011
ASE0012
ASE0013
ASE0014
ASE0015
ASF0001
ASF0002
ASF0003
ASF0004
ASF0005
ASF0006
ASF0007
ASF0008
ASF0009
ASF0010
ASF0011
ASF0012
ASF0013
ASF0014
ASF0015
ASF0016
ASF0017
ASF0018
ASF0019
ASF0020
ASF0021
ASF0022
ASF0023
ASF0024
ASF0025
ASF0026
ASF0027
ASF0028
ASF0029
ASF0030
ASF0031
ASF0032
ASF0033
ASF0034
ASF0035
ASF0036
ASF0037
ASF0038
ASF0039
ASF0040
ASF0041
ASF0042
ASF0043
ASF0044
ASF0045
ASG0001
ASG0002
ASG0003
ASG0004
ASG0005
ASI0001
ASI0002
ASI0003
ASI0004
ASI0005
ASL0001
ASL0002
ASL0003
ASL0004
ASL0005
ASL0006
ASL0007
ASL0008
ASL0009
ASL0010
ASL0011
ASL0012
ASL0013
ASL0014
ASL0015
ASM0001
ASM0002
ASM0003
ASM0004
ASM0005
ASM0006
ASM0007
ASM0008
ASM0009
ASM0010
ASM0011
ASM0012
ASM0013
ASM0014
ASM0015
ASP0001
ASP0002
ASP0003
ASP0004
ASP0005
ASV0001
ASV0002
ASV0003
ASV0004
ASV0005
ASV0006
ASV0007
ASV0008
ASV0009
ASV0010
ASV0011
ASV0012
ASV0013
ASV0014
ASV0015
ASV0016
ASV0017
ASV0018
ASV0019
ASV0020
ASV0021
ASV0022
ASV0023
ASV0024
ASV0025
ASV0026
ASV0027
ASV0028
ASV0029
ASV0030
ASV0031
ASV0032
ASV0033
ASV0034
ASV0035
ASV0036
ASV0037
ASV0038
ASV0039
ASV0040
ASV0041
ASV0042
ASV0043
ASV0044
ASV0045
ASV0046
ASV0047
ASV0048
ASV0049
ASV0050
ASV0051
ASV0052
ASV0053
ASV0054
ASV0055
ASV0056
ASV0057
ASV0058
ASV0059
ASV0060
ASV0061
ASV0062
ASV0063
ASV0064
ASV0065
ASV0066
ASV0067
ASV0068
ASV0069
ASV0070
ASV0071
ASV0072
ASV0073
ASV0074
ASV0075
ASV0076
ASV0077
ASV0078
ASV0079
ASV0080

