!<mkRTViewData> v1.0.0
CSC/000/DSI .\PolyhedralOperators\CATPolyMCrv.m\Objects\win_b64\mkcsc\CATPolyMCrv.cscdb|.\PolyhedralOperators\CATPolyMCrv.m
@type='NONE'
@clr='false'
@kind='INCLUDED'
@deliverable='true'
@built='true'
