!<mkRTViewData> v1.0.0
RTV/002/DSI .\win_b64\resources\msgcatalog\DbcsTest\DNBProductWkb.CATNls|.\DNBProductUI\CNext\resources\msgcatalog\DNBProductWkb.CATNls
RTV/002/DSI .\win_b64\resources\msgcatalog\NlsTest\DNBProductWkb.CATNls|.\DNBProductUI\CNext\resources\msgcatalog\DNBProductWkb.CATNls
DAT/002/CUS .\win_b64\resources\msgcatalog\DNBCommonDMRGlobalAddinCmdHdr.CATRsc|.\DNBProductUI\CNext\resources\msgcatalog\DNBCommonDMRGlobalAddinCmdHdr.CATRsc
RTV/002/DSI .\win_b64\resources\msgcatalog\NlsTest\DNBCommonDMRGlobalAddinCmdHdr.CATNls|.\DNBProductUI\CNext\resources\msgcatalog\DNBCommonDMRGlobalAddinCmdHdr.CATNls
BTV/002/CUS .\win_b64\code\productIC\DNBProductUIIC.script|.\DNBProductUI
DAT/002/CUS .\win_b64\resources\msgcatalog\DNBCommonDMRGlobalAddinCmdHdr.CATNls|.\DNBProductUI\CNext\resources\msgcatalog\DNBCommonDMRGlobalAddinCmdHdr.CATNls
DAT/002/CUS .\win_b64\resources\msgcatalog\DNBProductWkb.CATNls|.\DNBProductUI\CNext\resources\msgcatalog\DNBProductWkb.CATNls
DAT/002/CUS .\win_b64\code\dictionary\DNBProductUI.dic|.\DNBProductUI\CNext\code\dictionary\DNBProductUI.dic
DAT/002/CUS .\win_b64\resources\msgcatalog\DNBCommunitiesCmd.CATRsc|.\DNBProductUI\CNext\resources\msgcatalog\DNBCommunitiesCmd.CATRsc
RTV/002/DSI .\win_b64\code\productIC\DNBProductUIIC.required|.\DNBProductUI
RTV/002/DSI .\win_b64\resources\msgcatalog\DbcsTest\DNBCommonDMRGlobalAddinCmdHdr.CATNls|.\DNBProductUI\CNext\resources\msgcatalog\DNBCommonDMRGlobalAddinCmdHdr.CATNls
CSC/002/DSI .\DNBProductUI\IdentityCard\Objects\win_b64\mkcsc\DNBProductUI.cscdb|.\DNBProductUI
BTV/002/CUS .\win_b64\code\productIC\DNBProductUIIC.xml|.\DNBProductUI
@type='codeFramework'
@built='true'
