!<mkRTViewData> v1.0.0
INT/000/CUS .\win_b64\code\bin\VBAIntegration.pdb|.\VBA\VBAIntegration.m
BTV/000/CUS .\win_b64\code\lib\VBAIntegration.lib|.\VBA\VBAIntegration.m
CSC/000/DSI .\VBA\VBAIntegration.m\Objects\win_b64\mkcsc\VBAIntegration.cscdb|.\VBA\VBAIntegration.m
RTV/001/CUS .\win_b64\code\bin\VBAIntegration.dll|.\VBA\VBAIntegration.m
INT/000/CUS .\win_b64\code\lib\VBAIntegration.exp|.\VBA\VBAIntegration.m
@type='SHARED_LIBRARY'
@clr='false'
@kind='NATIVE'
@deliverable='true'
@built='true'
