!<mkRTViewData> v1.0.0
INT/000/CUS .\win_b64\code\lib\CATUVMeshBuilder.exp|.\CGMMeshFitter\CATUVMeshBuilder.m
INT/000/CUS .\win_b64\code\bin\CATUVMeshBuilder.pdb|.\CGMMeshFitter\CATUVMeshBuilder.m
BTV/000/CUS .\win_b64\code\lib\CATUVMeshBuilder.lib|.\CGMMeshFitter\CATUVMeshBuilder.m
CSC/000/DSI .\CGMMeshFitter\CATUVMeshBuilder.m\Objects\win_b64\mkcsc\CATUVMeshBuilder.cscdb|.\CGMMeshFitter\CATUVMeshBuilder.m
RTV/001/CUS .\win_b64\code\bin\CATUVMeshBuilder.dll|.\CGMMeshFitter\CATUVMeshBuilder.m
@type='SHARED_LIBRARY'
@clr='false'
@kind='NATIVE'
@deliverable='true'
@built='true'
