!<mkRTViewData> v1.0.0
CSC/000/DSI .\TopologicalOperatorsLight\PrimitivesLight.m\Objects\win_b64\mkcsc\PrimitivesLight.cscdb|.\TopologicalOperatorsLight\PrimitivesLight.m
@type='NONE'
@clr='false'
@kind='INCLUDED'
@deliverable='true'
@built='true'
