!<mkRTViewData> v1.0.0
CSC/000/DSI .\CATIAApplicationFrame\CD0VRML.m\Objects\win_b64\mkcsc\CD0VRML.cscdb|.\CATIAApplicationFrame\CD0VRML.m
@type='NONE'
@clr='false'
@kind='INCLUDED'
@deliverable='true'
@built='true'
