!<mkRTViewData> v1.0.0
CSC/000/DSI .\PartDesignFeature\PRTICON.m\Objects\win_b64\mkcsc\PRTICON.cscdb|.\PartDesignFeature\PRTICON.m
@type='NONE'
@clr='false'
@kind='INCLUDED'
@deliverable='true'
@built='true'
