!<mkRTViewData> v1.0.0
CSC/000/DSI .\DNBDpmExecutionServices\DNBDpmNotificatons.m\Objects\win_b64\mkcsc\DNBDpmNotificatons.cscdb|.\DNBDpmExecutionServices\DNBDpmNotificatons.m
@type='NONE'
@clr='false'
@kind='INCLUDED'
@deliverable='true'
@built='true'
