!<mkRTViewData> v1.0.0
RTV/001/CUS .\win_b64\code\bin\DNBWSQBase.dll|.\DNBWSQBase\DNBWSQBase.m
INT/000/CUS .\win_b64\code\lib\DNBWSQBase.exp|.\DNBWSQBase\DNBWSQBase.m
CSC/000/DSI .\DNBWSQBase\DNBWSQBase.m\Objects\win_b64\mkcsc\DNBWSQBase.cscdb|.\DNBWSQBase\DNBWSQBase.m
BTV/000/CUS .\win_b64\code\lib\DNBWSQBase.lib|.\DNBWSQBase\DNBWSQBase.m
INT/000/CUS .\win_b64\code\bin\DNBWSQBase.pdb|.\DNBWSQBase\DNBWSQBase.m
@type='SHARED_LIBRARY'
@clr='false'
@kind='NATIVE'
@deliverable='true'
@built='true'
