!<mkRTViewData> v1.0.0
RTV/001/CUS .\win_b64\code\bin\CATGngFeatures.dll|.\GenericNamingIntegration\CATGngFeatures.m
BTV/000/CUS .\win_b64\code\lib\CATGngFeatures.lib|.\GenericNamingIntegration\CATGngFeatures.m
CSC/000/DSI .\GenericNamingIntegration\CATGngFeatures.m\Objects\win_b64\mkcsc\CATGngFeatures.cscdb|.\GenericNamingIntegration\CATGngFeatures.m
INT/000/CUS .\win_b64\code\lib\CATGngFeatures.exp|.\GenericNamingIntegration\CATGngFeatures.m
INT/000/CUS .\win_b64\code\bin\CATGngFeatures.pdb|.\GenericNamingIntegration\CATGngFeatures.m
@type='SHARED_LIBRARY'
@clr='false'
@kind='NATIVE'
@deliverable='true'
@built='true'
