!<mkRTViewData> v1.0.0
CSC/000/DSI .\PolyhedralInterfaces\PolyhedralUtilities.m\Objects\win_b64\mkcsc\PolyhedralUtilities.cscdb|.\PolyhedralInterfaces\PolyhedralUtilities.m
@type='NONE'
@clr='false'
@kind='INCLUDED'
@deliverable='true'
@built='true'
