!<mkRTViewData> v1.0.0
RTV/001/CUS .\win_b64\code\bin\DNBSORItf.dll|.\DNBSORInterfaces\DNBSORItf.m
BTV/000/CUS .\win_b64\code\lib\DNBSORItf.lib|.\DNBSORInterfaces\DNBSORItf.m
INT/000/CUS .\win_b64\code\bin\DNBSORItf.pdb|.\DNBSORInterfaces\DNBSORItf.m
INT/000/CUS .\win_b64\code\lib\DNBSORItf.exp|.\DNBSORInterfaces\DNBSORItf.m
CSC/000/DSI .\DNBSORInterfaces\DNBSORItf.m\Objects\win_b64\mkcsc\DNBSORItf.cscdb|.\DNBSORInterfaces\DNBSORItf.m
@type='SHARED_LIBRARY'
@clr='false'
@kind='NATIVE'
@deliverable='true'
@built='true'
