!<mkRTViewData> v1.0.0
INT/000/CUS .\win_b64\code\lib\CAADNBPDMItf.exp|.\DNBMHIInterfaces\CAADNBPDMItf.m
CSC/000/DSI .\DNBMHIInterfaces\CAADNBPDMItf.m\Objects\win_b64\mkcsc\CAADNBPDMItf.cscdb|.\DNBMHIInterfaces\CAADNBPDMItf.m
RTV/001/CUS .\win_b64\code\bin\CAADNBPDMItf.dll|.\DNBMHIInterfaces\CAADNBPDMItf.m
INT/000/CUS .\win_b64\code\bin\CAADNBPDMItf.pdb|.\DNBMHIInterfaces\CAADNBPDMItf.m
BTV/000/CUS .\win_b64\code\lib\CAADNBPDMItf.lib|.\DNBMHIInterfaces\CAADNBPDMItf.m
@type='SHARED_LIBRARY'
@clr='false'
@kind='NATIVE'
@deliverable='true'
@built='true'
