!<mkRTViewData> v1.0.0
BTV/002/CUS .\win_b64\code\productIC\ConstraintSolverIC.xml|.\ConstraintSolver
RTV/002/DSI .\win_b64\code\productIC\ConstraintSolverIC.required|.\ConstraintSolver
BTV/002/CUS .\win_b64\code\productIC\ConstraintSolverIC.script|.\ConstraintSolver
CSC/002/DSI .\ConstraintSolver\IdentityCard\Objects\win_b64\mkcsc\ConstraintSolver.cscdb|.\ConstraintSolver
@type='codeFramework'
@built='true'
