!<mkRTViewData> v1.0.0
INT/000/CUS .\win_b64\code\lib\DNBIgpOlpUIWbench.exp|.\DNBIgpOlpUI\DNBIgpOlpUIWbench.m
INT/000/CUS .\win_b64\code\bin\DNBIgpOlpUIWbench.pdb|.\DNBIgpOlpUI\DNBIgpOlpUIWbench.m
RTV/001/CUS .\win_b64\code\bin\DNBIgpOlpUIWbench.dll|.\DNBIgpOlpUI\DNBIgpOlpUIWbench.m
CSC/000/DSI .\DNBIgpOlpUI\DNBIgpOlpUIWbench.m\Objects\win_b64\mkcsc\DNBIgpOlpUIWbench.cscdb|.\DNBIgpOlpUI\DNBIgpOlpUIWbench.m
BTV/000/CUS .\win_b64\code\lib\DNBIgpOlpUIWbench.lib|.\DNBIgpOlpUI\DNBIgpOlpUIWbench.m
@type='SHARED_LIBRARY'
@clr='false'
@kind='NATIVE'
@deliverable='true'
@built='true'
