!<mkRTViewData> v1.0.0
CSC/000/DSI .\KinematicsInterfaces\KinematicsItfProIDL.m\Objects\win_b64\mkcsc\KinematicsItfProIDL.cscdb|.\KinematicsInterfaces\KinematicsItfProIDL.m
@type='NONE'
@clr='false'
@kind='INCLUDED'
@deliverable='true'
@built='true'
