!<mkRTViewData> v1.0.0
CSC/000/DSI .\BasicTopologicalOpe\CATBtoSmoothing.m\Objects\win_b64\mkcsc\CATBtoSmoothing.cscdb|.\BasicTopologicalOpe\CATBtoSmoothing.m
@type='NONE'
@clr='false'
@kind='INCLUDED'
@deliverable='true'
@built='true'
