!<mkRTViewData> v1.0.0
CSC/000/DSI .\MechanicalModelerUI\PartEditor.m\Objects\win_b64\mkcsc\PartEditor.cscdb|.\MechanicalModelerUI\PartEditor.m
@type='NONE'
@clr='false'
@kind='INCLUDED'
@deliverable='true'
@built='true'
