!<mkRTViewData> v1.0.0
CSC/002/DSI .\PPRInterfaces\IdentityCard\Objects\win_b64\mkcsc\PPRInterfaces.cscdb|.\PPRInterfaces
BTV/002/CUS .\win_b64\code\productIC\PPRInterfacesIC.script|.\PPRInterfaces
RTV/002/DSI .\win_b64\code\productIC\PPRInterfacesIC.required|.\PPRInterfaces
BTV/002/CUS .\win_b64\code\productIC\PPRInterfacesIC.xml|.\PPRInterfaces
DAT/002/CUS .\win_b64\code\dictionary\PPRInterfaces.iid|.\PPRInterfaces\CNext\code\dictionary\PPRInterfaces.iid
@type='codeFramework'
@built='true'
