!<mkRTViewData> v1.0.0
RTV/001/CUS .\win_b64\code\bin\CATIPDAdapterItf.dll|.\CATIPDAdapterInterfaces\CATIPDAdapterItf.m
CSC/000/DSI .\CATIPDAdapterInterfaces\CATIPDAdapterItf.m\Objects\win_b64\mkcsc\CATIPDAdapterItf.cscdb|.\CATIPDAdapterInterfaces\CATIPDAdapterItf.m
BTV/000/CUS .\win_b64\code\lib\CATIPDAdapterItf.lib|.\CATIPDAdapterInterfaces\CATIPDAdapterItf.m
INT/000/CUS .\win_b64\code\bin\CATIPDAdapterItf.pdb|.\CATIPDAdapterInterfaces\CATIPDAdapterItf.m
INT/000/CUS .\win_b64\code\lib\CATIPDAdapterItf.exp|.\CATIPDAdapterInterfaces\CATIPDAdapterItf.m
@type='SHARED_LIBRARY'
@clr='false'
@kind='NATIVE'
@deliverable='true'
@built='true'
