!<mkRTViewData> v1.0.0
CSC/000/DSI .\DNBMath\DNBVector3DMD.m\Objects\win_b64\mkcsc\DNBVector3DMD.cscdb|.\DNBMath\DNBVector3DMD.m
@type='NONE'
@clr='false'
@kind='INCLUDED'
@deliverable='true'
@built='true'
