!<mkRTViewData> v1.0.0
CSC/000/DSI .\PLMSecuritySSOBase\PLMSecSSOBaseCppCom.m\Objects\win_b64\mkcsc\PLMSecSSOBaseCppCom.cscdb|.\PLMSecuritySSOBase\PLMSecSSOBaseCppCom.m
@type='SHARED_LIBRARY'
@clr='false'
@kind='NATIVE'
@deliverable='true'
@built='false'
