!<mkRTViewData> v1.0.0
BTV/000/CUS .\win_b64\code\lib\SketcherInterfacesUUID.lib|.\SketcherInterfaces\SketcherInterfacesUUID.m
CSC/000/DSI .\SketcherInterfaces\SketcherInterfacesUUID.m\Objects\win_b64\mkcsc\SketcherInterfacesUUID.cscdb|.\SketcherInterfaces\SketcherInterfacesUUID.m
@type='ARCHIVE'
@clr='false'
@kind='NATIVE'
@deliverable='true'
@built='true'
