!<mkRTViewData> v1.0.0
CSC/000/DSI .\DNBAsyActivityBase\DNBAsyActivityUtils.m\Objects\win_b64\mkcsc\DNBAsyActivityUtils.cscdb|.\DNBAsyActivityBase\DNBAsyActivityUtils.m
@type='NONE'
@clr='false'
@kind='INCLUDED'
@deliverable='true'
@built='true'
