!<mkRTViewData> v1.0.0
CSC/000/DSI .\NewTopologicalObjects\CATCGMProperty.m\Objects\win_b64\mkcsc\CATCGMProperty.cscdb|.\NewTopologicalObjects\CATCGMProperty.m
@type='NONE'
@clr='false'
@kind='INCLUDED'
@deliverable='true'
@built='true'
