!<mkRTViewData> v1.0.0
CSC/000/DSI .\CATBehaviorInterfaces\CO0OItf.m\Objects\win_b64\mkcsc\CO0OItf.cscdb|.\CATBehaviorInterfaces\CO0OItf.m
@type='NONE'
@clr='false'
@kind='INCLUDED'
@deliverable='true'
@built='true'
