!<mkRTViewData> v1.0.0
CSC/000/DSI .\Administration\CATUnCab.m\Objects\win_b64\mkcsc\CATUnCab.cscdb|.\Administration\CATUnCab.m
@type='LOAD_MODULE'
@clr='false'
@kind='NATIVE'
@deliverable='true'
@built='false'
