!<mkRTViewData> v1.0.0
CSC/000/DSI .\VisualizationBase\VisCGFX2NVFX.m\Objects\win_b64\mkcsc\VisCGFX2NVFX.cscdb|.\VisualizationBase\VisCGFX2NVFX.m
INT/000/CUS .\win_b64\code\bin\VisCGFX2NVFX.pdb|.\VisualizationBase\VisCGFX2NVFX.m
BTV/000/CUS .\win_b64\code\lib\VisCGFX2NVFX.lib|.\VisualizationBase\VisCGFX2NVFX.m
RTV/001/CUS .\win_b64\code\bin\VisCGFX2NVFX.dll|.\VisualizationBase\VisCGFX2NVFX.m
INT/000/CUS .\win_b64\code\lib\VisCGFX2NVFX.exp|.\VisualizationBase\VisCGFX2NVFX.m
@type='SHARED_LIBRARY'
@clr='false'
@kind='NATIVE'
@deliverable='true'
@built='true'
