!<mkRTViewData> v1.0.0
INT/000/CUS .\win_b64\code\bin\PCBoardUI.pdb|.\PCBoardBase\PCBoardUI.m
INT/000/CUS .\win_b64\code\lib\PCBoardUI.exp|.\PCBoardBase\PCBoardUI.m
CSC/000/DSI .\PCBoardBase\PCBoardUI.m\Objects\win_b64\mkcsc\PCBoardUI.cscdb|.\PCBoardBase\PCBoardUI.m
BTV/000/CUS .\win_b64\code\lib\PCBoardUI.lib|.\PCBoardBase\PCBoardUI.m
RTV/001/CUS .\win_b64\code\bin\PCBoardUI.dll|.\PCBoardBase\PCBoardUI.m
@type='SHARED_LIBRARY'
@clr='false'
@kind='NATIVE'
@deliverable='true'
@built='true'
