!<mkRTViewData> v1.0.0
CSC/000/DSI .\CATVirtualVaultSystem\OMSCompositeStream.m\Objects\win_b64\mkcsc\OMSCompositeStream.cscdb|.\CATVirtualVaultSystem\OMSCompositeStream.m
INT/000/CUS .\win_b64\code\lib\OMSCompositeStream.exp|.\CATVirtualVaultSystem\OMSCompositeStream.m
BTV/000/CUS .\win_b64\code\lib\OMSCompositeStream.lib|.\CATVirtualVaultSystem\OMSCompositeStream.m
INT/000/CUS .\win_b64\code\bin\OMSCompositeStream.pdb|.\CATVirtualVaultSystem\OMSCompositeStream.m
RTV/001/CUS .\win_b64\code\bin\OMSCompositeStream.dll|.\CATVirtualVaultSystem\OMSCompositeStream.m
@type='SHARED_LIBRARY'
@clr='false'
@kind='NATIVE'
@deliverable='true'
@built='true'
