!<mkRTViewData> v1.0.0
BTV/002/CUS .\win_b64\code\productIC\PolyhedralOperatorsAdvIC.script|.\PolyhedralOperatorsAdv
CSC/002/DSI .\PolyhedralOperatorsAdv\IdentityCard\Objects\win_b64\mkcsc\PolyhedralOperatorsAdv.cscdb|.\PolyhedralOperatorsAdv
RTV/002/DSI .\win_b64\code\productIC\PolyhedralOperatorsAdvIC.required|.\PolyhedralOperatorsAdv
BTV/002/CUS .\win_b64\code\productIC\PolyhedralOperatorsAdvIC.xml|.\PolyhedralOperatorsAdv
@type='codeFramework'
@built='true'
