!<mkRTViewData> v1.0.0
CSC/000/DSI .\ObjectModelerSystem\CATOMY.m\Objects\win_b64\mkcsc\CATOMY.cscdb|.\ObjectModelerSystem\CATOMY.m
@type='NONE'
@clr='false'
@kind='INCLUDED'
@deliverable='true'
@built='true'
