!<mkRTViewData> v1.0.0
INT/000/CUS .\win_b64\code\bin\CATMatView.pdb|.\MaterialUI\CATMatView.m
BTV/000/CUS .\win_b64\code\lib\CATMatView.lib|.\MaterialUI\CATMatView.m
INT/000/CUS .\win_b64\code\lib\CATMatView.exp|.\MaterialUI\CATMatView.m
RTV/001/CUS .\win_b64\code\bin\CATMatView.dll|.\MaterialUI\CATMatView.m
CSC/000/DSI .\MaterialUI\CATMatView.m\Objects\win_b64\mkcsc\CATMatView.cscdb|.\MaterialUI\CATMatView.m
@type='SHARED_LIBRARY'
@clr='false'
@kind='NATIVE'
@deliverable='true'
@built='true'
