!<mkRTViewData> v1.0.0
BTV/000/CUS .\win_b64\code\lib\CATPDMBase.lib|.\CATPDMBase\CATPDMBase.m
INT/000/CUS .\win_b64\code\lib\CATPDMBase.exp|.\CATPDMBase\CATPDMBase.m
RTV/001/CUS .\win_b64\code\bin\CATPDMBase.dll|.\CATPDMBase\CATPDMBase.m
INT/000/CUS .\win_b64\code\bin\CATPDMBase.pdb|.\CATPDMBase\CATPDMBase.m
CSC/000/DSI .\CATPDMBase\CATPDMBase.m\Objects\win_b64\mkcsc\CATPDMBase.cscdb|.\CATPDMBase\CATPDMBase.m
@type='SHARED_LIBRARY'
@clr='false'
@kind='NATIVE'
@deliverable='true'
@built='true'
