!<mkRTViewData> v1.0.0
CSC/000/DSI .\Administration\CATSTARTEXE.m\Objects\win_b64\mkcsc\CATSTARTEXE.cscdb|.\Administration\CATSTARTEXE.m
RTV/001/CUS .\win_b64\code\bin\CATSTART.exe|.\Administration\CATSTARTEXE.m
INT/000/CUS .\win_b64\code\bin\CATSTART.pdb|.\Administration\CATSTARTEXE.m
@type='LOAD_MODULE'
@clr='false'
@kind='NATIVE'
@deliverable='true'
@built='true'
