!<mkRTViewData> v1.0.0
RTV/002/DSI .\win_b64\code\productIC\PrismaticMachiningInterfacesIC.required|.\PrismaticMachiningInterfaces
BTV/002/CUS .\win_b64\code\productIC\PrismaticMachiningInterfacesIC.script|.\PrismaticMachiningInterfaces
DAT/002/CUS .\win_b64\code\dictionary\PrismaticMachiningInterfaces.iid|.\PrismaticMachiningInterfaces\CNext\code\dictionary\PrismaticMachiningInterfaces.iid
CSC/002/DSI .\PrismaticMachiningInterfaces\IdentityCard\Objects\win_b64\mkcsc\PrismaticMachiningInterfaces.cscdb|.\PrismaticMachiningInterfaces
BTV/002/CUS .\win_b64\code\productIC\PrismaticMachiningInterfacesIC.xml|.\PrismaticMachiningInterfaces
@type='codeFramework'
@built='true'
