!<mkRTViewData> v1.0.0
INT/000/CUS .\win_b64\code\bin\CATPspSchematicBrowser.pdb|.\CATPlantShipUI\CATPspSchematicBrowser.m
BTV/000/CUS .\win_b64\code\lib\CATPspSchematicBrowser.lib|.\CATPlantShipUI\CATPspSchematicBrowser.m
CSC/000/DSI .\CATPlantShipUI\CATPspSchematicBrowser.m\Objects\win_b64\mkcsc\CATPspSchematicBrowser.cscdb|.\CATPlantShipUI\CATPspSchematicBrowser.m
INT/000/CUS .\win_b64\code\lib\CATPspSchematicBrowser.exp|.\CATPlantShipUI\CATPspSchematicBrowser.m
RTV/001/CUS .\win_b64\code\bin\CATPspSchematicBrowser.dll|.\CATPlantShipUI\CATPspSchematicBrowser.m
@type='SHARED_LIBRARY'
@clr='false'
@kind='NATIVE'
@deliverable='true'
@built='true'
