100mm
106mm
112mm
118mm
125mm
132mm
140mm
150mm
160mm
170mm
180mm
190mm
200mm
212mm
224mm
230mm
236mm
250mm
265mm
300mm
315mm
335mm
355mm
375mm
400mm
425mm
450mm
475mm
500mm
530mm
560mm
600mm
630mm
670mm
710mm
750mm
800mm
850mm
900mm
950mm
1000mm
1060mm
1120mm
1180mm
1250mm
1320mm
1400mm
1500mm
1600mm
1700mm
1800mm
1900mm
2000mm
2120mm
2240mm
2360mm
2500mm
2650mm
2800mm
3000mm
3150mm
3350mm
3550mm
3750mm
4000mm
4250mm
4500mm
4750mm
5000mm
5300mm
5600mm
6000mm
6300mm
6700mm
7100mm
7500mm
8000mm
