!<mkRTViewData> v1.0.0
CSC/000/DSI .\GeometricObjects\CATCGMItfTextUtilities.m\Objects\win_b64\mkcsc\CATCGMItfTextUtilities.cscdb|.\GeometricObjects\CATCGMItfTextUtilities.m
INT/000/CUS .\win_b64\code\bin\CATCGMItfTextUtilities.pdb|.\GeometricObjects\CATCGMItfTextUtilities.m
INT/000/CUS .\win_b64\code\lib\CATCGMItfTextUtilities.exp|.\GeometricObjects\CATCGMItfTextUtilities.m
RTV/001/CUS .\win_b64\code\bin\CATCGMItfTextUtilities.dll|.\GeometricObjects\CATCGMItfTextUtilities.m
BTV/000/CUS .\win_b64\code\lib\CATCGMItfTextUtilities.lib|.\GeometricObjects\CATCGMItfTextUtilities.m
@type='SHARED_LIBRARY'
@clr='false'
@kind='NATIVE'
@deliverable='true'
@built='true'
