!<mkRTViewData> v1.0.0
DAT/002/CUS .\win_b64\resources\graphic\icons\normal\I_DNBUpdateCycleTime.bmp|.\DNBSimulationCommands\CNext\resources\graphic\icons\normal\I_DNBUpdateCycleTime.bmp
DAT/002/CUS .\win_b64\resources\graphic\icons\normal\I_DNBAutoSyncModAct.bmp|.\DNBSimulationCommands\CNext\resources\graphic\icons\normal\I_DNBAutoSyncModAct.bmp
DAT/002/CUS .\win_b64\resources\graphic\icons\normal\I_DNBInstantReplay.bmp|.\DNBSimulationCommands\CNext\resources\graphic\icons\normal\I_DNBInstantReplay.bmp
DAT/002/CUS .\win_b64\resources\graphic\icons\small\I_DNBJumpStart.bmp|.\DNBSimulationCommands\CNext\resources\graphic\icons\small\I_DNBJumpStart.bmp
DAT/002/CUS .\win_b64\resources\graphic\icons\normal\I_DNBSimClose.bmp|.\DNBSimulationCommands\CNext\resources\graphic\icons\normal\I_DNBSimClose.bmp
DAT/002/CUS .\win_b64\resources\graphic\icons\normal\I_DNBStep.bmp|.\DNBSimulationCommands\CNext\resources\graphic\icons\normal\I_DNBStep.bmp
RTV/002/DSI .\win_b64\resources\msgcatalog\NlsTest\DNBAnalysisStatusDlg.CATNls|.\DNBSimulationCommands\CNext\resources\msgcatalog\DNBAnalysisStatusDlg.CATNls
DAT/002/CUS .\win_b64\resources\graphic\icons\normal\I_DNBAnalysisModeSTOP.bmp|.\DNBSimulationCommands\CNext\resources\graphic\icons\normal\I_DNBAnalysisModeSTOP.bmp
RTV/002/DSI .\win_b64\resources\msgcatalog\DbcsTest\DNBSimDynamicToolBar.CATNls|.\DNBSimulationCommands\CNext\resources\msgcatalog\DNBSimDynamicToolBar.CATNls
DAT/002/CUS .\win_b64\resources\graphic\icons\small\I_DNBWndManager.bmp|.\DNBSimulationCommands\CNext\resources\graphic\icons\small\I_DNBWndManager.bmp
DAT/002/CUS .\win_b64\resources\graphic\icons\small\I_DNBUpdateWorldStepAnim.bmp|.\DNBSimulationCommands\CNext\resources\graphic\icons\small\I_DNBUpdateWorldStepAnim.bmp
RTV/002/DSI .\win_b64\resources\msgcatalog\NlsTest\DNBSimTraceCmd.CATNls|.\DNBSimulationCommands\CNext\resources\msgcatalog\DNBSimTraceCmd.CATNls
DAT/002/CUS .\win_b64\resources\graphic\icons\normal\I_DNBSimCompileSimulation.bmp|.\DNBSimulationCommands\CNext\resources\graphic\icons\normal\I_DNBSimCompileSimulation.bmp
DAT/002/CUS .\win_b64\resources\graphic\DNBStart.bmp|.\DNBSimulationCommands\CNext\resources\graphic\DNBStart.bmp
DAT/002/CUS .\win_b64\resources\msgcatalog\DNBVisuSettingsDlg.CATNls|.\DNBSimulationCommands\CNext\resources\msgcatalog\DNBVisuSettingsDlg.CATNls
DAT/002/CUS .\win_b64\resources\graphic\icons\normal\I_DNBPlay.bmp|.\DNBSimulationCommands\CNext\resources\graphic\icons\normal\I_DNBPlay.bmp
DAT/002/CUS .\win_b64\resources\graphic\icons\normal\I_DNBUpdateResCycleTime.bmp|.\DNBSimulationCommands\CNext\resources\graphic\icons\normal\I_DNBUpdateResCycleTime.bmp
RTV/002/DSI .\win_b64\resources\msgcatalog\NlsTest\DNBAnalysisConfigDlg.CATNls|.\DNBSimulationCommands\CNext\resources\msgcatalog\DNBAnalysisConfigDlg.CATNls
RTV/002/DSI .\win_b64\resources\msgcatalog\DbcsTest\DNBVisuSettingsCmd.CATNls|.\DNBSimulationCommands\CNext\resources\msgcatalog\DNBVisuSettingsCmd.CATNls
DAT/002/CUS .\win_b64\resources\graphic\icons\normal\I_DNBSimSaveInitState.bmp|.\DNBSimulationCommands\CNext\resources\graphic\icons\normal\I_DNBSimSaveInitState.bmp
DAT/002/CUS .\win_b64\resources\msgcatalog\DNBAnalysisStatusDlg.CATNls|.\DNBSimulationCommands\CNext\resources\msgcatalog\DNBAnalysisStatusDlg.CATNls
DAT/002/CUS .\win_b64\resources\graphic\icons\small\I_DNBPlayBackward.bmp|.\DNBSimulationCommands\CNext\resources\graphic\icons\small\I_DNBPlayBackward.bmp
RTV/002/DSI .\win_b64\resources\msgcatalog\NlsTest\DNBReplayOptionsDialog.CATNls|.\DNBSimulationCommands\CNext\resources\msgcatalog\DNBReplayOptionsDialog.CATNls
DAT/002/CUS .\win_b64\resources\msgcatalog\DNBRestoreSimStartCondCmd.CATNls|.\DNBSimulationCommands\CNext\resources\msgcatalog\DNBRestoreSimStartCondCmd.CATNls
RTV/002/DSI .\win_b64\resources\msgcatalog\DbcsTest\DNBSimAnalysisCmdsHeader.CATNls|.\DNBSimulationCommands\CNext\resources\msgcatalog\DNBSimAnalysisCmdsHeader.CATNls
DAT/002/CUS .\win_b64\resources\graphic\icons\small\I_DNBModeBounce.bmp|.\DNBSimulationCommands\CNext\resources\graphic\icons\small\I_DNBModeBounce.bmp
RTV/002/DSI .\win_b64\resources\msgcatalog\NlsTest\DNBCustomizeAnalysisStatusDlg.CATNls|.\DNBSimulationCommands\CNext\resources\msgcatalog\DNBCustomizeAnalysisStatusDlg.CATNls
RTV/002/DSI .\win_b64\resources\msgcatalog\NlsTest\DNBSimActDlg.CATNls|.\DNBSimulationCommands\CNext\resources\msgcatalog\DNBSimActDlg.CATNls
DAT/002/CUS .\win_b64\resources\msgcatalog\DNBInteractiveAnalysisDlg.CATRsc|.\DNBSimulationCommands\CNext\resources\msgcatalog\DNBInteractiveAnalysisDlg.CATRsc
RTV/002/DSI .\win_b64\resources\msgcatalog\DbcsTest\DNBSimTraceDeleteCmd.CATNls|.\DNBSimulationCommands\CNext\resources\msgcatalog\DNBSimTraceDeleteCmd.CATNls
DAT/002/CUS .\win_b64\resources\msgcatalog\DNBInteractiveAnalysisCmd.CATNls|.\DNBSimulationCommands\CNext\resources\msgcatalog\DNBInteractiveAnalysisCmd.CATNls
RTV/002/DSI .\win_b64\resources\msgcatalog\DbcsTest\DNBInteractiveAnalysisCmd.CATNls|.\DNBSimulationCommands\CNext\resources\msgcatalog\DNBInteractiveAnalysisCmd.CATNls
DAT/002/CUS .\win_b64\resources\graphic\icons\small\I_DNBSimActDisplay.bmp|.\DNBSimulationCommands\CNext\resources\graphic\icons\small\I_DNBSimActDisplay.bmp
RTV/002/DSI .\win_b64\resources\msgcatalog\DbcsTest\DNBSimProgressTaskCmd.CATNls|.\DNBSimulationCommands\CNext\resources\msgcatalog\DNBSimProgressTaskCmd.CATNls
DAT/002/CUS .\win_b64\resources\graphic\icons\normal\I_DNBWndManager.bmp|.\DNBSimulationCommands\CNext\resources\graphic\icons\normal\I_DNBWndManager.bmp
DAT/002/CUS .\win_b64\resources\graphic\icons\small\I_DNBForceAnlVerbose.bmp|.\DNBSimulationCommands\CNext\resources\graphic\icons\small\I_DNBForceAnlVerbose.bmp
DAT/002/CUS .\win_b64\resources\graphic\icons\small\I_DNBDesignModelUpdates.bmp|.\DNBSimulationCommands\CNext\resources\graphic\icons\small\I_DNBDesignModelUpdates.bmp
RTV/002/DSI .\win_b64\resources\msgcatalog\DbcsTest\DNBReplayCommand.CATNls|.\DNBSimulationCommands\CNext\resources\msgcatalog\DNBReplayCommand.CATNls
DAT/002/CUS .\win_b64\resources\msgcatalog\DNBSimActMsgWnd.CATNls|.\DNBSimulationCommands\CNext\resources\msgcatalog\DNBSimActMsgWnd.CATNls
DAT/002/CUS .\win_b64\resources\graphic\icons\normal\I_DNBModeBounce.bmp|.\DNBSimulationCommands\CNext\resources\graphic\icons\normal\I_DNBModeBounce.bmp
DAT/002/CUS .\win_b64\resources\graphic\icons\small\I_DNBInteractiveAnalysis.bmp|.\DNBSimulationCommands\CNext\resources\graphic\icons\small\I_DNBInteractiveAnalysis.bmp
DAT/002/CUS .\win_b64\resources\graphic\icons\I_DNBMoveLeft.bmp|.\DNBSimulationCommands\CNext\resources\graphic\icons\I_DNBMoveLeft.bmp
DAT/002/CUS .\win_b64\resources\graphic\icons\small\I_DNBSimSimpleText.bmp|.\DNBSimulationCommands\CNext\resources\graphic\icons\small\I_DNBSimSimpleText.bmp
RTV/002/DSI .\win_b64\resources\msgcatalog\NlsTest\DNBSimTraceDlg.CATNls|.\DNBSimulationCommands\CNext\resources\msgcatalog\DNBSimTraceDlg.CATNls
DAT/002/CUS .\win_b64\resources\graphic\icons\normal\I_DNBSimPhoto.bmp|.\DNBSimulationCommands\CNext\resources\graphic\icons\normal\I_DNBSimPhoto.bmp
RTV/002/DSI .\win_b64\resources\msgcatalog\NlsTest\DNBInteractiveAnalysisCmd.CATNls|.\DNBSimulationCommands\CNext\resources\msgcatalog\DNBInteractiveAnalysisCmd.CATNls
RTV/002/DSI .\win_b64\resources\msgcatalog\NlsTest\DNBSimProgressTaskDlg.CATNls|.\DNBSimulationCommands\CNext\resources\msgcatalog\DNBSimProgressTaskDlg.CATNls
DAT/002/CUS .\win_b64\resources\graphic\icons\normal\I_DNBVisuSettings.bmp|.\DNBSimulationCommands\CNext\resources\graphic\icons\normal\I_DNBVisuSettings.bmp
DAT/002/CUS .\win_b64\resources\graphic\icons\small\I_DNBSimResourceSimulation.bmp|.\DNBSimulationCommands\CNext\resources\graphic\icons\small\I_DNBSimResourceSimulation.bmp
DAT/002/CUS .\win_b64\resources\graphic\DNBNext.bmp|.\DNBSimulationCommands\CNext\resources\graphic\DNBNext.bmp
DAT/002/CUS .\win_b64\resources\graphic\DNBEnd.bmp|.\DNBSimulationCommands\CNext\resources\graphic\DNBEnd.bmp
DAT/002/CUS .\win_b64\resources\graphic\icons\small\I_DNBSimImport.bmp|.\DNBSimulationCommands\CNext\resources\graphic\icons\small\I_DNBSimImport.bmp
RTV/002/DSI .\win_b64\resources\msgcatalog\DbcsTest\DNBUpdateCycleTimeCmd.CATNls|.\DNBSimulationCommands\CNext\resources\msgcatalog\DNBUpdateCycleTimeCmd.CATNls
DAT/002/CUS .\win_b64\resources\graphic\icons\normal\I_DNBClashSound.bmp|.\DNBSimulationCommands\CNext\resources\graphic\icons\normal\I_DNBClashSound.bmp
DAT/002/CUS .\win_b64\resources\graphic\icons\normal\I_DNBDesignModelUpdates.bmp|.\DNBSimulationCommands\CNext\resources\graphic\icons\normal\I_DNBDesignModelUpdates.bmp
DAT/002/CUS .\win_b64\resources\msgcatalog\DNBUpdateCycleTimeCmd.CATRsc|.\DNBSimulationCommands\CNext\resources\msgcatalog\DNBUpdateCycleTimeCmd.CATRsc
RTV/002/DSI .\win_b64\resources\msgcatalog\DbcsTest\DNBCompileProcessCommand.CATNls|.\DNBSimulationCommands\CNext\resources\msgcatalog\DNBCompileProcessCommand.CATNls
DAT/002/CUS .\win_b64\resources\msgcatalog\DNBReplayToolBar.CATRsc|.\DNBSimulationCommands\CNext\resources\msgcatalog\DNBReplayToolBar.CATRsc
DAT/002/CUS .\win_b64\resources\msgcatalog\DNBSimStartCondDlg.CATNls|.\DNBSimulationCommands\CNext\resources\msgcatalog\DNBSimStartCondDlg.CATNls
RTV/002/DSI .\win_b64\resources\msgcatalog\NlsTest\DNBSimTraceHideShowCmd.CATNls|.\DNBSimulationCommands\CNext\resources\msgcatalog\DNBSimTraceHideShowCmd.CATNls
RTV/002/DSI .\win_b64\resources\msgcatalog\DbcsTest\DNBTabPageSimTraceGraphicDialog.CATNls|.\DNBSimulationCommands\CNext\resources\msgcatalog\DNBTabPageSimTraceGraphicDialog.CATNls
RTV/002/DSI .\win_b64\resources\msgcatalog\DbcsTest\DNBWndManagerCmd.CATNls|.\DNBSimulationCommands\CNext\resources\msgcatalog\DNBWndManagerCmd.CATNls
DAT/002/CUS .\win_b64\resources\graphic\icons\small\I_DNBAnalysisModeOFF.bmp|.\DNBSimulationCommands\CNext\resources\graphic\icons\small\I_DNBAnalysisModeOFF.bmp
DAT/002/CUS .\win_b64\resources\graphic\icons\normal\I_DNBStepBackward.bmp|.\DNBSimulationCommands\CNext\resources\graphic\icons\normal\I_DNBStepBackward.bmp
DAT/002/CUS .\win_b64\resources\msgcatalog\DNBCustomizeAnalysisStatusDlg.CATNls|.\DNBSimulationCommands\CNext\resources\msgcatalog\DNBCustomizeAnalysisStatusDlg.CATNls
DAT/002/CUS .\win_b64\resources\msgcatalog\DNBSimTraceDlg.CATRsc|.\DNBSimulationCommands\CNext\resources\msgcatalog\DNBSimTraceDlg.CATRsc
BTV/002/CUS .\win_b64\code\productIC\DNBSimulationCommandsIC.xml|.\DNBSimulationCommands
DAT/002/CUS .\win_b64\resources\graphic\icons\normal\I_DNBDeleteSimPath.bmp|.\DNBSimulationCommands\CNext\resources\graphic\icons\normal\I_DNBDeleteSimPath.bmp
DAT/002/CUS .\win_b64\resources\graphic\icons\normal\I_DNBSelectFeatMode.bmp|.\DNBSimulationCommands\CNext\resources\graphic\icons\normal\I_DNBSelectFeatMode.bmp
DAT/002/CUS .\win_b64\resources\graphic\icons\small\I_DNBAutoSyncModAct.bmp|.\DNBSimulationCommands\CNext\resources\graphic\icons\small\I_DNBAutoSyncModAct.bmp
DAT/002/CUS .\win_b64\resources\graphic\icons\small\I_DNBJumpEnd.bmp|.\DNBSimulationCommands\CNext\resources\graphic\icons\small\I_DNBJumpEnd.bmp
DAT/002/CUS .\win_b64\resources\graphic\icons\small\I_DNBSimOrangeLight.bmp|.\DNBSimulationCommands\CNext\resources\graphic\icons\small\I_DNBSimOrangeLight.bmp
RTV/002/DSI .\win_b64\resources\msgcatalog\DbcsTest\DNBSimVisuOptionsDlg.CATNls|.\DNBSimulationCommands\CNext\resources\msgcatalog\DNBSimVisuOptionsDlg.CATNls
DAT/002/CUS .\win_b64\resources\graphic\icons\normal\I_DNBSimProcessSimulation.bmp|.\DNBSimulationCommands\CNext\resources\graphic\icons\normal\I_DNBSimProcessSimulation.bmp
DAT/002/CUS .\win_b64\resources\graphic\icons\small\I_DNBAnalysisModeON.bmp|.\DNBSimulationCommands\CNext\resources\graphic\icons\small\I_DNBAnalysisModeON.bmp
DAT/002/CUS .\win_b64\resources\graphic\STBWD_sim.bmp|.\DNBSimulationCommands\CNext\resources\graphic\STBWD_sim.bmp
DAT/002/CUS .\win_b64\resources\graphic\icons\small\I_DNBPause.bmp|.\DNBSimulationCommands\CNext\resources\graphic\icons\small\I_DNBPause.bmp
DAT/002/CUS .\win_b64\resources\graphic\icons\normal\I_DNBAnalysisConfigStatus.bmp|.\DNBSimulationCommands\CNext\resources\graphic\icons\normal\I_DNBAnalysisConfigStatus.bmp
DAT/002/CUS .\win_b64\resources\graphic\icons\normal\I_DNBSimReplay.bmp|.\DNBSimulationCommands\CNext\resources\graphic\icons\normal\I_DNBSimReplay.bmp
RTV/002/DSI .\win_b64\resources\msgcatalog\DbcsTest\DNBSimTraceHideShowCmd.CATNls|.\DNBSimulationCommands\CNext\resources\msgcatalog\DNBSimTraceHideShowCmd.CATNls
RTV/002/DSI .\win_b64\resources\msgcatalog\DbcsTest\DNBSimCheckHeader.CATNls|.\DNBSimulationCommands\CNext\resources\msgcatalog\DNBSimCheckHeader.CATNls
DAT/002/CUS .\win_b64\resources\msgcatalog\DNBSimDynamicToolBar.CATNls|.\DNBSimulationCommands\CNext\resources\msgcatalog\DNBSimDynamicToolBar.CATNls
RTV/002/DSI .\win_b64\resources\msgcatalog\NlsTest\DNBSimStartCondDlg.CATNls|.\DNBSimulationCommands\CNext\resources\msgcatalog\DNBSimStartCondDlg.CATNls
DAT/002/CUS .\win_b64\resources\msgcatalog\DNBSimTraceHideShowCmd.CATNls|.\DNBSimulationCommands\CNext\resources\msgcatalog\DNBSimTraceHideShowCmd.CATNls
DAT/002/CUS .\win_b64\resources\graphic\PAUSE_sim.bmp|.\DNBSimulationCommands\CNext\resources\graphic\PAUSE_sim.bmp
DAT/002/CUS .\win_b64\resources\graphic\icons\normal\I_DNBModeSingle.bmp|.\DNBSimulationCommands\CNext\resources\graphic\icons\normal\I_DNBModeSingle.bmp
DAT/002/CUS .\win_b64\resources\graphic\icons\small\I_DNBSelectProdMode.bmp|.\DNBSimulationCommands\CNext\resources\graphic\icons\small\I_DNBSelectProdMode.bmp
DAT/002/CUS .\win_b64\resources\msgcatalog\DNBVisuSettingsCmd.CATNls|.\DNBSimulationCommands\CNext\resources\msgcatalog\DNBVisuSettingsCmd.CATNls
DAT/002/CUS .\win_b64\resources\graphic\icons\small\I_DNBAnalysisModeSTOP.bmp|.\DNBSimulationCommands\CNext\resources\graphic\icons\small\I_DNBAnalysisModeSTOP.bmp
RTV/002/DSI .\win_b64\resources\msgcatalog\NlsTest\DNBCompileProcessDialog.CATNls|.\DNBSimulationCommands\CNext\resources\msgcatalog\DNBCompileProcessDialog.CATNls
RTV/002/DSI .\win_b64\resources\msgcatalog\NlsTest\DNBSimVisuOptionsDlg.CATNls|.\DNBSimulationCommands\CNext\resources\msgcatalog\DNBSimVisuOptionsDlg.CATNls
DAT/002/CUS .\win_b64\resources\graphic\icons\small\I_DNBAnalysisConfigStatus.bmp|.\DNBSimulationCommands\CNext\resources\graphic\icons\small\I_DNBAnalysisConfigStatus.bmp
DAT/002/CUS .\win_b64\resources\graphic\icons\small\I_DNBSimRealtime.bmp|.\DNBSimulationCommands\CNext\resources\graphic\icons\small\I_DNBSimRealtime.bmp
RTV/002/DSI .\win_b64\resources\msgcatalog\DbcsTest\DNBSimActOptionsDlg.CATNls|.\DNBSimulationCommands\CNext\resources\msgcatalog\DNBSimActOptionsDlg.CATNls
RTV/002/DSI .\win_b64\resources\msgcatalog\DbcsTest\DNBAnalysisConfigCmd.CATNls|.\DNBSimulationCommands\CNext\resources\msgcatalog\DNBAnalysisConfigCmd.CATNls
RTV/002/DSI .\win_b64\resources\msgcatalog\DbcsTest\DNBSimResourceCommand.CATNls|.\DNBSimulationCommands\CNext\resources\msgcatalog\DNBSimResourceCommand.CATNls
DAT/002/CUS .\win_b64\resources\graphic\icons\small\I_DNBSimVisDisplay.bmp|.\DNBSimulationCommands\CNext\resources\graphic\icons\small\I_DNBSimVisDisplay.bmp
RTV/002/DSI .\win_b64\resources\msgcatalog\DbcsTest\DNBSimStartCondDlg.CATNls|.\DNBSimulationCommands\CNext\resources\msgcatalog\DNBSimStartCondDlg.CATNls
RTV/002/DSI .\win_b64\resources\msgcatalog\NlsTest\DNBUpdateCycleTimeCmd.CATNls|.\DNBSimulationCommands\CNext\resources\msgcatalog\DNBUpdateCycleTimeCmd.CATNls
DAT/002/CUS .\win_b64\resources\graphic\icons\normal\I_DNBSimGreenLight.bmp|.\DNBSimulationCommands\CNext\resources\graphic\icons\normal\I_DNBSimGreenLight.bmp
DAT/002/CUS .\win_b64\resources\graphic\icons\normal\I_DNBInteractiveAnalysis.bmp|.\DNBSimulationCommands\CNext\resources\graphic\icons\normal\I_DNBInteractiveAnalysis.bmp
DAT/002/CUS .\win_b64\resources\msgcatalog\DNBActStatusDlg.CATNls|.\DNBSimulationCommands\CNext\resources\msgcatalog\DNBActStatusDlg.CATNls
RTV/002/DSI .\win_b64\resources\msgcatalog\NlsTest\DNBReplayToolBar.CATNls|.\DNBSimulationCommands\CNext\resources\msgcatalog\DNBReplayToolBar.CATNls
BTV/002/CUS .\win_b64\code\productIC\DNBSimulationCommandsIC.script|.\DNBSimulationCommands
RTV/002/DSI .\win_b64\resources\msgcatalog\NlsTest\DNBCompileProcessCommand.CATNls|.\DNBSimulationCommands\CNext\resources\msgcatalog\DNBCompileProcessCommand.CATNls
RTV/002/DSI .\win_b64\resources\msgcatalog\NlsTest\DNBSimDynamicToolBar.CATNls|.\DNBSimulationCommands\CNext\resources\msgcatalog\DNBSimDynamicToolBar.CATNls
DAT/002/CUS .\win_b64\resources\graphic\icons\small\I_DNBSimGenerateResVideo.bmp|.\DNBSimulationCommands\CNext\resources\graphic\icons\small\I_DNBSimGenerateResVideo.bmp
DAT/002/CUS .\win_b64\resources\graphic\icons\normal\I_DNBJumpStart.bmp|.\DNBSimulationCommands\CNext\resources\graphic\icons\normal\I_DNBJumpStart.bmp
DAT/002/CUS .\win_b64\resources\graphic\icons\small\I_DNBSimRestoreInitState.bmp|.\DNBSimulationCommands\CNext\resources\graphic\icons\small\I_DNBSimRestoreInitState.bmp
RTV/002/DSI .\win_b64\resources\msgcatalog\DbcsTest\DNBSimActMsgWnd.CATNls|.\DNBSimulationCommands\CNext\resources\msgcatalog\DNBSimActMsgWnd.CATNls
DAT/002/CUS .\win_b64\resources\msgcatalog\DNBSimProgressTaskDlg.CATNls|.\DNBSimulationCommands\CNext\resources\msgcatalog\DNBSimProgressTaskDlg.CATNls
RTV/002/DSI .\win_b64\resources\msgcatalog\DbcsTest\DNBReplayOptionsDialog.CATNls|.\DNBSimulationCommands\CNext\resources\msgcatalog\DNBReplayOptionsDialog.CATNls
DAT/002/CUS .\win_b64\resources\graphic\icons\normal\I_DNBSimRedLight.bmp|.\DNBSimulationCommands\CNext\resources\graphic\icons\normal\I_DNBSimRedLight.bmp
RTV/002/DSI .\win_b64\resources\msgcatalog\NlsTest\DNBSimActMsgWnd.CATNls|.\DNBSimulationCommands\CNext\resources\msgcatalog\DNBSimActMsgWnd.CATNls
RTV/002/DSI .\win_b64\resources\msgcatalog\DbcsTest\DNBSimProgressTaskDlg.CATNls|.\DNBSimulationCommands\CNext\resources\msgcatalog\DNBSimProgressTaskDlg.CATNls
RTV/002/DSI .\win_b64\resources\msgcatalog\DbcsTest\DNBSimProcessToolBar.CATNls|.\DNBSimulationCommands\CNext\resources\msgcatalog\DNBSimProcessToolBar.CATNls
RTV/002/DSI .\win_b64\resources\msgcatalog\DbcsTest\DNBCustomizeAnalysisStatusDlg.CATNls|.\DNBSimulationCommands\CNext\resources\msgcatalog\DNBCustomizeAnalysisStatusDlg.CATNls
RTV/002/DSI .\win_b64\resources\msgcatalog\NlsTest\DNBSimTraceDeleteCmd.CATNls|.\DNBSimulationCommands\CNext\resources\msgcatalog\DNBSimTraceDeleteCmd.CATNls
RTV/002/DSI .\win_b64\resources\msgcatalog\DbcsTest\DNBAutoSyncOptionsDlg.CATNls|.\DNBSimulationCommands\CNext\resources\msgcatalog\DNBAutoSyncOptionsDlg.CATNls
DAT/002/CUS .\win_b64\resources\msgcatalog\DNBSimAnalysisDialog.CATNls|.\DNBSimulationCommands\CNext\resources\msgcatalog\DNBSimAnalysisDialog.CATNls
DAT/002/CUS .\win_b64\resources\graphic\icons\normal\I_DNBSimActDisplay.bmp|.\DNBSimulationCommands\CNext\resources\graphic\icons\normal\I_DNBSimActDisplay.bmp
DAT/002/CUS .\win_b64\resources\graphic\icons\small\I_DNBSimTrace.bmp|.\DNBSimulationCommands\CNext\resources\graphic\icons\small\I_DNBSimTrace.bmp
DAT/002/CUS .\win_b64\resources\msgcatalog\DNBAnalysisConfigDlg.CATRsc|.\DNBSimulationCommands\CNext\resources\msgcatalog\DNBAnalysisConfigDlg.CATRsc
RTV/002/DSI .\win_b64\resources\msgcatalog\NlsTest\DNBSimActOptionsDlg.CATNls|.\DNBSimulationCommands\CNext\resources\msgcatalog\DNBSimActOptionsDlg.CATNls
DAT/002/CUS .\win_b64\resources\graphic\STFWD_sim.bmp|.\DNBSimulationCommands\CNext\resources\graphic\STFWD_sim.bmp
DAT/002/CUS .\win_b64\resources\msgcatalog\DNBSimActOptionsDlg.CATNls|.\DNBSimulationCommands\CNext\resources\msgcatalog\DNBSimActOptionsDlg.CATNls
DAT/002/CUS .\win_b64\resources\graphic\DNBDown.bmp|.\DNBSimulationCommands\CNext\resources\graphic\DNBDown.bmp
RTV/002/DSI .\win_b64\resources\msgcatalog\NlsTest\DNBSimProgressTaskCmd.CATNls|.\DNBSimulationCommands\CNext\resources\msgcatalog\DNBSimProgressTaskCmd.CATNls
DAT/002/CUS .\win_b64\resources\graphic\icons\normal\I_DNBSimPauseActivity.bmp|.\DNBSimulationCommands\CNext\resources\graphic\icons\normal\I_DNBSimPauseActivity.bmp
DAT/002/CUS .\win_b64\resources\msgcatalog\DNBAnalysisConfigDlg.CATDlg|.\DNBSimulationCommands\CNext\resources\msgcatalog\DNBAnalysisConfigDlg.CATDlg
RTV/002/DSI .\win_b64\resources\msgcatalog\NlsTest\DNBWndManagerDlg.CATNls|.\DNBSimulationCommands\CNext\resources\msgcatalog\DNBWndManagerDlg.CATNls
DAT/002/CUS .\win_b64\resources\graphic\icons\normal\I_DNBPause.bmp|.\DNBSimulationCommands\CNext\resources\graphic\icons\normal\I_DNBPause.bmp
DAT/002/CUS .\win_b64\resources\msgcatalog\DNBCompileProcessDialog.CATNls|.\DNBSimulationCommands\CNext\resources\msgcatalog\DNBCompileProcessDialog.CATNls
DAT/002/CUS .\win_b64\resources\msgcatalog\DNBCompileProcessCommand.CATNls|.\DNBSimulationCommands\CNext\resources\msgcatalog\DNBCompileProcessCommand.CATNls
RTV/002/DSI .\win_b64\code\productIC\DNBSimulationCommandsIC.required|.\DNBSimulationCommands
DAT/002/CUS .\win_b64\resources\graphic\icons\normal\I_DNBForceAnlVerbose.bmp|.\DNBSimulationCommands\CNext\resources\graphic\icons\normal\I_DNBForceAnlVerbose.bmp
RTV/002/DSI .\win_b64\resources\msgcatalog\DbcsTest\DNBSimProcessCommand.CATNls|.\DNBSimulationCommands\CNext\resources\msgcatalog\DNBSimProcessCommand.CATNls
DAT/002/CUS .\win_b64\resources\graphic\icons\small\I_DNBSimActOptions.bmp|.\DNBSimulationCommands\CNext\resources\graphic\icons\small\I_DNBSimActOptions.bmp
DAT/002/CUS .\win_b64\resources\graphic\DNBPrevious.bmp|.\DNBSimulationCommands\CNext\resources\graphic\DNBPrevious.bmp
DAT/002/CUS .\win_b64\resources\msgcatalog\DNBWndManagerDlg.CATNls|.\DNBSimulationCommands\CNext\resources\msgcatalog\DNBWndManagerDlg.CATNls
DAT/002/CUS .\win_b64\resources\graphic\icons\normal\I_DNBSimOrangeLight.bmp|.\DNBSimulationCommands\CNext\resources\graphic\icons\normal\I_DNBSimOrangeLight.bmp
DAT/002/CUS .\win_b64\resources\msgcatalog\DNBReplayToolBar.CATNls|.\DNBSimulationCommands\CNext\resources\msgcatalog\DNBReplayToolBar.CATNls
DAT/002/CUS .\win_b64\resources\graphic\icons\small\I_DNBSimPhoto.bmp|.\DNBSimulationCommands\CNext\resources\graphic\icons\small\I_DNBSimPhoto.bmp
DAT/002/CUS .\win_b64\resources\msgcatalog\DNBSimProcessToolBar.CATNls|.\DNBSimulationCommands\CNext\resources\msgcatalog\DNBSimProcessToolBar.CATNls
RTV/002/DSI .\win_b64\resources\msgcatalog\NlsTest\DNBReplayCommand.CATNls|.\DNBSimulationCommands\CNext\resources\msgcatalog\DNBReplayCommand.CATNls
DAT/002/CUS .\win_b64\resources\msgcatalog\DNBReplayOptionsDialog.CATNls|.\DNBSimulationCommands\CNext\resources\msgcatalog\DNBReplayOptionsDialog.CATNls
RTV/002/DSI .\win_b64\resources\msgcatalog\DbcsTest\DNBAnalysisStatusCmd.CATNls|.\DNBSimulationCommands\CNext\resources\msgcatalog\DNBAnalysisStatusCmd.CATNls
DAT/002/CUS .\win_b64\resources\graphic\icons\small\I_DNBSimCompileResSimulation.bmp|.\DNBSimulationCommands\CNext\resources\graphic\icons\small\I_DNBSimCompileResSimulation.bmp
DAT/002/CUS .\win_b64\resources\graphic\icons\small\I_DNBAnalysisDisplayStatus.bmp|.\DNBSimulationCommands\CNext\resources\graphic\icons\small\I_DNBAnalysisDisplayStatus.bmp
DAT/002/CUS .\win_b64\resources\msgcatalog\DNBEditAnalysisDialog.CATNls|.\DNBSimulationCommands\CNext\resources\msgcatalog\DNBEditAnalysisDialog.CATNls
DAT/002/CUS .\win_b64\resources\graphic\icons\normal\I_DNBSimRealtime.bmp|.\DNBSimulationCommands\CNext\resources\graphic\icons\normal\I_DNBSimRealtime.bmp
RTV/002/DSI .\win_b64\resources\msgcatalog\NlsTest\DNBSaveSimStartCondCmd.CATNls|.\DNBSimulationCommands\CNext\resources\msgcatalog\DNBSaveSimStartCondCmd.CATNls
DAT/002/CUS .\win_b64\resources\graphic\icons\small\I_DNBAnalysisMeasure.bmp|.\DNBSimulationCommands\CNext\resources\graphic\icons\small\I_DNBAnalysisMeasure.bmp
DAT/002/CUS .\win_b64\resources\graphic\DNBStartLevel.bmp|.\DNBSimulationCommands\CNext\resources\graphic\DNBStartLevel.bmp
DAT/002/CUS .\win_b64\resources\graphic\icons\small\I_DNBSimGreenLight.bmp|.\DNBSimulationCommands\CNext\resources\graphic\icons\small\I_DNBSimGreenLight.bmp
RTV/002/DSI .\win_b64\resources\msgcatalog\DbcsTest\DNBAnalysisConfigDlg.CATNls|.\DNBSimulationCommands\CNext\resources\msgcatalog\DNBAnalysisConfigDlg.CATNls
DAT/002/CUS .\win_b64\resources\graphic\icons\normal\I_DNBSimRestoreInitState.bmp|.\DNBSimulationCommands\CNext\resources\graphic\icons\normal\I_DNBSimRestoreInitState.bmp
DAT/002/CUS .\win_b64\resources\msgcatalog\DNBTabPageSimTraceGraphicDialog.CATNls|.\DNBSimulationCommands\CNext\resources\msgcatalog\DNBTabPageSimTraceGraphicDialog.CATNls
DAT/002/CUS .\win_b64\resources\graphic\icons\small\I_DNBInstantReplay.bmp|.\DNBSimulationCommands\CNext\resources\graphic\icons\small\I_DNBInstantReplay.bmp
DAT/002/CUS .\win_b64\resources\graphic\DNBUp.bmp|.\DNBSimulationCommands\CNext\resources\graphic\DNBUp.bmp
RTV/002/DSI .\win_b64\resources\msgcatalog\NlsTest\DNBSimProcessToolBar.CATNls|.\DNBSimulationCommands\CNext\resources\msgcatalog\DNBSimProcessToolBar.CATNls
DAT/002/CUS .\win_b64\resources\graphic\icons\small\I_DNBSimProcessSimulation.bmp|.\DNBSimulationCommands\CNext\resources\graphic\icons\small\I_DNBSimProcessSimulation.bmp
RTV/002/DSI .\win_b64\resources\msgcatalog\DbcsTest\DNBSimActAgent.CATNls|.\DNBSimulationCommands\CNext\resources\msgcatalog\DNBSimActAgent.CATNls
DAT/002/CUS .\win_b64\resources\msgcatalog\DNBAnalysisConfigCmd.CATNls|.\DNBSimulationCommands\CNext\resources\msgcatalog\DNBAnalysisConfigCmd.CATNls
DAT/002/CUS .\win_b64\resources\graphic\icons\normal\I_DNBAnalysisModeON.bmp|.\DNBSimulationCommands\CNext\resources\graphic\icons\normal\I_DNBAnalysisModeON.bmp
DAT/002/CUS .\win_b64\resources\graphic\icons\small\I_DNBAnalysisConfig.bmp|.\DNBSimulationCommands\CNext\resources\graphic\icons\small\I_DNBAnalysisConfig.bmp
DAT/002/CUS .\win_b64\resources\graphic\icons\small\I_DNBSimSaveInitState.bmp|.\DNBSimulationCommands\CNext\resources\graphic\icons\small\I_DNBSimSaveInitState.bmp
DAT/002/CUS .\win_b64\resources\msgcatalog\DNBCustomizeAnalysisStatusDlg.CATRsc|.\DNBSimulationCommands\CNext\resources\msgcatalog\DNBCustomizeAnalysisStatusDlg.CATRsc
DAT/002/CUS .\win_b64\resources\msgcatalog\DNBSimResourceCommand.CATNls|.\DNBSimulationCommands\CNext\resources\msgcatalog\DNBSimResourceCommand.CATNls
RTV/002/DSI .\win_b64\resources\msgcatalog\DbcsTest\DNBSimTraceCmd.CATNls|.\DNBSimulationCommands\CNext\resources\msgcatalog\DNBSimTraceCmd.CATNls
RTV/002/DSI .\win_b64\resources\msgcatalog\NlsTest\DNBUpdateWorldStepAnimDlg.CATNls|.\DNBSimulationCommands\CNext\resources\msgcatalog\DNBUpdateWorldStepAnimDlg.CATNls
DAT/002/CUS .\win_b64\resources\graphic\icons\normal\I_DNBJumpEnd.bmp|.\DNBSimulationCommands\CNext\resources\graphic\icons\normal\I_DNBJumpEnd.bmp
DAT/002/CUS .\win_b64\resources\msgcatalog\DNBSimProcessToolBar.CATRsc|.\DNBSimulationCommands\CNext\resources\msgcatalog\DNBSimProcessToolBar.CATRsc
DAT/002/CUS .\win_b64\resources\msgcatalog\DNBSimAnalysisCmdsHeader.CATNls|.\DNBSimulationCommands\CNext\resources\msgcatalog\DNBSimAnalysisCmdsHeader.CATNls
DAT/002/CUS .\win_b64\resources\msgcatalog\DNBSimTraceCmd.CATNls|.\DNBSimulationCommands\CNext\resources\msgcatalog\DNBSimTraceCmd.CATNls
DAT/002/CUS .\win_b64\resources\msgcatalog\DNBSimTraceDlg.CATNls|.\DNBSimulationCommands\CNext\resources\msgcatalog\DNBSimTraceDlg.CATNls
DAT/002/CUS .\win_b64\resources\graphic\icons\small\I_DNBSimReplay.bmp|.\DNBSimulationCommands\CNext\resources\graphic\icons\small\I_DNBSimReplay.bmp
RTV/002/DSI .\win_b64\resources\msgcatalog\NlsTest\DNBVisuSettingsDlg.CATNls|.\DNBSimulationCommands\CNext\resources\msgcatalog\DNBVisuSettingsDlg.CATNls
RTV/002/DSI .\win_b64\resources\msgcatalog\NlsTest\DNBWndManagerCmd.CATNls|.\DNBSimulationCommands\CNext\resources\msgcatalog\DNBWndManagerCmd.CATNls
DAT/002/CUS .\win_b64\resources\graphic\icons\small\I_DNBSimCompileSimulation.bmp|.\DNBSimulationCommands\CNext\resources\graphic\icons\small\I_DNBSimCompileSimulation.bmp
DAT/002/CUS .\win_b64\code\dictionary\DNBSimulationCommands.dic|.\DNBSimulationCommands\CNext\code\dictionary\DNBSimulationCommands.dic
DAT/002/CUS .\win_b64\resources\msgcatalog\DNBSimCheckHeader.CATRsc|.\DNBSimulationCommands\CNext\resources\msgcatalog\DNBSimCheckHeader.CATRsc
RTV/002/DSI .\win_b64\resources\msgcatalog\DbcsTest\DNBCompileProcessDialog.CATNls|.\DNBSimulationCommands\CNext\resources\msgcatalog\DNBCompileProcessDialog.CATNls
DAT/002/CUS .\win_b64\resources\msgcatalog\DNBSimCheckHeader.CATNls|.\DNBSimulationCommands\CNext\resources\msgcatalog\DNBSimCheckHeader.CATNls
DAT/002/CUS .\win_b64\resources\msgcatalog\DNBWndManagerCmd.CATNls|.\DNBSimulationCommands\CNext\resources\msgcatalog\DNBWndManagerCmd.CATNls
DAT/002/CUS .\win_b64\resources\graphic\icons\normal\I_DNBAutoSyncDelAct.bmp|.\DNBSimulationCommands\CNext\resources\graphic\icons\normal\I_DNBAutoSyncDelAct.bmp
DAT/002/CUS .\win_b64\resources\graphic\icons\normal\I_DNBSimCompileResSimulation.bmp|.\DNBSimulationCommands\CNext\resources\graphic\icons\normal\I_DNBSimCompileResSimulation.bmp
DAT/002/CUS .\win_b64\resources\graphic\icons\normal\I_DNBAnalysisModeOFF.bmp|.\DNBSimulationCommands\CNext\resources\graphic\icons\normal\I_DNBAnalysisModeOFF.bmp
DAT/002/CUS .\win_b64\resources\msgcatalog\DNBTabPageSimTraceDialog.CATNls|.\DNBSimulationCommands\CNext\resources\msgcatalog\DNBTabPageSimTraceDialog.CATNls
RTV/002/DSI .\win_b64\resources\msgcatalog\NlsTest\DNBEditAnalysisDialog.CATNls|.\DNBSimulationCommands\CNext\resources\msgcatalog\DNBEditAnalysisDialog.CATNls
DAT/002/CUS .\win_b64\resources\graphic\icons\small\I_DNBStep.bmp|.\DNBSimulationCommands\CNext\resources\graphic\icons\small\I_DNBStep.bmp
DAT/002/CUS .\win_b64\resources\graphic\icons\small\I_DNBUpdateCycleTime.bmp|.\DNBSimulationCommands\CNext\resources\graphic\icons\small\I_DNBUpdateCycleTime.bmp
DAT/002/CUS .\win_b64\resources\graphic\icons\normal\I_DNBSimVisDisplay.bmp|.\DNBSimulationCommands\CNext\resources\graphic\icons\normal\I_DNBSimVisDisplay.bmp
RTV/002/DSI .\win_b64\resources\msgcatalog\NlsTest\DNBSimActAgent.CATNls|.\DNBSimulationCommands\CNext\resources\msgcatalog\DNBSimActAgent.CATNls
DAT/002/CUS .\win_b64\resources\msgcatalog\DNBUpdateWorldStepAnimDlg.CATNls|.\DNBSimulationCommands\CNext\resources\msgcatalog\DNBUpdateWorldStepAnimDlg.CATNls
DAT/002/CUS .\win_b64\resources\graphic\icons\normal\I_DNBAnalysisClash.bmp|.\DNBSimulationCommands\CNext\resources\graphic\icons\normal\I_DNBAnalysisClash.bmp
DAT/002/CUS .\win_b64\resources\graphic\icons\small\I_DNBSimClose.bmp|.\DNBSimulationCommands\CNext\resources\graphic\icons\small\I_DNBSimClose.bmp
DAT/002/CUS .\win_b64\resources\graphic\DNBEndLevel.bmp|.\DNBSimulationCommands\CNext\resources\graphic\DNBEndLevel.bmp
DAT/002/CUS .\win_b64\resources\graphic\icons\small\I_DNBSimGotoHyperLink.bmp|.\DNBSimulationCommands\CNext\resources\graphic\icons\small\I_DNBSimGotoHyperLink.bmp
DAT/002/CUS .\win_b64\resources\graphic\icons\normal\I_DNBUpdateWorldStepAnim.bmp|.\DNBSimulationCommands\CNext\resources\graphic\icons\normal\I_DNBUpdateWorldStepAnim.bmp
RTV/002/DSI .\win_b64\resources\msgcatalog\NlsTest\DNBAutoSyncOptionsDlg.CATNls|.\DNBSimulationCommands\CNext\resources\msgcatalog\DNBAutoSyncOptionsDlg.CATNls
DAT/002/CUS .\win_b64\resources\graphic\icons\small\I_DNBClashSound.bmp|.\DNBSimulationCommands\CNext\resources\graphic\icons\small\I_DNBClashSound.bmp
DAT/002/CUS .\win_b64\resources\graphic\icons\normal\I_DNBSimResourceSimulation.bmp|.\DNBSimulationCommands\CNext\resources\graphic\icons\normal\I_DNBSimResourceSimulation.bmp
RTV/002/DSI .\win_b64\resources\msgcatalog\NlsTest\DNBSimCheckHeader.CATNls|.\DNBSimulationCommands\CNext\resources\msgcatalog\DNBSimCheckHeader.CATNls
DAT/002/CUS .\win_b64\resources\msgcatalog\DNBSimProgressTaskCmd.CATNls|.\DNBSimulationCommands\CNext\resources\msgcatalog\DNBSimProgressTaskCmd.CATNls
RTV/002/DSI .\win_b64\resources\msgcatalog\DbcsTest\DNBRestoreSimStartCondCmd.CATNls|.\DNBSimulationCommands\CNext\resources\msgcatalog\DNBRestoreSimStartCondCmd.CATNls
DAT/002/CUS .\win_b64\resources\msgcatalog\DNBSimDynamicToolBar.CATRsc|.\DNBSimulationCommands\CNext\resources\msgcatalog\DNBSimDynamicToolBar.CATRsc
DAT/002/CUS .\win_b64\resources\graphic\icons\normal\I_DNBSimImport.bmp|.\DNBSimulationCommands\CNext\resources\graphic\icons\normal\I_DNBSimImport.bmp
DAT/002/CUS .\win_b64\resources\graphic\icons\small\I_DNBSimPoint.bmp|.\DNBSimulationCommands\CNext\resources\graphic\icons\small\I_DNBSimPoint.bmp
DAT/002/CUS .\win_b64\resources\graphic\icons\normal\I_DNBSelectDevMode.bmp|.\DNBSimulationCommands\CNext\resources\graphic\icons\normal\I_DNBSelectDevMode.bmp
DAT/002/CUS .\win_b64\resources\msgcatalog\DNBSimActDlg.CATNls|.\DNBSimulationCommands\CNext\resources\msgcatalog\DNBSimActDlg.CATNls
DAT/002/CUS .\win_b64\resources\msgcatalog\DNBSimProcessCommand.CATNls|.\DNBSimulationCommands\CNext\resources\msgcatalog\DNBSimProcessCommand.CATNls
RTV/002/DSI .\win_b64\resources\msgcatalog\DbcsTest\DNBUpdateWorldStepAnimCmd.CATNls|.\DNBSimulationCommands\CNext\resources\msgcatalog\DNBUpdateWorldStepAnimCmd.CATNls
RTV/002/DSI .\win_b64\resources\msgcatalog\NlsTest\DNBTabPageSimTraceGraphicDialog.CATNls|.\DNBSimulationCommands\CNext\resources\msgcatalog\DNBTabPageSimTraceGraphicDialog.CATNls
DAT/002/CUS .\win_b64\resources\msgcatalog\DNBSaveSimStartCondCmd.CATNls|.\DNBSimulationCommands\CNext\resources\msgcatalog\DNBSaveSimStartCondCmd.CATNls
RTV/002/DSI .\win_b64\resources\msgcatalog\NlsTest\DNBAnalysisStatusCmd.CATNls|.\DNBSimulationCommands\CNext\resources\msgcatalog\DNBAnalysisStatusCmd.CATNls
DAT/002/CUS .\win_b64\resources\graphic\icons\small\I_DNBModeContinuous.bmp|.\DNBSimulationCommands\CNext\resources\graphic\icons\small\I_DNBModeContinuous.bmp
DAT/002/CUS .\win_b64\resources\graphic\icons\I_DNBMoveRight.bmp|.\DNBSimulationCommands\CNext\resources\graphic\icons\I_DNBMoveRight.bmp
RTV/002/DSI .\win_b64\resources\msgcatalog\NlsTest\DNBVisuSettingsCmd.CATNls|.\DNBSimulationCommands\CNext\resources\msgcatalog\DNBVisuSettingsCmd.CATNls
DAT/002/CUS .\win_b64\resources\graphic\icons\small\I_DNBDeleteSimPath.bmp|.\DNBSimulationCommands\CNext\resources\graphic\icons\small\I_DNBDeleteSimPath.bmp
DAT/002/CUS .\win_b64\resources\graphic\icons\small\I_DNBSimOptions.bmp|.\DNBSimulationCommands\CNext\resources\graphic\icons\small\I_DNBSimOptions.bmp
RTV/002/DSI .\win_b64\resources\msgcatalog\NlsTest\DNBActStatusDlg.CATNls|.\DNBSimulationCommands\CNext\resources\msgcatalog\DNBActStatusDlg.CATNls
RTV/002/DSI .\win_b64\resources\msgcatalog\NlsTest\DNBSimAnalysisDialog.CATNls|.\DNBSimulationCommands\CNext\resources\msgcatalog\DNBSimAnalysisDialog.CATNls
RTV/002/DSI .\win_b64\resources\msgcatalog\DbcsTest\DNBWndManagerDlg.CATNls|.\DNBSimulationCommands\CNext\resources\msgcatalog\DNBWndManagerDlg.CATNls
RTV/002/DSI .\win_b64\resources\msgcatalog\NlsTest\DNBSimAnalysisCmdsHeader.CATNls|.\DNBSimulationCommands\CNext\resources\msgcatalog\DNBSimAnalysisCmdsHeader.CATNls
DAT/002/CUS .\win_b64\resources\graphic\icons\small\I_DNBSimExport.bmp|.\DNBSimulationCommands\CNext\resources\graphic\icons\small\I_DNBSimExport.bmp
DAT/002/CUS .\win_b64\resources\msgcatalog\DNBSimAnalysisCmdsHeader.CATRsc|.\DNBSimulationCommands\CNext\resources\msgcatalog\DNBSimAnalysisCmdsHeader.CATRsc
DAT/002/CUS .\win_b64\resources\graphic\GOBWD_sim.bmp|.\DNBSimulationCommands\CNext\resources\graphic\GOBWD_sim.bmp
DAT/002/CUS .\win_b64\resources\graphic\icons\normal\I_DNBSelectProdMode.bmp|.\DNBSimulationCommands\CNext\resources\graphic\icons\normal\I_DNBSelectProdMode.bmp
DAT/002/CUS .\win_b64\resources\msgcatalog\DNBAnalysisStatusCmd.CATNls|.\DNBSimulationCommands\CNext\resources\msgcatalog\DNBAnalysisStatusCmd.CATNls
RTV/002/DSI .\win_b64\resources\msgcatalog\DbcsTest\DNBAnalysisStatusDlg.CATNls|.\DNBSimulationCommands\CNext\resources\msgcatalog\DNBAnalysisStatusDlg.CATNls
DAT/002/CUS .\win_b64\resources\graphic\icons\small\I_DNBSelectFeatMode.bmp|.\DNBSimulationCommands\CNext\resources\graphic\icons\small\I_DNBSelectFeatMode.bmp
RTV/002/DSI .\win_b64\resources\msgcatalog\NlsTest\DNBAnalysisConfigCmd.CATNls|.\DNBSimulationCommands\CNext\resources\msgcatalog\DNBAnalysisConfigCmd.CATNls
DAT/002/CUS .\win_b64\resources\graphic\icons\normal\I_DNBSimTrace.bmp|.\DNBSimulationCommands\CNext\resources\graphic\icons\normal\I_DNBSimTrace.bmp
DAT/002/CUS .\win_b64\resources\msgcatalog\DNBSimTraceDeleteCmd.CATNls|.\DNBSimulationCommands\CNext\resources\msgcatalog\DNBSimTraceDeleteCmd.CATNls
DAT/002/CUS .\win_b64\resources\msgcatalog\DNBUpdateWorldStepAnimCmd.CATNls|.\DNBSimulationCommands\CNext\resources\msgcatalog\DNBUpdateWorldStepAnimCmd.CATNls
DAT/002/CUS .\win_b64\resources\graphic\icons\small\I_DNBStepBackward.bmp|.\DNBSimulationCommands\CNext\resources\graphic\icons\small\I_DNBStepBackward.bmp
RTV/002/DSI .\win_b64\resources\msgcatalog\DbcsTest\DNBSaveSimStartCondCmd.CATNls|.\DNBSimulationCommands\CNext\resources\msgcatalog\DNBSaveSimStartCondCmd.CATNls
DAT/002/CUS .\win_b64\resources\graphic\icons\normal\I_DNBSimGotoHyperLink.bmp|.\DNBSimulationCommands\CNext\resources\graphic\icons\normal\I_DNBSimGotoHyperLink.bmp
RTV/002/DSI .\win_b64\resources\msgcatalog\DbcsTest\DNBTabPageSimTraceDialog.CATNls|.\DNBSimulationCommands\CNext\resources\msgcatalog\DNBTabPageSimTraceDialog.CATNls
RTV/002/DSI .\win_b64\resources\msgcatalog\DbcsTest\DNBUpdateWorldStepAnimDlg.CATNls|.\DNBSimulationCommands\CNext\resources\msgcatalog\DNBUpdateWorldStepAnimDlg.CATNls
DAT/002/CUS .\win_b64\resources\msgcatalog\DNBSimVisuOptionsDlg.CATNls|.\DNBSimulationCommands\CNext\resources\msgcatalog\DNBSimVisuOptionsDlg.CATNls
DAT/002/CUS .\win_b64\resources\msgcatalog\DNBAnalysisConfigDlg.CATNls|.\DNBSimulationCommands\CNext\resources\msgcatalog\DNBAnalysisConfigDlg.CATNls
DAT/002/CUS .\win_b64\resources\graphic\icons\normal\I_DNBSimActOptions.bmp|.\DNBSimulationCommands\CNext\resources\graphic\icons\normal\I_DNBSimActOptions.bmp
DAT/002/CUS .\win_b64\resources\msgcatalog\DNBInteractiveAnalysisDlg.CATNls|.\DNBSimulationCommands\CNext\resources\msgcatalog\DNBInteractiveAnalysisDlg.CATNls
DAT/002/CUS .\win_b64\resources\graphic\icons\small\I_DNBSimPauseActivity.bmp|.\DNBSimulationCommands\CNext\resources\graphic\icons\small\I_DNBSimPauseActivity.bmp
DAT/002/CUS .\win_b64\resources\graphic\icons\normal\I_DNBAnalysisDisplayStatus.bmp|.\DNBSimulationCommands\CNext\resources\graphic\icons\normal\I_DNBAnalysisDisplayStatus.bmp
RTV/002/DSI .\win_b64\resources\msgcatalog\NlsTest\DNBInteractiveAnalysisDlg.CATNls|.\DNBSimulationCommands\CNext\resources\msgcatalog\DNBInteractiveAnalysisDlg.CATNls
DAT/002/CUS .\win_b64\resources\graphic\icons\normal\I_DNBSimExport.bmp|.\DNBSimulationCommands\CNext\resources\graphic\icons\normal\I_DNBSimExport.bmp
RTV/002/DSI .\win_b64\resources\msgcatalog\NlsTest\DNBSimProcessCommand.CATNls|.\DNBSimulationCommands\CNext\resources\msgcatalog\DNBSimProcessCommand.CATNls
DAT/002/CUS .\win_b64\resources\graphic\icons\small\I_DNBAnalysisClash.bmp|.\DNBSimulationCommands\CNext\resources\graphic\icons\small\I_DNBAnalysisClash.bmp
DAT/002/CUS .\win_b64\resources\graphic\icons\small\I_DNBPlay.bmp|.\DNBSimulationCommands\CNext\resources\graphic\icons\small\I_DNBPlay.bmp
DAT/002/CUS .\win_b64\resources\graphic\icons\small\I_DNBVisuSettings.bmp|.\DNBSimulationCommands\CNext\resources\graphic\icons\small\I_DNBVisuSettings.bmp
RTV/002/DSI .\win_b64\resources\msgcatalog\NlsTest\DNBTabPageSimTraceDialog.CATNls|.\DNBSimulationCommands\CNext\resources\msgcatalog\DNBTabPageSimTraceDialog.CATNls
DAT/002/CUS .\win_b64\code\dictionary\DNBSimulationCommands.fact|.\DNBSimulationCommands\CNext\code\dictionary\DNBSimulationCommands.fact
DAT/002/CUS .\win_b64\resources\graphic\icons\normal\I_DNBAnalysisConfig.bmp|.\DNBSimulationCommands\CNext\resources\graphic\icons\normal\I_DNBAnalysisConfig.bmp
RTV/002/DSI .\win_b64\resources\msgcatalog\DbcsTest\DNBSimAnalysisDialog.CATNls|.\DNBSimulationCommands\CNext\resources\msgcatalog\DNBSimAnalysisDialog.CATNls
DAT/002/CUS .\win_b64\resources\graphic\icons\small\I_DNBSimRedLight.bmp|.\DNBSimulationCommands\CNext\resources\graphic\icons\small\I_DNBSimRedLight.bmp
DAT/002/CUS .\win_b64\resources\msgcatalog\DNBAutoSyncOptionsDlg.CATNls|.\DNBSimulationCommands\CNext\resources\msgcatalog\DNBAutoSyncOptionsDlg.CATNls
RTV/002/DSI .\win_b64\resources\msgcatalog\DbcsTest\DNBActStatusDlg.CATNls|.\DNBSimulationCommands\CNext\resources\msgcatalog\DNBActStatusDlg.CATNls
RTV/002/DSI .\win_b64\resources\msgcatalog\DbcsTest\DNBEditAnalysisDialog.CATNls|.\DNBSimulationCommands\CNext\resources\msgcatalog\DNBEditAnalysisDialog.CATNls
CSC/002/DSI .\DNBSimulationCommands\IdentityCard\Objects\win_b64\mkcsc\DNBSimulationCommands.cscdb|.\DNBSimulationCommands
DAT/002/CUS .\win_b64\resources\graphic\icons\small\I_DNBUpdateResCycleTime.bmp|.\DNBSimulationCommands\CNext\resources\graphic\icons\small\I_DNBUpdateResCycleTime.bmp
DAT/002/CUS .\win_b64\resources\graphic\GOBEGIN_sim.bmp|.\DNBSimulationCommands\CNext\resources\graphic\GOBEGIN_sim.bmp
RTV/002/DSI .\win_b64\resources\msgcatalog\DbcsTest\DNBReplayToolBar.CATNls|.\DNBSimulationCommands\CNext\resources\msgcatalog\DNBReplayToolBar.CATNls
DAT/002/CUS .\win_b64\resources\msgcatalog\DNBReplayCommand.CATNls|.\DNBSimulationCommands\CNext\resources\msgcatalog\DNBReplayCommand.CATNls
DAT/002/CUS .\win_b64\resources\graphic\icons\normal\I_DNBSimGenerateResVideo.bmp|.\DNBSimulationCommands\CNext\resources\graphic\icons\normal\I_DNBSimGenerateResVideo.bmp
RTV/002/DSI .\win_b64\resources\msgcatalog\DbcsTest\DNBSimTraceDlg.CATNls|.\DNBSimulationCommands\CNext\resources\msgcatalog\DNBSimTraceDlg.CATNls
DAT/002/CUS .\win_b64\resources\graphic\icons\small\I_DNBModeSingle.bmp|.\DNBSimulationCommands\CNext\resources\graphic\icons\small\I_DNBModeSingle.bmp
DAT/002/CUS .\win_b64\resources\graphic\GOFWD_sim.bmp|.\DNBSimulationCommands\CNext\resources\graphic\GOFWD_sim.bmp
DAT/002/CUS .\win_b64\resources\graphic\DNBPause.bmp|.\DNBSimulationCommands\CNext\resources\graphic\DNBPause.bmp
DAT/002/CUS .\win_b64\resources\graphic\icons\normal\I_DNBModeContinuous.bmp|.\DNBSimulationCommands\CNext\resources\graphic\icons\normal\I_DNBModeContinuous.bmp
DAT/002/CUS .\win_b64\resources\graphic\icons\normal\I_DNBSimOptions.bmp|.\DNBSimulationCommands\CNext\resources\graphic\icons\normal\I_DNBSimOptions.bmp
RTV/002/DSI .\win_b64\resources\msgcatalog\DbcsTest\DNBVisuSettingsDlg.CATNls|.\DNBSimulationCommands\CNext\resources\msgcatalog\DNBVisuSettingsDlg.CATNls
DAT/002/CUS .\win_b64\resources\graphic\GOEND_sim.bmp|.\DNBSimulationCommands\CNext\resources\graphic\GOEND_sim.bmp
DAT/002/CUS .\win_b64\resources\graphic\icons\normal\I_DNBSimPoint.bmp|.\DNBSimulationCommands\CNext\resources\graphic\icons\normal\I_DNBSimPoint.bmp
DAT/002/CUS .\win_b64\resources\msgcatalog\DNBUpdateCycleTimeCmd.CATNls|.\DNBSimulationCommands\CNext\resources\msgcatalog\DNBUpdateCycleTimeCmd.CATNls
DAT/002/CUS .\win_b64\resources\msgcatalog\DNBAnalysisStatusDlg.CATRsc|.\DNBSimulationCommands\CNext\resources\msgcatalog\DNBAnalysisStatusDlg.CATRsc
RTV/002/DSI .\win_b64\resources\msgcatalog\DbcsTest\DNBInteractiveAnalysisDlg.CATNls|.\DNBSimulationCommands\CNext\resources\msgcatalog\DNBInteractiveAnalysisDlg.CATNls
DAT/002/CUS .\win_b64\resources\graphic\icons\normal\I_DNBPlayBackward.bmp|.\DNBSimulationCommands\CNext\resources\graphic\icons\normal\I_DNBPlayBackward.bmp
DAT/002/CUS .\win_b64\resources\graphic\icons\normal\I_DNBSimSimpleText.bmp|.\DNBSimulationCommands\CNext\resources\graphic\icons\normal\I_DNBSimSimpleText.bmp
DAT/002/CUS .\win_b64\resources\graphic\icons\small\I_DNBSelectDevMode.bmp|.\DNBSimulationCommands\CNext\resources\graphic\icons\small\I_DNBSelectDevMode.bmp
RTV/002/DSI .\win_b64\resources\msgcatalog\NlsTest\DNBUpdateWorldStepAnimCmd.CATNls|.\DNBSimulationCommands\CNext\resources\msgcatalog\DNBUpdateWorldStepAnimCmd.CATNls
DAT/002/CUS .\win_b64\resources\msgcatalog\DNBSimActAgent.CATNls|.\DNBSimulationCommands\CNext\resources\msgcatalog\DNBSimActAgent.CATNls
RTV/002/DSI .\win_b64\resources\msgcatalog\NlsTest\DNBRestoreSimStartCondCmd.CATNls|.\DNBSimulationCommands\CNext\resources\msgcatalog\DNBRestoreSimStartCondCmd.CATNls
RTV/002/DSI .\win_b64\resources\msgcatalog\NlsTest\DNBSimResourceCommand.CATNls|.\DNBSimulationCommands\CNext\resources\msgcatalog\DNBSimResourceCommand.CATNls
DAT/002/CUS .\win_b64\resources\graphic\icons\small\I_DNBAutoSyncDelAct.bmp|.\DNBSimulationCommands\CNext\resources\graphic\icons\small\I_DNBAutoSyncDelAct.bmp
DAT/002/CUS .\win_b64\resources\graphic\icons\normal\I_DNBAnalysisMeasure.bmp|.\DNBSimulationCommands\CNext\resources\graphic\icons\normal\I_DNBAnalysisMeasure.bmp
RTV/002/DSI .\win_b64\resources\msgcatalog\DbcsTest\DNBSimActDlg.CATNls|.\DNBSimulationCommands\CNext\resources\msgcatalog\DNBSimActDlg.CATNls
@type='codeFramework'
@built='true'
