!<mkRTViewData> v1.0.0
CSC/000/DSI .\DraftingFeature\DRWBREP.m\Objects\win_b64\mkcsc\DRWBREP.cscdb|.\DraftingFeature\DRWBREP.m
@type='NONE'
@clr='false'
@kind='INCLUDED'
@deliverable='true'
@built='true'
