PartNumber	NominalSize	WaveguideWidth (in)	WaveguideHeight (in)	
Waveguide-Clamp-WR19	WR19	0.268	0.174	
Waveguide-Clamp-WR22	WR22	0.304	0.192	
Waveguide-Clamp-WR28	WR28	0.36	0.22	
Waveguide-Clamp-WR34	WR34	0.42	0.25	
Waveguide-Clamp-WR42	WR42	0.5	0.25	
Waveguide-Clamp-WR51	WR51	0.59	0.335	
Waveguide-Clamp-WR62	WR62	0.702	0.391	
Waveguide-Clamp-WR67	WR67	0.75	0.42	
Waveguide-Clamp-WR75	WR75	0.85	0.475	
Waveguide-Clamp-WR75-RH	WR75-RH	0.85	0.3	
Waveguide-Clamp-WR90	WR90	1	0.5	
Waveguide-Clamp-WR90-RH	WR90-RH	1	0.3	
Waveguide-Clamp-WRD180	WRD180	0.368	0.214	
Waveguide-Clamp-WRD110	WRD110	0.551	0.299	
Waveguide-Clamp-WRD750	WRD750	0.791	0.421	
Waveguide-Clamp-WRD700	WRD700	0.786	0.41	
Waveguide-Clamp-WRD650	WRD650	0.82	0.421	
Waveguide-Clamp-WRD580	WRD580	0.88	0.47	
Waveguide-Clamp-WRD500	WRD500	0.852	0.423	
Waveguide-Clamp-WRD475	WRD475	1.19	0.606	
Waveguide-Clamp-WRD350	WRD350	1.608	0.816	
Waveguide-Clamp-WRD250	WRD250	2	1	
