!<mkRTViewData> v1.0.0
BTV/000/CUS .\win_b64\code\lib\CATSurfacicSharedItfUUID.lib|.\CATSurfacicSharedItf\CATSurfacicSharedItfUUID.m
CSC/000/DSI .\CATSurfacicSharedItf\CATSurfacicSharedItfUUID.m\Objects\win_b64\mkcsc\CATSurfacicSharedItfUUID.cscdb|.\CATSurfacicSharedItf\CATSurfacicSharedItfUUID.m
@type='ARCHIVE'
@clr='false'
@kind='NATIVE'
@deliverable='true'
@built='true'
