!<mkRTViewData> v1.0.0
CSC/000/DSI .\CATMatInterfaces\CATMatProIDL.m\Objects\win_b64\mkcsc\CATMatProIDL.cscdb|.\CATMatInterfaces\CATMatProIDL.m
@type='NONE'
@clr='false'
@kind='INCLUDED'
@deliverable='true'
@built='true'
