document `CATObjectSceneStUp.feat` {
	history("i5d","","2014-07-24 12:30",1., 0u6b51fe7e-0000-04c0-53d0fc730000001c)
	history("osmfeat","","2008-11-03 15:45",0., 0uffffffff-0d3c-a1d4-490f1ca400000000)
	check_revision(0u6b51fe7e-0000-04c0-53d0fc730000001c)
	
	#maturity=`Standard`
	#type=`Internal`
	
	container `CATFeatCont` #root #uuid(0u80a2be37-0000-312d-37d91af400050a8e) {
		feature `CATWorkSceneFeat`#1 #startup {
			#mlc::version=1.
			#uuid= 0u80a2be37-0000-2fe5-380f2604000dfca3
			external `SceneRoot`
			component `SceneCamera`
			octet `SceneImage` #list
			external `SceneContainer`
			octet `ToInitialize`
			string `StandardName`
			`ToInitialize`=0
		}
		
// insert here your startups

	}
}
