!<mkRTViewData> v1.0.0
CSC/000/DSI .\PolyhedralVisuOperators\PolyVisuBoolOper.m\Objects\win_b64\mkcsc\PolyVisuBoolOper.cscdb|.\PolyhedralVisuOperators\PolyVisuBoolOper.m
@type='NONE'
@clr='false'
@kind='INCLUDED'
@deliverable='true'
@built='true'
