!<mkRTViewData> v1.0.0
BTV/000/CUS .\win_b64\code\lib\AUTLciVMBase.lib|.\AUTLciVM\AUTLciVMBase.mext
RTV/000/CUS .\win_b64\code\bin\AUTLciVMBase.dll|.\AUTLciVM\AUTLciVMBase.mext
@type='EXT_SHARED_LIBRARY'
@clr='false'
@kind='NATIVE'
@deliverable='true'
@built='true'
