!<mkRTViewData> v1.0.0
CSC/002/DSI .\CATPenetrationPSInterfaces\IdentityCard\Objects\win_b64\mkcsc\CATPenetrationPSInterfaces.cscdb|.\CATPenetrationPSInterfaces
RTV/002/DSI .\win_b64\code\productIC\CATPenetrationPSInterfacesIC.required|.\CATPenetrationPSInterfaces
DAT/002/CUS .\win_b64\code\dictionary\CATPenetrationPSInterfaces.iid|.\CATPenetrationPSInterfaces\CNext\code\dictionary\CATPenetrationPSInterfaces.iid
BTV/002/CUS .\win_b64\code\productIC\CATPenetrationPSInterfacesIC.xml|.\CATPenetrationPSInterfaces
BTV/002/CUS .\win_b64\code\productIC\CATPenetrationPSInterfacesIC.script|.\CATPenetrationPSInterfaces
@type='codeFramework'
@built='true'
