!<mkRTViewData> v1.0.0
CSC/000/DSI .\AECReviewBase\AECElement.m\Objects\win_b64\mkcsc\AECElement.cscdb|.\AECReviewBase\AECElement.m
@type='NONE'
@clr='false'
@kind='INCLUDED'
@deliverable='true'
@built='true'
