!<mkRTViewData> v1.0.0
CSC/000/DSI .\BasicTopologicalOpe\YJ000GSM.m\Objects\win_b64\mkcsc\YJ000GSM.cscdb|.\BasicTopologicalOpe\YJ000GSM.m
@type='NONE'
@clr='false'
@kind='INCLUDED'
@deliverable='true'
@built='true'
