!<mkRTViewData> v1.0.0
INT/000/CUS .\win_b64\code\lib\CATGuiBump.exp|.\GSMUI\CATGuiBump.m
CSC/000/DSI .\GSMUI\CATGuiBump.m\Objects\win_b64\mkcsc\CATGuiBump.cscdb|.\GSMUI\CATGuiBump.m
BTV/000/CUS .\win_b64\code\lib\CATGuiBump.lib|.\GSMUI\CATGuiBump.m
RTV/001/CUS .\win_b64\code\bin\CATGuiBump.dll|.\GSMUI\CATGuiBump.m
INT/000/CUS .\win_b64\code\bin\CATGuiBump.pdb|.\GSMUI\CATGuiBump.m
@type='SHARED_LIBRARY'
@clr='false'
@kind='NATIVE'
@deliverable='true'
@built='true'
