!<mkRTViewData> v1.0.0
CSC/000/DSI .\FittingInterfaces\CATJavaFittingTypeLib.mj\Objects\win_b64\mkcsc\CATJavaFittingTypeLib.cscdb|.\FittingInterfaces\CATJavaFittingTypeLib.mj
RTV/000/CUS .\win_b64\docs\java\CATJavaFittingTypeLib.jar|.\FittingInterfaces\CATJavaFittingTypeLib.mj
@type='JAVA_CLIENT'
@clr='false'
@kind='JAVA'
@deliverable='true'
@built='true'
