DP_PART_NUMBER,STANDARD_LABEL,THIRD_PARTY_LABEL
2L 2.5x2.5x0.1875,2L2-1/2X2-1/2X3/16,
2L 2.5x2.5x0.1875x0.375,2L2-1/2X2-1/2X3/16X3/8,
2L 2.5x2.5x0.1875x0.75,2L2-1/2X2-1/2X3/16X3/4,
2L 2.5x2.5x0.25,2L2-1/2X2-1/2X1/4,
2L 2.5x2.5x0.25x0.375,2L2-1/2X2-1/2X1/4X3/8,
2L 2.5x2.5x0.25x0.75,2L2-1/2X2-1/2X1/4X3/4,
2L 2.5x2.5x0.3125,2L2-1/2X2-1/2X5/16,
2L 2.5x2.5x0.3125x0.375,2L2-1/2X2-1/2X5/16X3/8,
2L 2.5x2.5x0.3125x0.75,2L2-1/2X2-1/2X5/16X3/4,
2L 2.5x2.5x0.375,2L2-1/2X2-1/2X3/8,
2L 2.5x2.5x0.375x0.375,2L2-1/2X2-1/2X3/8X3/8,
2L 2.5x2.5x0.375x0.75,2L2-1/2X2-1/2X3/8X3/4,
2L 2.5x2.5x0.5,2L2-1/2X2-1/2X1/2,
2L 2.5x2.5x0.5x0.375,2L2-1/2X2-1/2X1/2X3/8,
2L 2.5x2.5x0.5x0.75,2L2-1/2X2-1/2X1/2X3/4,
2L 2.5x2x0.1875LLBB,2L2-1/2X2X3/16LLBB,
2L 2.5x2x0.1875SLBB,2L2-1/2X2X3/16SLBB,
2L 2.5x2x0.1875x0.375LLBB,2L2-1/2X2X3/16X3/8LLBB,
2L 2.5x2x0.1875x0.375SLBB,2L2-1/2X2X3/16X3/8SLBB,
2L 2.5x2x0.1875x0.75LLBB,2L2-1/2X2X3/16X3/4LLBB,
2L 2.5x2x0.1875x0.75SLBB,2L2-1/2X2X3/16X3/4SLBB,
2L 2.5x2x0.25LLBB,2L2-1/2X2X1/4LLBB,
2L 2.5x2x0.25SLBB,2L2-1/2X2X1/4SLBB,
2L 2.5x2x0.25x0.375LLBB,2L2-1/2X2X1/4X3/8LLBB,
2L 2.5x2x0.25x0.375SLBB,2L2-1/2X2X1/4X3/8SLBB,
2L 2.5x2x0.25x0.75LLBB,2L2-1/2X2X1/4X3/4LLBB,
2L 2.5x2x0.25x0.75SLBB,2L2-1/2X2X1/4X3/4SLBB,
2L 2.5x2x0.3125LLBB,2L2-1/2X2X5/16LLBB,
2L 2.5x2x0.3125SLBB,2L2-1/2X2X5/16SLBB,
2L 2.5x2x0.3125x0.375LLBB,2L2-1/2X2X5/16X3/8LLBB,
2L 2.5x2x0.3125x0.375SLBB,2L2-1/2X2X5/16X3/8SLBB,
2L 2.5x2x0.3125x0.75LLBB,2L2-1/2X2X5/16X3/4LLBB,
2L 2.5x2x0.3125x0.75SLBB,2L2-1/2X2X5/16X3/4SLBB,
2L 2.5x2x0.375LLBB,2L2-1/2X2X3/8LLBB,
2L 2.5x2x0.375SLBB,2L2-1/2X2X3/8SLBB,
2L 2.5x2x0.375x0.375LLBB,2L2-1/2X2X3/8X3/8LLBB,
2L 2.5x2x0.375x0.375SLBB,2L2-1/2X2X3/8X3/8SLBB,
2L 2.5x2x0.375x0.75LLBB,2L2-1/2X2X3/8X3/4LLBB,
2L 2.5x2x0.375x0.75SLBB,2L2-1/2X2X3/8X3/4SLBB,
2L 2x2x0.125,2L2X2X1/8,
2L 2x2x0.125x0.375,2L2X2X1/8X3/8,
2L 2x2x0.125x0.75,2L2X2X1/8X3/4,
2L 2x2x0.1875,2L2X2X3/16,
2L 2x2x0.1875x0.375,2L2X2X3/16X3/8,
2L 2x2x0.1875x0.75,2L2X2X3/16X3/4,
2L 2x2x0.25,2L2X2X1/4,
2L 2x2x0.25x0.375,2L2X2X1/4X3/8,
2L 2x2x0.25x0.75,2L2X2X1/4X3/4,
2L 2x2x0.3125,2L2X2X5/16,
2L 2x2x0.3125x0.375,2L2X2X5/16X3/8,
2L 2x2x0.3125x0.75,2L2X2X5/16X3/4,
2L 2x2x0.375,2L2X2X3/8,
2L 2x2x0.375x0.375,2L2X2X3/8X3/8,
2L 2x2x0.375x0.75,2L2X2X3/8X3/4,
2L 3.5x2.5x0.25LLBB,2L3-1/2X2-1/2X1/4LLBB,
2L 3.5x2.5x0.25SLBB,2L3-1/2X2-1/2X1/4SLBB,
2L 3.5x2.5x0.25x0.375LLBB,2L3-1/2X2-1/2X1/4X3/8LLBB,
2L 3.5x2.5x0.25x0.375SLBB,2L3-1/2X2-1/2X1/4X3/8SLBB,
2L 3.5x2.5x0.25x0.75LLBB,2L3-1/2X2-1/2X1/4X3/4LLBB,
2L 3.5x2.5x0.25x0.75SLBB,2L3-1/2X2-1/2X1/4X3/4SLBB,
2L 3.5x2.5x0.3125LLBB,2L3-1/2X2-1/2X5/16LLBB,
2L 3.5x2.5x0.3125SLBB,2L3-1/2X2-1/2X5/16SLBB,
2L 3.5x2.5x0.3125x0.375LLBB,2L3-1/2X2-1/2X5/16X3/8LLBB,
2L 3.5x2.5x0.3125x0.375SLBB,2L3-1/2X2-1/2X5/16X3/8SLBB,
2L 3.5x2.5x0.3125x0.75LLBB,2L3-1/2X2-1/2X5/16X3/4LLBB,
2L 3.5x2.5x0.3125x0.75SLBB,2L3-1/2X2-1/2X5/16X3/4SLBB,
2L 3.5x2.5x0.375LLBB,2L3-1/2X2-1/2X3/8LLBB,
2L 3.5x2.5x0.375SLBB,2L3-1/2X2-1/2X3/8SLBB,
2L 3.5x2.5x0.375x0.375LLBB,2L3-1/2X2-1/2X3/8X3/8LLBB,
2L 3.5x2.5x0.375x0.375SLBB,2L3-1/2X2-1/2X3/8X3/8SLBB,
2L 3.5x2.5x0.375x0.75LLBB,2L3-1/2X2-1/2X3/8X3/4LLBB,
2L 3.5x2.5x0.375x0.75SLBB,2L3-1/2X2-1/2X3/8X3/4SLBB,
2L 3.5x2.5x0.5L LBB,2L3-1/2X2-1/2X1/2LLBB,
2L 3.5x2.5x0.5SLBB,2L3-1/2X2-1/2X1/2SLBB,
2L 3.5x2.5x0.5x0.375LLBB,2L3-1/2X2-1/2X1/2X3/8LLBB,
2L 3.5x2.5x0.5x0.375SLBB,2L3-1/2X2-1/2X1/2X3/8SLBB,
2L 3.5x2.5x0.5x0.75LLBB,2L3-1/2X2-1/2X1/2X3/4LLBB,
2L 3.5x2.5x0.5x0.75SLBB,2L3-1/2X2-1/2X1/2X3/4SLBB,
2L 3.5x3.5x0.25,2L3-1/2X3-1/2X1/4,
2L 3.5x3.5x0.25x0.375,2L3-1/2X3-1/2X1/4X3/8,
2L 3.5x3.5x0.25x0.75,2L3-1/2X3-1/2X1/4X3/4,
2L 3.5x3.5x0.3125,2L3-1/2X3-1/2X5/16,
2L 3.5x3.5x0.3125x0.375,2L3-1/2X3-1/2X5/16X3/8,
2L 3.5x3.5x0.3125x0.75,2L3-1/2X3-1/2X5/16X3/4,
2L 3.5x3.5x0.375,2L3-1/2X3-1/2X3/8,
2L 3.5x3.5x0.375x0.375,2L3-1/2X3-1/2X3/8X3/8,
2L 3.5x3.5x0.375x0.75,2L3-1/2X3-1/2X3/8X3/4,
2L 3.5x3.5x0.4375,2L3-1/2X3-1/2X7/16,
2L 3.5x3.5x0.4375x0.375,2L3-1/2X3-1/2X7/16X3/8,
2L 3.5x3.5x0.4375x0.75,2L3-1/2X3-1/2X7/16X3/4,
2L 3.5x3.5x0.5,2L3-1/2X3-1/2X1/2,
2L 3.5x3.5x0.5x0.375,2L3-1/2X3-1/2X1/2X3/8,
2L 3.5x3.5x0.5x0.75,2L3-1/2X3-1/2X1/2X3/4,
2L 3.5x3x0.25LLBB,2L3-1/2X3X1/4LLBB,
2L 3.5x3x0.25SLBB,2L3-1/2X3X1/4SLBB,
2L 3.5x3x0.25x0.375LLBB,2L3-1/2X3X1/4X3/8LLBB,
2L 3.5x3x0.25x0.375SLBB,2L3-1/2X3X1/4X3/8SLBB,
2L 3.5x3x0.25x0.75LLBB,2L3-1/2X3X1/4X3/4LLBB,
2L 3.5x3x0.25x0.75SLBB,2L3-1/2X3X1/4X3/4SLBB,
2L 3.5x3x0.3125LLBB,2L3-1/2X3X5/16LLBB,
2L 3.5x3x0.3125SLBB,2L3-1/2X3X5/16SLBB,
2L 3.5x3x0.3125x0.375LLBB,2L3-1/2X3X5/16X3/8LLBB,
2L 3.5x3x0.3125x0.375SLBB,2L3-1/2X3X5/16X3/8SLBB,
2L 3.5x3x0.3125x0.75LLBB,2L3-1/2X3X5/16X3/4LLBB,
2L 3.5x3x0.3125x0.75SLBB,2L3-1/2X3X5/16X3/4SLBB,
2L 3.5x3x0.375LLBB,2L3-1/2X3X3/8LLBB,
2L 3.5x3x0.375SLBB,2L3-1/2X3X3/8SLBB,
2L 3.5x3x0.375x0.375LLBB,2L3-1/2X3X3/8X3/8LLBB,
2L 3.5x3x0.375x0.375SLBB,2L3-1/2X3X3/8X3/8SLBB,
2L 3.5x3x0.375x0.75LLBB,2L3-1/2X3X3/8X3/4LLBB,
2L 3.5x3x0.375x0.75SLBB,2L3-1/2X3X3/8X3/4SLBB,
2L 3.5x3x0.4375LLBB,2L3-1/2X3X7/16LLBB,
2L 3.5x3x0.4375SLBB,2L3-1/2X3X7/16SLBB,
2L 3.5x3x0.4375x0.375LLBB,2L3-1/2X3X7/16X3/8LLBB,
2L 3.5x3x0.4375x0.375SLBB,2L3-1/2X3X7/16X3/8SLBB,
2L 3.5x3x0.4375x0.75LLBB,2L3-1/2X3X7/16X3/4LLBB,
2L 3.5x3x0.4375x0.75SLBB,2L3-1/2X3X7/16X3/4SLBB,
2L 3.5x3x0.5L LBB,2L3-1/2X3X1/2LLBB,
2L 3.5x3x0.5SLBB,2L3-1/2X3X1/2SLBB,
2L 3.5x3x0.5x0.375LLBB,2L3-1/2X3X1/2X3/8LLBB,
2L 3.5x3x0.5x0.375SLBB,2L3-1/2X3X1/2X3/8SLBB,
2L 3.5x3x0.5x0.75LLBB,2L3-1/2X3X1/2X3/4LLBB,
2L 3.5x3x0.5x0.75SLBB,2L3-1/2X3X1/2X3/4SLBB,
2L 3x2.50.5x0.75LLBB,2L3X2-1/21/2X3/4LLBB,
2L 3x2.50.5x0.75SLBB,2L3X2-1/21/2X3/4SLBB,
2L 3x2.5x0.1875LLBB,2L3X2-1/2X3/16LLBB,
2L 3x2.5x0.1875SLBB,2L3X2-1/2X3/16SLBB,
2L 3x2.5x0.1875x0.375LLBB,2L3X2-1/2X3/16X3/8LLBB,
2L 3x2.5x0.1875x0.375SLBB,2L3X2-1/2X3/16X3/8SLBB,
2L 3x2.5x0.1875x0.75LLBB,2L3X2-1/2X3/16X3/4LLBB,
2L 3x2.5x0.1875x0.75SLBB,2L3X2-1/2X3/16X3/4SLBB,
2L 3x2.5x0.25LLBB,2L3X2-1/2X1/4LLBB,
2L 3x2.5x0.25SLBB,2L3X2-1/2X1/4SLBB,
2L 3x2.5x0.25x0.375LLBB,2L3X2-1/2X1/4X3/8LLBB,
2L 3x2.5x0.25x0.375SLBB,2L3X2-1/2X1/4X3/8SLBB,
2L 3x2.5x0.25x0.75LLBB,2L3X2-1/2X1/4X3/4LLBB,
2L 3x2.5x0.25x0.75SLBB,2L3X2-1/2X1/4X3/4SLBB,
2L 3x2.5x0.3125LLBB,2L3X2-1/2X5/16LLBB,
2L 3x2.5x0.3125SLBB,2L3X2-1/2X5/16SLBB,
2L 3x2.5x0.3125x0.375LLBB,2L3X2-1/2X5/16X3/8LLBB,
2L 3x2.5x0.3125x0.375SLBB,2L3X2-1/2X5/16X3/8SLBB,
2L 3x2.5x0.3125x0.75LLBB,2L3X2-1/2X5/16X3/4LLBB,
2L 3x2.5x0.3125x0.75SLBB,2L3X2-1/2X5/16X3/4SLBB,
2L 3x2.5x0.375LLBB,2L3X2-1/2X3/8LLBB,
2L 3x2.5x0.375SLBB,2L3X2-1/2X3/8SLBB,
2L 3x2.5x0.375x0.375LLBB,2L3X2-1/2X3/8X3/8LLBB,
2L 3x2.5x0.375x0.375SLBB,2L3X2-1/2X3/8X3/8SLBB,
2L 3x2.5x0.375x0.75LLBB,2L3X2-1/2X3/8X3/4LLBB,
2L 3x2.5x0.375x0.75SLBB,2L3X2-1/2X3/8X3/4SLBB,
2L 3x2.5x0.4375LLBB,2L3X2-1/2X7/16LLBB,
2L 3x2.5x0.4375SLBB,2L3X2-1/2X7/16SLBB,
2L 3x2.5x0.4375x0.375LLBB,2L3X2-1/2X7/16X3/8LLBB,
2L 3x2.5x0.4375x0.375SLBB,2L3X2-1/2X7/16X3/8SLBB,
2L 3x2.5x0.4375x0.75LLBB,2L3X2-1/2X7/16X3/4LLBB,
2L 3x2.5x0.4375x0.75SLBB,2L3X2-1/2X7/16X3/4SLBB,
2L 3x2.5x0.5L LBB,2L3X2-1/2X1/2LLBB,
2L 3x2.5x0.5SLBB,2L3X2-1/2X1/2SLBB,
2L 3x2.5x0.5x0.375LLBB,2L3X2-1/2X1/2X3/8LLBB,
2L 3x2.5x0.5x0.375SLBB,2L3X2-1/2X1/2X3/8SLBB,
2L 3x2x0.1875LLBB,2L3X2X3/16LLBB,
2L 3x2x0.1875SLBB,2L3X2X3/16SLBB,
2L 3x2x0.1875x0.375LLBB,2L3X2X3/16X3/8LLBB,
2L 3x2x0.1875x0.375SLBB,2L3X2X3/16X3/8SLBB,
2L 3x2x0.1875x0.75LLBB,2L3X2X3/16X3/4LLBB,
2L 3x2x0.1875x0.75SLBB,2L3X2X3/16X3/4SLBB,
2L 3x2x0.25LLBB,2L3X2X1/4LLBB,
2L 3x2x0.25SLBB,2L3X2X1/4SLBB,
2L 3x2x0.25x0.375LLBB,2L3X2X1/4X3/8LLBB,
2L 3x2x0.25x0.375SLBB,2L3X2X1/4X3/8SLBB,
2L 3x2x0.25x0.75LLBB,2L3X2X1/4X3/4LLBB,
2L 3x2x0.25x0.75SLBB,2L3X2X1/4X3/4SLBB,
2L 3x2x0.3125LLBB,2L3X2X5/16LLBB,
2L 3x2x0.3125SLBB,2L3X2X5/16SLBB,
2L 3x2x0.3125x0.375LLBB,2L3X2X5/16X3/8LLBB,
2L 3x2x0.3125x0.375SLBB,2L3X2X5/16X3/8SLBB,
2L 3x2x0.3125x0.75LLBB,2L3X2X5/16X3/4LLBB,
2L 3x2x0.3125x0.75SLBB,2L3X2X5/16X3/4SLBB,
2L 3x2x0.375LLBB,2L3X2X3/8LLBB,
2L 3x2x0.375SLBB,2L3X2X3/8SLBB,
2L 3x2x0.375x0.375LLBB,2L3X2X3/8X3/8LLBB,
2L 3x2x0.375x0.375SLBB,2L3X2X3/8X3/8SLBB,
2L 3x2x0.375x0.75LLBB,2L3X2X3/8X3/4LLBB,
2L 3x2x0.375x0.75SLBB,2L3X2X3/8X3/4SLBB,
2L 3x2x0.5L LBB,2L3X2X1/2LLBB,
2L 3x2x0.5SLBB,2L3X2X1/2SLBB,
2L 3x2x0.5x0.375LLBB,2L3X2X1/2X3/8LLBB,
2L 3x2x0.5x0.375SLBB,2L3X2X1/2X3/8SLBB,
2L 3x2x0.5x0.75LLBB,2L3X2X1/2X3/4LLBB,
2L 3x2x0.5x0.75SLBB,2L3X2X1/2X3/4SLBB,
2L 3x3x0.1875,2L3X3X3/16,
2L 3x3x0.1875x0.375,2L3X3X3/16X3/8,
2L 3x3x0.1875x0.75,2L3X3X3/16X3/4,
2L 3x3x0.25,2L3X3X1/4,
2L 3x3x0.25x0.375,2L3X3X1/4X3/8,
2L 3x3x0.25x0.75,2L3X3X1/4X3/4,
2L 3x3x0.3125,2L3X3X5/16,
2L 3x3x0.3125x0.375,2L3X3X5/16X3/8,
2L 3x3x0.3125x0.75,2L3X3X5/16X3/4,
2L 3x3x0.375,2L3X3X3/8,
2L 3x3x0.375x0.375,2L3X3X3/8X3/8,
2L 3x3x0.375x0.75,2L3X3X3/8X3/4,
2L 3x3x0.4375,2L3X3X7/16,
2L 3x3x0.4375x0.375,2L3X3X7/16X3/8,
2L 3x3x0.4375x0.75,2L3X3X7/16X3/4,
2L 3x3x0.5,2L3X3X1/2,
2L 3x3x0.5x0.375,2L3X3X1/2X3/8,
2L 3x3x0.5x0.75,2L3X3X1/2X3/4,
2L 4x3.5x0.25LLBB,2L4X3-1/2X1/4LLBB,
2L 4x3.5x0.25SLBB,2L4X3-1/2X1/4SLBB,
2L 4x3.5x0.25x0.375LLBB,2L4X3-1/2X1/4X3/8LLBB,
2L 4x3.5x0.25x0.375SLBB,2L4X3-1/2X1/4X3/8SLBB,
2L 4x3.5x0.25x0.75LLBB,2L4X3-1/2X1/4X3/4LLBB,
2L 4x3.5x0.25x0.75SLBB,2L4X3-1/2X1/4X3/4SLBB,
2L 4x3.5x0.3125LLBB,2L4X3-1/2X5/16LLBB,
2L 4x3.5x0.3125SLBB,2L4X3-1/2X5/16SLBB,
2L 4x3.5x0.3125x0.375LLBB,2L4X3-1/2X5/16X3/8LLBB,
2L 4x3.5x0.3125x0.375SLBB,2L4X3-1/2X5/16X3/8SLBB,
2L 4x3.5x0.3125x0.75LLBB,2L4X3-1/2X5/16X3/4LLBB,
2L 4x3.5x0.3125x0.75SLBB,2L4X3-1/2X5/16X3/4SLBB,
2L 4x3.5x0.375LLBB,2L4X3-1/2X3/8LLBB,
2L 4x3.5x0.375SLBB,2L4X3-1/2X3/8SLBB,
2L 4x3.5x0.375x0.375LLBB,2L4X3-1/2X3/8X3/8LLBB,
2L 4x3.5x0.375x0.375SLBB,2L4X3-1/2X3/8X3/8SLBB,
2L 4x3.5x0.375x0.75LLBB,2L4X3-1/2X3/8X3/4LLBB,
2L 4x3.5x0.375x0.75SLBB,2L4X3-1/2X3/8X3/4SLBB,
2L 4x3.5x0.5L LBB,2L4X3-1/2X1/2LLBB,
2L 4x3.5x0.5SLBB,2L4X3-1/2X1/2SLBB,
2L 4x3.5x0.5x0.375LLBB,2L4X3-1/2X1/2X3/8LLBB,
2L 4x3.5x0.5x0.375SLBB,2L4X3-1/2X1/2X3/8SLBB,
2L 4x3.5x0.5x0.75LLBB,2L4X3-1/2X1/2X3/4LLBB,
2L 4x3.5x0.5x0.75SLBB,2L4X3-1/2X1/2X3/4SLBB,
2L 4x3x0.25LLBB,2L4X3X1/4LLBB,
2L 4x3x0.25SLBB,2L4X3X1/4SLBB,
2L 4x3x0.25x0.375LLBB,2L4X3X1/4X3/8LLBB,
2L 4x3x0.25x0.375SLBB,2L4X3X1/4X3/8SLBB,
2L 4x3x0.25x0.75LLBB,2L4X3X1/4X3/4LLBB,
2L 4x3x0.25x0.75SLBB,2L4X3X1/4X3/4SLBB,
2L 4x3x0.3125LLBB,2L4X3X5/16LLBB,
2L 4x3x0.3125SLBB,2L4X3X5/16SLBB,
2L 4x3x0.3125x0.375LLBB,2L4X3X5/16X3/8LLBB,
2L 4x3x0.3125x0.375SLBB,2L4X3X5/16X3/8SLBB,
2L 4x3x0.3125x0.75LLBB,2L4X3X5/16X3/4LLBB,
2L 4x3x0.3125x0.75SLBB,2L4X3X5/16X3/4SLBB,
2L 4x3x0.375LLBB,2L4X3X3/8LLBB,
2L 4x3x0.375SLBB,2L4X3X3/8SLBB,
2L 4x3x0.375x0.375LLBB,2L4X3X3/8X3/8LLBB,
2L 4x3x0.375x0.375SLBB,2L4X3X3/8X3/8SLBB,
2L 4x3x0.375x0.75LLBB,2L4X3X3/8X3/4LLBB,
2L 4x3x0.375x0.75SLBB,2L4X3X3/8X3/4SLBB,
2L 4x3x0.5L LBB,2L4X3X1/2LLBB,
2L 4x3x0.5SLBB,2L4X3X1/2SLBB,
2L 4x3x0.5x0.375LLBB,2L4X3X1/2X3/8LLBB,
2L 4x3x0.5x0.375SLBB,2L4X3X1/2X3/8SLBB,
2L 4x3x0.5x0.75LLBB,2L4X3X1/2X3/4LLBB,
2L 4x3x0.5x0.75SLBB,2L4X3X1/2X3/4SLBB,
2L 4x3x0.625LLBB,2L4X3X5/8LLBB,
2L 4x3x0.625SLBB,2L4X3X5/8SLBB,
2L 4x3x0.625x0.375LLBB,2L4X3X5/8X3/8LLBB,
2L 4x3x0.625x0.375SLBB,2L4X3X5/8X3/8SLBB,
2L 4x3x0.625x0.75LLBB,2L4X3X5/8X3/4LLBB,
2L 4x3x0.625x0.75SLBB,2L4X3X5/8X3/4SLBB,
2L 4x4x0.25,2L4X4X1/4,
2L 4x4x0.25x0.375,2L4X4X1/4X3/8,
2L 4x4x0.25x0.75,2L4X4X1/4X3/4,
2L 4x4x0.3125,2L4X4X5/16,
2L 4x4x0.3125x0.375,2L4X4X5/16X3/8,
2L 4x4x0.3125x0.75,2L4X4X5/16X3/4,
2L 4x4x0.375,2L4X4X3/8,
2L 4x4x0.375x0.375,2L4X4X3/8X3/8,
2L 4x4x0.375x0.75,2L4X4X3/8X3/4,
2L 4x4x0.4375,2L4X4X7/16,
2L 4x4x0.4375x0.375,2L4X4X7/16X3/8,
2L 4x4x0.4375x0.75,2L4X4X7/16X3/4,
2L 4x4x0.5,2L4X4X1/2,
2L 4x4x0.5x0.375,2L4X4X1/2X3/8,
2L 4x4x0.5x0.75,2L4X4X1/2X3/4,
2L 4x4x0.625,2L4X4X5/8,
2L 4x4x0.625x0.375,2L4X4X5/8X3/8,
2L 4x4x0.625x0.75,2L4X4X5/8X3/4,
2L 4x4x0.75,2L4X4X3/4,
2L 4x4x0.75x0.375,2L4X4X3/4X3/8,
2L 4x4x0.75x0.75,2L4X4X3/4X3/4,
2L 5x3.5x0.25LLBB,2L5X3-1/2X1/4LLBB,
2L 5x3.5x0.25SLBB,2L5X3-1/2X1/4SLBB,
2L 5x3.5x0.25x0.375LLBB,2L5X3-1/2X1/4X3/8LLBB,
2L 5x3.5x0.25x0.375SLBB,2L5X3-1/2X1/4X3/8SLBB,
2L 5x3.5x0.25x0.75LLBB,2L5X3-1/2X1/4X3/4LLBB,
2L 5x3.5x0.25x0.75SLBB,2L5X3-1/2X1/4X3/4SLBB,
2L 5x3.5x0.3125LLBB,2L5X3-1/2X5/16LLBB,
2L 5x3.5x0.3125SLBB,2L5X3-1/2X5/16SLBB,
2L 5x3.5x0.3125x0.375LLBB,2L5X3-1/2X5/16X3/8LLBB,
2L 5x3.5x0.3125x0.375SLBB,2L5X3-1/2X5/16X3/8SLBB,
2L 5x3.5x0.3125x0.75LLBB,2L5X3-1/2X5/16X3/4LLBB,
2L 5x3.5x0.3125x0.75SLBB,2L5X3-1/2X5/16X3/4SLBB,
2L 5x3.5x0.375LLBB,2L5X3-1/2X3/8LLBB,
2L 5x3.5x0.375SLBB,2L5X3-1/2X3/8SLBB,
2L 5x3.5x0.375x0.375LLBB,2L5X3-1/2X3/8X3/8LLBB,
2L 5x3.5x0.375x0.375SLBB,2L5X3-1/2X3/8X3/8SLBB,
2L 5x3.5x0.375x0.75LLBB,2L5X3-1/2X3/8X3/4LLBB,
2L 5x3.5x0.375x0.75SLBB,2L5X3-1/2X3/8X3/4SLBB,
2L 5x3.5x0.5L LBB,2L5X3-1/2X1/2LLBB,
2L 5x3.5x0.5SLBB,2L5X3-1/2X1/2SLBB,
2L 5x3.5x0.5x0.375LLBB,2L5X3-1/2X1/2X3/8LLBB,
2L 5x3.5x0.5x0.375SLBB,2L5X3-1/2X1/2X3/8SLBB,
2L 5x3.5x0.5x0.75LLBB,2L5X3-1/2X1/2X3/4LLBB,
2L 5x3.5x0.5x0.75SLBB,2L5X3-1/2X1/2X3/4SLBB,
2L 5x3.5x0.625LLBB,2L5X3-1/2X5/8LLBB,
2L 5x3.5x0.625SLBB,2L5X3-1/2X5/8SLBB,
2L 5x3.5x0.625x0.375LLBB,2L5X3-1/2X5/8X3/8LLBB,
2L 5x3.5x0.625x0.375SLBB,2L5X3-1/2X5/8X3/8SLBB,
2L 5x3.5x0.625x0.75LLBB,2L5X3-1/2X5/8X3/4LLBB,
2L 5x3.5x0.625x0.75SLBB,2L5X3-1/2X5/8X3/4SLBB,
2L 5x3.5x0.75LLBB,2L5X3-1/2X3/4LLBB,
2L 5x3.5x0.75SLBB,2L5X3-1/2X3/4SLBB,
2L 5x3.5x0.75x0.375LLBB,2L5X3-1/2X3/4X3/8LLBB,
2L 5x3.5x0.75x0.375SLBB,2L5X3-1/2X3/4X3/8SLBB,
2L 5x3.5x0.75x0.75LLBB,2L5X3-1/2X3/4X3/4LLBB,
2L 5x3.5x0.75x0.75SLBB,2L5X3-1/2X3/4X3/4SLBB,
2L 5x3x0.25LLBB,2L5X3X1/4LLBB,
2L 5x3x0.25SLBB,2L5X3X1/4SLBB,
2L 5x3x0.25x0.375LLBB,2L5X3X1/4X3/8LLBB,
2L 5x3x0.25x0.375SLBB,2L5X3X1/4X3/8SLBB,
2L 5x3x0.25x0.75LLBB,2L5X3X1/4X3/4LLBB,
2L 5x3x0.25x0.75SLBB,2L5X3X1/4X3/4SLBB,
2L 5x3x0.3125LLBB,2L5X3X5/16LLBB,
2L 5x3x0.3125SLBB,2L5X3X5/16SLBB,
2L 5x3x0.3125x0.375LLBB,2L5X3X5/16X3/8LLBB,
2L 5x3x0.3125x0.375SLBB,2L5X3X5/16X3/8SLBB,
2L 5x3x0.3125x0.75LLBB,2L5X3X5/16X3/4LLBB,
2L 5x3x0.3125x0.75SLBB,2L5X3X5/16X3/4SLBB,
2L 5x3x0.375LLBB,2L5X3X3/8LLBB,
2L 5x3x0.375SLBB,2L5X3X3/8SLBB,
2L 5x3x0.375x0.375LLBB,2L5X3X3/8X3/8LLBB,
2L 5x3x0.375x0.375SLBB,2L5X3X3/8X3/8SLBB,
2L 5x3x0.375x0.75LLBB,2L5X3X3/8X3/4LLBB,
2L 5x3x0.375x0.75SLBB,2L5X3X3/8X3/4SLBB,
2L 5x3x0.4375LLBB,2L5X3X7/16LLBB,
2L 5x3x0.4375SLBB,2L5X3X7/16SLBB,
2L 5x3x0.4375x0.375LLBB,2L5X3X7/16X3/8LLBB,
2L 5x3x0.4375x0.375SLBB,2L5X3X7/16X3/8SLBB,
2L 5x3x0.4375x0.75LLBB,2L5X3X7/16X3/4LLBB,
2L 5x3x0.4375x0.75SLBB,2L5X3X7/16X3/4SLBB,
2L 5x3x0.5L LBB,2L5X3X1/2LLBB,
2L 5x3x0.5SLBB,2L5X3X1/2SLBB,
2L 5x3x0.5x0.375LLBB,2L5X3X1/2X3/8LLBB,
2L 5x3x0.5x0.375SLBB,2L5X3X1/2X3/8SLBB,
2L 5x3x0.5x0.75LLBB,2L5X3X1/2X3/4LLBB,
2L 5x3x0.5x0.75SLBB,2L5X3X1/2X3/4SLBB,
2L 5x5x0.3125,2L5X5X5/16,
2L 5x5x0.3125x0.375,2L5X5X5/16X3/8,
2L 5x5x0.3125x0.75,2L5X5X5/16X3/4,
2L 5x5x0.375,2L5X5X3/8,
2L 5x5x0.375x0.375,2L5X5X3/8X3/8,
2L 5x5x0.375x0.75,2L5X5X3/8X3/4,
2L 5x5x0.4375,2L5X5X7/16,
2L 5x5x0.4375x0.375,2L5X5X7/16X3/8,
2L 5x5x0.4375x0.75,2L5X5X7/16X3/4,
2L 5x5x0.5,2L5X5X1/2,
2L 5x5x0.5x0.375,2L5X5X1/2X3/8,
2L 5x5x0.5x0.75,2L5X5X1/2X3/4,
2L 5x5x0.625,2L5X5X5/8,
2L 5x5x0.625x0.375,2L5X5X5/8X3/8,
2L 5x5x0.625x0.75,2L5X5X5/8X3/4,
2L 5x5x0.75,2L5X5X3/4,
2L 5x5x0.75x0.375,2L5X5X3/4X3/8,
2L 5x5x0.75x0.75,2L5X5X3/4X3/4,
2L 5x5x0.875,2L5X5X7/8,
2L 5x5x0.875x0.375,2L5X5X7/8X3/8,
2L 5x5x0.875x0.75,2L5X5X7/8X3/4,
2L 6x3.5x0.3125LLBB,2L6X3-1/2X5/16LLBB,
2L 6x3.5x0.3125SLBB,2L6X3-1/2X5/16SLBB,
2L 6x3.5x0.3125x0.375LLBB,2L6X3-1/2X5/16X3/8LLBB,
2L 6x3.5x0.3125x0.375SLBB,2L6X3-1/2X5/16X3/8SLBB,
2L 6x3.5x0.3125x0.75LLBB,2L6X3-1/2X5/16X3/4LLBB,
2L 6x3.5x0.3125x0.75SLBB,2L6X3-1/2X5/16X3/4SLBB,
2L 6x3.5x0.375LLBB,2L6X3-1/2X3/8LLBB,
2L 6x3.5x0.375SLBB,2L6X3-1/2X3/8SLBB,
2L 6x3.5x0.375x0.375LLBB,2L6X3-1/2X3/8X3/8LLBB,
2L 6x3.5x0.375x0.375SLBB,2L6X3-1/2X3/8X3/8SLBB,
2L 6x3.5x0.375x0.75LLBB,2L6X3-1/2X3/8X3/4LLBB,
2L 6x3.5x0.375x0.75SLBB,2L6X3-1/2X3/8X3/4SLBB,
2L 6x3.5x0.5L LBB,2L6X3-1/2X1/2LLBB,
2L 6x3.5x0.5SLBB,2L6X3-1/2X1/2SLBB,
2L 6x3.5x0.5x0.375LLBB,2L6X3-1/2X1/2X3/8LLBB,
2L 6x3.5x0.5x0.375SLBB,2L6X3-1/2X1/2X3/8SLBB,
2L 6x3.5x0.5x0.75LLBB,2L6X3-1/2X1/2X3/4LLBB,
2L 6x3.5x0.5x0.75SLBB,2L6X3-1/2X1/2X3/4SLBB,
2L 6x4x0.3125LLBB,2L6X4X5/16LLBB,
2L 6x4x0.3125SLBB,2L6X4X5/16SLBB,
2L 6x4x0.3125x0.375LLBB,2L6X4X5/16X3/8LLBB,
2L 6x4x0.3125x0.375SLBB,2L6X4X5/16X3/8SLBB,
2L 6x4x0.3125x0.75LLBB,2L6X4X5/16X3/4LLBB,
2L 6x4x0.3125x0.75SLBB,2L6X4X5/16X3/4SLBB,
2L 6x4x0.375LLBB,2L6X4X3/8LLBB,
2L 6x4x0.375SLBB,2L6X4X3/8SLBB,
2L 6x4x0.375x0.375LLBB,2L6X4X3/8X3/8LLBB,
2L 6x4x0.375x0.375SLBB,2L6X4X3/8X3/8SLBB,
2L 6x4x0.375x0.75LLBB,2L6X4X3/8X3/4LLBB,
2L 6x4x0.375x0.75SLBB,2L6X4X3/8X3/4SLBB,
2L 6x4x0.4375LLBB,2L6X4X7/16LLBB,
2L 6x4x0.4375SLBB,2L6X4X7/16SLBB,
2L 6x4x0.4375x0.375LLBB,2L6X4X7/16X3/8LLBB,
2L 6x4x0.4375x0.375SLBB,2L6X4X7/16X3/8SLBB,
2L 6x4x0.4375x0.75LLBB,2L6X4X7/16X3/4LLBB,
2L 6x4x0.4375x0.75SLBB,2L6X4X7/16X3/4SLBB,
2L 6x4x0.5625LLBB,2L6X4X9/16LLBB,
2L 6x4x0.5625SLBB,2L6X4X9/16SLBB,
2L 6x4x0.5625x0.375LLBB,2L6X4X9/16X3/8LLBB,
2L 6x4x0.5625x0.375SLBB,2L6X4X9/16X3/8SLBB,
2L 6x4x0.5625x0.75LLBB,2L6X4X9/16X3/4LLBB,
2L 6x4x0.5625x0.75SLBB,2L6X4X9/16X3/4SLBB,
2L 6x4x0.5L LBB,2L6X4X1/2LLBB,
2L 6x4x0.5SLBB,2L6X4X1/2SLBB,
2L 6x4x0.5x0.375LLBB,2L6X4X1/2X3/8LLBB,
2L 6x4x0.5x0.375SLBB,2L6X4X1/2X3/8SLBB,
2L 6x4x0.5x0.75LLBB,2L6X4X1/2X3/4LLBB,
2L 6x4x0.5x0.75SLBB,2L6X4X1/2X3/4SLBB,
2L 6x4x0.625LLBB,2L6X4X5/8LLBB,
2L 6x4x0.625SLBB,2L6X4X5/8SLBB,
2L 6x4x0.625x0.375LLBB,2L6X4X5/8X3/8LLBB,
2L 6x4x0.625x0.375SLBB,2L6X4X5/8X3/8SLBB,
2L 6x4x0.625x0.75LLBB,2L6X4X5/8X3/4LLBB,
2L 6x4x0.625x0.75SLBB,2L6X4X5/8X3/4SLBB,
2L 6x4x0.75LLBB,2L6X4X3/4LLBB,
2L 6x4x0.75SLBB,2L6X4X3/4SLBB,
2L 6x4x0.75x0.375LLBB,2L6X4X3/4X3/8LLBB,
2L 6x4x0.75x0.375SLBB,2L6X4X3/4X3/8SLBB,
2L 6x4x0.75x0.75LLBB,2L6X4X3/4X3/4LLBB,
2L 6x4x0.75x0.75SLBB,2L6X4X3/4X3/4SLBB,
2L 6x4x0.875LLBB,2L6X4X7/8LLBB,
2L 6x4x0.875SLBB,2L6X4X7/8SLBB,
2L 6x4x0.875x0.375LLBB,2L6X4X7/8X3/8LLBB,
2L 6x4x0.875x0.375SLBB,2L6X4X7/8X3/8SLBB,
2L 6x4x0.875x0.75LLBB,2L6X4X7/8X3/4LLBB,
2L 6x4x0.875x0.75SLBB,2L6X4X7/8X3/4SLBB,
2L 6x6x0.3125,2L6X6X5/16,
2L 6x6x0.3125x0.375,2L6X6X5/16X3/8,
2L 6x6x0.3125x0.75,2L6X6X5/16X3/4,
2L 6x6x0.375,2L6X6X3/8,
2L 6x6x0.375x0.375,2L6X6X3/8X3/8,
2L 6x6x0.375x0.75,2L6X6X3/8X3/4,
2L 6x6x0.4375,2L6X6X7/16,
2L 6x6x0.4375x0.375,2L6X6X7/16X3/8,
2L 6x6x0.4375x0.75,2L6X6X7/16X3/4,
2L 6x6x0.5,2L6X6X1/2,
2L 6x6x0.5625,2L6X6X9/16,
2L 6x6x0.5625x0.375,2L6X6X9/16X3/8,
2L 6x6x0.5625x0.75,2L6X6X9/16X3/4,
2L 6x6x0.5x0.375,2L6X6X1/2X3/8,
2L 6x6x0.5x0.75,2L6X6X1/2X3/4,
2L 6x6x0.625,2L6X6X5/8,
2L 6x6x0.625x0.375,2L6X6X5/8X3/8,
2L 6x6x0.625x0.75,2L6X6X5/8X3/4,
2L 6x6x0.75,2L6X6X3/4,
2L 6x6x0.75x0.375,2L6X6X3/4X3/8,
2L 6x6x0.75x0.75,2L6X6X3/4X3/4,
2L 6x6x0.875,2L6X6X7/8,
2L 6x6x0.875x0.375,2L6X6X7/8X3/8,
2L 6x6x0.875x0.75,2L6X6X7/8X3/4,
2L 6x6x1,2L6X6X1,
2L 6x6x1x0.375,2L6X6X1X3/8,
2L 6x6x1x0.75,2L6X6X1X3/4,
2L 7x4x0.375LLBB,2L7X4X3/8LLBB,
2L 7x4x0.375SLBB,2L7X4X3/8SLBB,
2L 7x4x0.375x0.375LLBB,2L7X4X3/8X3/8LLBB,
2L 7x4x0.375x0.375SLBB,2L7X4X3/8X3/8SLBB,
2L 7x4x0.375x0.75LLBB,2L7X4X3/8X3/4LLBB,
2L 7x4x0.375x0.75SLBB,2L7X4X3/8X3/4SLBB,
2L 7x4x0.4375LLBB,2L7X4X7/16LLBB,
2L 7x4x0.4375SLBB,2L7X4X7/16SLBB,
2L 7x4x0.4375x0.375LLBB,2L7X4X7/16X3/8LLBB,
2L 7x4x0.4375x0.375SLBB,2L7X4X7/16X3/8SLBB,
2L 7x4x0.4375x0.75LLBB,2L7X4X7/16X3/4LLBB,
2L 7x4x0.4375x0.75SLBB,2L7X4X7/16X3/4SLBB,
2L 7x4x0.5L LBB,2L7X4X1/2LLBB,
2L 7x4x0.5SLBB,2L7X4X1/2SLBB,
2L 7x4x0.5x0.375LLBB,2L7X4X1/2X3/8LLBB,
2L 7x4x0.5x0.375SLBB,2L7X4X1/2X3/8SLBB,
2L 7x4x0.5x0.75LLBB,2L7X4X1/2X3/4LLBB,
2L 7x4x0.5x0.75SLBB,2L7X4X1/2X3/4SLBB,
2L 7x4x0.625LLBB,2L7X4X5/8LLBB,
2L 7x4x0.625SLBB,2L7X4X5/8SLBB,
2L 7x4x0.625x0.375LLBB,2L7X4X5/8X3/8LLBB,
2L 7x4x0.625x0.375SLBB,2L7X4X5/8X3/8SLBB,
2L 7x4x0.625x0.75LLBB,2L7X4X5/8X3/4LLBB,
2L 7x4x0.625x0.75SLBB,2L7X4X5/8X3/4SLBB,
2L 7x4x0.75LLBB,2L7X4X3/4LLBB,
2L 7x4x0.75SLBB,2L7X4X3/4SLBB,
2L 7x4x0.75x0.375LLBB,2L7X4X3/4X3/8LLBB,
2L 7x4x0.75x0.375SLBB,2L7X4X3/4X3/8SLBB,
2L 7x4x0.75x0.75LLBB,2L7X4X3/4X3/4LLBB,
2L 7x4x0.75x0.75SLBB,2L7X4X3/4X3/4SLBB,
2L 8x4x0.4375LLBB,2L8X4X7/16LLBB,
2L 8x4x0.4375SLBB,2L8X4X7/16SLBB,
2L 8x4x0.4375x0.375LLBB,2L8X4X7/16X3/8LLBB,
2L 8x4x0.4375x0.375SLBB,2L8X4X7/16X3/8SLBB,
2L 8x4x0.4375x0.75LLBB,2L8X4X7/16X3/4LLBB,
2L 8x4x0.4375x0.75SLBB,2L8X4X7/16X3/4SLBB,
2L 8x4x0.5625LLBB,2L8X4X9/16LLBB,
2L 8x4x0.5625SLBB,2L8X4X9/16SLBB,
2L 8x4x0.5625x0.375LLBB,2L8X4X9/16X3/8LLBB,
2L 8x4x0.5625x0.375SLBB,2L8X4X9/16X3/8SLBB,
2L 8x4x0.5625x0.75LLBB,2L8X4X9/16X3/4LLBB,
2L 8x4x0.5625x0.75SLBB,2L8X4X9/16X3/4SLBB,
2L 8x4x0.5L LBB,2L8X4X1/2LLBB,
2L 8x4x0.5SLBB,2L8X4X1/2SLBB,
2L 8x4x0.5x0.375LLBB,2L8X4X1/2X3/8LLBB,
2L 8x4x0.5x0.375SLBB,2L8X4X1/2X3/8SLBB,
2L 8x4x0.5x0.75LLBB,2L8X4X1/2X3/4LLBB,
2L 8x4x0.5x0.75SLBB,2L8X4X1/2X3/4SLBB,
2L 8x4x0.625LLBB,2L8X4X5/8LLBB,
2L 8x4x0.625SLBB,2L8X4X5/8SLBB,
2L 8x4x0.625x0.375LLBB,2L8X4X5/8X3/8LLBB,
2L 8x4x0.625x0.375SLBB,2L8X4X5/8X3/8SLBB,
2L 8x4x0.625x0.75LLBB,2L8X4X5/8X3/4LLBB,
2L 8x4x0.625x0.75SLBB,2L8X4X5/8X3/4SLBB,
2L 8x4x0.75LLBB,2L8X4X3/4LLBB,
2L 8x4x0.75SLBB,2L8X4X3/4SLBB,
2L 8x4x0.75x0.375LLBB,2L8X4X3/4X3/8LLBB,
2L 8x4x0.75x0.375SLBB,2L8X4X3/4X3/8SLBB,
2L 8x4x0.75x0.75LLBB,2L8X4X3/4X3/4LLBB,
2L 8x4x0.75x0.75SLBB,2L8X4X3/4X3/4SLBB,
2L 8x4x0.875LLBB,2L8X4X7/8LLBB,
2L 8x4x0.875SLBB,2L8X4X7/8SLBB,
2L 8x4x0.875x0.375LLBB,2L8X4X7/8X3/8LLBB,
2L 8x4x0.875x0.375SLBB,2L8X4X7/8X3/8SLBB,
2L 8x4x0.875x0.75LLBB,2L8X4X7/8X3/4LLBB,
2L 8x4x0.875x0.75SLBB,2L8X4X7/8X3/4SLBB,
2L 8x4x1LLBB,2L8X4X1LLBB,
2L 8x4x1SLBB,2L8X4X1SLBB,
2L 8x4x1x0.375LLBB,2L8X4X1X3/8LLBB,
2L 8x4x1x0.375SLBB,2L8X4X1X3/8SLBB,
2L 8x4x1x0.75LLBB,2L8X4X1X3/4LLBB,
2L 8x4x1x0.75SLBB,2L8X4X1X3/4SLBB,
2L 8x6x0.4375LLBB,2L8X6X7/16LLBB,
2L 8x6x0.4375SLBB,2L8X6X7/16SLBB,
2L 8x6x0.4375x0.375LLBB,2L8X6X7/16X3/8LLBB,
2L 8x6x0.4375x0.375SLBB,2L8X6X7/16X3/8SLBB,
2L 8x6x0.4375x0.75LLBB,2L8X6X7/16X3/4LLBB,
2L 8x6x0.4375x0.75SLBB,2L8X6X7/16X3/4SLBB,
2L 8x6x0.5625LLBB,2L8X6X9/16LLBB,
2L 8x6x0.5625SLBB,2L8X6X9/16SLBB,
2L 8x6x0.5625x0.375LLBB,2L8X6X9/16X3/8LLBB,
2L 8x6x0.5625x0.375SLBB,2L8X6X9/16X3/8SLBB,
2L 8x6x0.5625x0.75LLBB,2L8X6X9/16X3/4LLBB,
2L 8x6x0.5625x0.75SLBB,2L8X6X9/16X3/4SLBB,
2L 8x6x0.5L LBB,2L8X6X1/2LLBB,
2L 8x6x0.5SLBB,2L8X6X1/2SLBB,
2L 8x6x0.5x0.375LLBB,2L8X6X1/2X3/8LLBB,
2L 8x6x0.5x0.375SLBB,2L8X6X1/2X3/8SLBB,
2L 8x6x0.5x0.75LLBB,2L8X6X1/2X3/4LLBB,
2L 8x6x0.5x0.75SLBB,2L8X6X1/2X3/4SLBB,
2L 8x6x0.625LLBB,2L8X6X5/8LLBB,
2L 8x6x0.625SLBB,2L8X6X5/8SLBB,
2L 8x6x0.625x0.375LLBB,2L8X6X5/8X3/8LLBB,
2L 8x6x0.625x0.375SLBB,2L8X6X5/8X3/8SLBB,
2L 8x6x0.625x0.75LLBB,2L8X6X5/8X3/4LLBB,
2L 8x6x0.625x0.75SLBB,2L8X6X5/8X3/4SLBB,
2L 8x6x0.75LLBB,2L8X6X3/4LLBB,
2L 8x6x0.75SLBB,2L8X6X3/4SLBB,
2L 8x6x0.75x0.375LLBB,2L8X6X3/4X3/8LLBB,
2L 8x6x0.75x0.375SLBB,2L8X6X3/4X3/8SLBB,
2L 8x6x0.75x0.75LLBB,2L8X6X3/4X3/4LLBB,
2L 8x6x0.75x0.75SLBB,2L8X6X3/4X3/4SLBB,
2L 8x6x0.875LLBB,2L8X6X7/8LLBB,
2L 8x6x0.875SLBB,2L8X6X7/8SLBB,
2L 8x6x0.875x0.375LLBB,2L8X6X7/8X3/8LLBB,
2L 8x6x0.875x0.375SLBB,2L8X6X7/8X3/8SLBB,
2L 8x6x0.875x0.75LLBB,2L8X6X7/8X3/4LLBB,
2L 8x6x0.875x0.75SLBB,2L8X6X7/8X3/4SLBB,
2L 8x6x1LLBB,2L8X6X1LLBB,
2L 8x6x1SLBB,2L8X6X1SLBB,
2L 8x6x1x0.375LLBB,2L8X6X1X3/8LLBB,
2L 8x6x1x0.375SLBB,2L8X6X1X3/8SLBB,
2L 8x6x1x0.75LLBB,2L8X6X1X3/4LLBB,
2L 8x6x1x0.75SLBB,2L8X6X1X3/4SLBB,
2L 8x8x0.5,2L8X8X1/2,
2L 8x8x0.5625,2L8X8X9/16,
2L 8x8x0.5625x0.375,2L8X8X9/16X3/8,
2L 8x8x0.5625x0.75,2L8X8X9/16X3/4,
2L 8x8x0.5x0.375,2L8X8X1/2X3/8,
2L 8x8x0.5x0.75,2L8X8X1/2X3/4,
2L 8x8x0.625,2L8X8X5/8,
2L 8x8x0.625x0.375,2L8X8X5/8X3/8,
2L 8x8x0.625x0.75,2L8X8X5/8X3/4,
2L 8x8x0.75,2L8X8X3/4,
2L 8x8x0.75x0.375,2L8X8X3/4X3/8,
2L 8x8x0.75x0.75,2L8X8X3/4X3/4,
2L 8x8x0.875,2L8X8X7/8,
2L 8x8x0.875x0.375,2L8X8X7/8X3/8,
2L 8x8x0.875x0.75,2L8X8X7/8X3/4,
2L 8x8x1,2L8X8X1,
2L 8x8x1.125,2L8X8X1-1/8,
2L 8x8x1.125x0.375,2L8X8X1-1/8X3/8,
2L 8x8x1.125x0.75,2L8X8X1-1/8X3/4,
2L 8x8x1x0.375,2L8X8X1X3/8,
2L 8x8x1x0.75,2L8X8X1X3/4,
C 10x15.3,C10X15.3,C10X15.3
C 10x20,C10X20,C10X20
C 10x25,C10X25,C10X25
C 10x30,C10X30,C10X30
C 12x20.7,C12X20.7,C12X20.7
C 12x25,C12X25,C12X25
C 12x30,C12X30,C12X30
C 15x33.9,C15X33.9,C15X33.9
C 15x40,C15X40,C15X40
C 15x50,C15X50,C15X50
C 3x3.5,C3X3.5,
C 3x4.1,C3X4.1,C3X4.1
C 3x5,C3X5,C3X5
C 3x6,C3X6,C3X6
C 4x4.5,C4X4.5,
C 4x5.4,C4X5.4,C4X5.4
C 4x7.2,C4X7.2,C4X7.2
C 5x6.7,C5X6.7,C5X6.7
C 5x9,C5X9,C5X9
C 6x10.5,C6X10.5,C6X10.5
C 6x13,C6X13,C6X13
C 6x8.2,C6X8.2,C6X8.2
C 7x12.2,C7X12.2,C7X12.2
C 7x14.7,C7X14.7,
C 7x9.8,C7X9.8,C7X9.8
C 8x11.5,C8X11.5,C8X11.5
C 8x13.7,C8X13.7,
C 8x18.7,C8X18.7,
C 9x13.4,C9X13.4,C9X13.4
C 9x15,C9X15,C9X15
C 9x20,C9X20,C9X20
HP 10x42,HP10X42,HP10X42
HP 10x57,HP10X57,HP10X57
HP 12x53,HP12X53,HP12X53
HP 12x63,HP12X63,HP12X63
HP 12x74,HP12X74,HP12X74
HP 12x84,HP12X84,HP12X84
HP 14x102,HP14X102,HP14X102
HP 14x117,HP14X117,HP14X117
HP 14x73,HP14X73,HP14X73
HP 14x89,HP14X89,HP14X89
HP 8x36,HP8X36,HP8X36
HSS 16x12x0.3125,HSS16X12X5/16,
HSS 16x12x0.375,HSS16X12X3/8,
HSS 1.66x0.140,HSS1.660X.140,
HSS 1.9x0.120,HSS1.900X.120,
HSS 1.9x0.145,HSS1.900X.145,
HSS 1.9x0.188,HSS1.900X.188,
HSS 10.75x0.250,HSS10.750X.250,
HSS 10.75x0.375,HSS10.750X.375,
HSS 10.75x0.500,HSS10.750X.500,
HSS 10x0.188,HSS10X.188,
HSS 10x0.250,HSS10X.250,
HSS 10x0.312,HSS10X.312,
HSS 10x0.375,HSS10X.375,
HSS 10x0.500,HSS10X.500,
HSS 10x0.625,HSS10X.625,
HSS 10x10x0.25,HSS10X10X1/4,
HSS 10x10x0.3125,HSS10X10X5/16,
HSS 10x10x0.375,HSS10X10X3/8,
HSS 10x10x0.625,HSS10X10X5/8,
HSS 10x10x0.5,HSS10X10X1/2,
HSS 10x10x0.1875,HSS10X10X3/16,
HSS 10x2x0.25,HSS10X2X1/4,
HSS 10x2x0.3125,HSS10X2X5/16,
HSS 10x2x0.375,HSS10X2X3/8,
HSS 10x2x0.125,HSS10X2X1/8,
HSS 10x2x0.1875,HSS10X2X3/16,
HSS 10x3.5x0.25,HSS10X3-1/2X1/4,
HSS 10x3.5x0.3125,HSS10X3-1/2X5/16,
HSS 10x3.5x0.375,HSS10X3-1/2X3/8,
HSS 10x3.5x0.5,HSS10X3-1/2X1/2,
HSS 10x3.5x0.125,HSS10X3-1/2X1/8,
HSS 10x3.5x0.1875,HSS10X3-1/2X3/16,
HSS 10x3x0.25,HSS10X3X1/4,
HSS 10x3x0.3125,HSS10X3X5/16,
HSS 10x3x0.375,HSS10X3X3/8,
HSS 10x3x0.125,HSS10X3X1/8,
HSS 10x3x0.1875,HSS10X3X3/16,
HSS 10x4x0.25,HSS10X4X1/4,
HSS 10x4x0.3125,HSS10X4X5/16,
HSS 10x4x0.375,HSS10X4X3/8,
HSS 10x4x0.625,HSS10X4X5/8,
HSS 10x4x0.5,HSS10X4X1/2,
HSS 10x4x0.125,HSS10X4X1/8,
HSS 10x4x0.1875,HSS10X4X3/16,
HSS 10x5x0.25,HSS10X5X1/4,
HSS 10x5x0.3125,HSS10X5X5/16,
HSS 10x5x0.375,HSS10X5X3/8,
HSS 10x5x0.1875,HSS10X5X3/16,
HSS 10x6x0.25,HSS10X6X1/4,
HSS 10x6x0.3125,HSS10X6X5/16,
HSS 10x6x0.375,HSS10X6X3/8,
HSS 10x6x0.625,HSS10X6X5/8,
HSS 10x6x0.5,HSS10X6X1/2,
HSS 10x6x0.1875,HSS10X6X3/16,
HSS 10x8x0.25,HSS10X8X1/4,
HSS 10x8x0.3125,HSS10X8X5/16,
HSS 10x8x0.375,HSS10X8X3/8,
HSS 10x8x0.625,HSS10X8X5/8,
HSS 10x8x0.5,HSS10X8X1/2,
HSS 10x8x0.1875,HSS10X8X3/16,
HSS 12.75x0.250,HSS12.750X.250,
HSS 12.75x0.375,HSS12.750X.375,
HSS 12.75x0.500,HSS12.750X.500,
HSS 12x10x0.25,HSS12X10X1/4,
HSS 12x10x0.3125,HSS12X10X5/16,
HSS 12x10x0.375,HSS12X10X3/8,
HSS 12x10x0.5,HSS12X10X1/2,
HSS 12x12x0.25,HSS12X12X1/4,
HSS 12x12x0.3125,HSS12X12X5/16,
HSS 12x12x0.375,HSS12X12X3/8,
HSS 12x12x0.625,HSS12X12X5/8,
HSS 12x12x0.5,HSS12X12X1/2,
HSS 12x12x0.1875,HSS12X12X3/16,
HSS 12x2x0.25,HSS12X2X1/4,
HSS 12x2x0.3125,HSS12X2X5/16,
HSS 12x2x0.1875,HSS12X2X3/16,
HSS 12x3.5x0.3125,HSS12X3-1/2X5/16,
HSS 12x3.5x0.375,HSS12X3-1/2X3/8,
HSS 12x3x0.25,HSS12X3X1/4,
HSS 12x3x0.3125,HSS12X3X5/16,
HSS 12x3x0.1875,HSS12X3X3/16,
HSS 12x4x0.25,HSS12X4X1/4,
HSS 12x4x0.3125,HSS12X4X5/16,
HSS 12x4x0.375,HSS12X4X3/8,
HSS 12x4x0.625,HSS12X4X5/8,
HSS 12x4x0.5,HSS12X4X1/2,
HSS 12x4x0.1875,HSS12X4X3/16,
HSS 12x6x0.25,HSS12X6X1/4,
HSS 12x6x0.3125,HSS12X6X5/16,
HSS 12x6x0.375,HSS12X6X3/8,
HSS 12x6x0.625,HSS12X6X5/8,
HSS 12x6x0.5,HSS12X6X1/2,
HSS 12x6x0.1875,HSS12X6X3/16,
HSS 12x8x0.25,HSS12X8X1/4,
HSS 12x8x0.3125,HSS12X8X5/16,
HSS 12x8x0.375,HSS12X8X3/8,
HSS 12x8x0.625,HSS12X8X5/8,
HSS 12x8x0.5,HSS12X8X1/2,
HSS 12x8x0.1875,HSS12X8X3/16,
HSS 14x0.250,HSS14X.250,
HSS 14x0.312,HSS14X.312,
HSS 14x0.375,HSS14X.375,
HSS 14x0.500,HSS14X.500,
HSS 14x0.625,HSS14X.625,
HSS 14x10x0.25,HSS14X10X1/4,
HSS 14x10x0.3125,HSS14X10X5/16,
HSS 14x10x0.375,HSS14X10X3/8,
HSS 14x10x0.625,HSS14X10X5/8,
HSS 14x10x0.5,HSS14X10X1/2,
HSS 14x14x0.3125,HSS14X14X5/16,
HSS 14x14x0.375,HSS14X14X3/8,
HSS 14x14x0.625,HSS14X14X5/8,
HSS 14x14x0.5,HSS14X14X1/2,
HSS 14x4x0.25,HSS14X4X1/4,
HSS 14x4x0.3125,HSS14X4X5/16,
HSS 14x4x0.375,HSS14X4X3/8,
HSS 14x4x0.625,HSS14X4X5/8,
HSS 14x4x0.5,HSS14X4X1/2,
HSS 14x4x0.1875,HSS14X4X3/16,
HSS 14x6x0.25,HSS14X6X1/4,
HSS 14x6x0.3125,HSS14X6X5/16,
HSS 14x6x0.375,HSS14X6X3/8,
HSS 14x6x0.625,HSS14X6X5/8,
HSS 14x6x0.5,HSS14X6X1/2,
HSS 14x6x0.1875,HSS14X6X3/16,
HSS 16x0.250,HSS16X.250,
HSS 16x0.312,HSS16X.312,
HSS 16x0.375,HSS16X.375,
HSS 16x0.438,HSS16X.438,
HSS 16x0.500,HSS16X.500,
HSS 16x0.625,HSS16X.625,
HSS 16x12x0.5,HSS16X12X1/2,
HSS 16x12x0.625,HSS16X12X5/8,
HSS 16x16x0.3125,HSS16X16X5/16,
HSS 16x16x0.375,HSS16X16X3/8,
HSS 16x16x0.5,HSS16X16X1/2,
HSS 16x16x0.625,HSS16X16X5/8,
HSS 16x4x0.25,HSS16X4X1/4,
HSS 16x4x0.3125,HSS16X4X5/16,
HSS 16x4x0.375,HSS16X4X3/8,
HSS 16x4x0.625,HSS16X4X5/8,
HSS 16x4x0.5,HSS16X4X1/2,
HSS 16x4x0.1875,HSS16X4X3/16,
HSS 16x8x0.25,HSS16X8X1/4,
HSS 16x8x0.3125,HSS16X8X5/16,
HSS 16x8x0.375,HSS16X8X3/8,
HSS 16x8x0.625,HSS16X8X5/8,
HSS 16x8x0.5,HSS16X8X1/2,
HSS 18x0.375,HSS18X.375,
HSS 18x0.500,HSS18X.500,
HSS 18x6x0.25,HSS18X6X1/4,
HSS 18x6x0.3125,HSS18X6X5/16,
HSS 18x6x0.375,HSS18X6X3/8,
HSS 18x6x0.5,HSS18X6X1/2,
HSS 18x6x0.625,HSS18X6X5/8,
HSS 2.375x0.125,HSS2.375X.125,
HSS 2.375x0.154,HSS2.375X.154,
HSS 2.375x0.188,HSS2.375X.188,
HSS 2.375x0.218,HSS2.375X.218,
HSS 2.375x0.250,HSS2.375X.250,
HSS 2.5x0.125,HSS2.500X.125,
HSS 2.5x0.188,HSS2.500X.188,
HSS 2.5x0.250,HSS2.500X.250,
HSS 2.875x0.125,HSS2.875X.125,
HSS 2.875x0.188,HSS2.875X.188,
HSS 2.875x0.203,HSS2.875X.203,
HSS 2.875x0.250,HSS2.875X.250,
HSS 2.25x2.25x0.25,HSS2-1/4X2-1/4X1/4,
HSS 2.25x2.25x0.125,HSS2-1/4X2-1/4X1/8,
HSS 2.25x2.25x0.1875,HSS2-1/4X2-1/4X3/16,
HSS 2.25x2x0.125,HSS2-1/4X2X1/8,
HSS 2.25x2x0.1875,HSS2-1/4X2X3/16,
HSS 20x0.375,HSS20X.375,
HSS 20x0.500,HSS20X.500,
HSS 20x12x0.3125,HSS20X12X5/16,
HSS 20x12x0.375,HSS20X12X3/8,
HSS 20x12x0.5,HSS20X12X1/2,
HSS 20x12x0.625,HSS20X12X5/8,
HSS 20x4x0.25,HSS20X4X1/4,
HSS 20x4x0.3125,HSS20X4X5/16,
HSS 20x4x0.375,HSS20X4X3/8,
HSS 20x4x0.5,HSS20X4X1/2,
HSS 20x8x0.3125,HSS20X8X5/16,
HSS 20x8x0.375,HSS20X8X3/8,
HSS 20x8x0.5,HSS20X8X1/2,
HSS 20x8x0.625,HSS20X8X5/8,
HSS 2.5x1.5x0.25,HSS2-1/2X1-1/2X1/4,
HSS 2.5x1.5x0.125,HSS2-1/2X1-1/2X1/8,
HSS 2.5x1.5x0.1875,HSS2-1/2X1-1/2X3/16,
HSS 2.5x1x0.125,HSS2-1/2X1X1/8,
HSS 2.5x1x0.1875,HSS2-1/2X1X3/16,
HSS 2.5x2.5x0.25,HSS2-1/2X2-1/2X1/4,
HSS 2.5x2.5x0.3125,HSS2-1/2X2-1/2X5/16,
HSS 2.5x2.5x0.125,HSS2-1/2X2-1/2X1/8,
HSS 2.5x2.5x0.1875,HSS2-1/2X2-1/2X3/16,
HSS 2.5x2x0.25,HSS2-1/2X2X1/4,
HSS 2.5x2x0.125,HSS2-1/2X2X1/8,
HSS 2.5x2x0.1875,HSS2-1/2X2X3/16,
HSS 2x1.5x0.1875,HSS2X1-1/2X3/16,
HSS 2x1x0.125,HSS2X1X1/8,
HSS 2x1x0.1875,HSS2X1X3/16,
HSS 2x2x0.25,HSS2X2X1/4,
HSS 2x2x0.125,HSS2X2X1/8,
HSS 2x2x0.1875,HSS2X2X3/16,
HSS 3.5x0.125,HSS3.500X.125,
HSS 3.5x0.188,HSS3.500X.188,
HSS 3.5x0.203,HSS3.500X.203,
HSS 3.5x0.216,HSS3.500X.216,
HSS 3.5x0.250,HSS3.500X.250,
HSS 3.5x0.300,HSS3.500X.300,
HSS 3.5x0.313,HSS3.500X.313,
HSS 3.5x1.5x0.25,HSS3-1/2X1-1/2X1/4,
HSS 3.5x1.5x0.125,HSS3-1/2X1-1/2X1/8,
HSS 3.5x1.5x0.1875,HSS3-1/2X1-1/2X3/16,
HSS 3.5x2x0.25,HSS3-1/2X2X1/4,
HSS 3.5x2x0.125,HSS3-1/2X2X1/8,
HSS 3.5x2x0.1875,HSS3-1/2X2X3/16,
HSS 3.5x3.5x0.25,HSS3-1/2X3-1/2X1/4,
HSS 3.5x3.5x0.3125,HSS3-1/2X3-1/2X5/16,
HSS 3.5x3.5x0.375,HSS3-1/2X3-1/2X3/8,
HSS 3.5x3.5x0.125,HSS3-1/2X3-1/2X1/8,
HSS 3.5x3.5x0.1875,HSS3-1/2X3-1/2X3/16,
HSS 3x0.125,HSS3X.125,
HSS 3x0.134,HSS3X.134,
HSS 3x0.152,HSS3X.152,
HSS 3x0.188,HSS3X.188,
HSS 3x0.203,HSS3X.203,
HSS 3x0.216,HSS3X.216,
HSS 3x0.250,HSS3X.250,
HSS 3x1.5x0.25,HSS3X1-1/2X1/4,
HSS 3x1.5x0.125,HSS3X1-1/2X1/8,
HSS 3x1.5x0.1875,HSS3X1-1/2X3/16,
HSS 3x1x0.125,HSS3X1X1/8,
HSS 3x1x0.1875,HSS3X1X3/16,
HSS 3x2.5x0.25,HSS3X2-1/2X1/4,
HSS 3x2.5x0.3125,HSS3X2-1/2X5/16,
HSS 3x2.5x0.125,HSS3X2-1/2X1/8,
HSS 3x2.5x0.1875,HSS3X2-1/2X3/16,
HSS 3x2x0.25,HSS3X2X1/4,
HSS 3x2x0.3125,HSS3X2X5/16,
HSS 3x2x0.125,HSS3X2X1/8,
HSS 3x2x0.1875,HSS3X2X3/16,
HSS 3x3x0.25,HSS3X3X1/4,
HSS 3x3x0.3125,HSS3X3X5/16,
HSS 3x3x0.375,HSS3X3X3/8,
HSS 3x3x0.125,HSS3X3X1/8,
HSS 3x3x0.1875,HSS3X3X3/16,
HSS 4.5x0.125,HSS4.500X.125,
HSS 4.5x0.188,HSS4.500X.188,
HSS 4.5x0.237,HSS4.500X.237,
HSS 4.5x0.337,HSS4.500X.337,
HSS 4.5x0.375,HSS4.500X.375,
HSS 4.5x4.5x0.25,HSS4-1/2X4-1/2X1/4,
HSS 4.5x4.5x0.3125,HSS4-1/2X4-1/2X5/16,
HSS 4.5x4.5x0.375,HSS4-1/2X4-1/2X3/8,
HSS 4.5x4.5x0.5,HSS4-1/2X4-1/2X1/2,
HSS 4.5x4.5x0.125,HSS4-1/2X4-1/2X1/8,
HSS 4.5x4.5x0.1875,HSS4-1/2X4-1/2X3/16,
HSS 4x0.125,HSS4X.125,
HSS 4x0.188,HSS4X.188,
HSS 4x0.220,HSS4X.220,
HSS 4x0.226,HSS4X.226,
HSS 4x0.237,HSS4X.237,
HSS 4x0.250,HSS4X.250,
HSS 4x0.313,HSS4X.313,
HSS 4x2.5x0.25,HSS4X2-1/2X1/4,
HSS 4x2.5x0.3125,HSS4X2-1/2X5/16,
HSS 4x2.5x0.375,HSS4X2-1/2X3/8,
HSS 4x2.5x0.125,HSS4X2-1/2X1/8,
HSS 4x2.5x0.1875,HSS4X2-1/2X3/16,
HSS 4x2x0.25,HSS4X2X1/4,
HSS 4x2x0.3125,HSS4X2X5/16,
HSS 4x2x0.375,HSS4X2X3/8,
HSS 4x2x0.125,HSS4X2X1/8,
HSS 4x2x0.1875,HSS4X2X3/16,
HSS 4x3x0.25,HSS4X3X1/4,
HSS 4x3x0.3125,HSS4X3X5/16,
HSS 4x3x0.375,HSS4X3X3/8,
HSS 4x3x0.125,HSS4X3X1/8,
HSS 4x3x0.1875,HSS4X3X3/16,
HSS 4x4x0.25,HSS4X4X1/4,
HSS 4x4x0.3125,HSS4X4X5/16,
HSS 4x4x0.375,HSS4X4X3/8,
HSS 4x4x0.5,HSS4X4X1/2,
HSS 4x4x0.125,HSS4X4X1/8,
HSS 4x4x0.1875,HSS4X4X3/16,
HSS 5.5x0.258,HSS5.500X.258,
HSS 5.5x0.375,HSS5.500X.375,
HSS 5.5x0.500,HSS5.500X.500,
HSS 5.563x0.134,HSS5.563X.134,
HSS 5.563x0.188,HSS5.563X.188,
HSS 5.563x0.258,HSS5.563X.258,
HSS 5.563x0.375,HSS5.563X.375,
HSS 5.563x0.500,HSS5.563X.500,
HSS 5.5x5.5x0.25,HSS5-1/2X5-1/2X1/4,
HSS 5.5x5.5x0.3125,HSS5-1/2X5-1/2X5/16,
HSS 5.5x5.5x0.375,HSS5-1/2X5-1/2X3/8,
HSS 5.5x5.5x0.125,HSS5-1/2X5-1/2X1/8,
HSS 5.5x5.5x0.1875,HSS5-1/2X5-1/2X3/16,
HSS 5x0.125,HSS5X.125,
HSS 5x0.188,HSS5X.188,
HSS 5x0.250,HSS5X.250,
HSS 5x0.258,HSS5X.258,
HSS 5x0.312,HSS5X.312,
HSS 5x0.375,HSS5X.375,
HSS 5x0.500,HSS5X.500,
HSS 5x2.5x0.25,HSS5X2-1/2X1/4,
HSS 5x2.5x0.125,HSS5X2-1/2X1/8,
HSS 5x2.5x0.1875,HSS5X2-1/2X3/16,
HSS 5x2x0.25,HSS5X2X1/4,
HSS 5x2x0.3125,HSS5X2X5/16,
HSS 5x2x0.375,HSS5X2X3/8,
HSS 5x2x0.125,HSS5X2X1/8,
HSS 5x2x0.1875,HSS5X2X3/16,
HSS 5x3x0.25,HSS5X3X1/4,
HSS 5x3x0.3125,HSS5X3X5/16,
HSS 5x3x0.375,HSS5X3X3/8,
HSS 5x3x0.5,HSS5X3X1/2,
HSS 5x3x0.125,HSS5X3X1/8,
HSS 5x3x0.1875,HSS5X3X3/16,
HSS 5x4x0.25,HSS5X4X1/4,
HSS 5x4x0.3125,HSS5X4X5/16,
HSS 5x4x0.375,HSS5X4X3/8,
HSS 5x4x0.5,HSS5X4X1/2,
HSS 5x4x0.125,HSS5X4X1/8,
HSS 5x4x0.1875,HSS5X4X3/16,
HSS 5x5x0.25,HSS5X5X1/4,
HSS 5x5x0.3125,HSS5X5X5/16,
HSS 5x5x0.375,HSS5X5X3/8,
HSS 5x5x0.5,HSS5X5X1/2,
HSS 5x5x0.125,HSS5X5X1/8,
HSS 5x5x0.1875,HSS5X5X3/16,
HSS 6.625x0.125,HSS6.625X.125,
HSS 6.625x0.188,HSS6.625X.188,
HSS 6.625x0.250,HSS6.625X.250,
HSS 6.625x0.280,HSS6.625X.280,
HSS 6.625x0.312,HSS6.625X.312,
HSS 6.625x0.375,HSS6.625X.375,
HSS 6.625x0.432,HSS6.625X.432,
HSS 6.625x0.500,HSS6.625X.500,
HSS 6.875x0.188,HSS6.875X.188,
HSS 6.875x0.250,HSS6.875X.250,
HSS 6.875x0.312,HSS6.875X.312,
HSS 6.875x0.375,HSS6.875X.375,
HSS 6.875x0.500,HSS6.875X.500,
HSS 6x0.125,HSS6X.125,
HSS 6x0.188,HSS6X.188,
HSS 6x0.250,HSS6X.250,
HSS 6x0.280,HSS6X.280,
HSS 6x0.312,HSS6X.312,
HSS 6x0.375,HSS6X.375,
HSS 6x0.500,HSS6X.500,
HSS 6x2x0.25,HSS6X2X1/4,
HSS 6x2x0.3125,HSS6X2X5/16,
HSS 6x2x0.375,HSS6X2X3/8,
HSS 6x2x0.125,HSS6X2X1/8,
HSS 6x2x0.1875,HSS6X2X3/16,
HSS 6x3x0.25,HSS6X3X1/4,
HSS 6x3x0.3125,HSS6X3X5/16,
HSS 6x3x0.375,HSS6X3X3/8,
HSS 6x3x0.5,HSS6X3X1/2,
HSS 6x3x0.125,HSS6X3X1/8,
HSS 6x3x0.1875,HSS6X3X3/16,
HSS 6x4x0.25,HSS6X4X1/4,
HSS 6x4x0.3125,HSS6X4X5/16,
HSS 6x4x0.375,HSS6X4X3/8,
HSS 6x4x0.5,HSS6X4X1/2,
HSS 6x4x0.125,HSS6X4X1/8,
HSS 6x4x0.1875,HSS6X4X3/16,
HSS 6x5x0.25,HSS6X5X1/4,
HSS 6x5x0.3125,HSS6X5X5/16,
HSS 6x5x0.375,HSS6X5X3/8,
HSS 6x5x0.5,HSS6X5X1/2,
HSS 6x5x0.125,HSS6X5X1/8,
HSS 6x5x0.1875,HSS6X5X3/16,
HSS 6x6x0.25,HSS6X6X1/4,
HSS 6x6x0.3125,HSS6X6X5/16,
HSS 6x6x0.375,HSS6X6X3/8,
HSS 6x6x0.625,HSS6X6X5/8,
HSS 6x6x0.5,HSS6X6X1/2,
HSS 6x6x0.125,HSS6X6X1/8,
HSS 6x6x0.1875,HSS6X6X3/16,
HSS 7.5x0.188,HSS7.500X.188,
HSS 7.5x0.250,HSS7.500X.250,
HSS 7.5x0.312,HSS7.500X.312,
HSS 7.5x0.375,HSS7.500X.375,
HSS 7.5x0.500,HSS7.500X.500,
HSS 7.625x0.328,HSS7.625X.328,
HSS 7.625x0.375,HSS7.625X.375,
HSS 7x0.125,HSS7X.125,
HSS 7x0.188,HSS7X.188,
HSS 7x0.250,HSS7X.250,
HSS 7x0.312,HSS7X.312,
HSS 7x0.375,HSS7X.375,
HSS 7x0.500,HSS7X.500,
HSS 7x2x0.25,HSS7X2X1/4,
HSS 7x2x0.5,HSS7X2X1/2,
HSS 7x2x0.1875,HSS7X2X3/16,
HSS 7x3x0.25,HSS7X3X1/4,
HSS 7x3x0.3125,HSS7X3X5/16,
HSS 7x3x0.375,HSS7X3X3/8,
HSS 7x3x0.5,HSS7X3X1/2,
HSS 7x3x0.125,HSS7X3X1/8,
HSS 7x3x0.1875,HSS7X3X3/16,
HSS 7x4x0.25,HSS7X4X1/4,
HSS 7x4x0.3125,HSS7X4X5/16,
HSS 7x4x0.375,HSS7X4X3/8,
HSS 7x4x0.5,HSS7X4X1/2,
HSS 7x4x0.125,HSS7X4X1/8,
HSS 7x4x0.1875,HSS7X4X3/16,
HSS 7x5x0.25,HSS7X5X1/4,
HSS 7x5x0.3125,HSS7X5X5/16,
HSS 7x5x0.375,HSS7X5X3/8,
HSS 7x5x0.5,HSS7X5X1/2,
HSS 7x5x0.125,HSS7X5X1/8,
HSS 7x5x0.1875,HSS7X5X3/16,
HSS 7x7x0.25,HSS7X7X1/4,
HSS 7x7x0.3125,HSS7X7X5/16,
HSS 7x7x0.375,HSS7X7X3/8,
HSS 7x7x0.625,HSS7X7X5/8,
HSS 7x7x0.5,HSS7X7X1/2,
HSS 7x7x0.125,HSS7X7X1/8,
HSS 7x7x0.1875,HSS7X7X3/16,
HSS 8.625x0.188,HSS8.625X.188,
HSS 8.625x0.250,HSS8.625X.250,
HSS 8.625x0.312,HSS8.625X.312,
HSS 8.625x0.375,HSS8.625X.375,
HSS 8.625x0.500,HSS8.625X.500,
HSS 8.625x0.625,HSS8.625X.625,
HSS 8x2x0.25,HSS8X2X1/4,
HSS 8x2x0.3125,HSS8X2X5/16,
HSS 8x2x0.375,HSS8X2X3/8,
HSS 8x2x0.125,HSS8X2X1/8,
HSS 8x2x0.1875,HSS8X2X3/16,
HSS 8x3x0.25,HSS8X3X1/4,
HSS 8x3x0.3125,HSS8X3X5/16,
HSS 8x3x0.375,HSS8X3X3/8,
HSS 8x3x0.5,HSS8X3X1/2,
HSS 8x3x0.125,HSS8X3X1/8,
HSS 8x3x0.1875,HSS8X3X3/16,
HSS 8x4x0.25,HSS8X4X1/4,
HSS 8x4x0.3125,HSS8X4X5/16,
HSS 8x4x0.375,HSS8X4X3/8,
HSS 8x4x0.625,HSS8X4X5/8,
HSS 8x4x0.5,HSS8X4X1/2,
HSS 8x4x0.125,HSS8X4X1/8,
HSS 8x4x0.1875,HSS8X4X3/16,
HSS 8x6x0.25,HSS8X6X1/4,
HSS 8x6x0.3125,HSS8X6X5/16,
HSS 8x6x0.375,HSS8X6X3/8,
HSS 8x6x0.625,HSS8X6X5/8,
HSS 8x6x0.5,HSS8X6X1/2,
HSS 8x6x0.1875,HSS8X6X3/16,
HSS 8x8x0.25,HSS8X8X1/4,
HSS 8x8x0.3125,HSS8X8X5/16,
HSS 8x8x0.375,HSS8X8X3/8,
HSS 8x8x0.625,HSS8X8X5/8,
HSS 8x8x0.5,HSS8X8X1/2,
HSS 8x8x0.125,HSS8X8X1/8,
HSS 8x8x0.1875,HSS8X8X3/16,
HSS 9.625x0.188,HSS9.625X.188,
HSS 9.625x0.250,HSS9.625X.250,
HSS 9.625x0.312,HSS9.625X.312,
HSS 9.625x0.375,HSS9.625X.375,
HSS 9.625x0.500,HSS9.625X.500,
HSS 9x3x0.25,HSS9X3X1/4,
HSS 9x3x0.3125,HSS9X3X5/16,
HSS 9x3x0.375,HSS9X3X3/8,
HSS 9x3x0.5,HSS9X3X1/2,
HSS 9x3x0.1875,HSS9X3X3/16,
HSS 9x5x0.25,HSS9X5X1/4,
HSS 9x5x0.3125,HSS9X5X5/16,
HSS 9x5x0.375,HSS9X5X3/8,
HSS 9x5x0.625,HSS9X5X5/8,
HSS 9x5x0.5,HSS9X5X1/2,
HSS 9x5x0.1875,HSS9X5X3/16,
HSS 9x7x0.25,HSS9X7X1/4,
HSS 9x7x0.3125,HSS9X7X5/16,
HSS 9x7x0.375,HSS9X7X3/8,
HSS 9x7x0.625,HSS9X7X5/8,
HSS 9x7x0.5,HSS9X7X1/2,
HSS 9x7x0.1875,HSS9X7X3/16,
HSS 9x9x0.25,HSS9X9X1/4,
HSS 9x9x0.3125,HSS9X9X5/16,
HSS 9x9x0.375,HSS9X9X3/8,
HSS 9x9x0.625,HSS9X9X5/8,
HSS 9x9x0.5,HSS9X9X1/2,
HSS 9x9x0.125,HSS9X9X1/8,
HSS 9x9x0.1875,HSS9X9X3/16,
L 2.5x1.5x0.1875,L2-1/2X1-1/2X3/16,
L 2.5x1.5x0.25,L2-1/2X1-1/2X1/4,
L 2.5x2.5x0.1875,L2-1/2X2-1/2X3/16,DL2.5X2.5X3/16
L 2.5x2.5x0.25,L2-1/2X2-1/2X1/4,DL2.5X2.5X1/4
L 2.5x2.5x0.3125,L2-1/2X2-1/2X5/16,DL2.5X2.5X5/16
L 2.5x2.5x0.375,L2-1/2X2-1/2X3/8,DL2.5X2.5X3/8
L 2.5x2.5x0.5,L2-1/2X2-1/2X1/2,DL2.5X2.5X1/2
L 2.5x2x0.1875,L2-1/2X2X3/16,DL2.5X2X3/16
L 2.5x2x0.25,L2-1/2X2X1/4,DL2.5X2X1/4
L 2.5x2x0.3125,L2-1/2X2X5/16,DL2.5X2X5/16
L 2.5x2x0.375,L2-1/2X2X3/8,DL2.5X2X3/8
L 2x2x0.125,L2X2X1/8,DL2X2X1/8
L 2x2x0.1875,L2X2X3/16,DL2X2X3/16
L 2x2x0.25,L2X2X1/4,DL2X2X1/4
L 2x2x0.3125,L2X2X5/16,DL2X2X5/16
L 2x2x0.375,L2X2X3/8,DL2X2X3/8
L 3.5x2.5x0.25,L3-1/2X2-1/2X1/4,DL3.5X2.5X1/4
L 3.5x2.5x0.3125,L3-1/2X2-1/2X5/16,
L 3.5x2.5x0.375,L3-1/2X2-1/2X3/8,DL3.5X2.5X3/8
L 3.5x2.5x0.5,L3-1/2X2-1/2X1/2,DL3.5X2.5X1/2
L 3.5x3.5x0.25,L3-1/2X3-1/2X1/4,DL3.5X3.5X1/4
L 3.5x3.5x0.3125,L3-1/2X3-1/2X5/16,DL3.5X3.5X5/16
L 3.5x3.5x0.375,L3-1/2X3-1/2X3/8,DL3.5X3.5X3/8
L 3.5x3.5x0.4375,L3-1/2X3-1/2X7/16,DL3.5X3.5X7/16
L 3.5x3.5x0.5,L3-1/2X3-1/2X1/2,DL3.5X3.5X1/2
L 3.5x3x0.25,L3-1/2X3X1/4,DL3.5X3X1/4
L 3.5x3x0.3125,L3-1/2X3X5/16,DL3.5X3X5/16
L 3.5x3x0.375,L3-1/2X3X3/8,DL3.5X3X3/8
L 3.5x3x0.4375,L3-1/2X3X7/16,
L 3.5x3x0.5,L3-1/2X3X1/2,DL3.5X3X1/2
L 3x2.5x0.1875,L3X2-1/2X3/16,DL3X2.5X3/16
L 3x2.5x0.25,L3X2-1/2X1/4,DL3X2.5X1/4
L 3x2.5x0.3125,L3X2-1/2X5/16,DL3X2.5X5/16
L 3x2.5x0.375,L3X2-1/2X3/8,DL3X2.5X3/8
L 3x2.5x0.4375,L3X2-1/2X7/16,
L 3x2.5x0.5,L3X2-1/2X1/2,DL3X2.5X1/2
L 3x2x0.1875,L3X2X3/16,DL3X2X3/16
L 3x2x0.25,L3X2X1/4,DL3X2X1/4
L 3x2x0.3125,L3X2X5/16,DL3X2X5/16
L 3x2x0.375,L3X2X3/8,DL3X2X3/8
L 3x2x0.5,L3X2X1/2,DL3X2X1/2
L 3x3x0.1875,L3X3X3/16,DL3X3X3/16
L 3x3x0.25,L3X3X1/4,DL3X3X1/4
L 3x3x0.3125,L3X3X5/16,DL3X3X5/16
L 3x3x0.375,L3X3X3/8,DL3X3X3/8
L 3x3x0.4375,L3X3X7/16,DL3X3X7/16
L 3x3x0.5,L3X3X1/2,DL3X3X1/2
L 4x3.5x0.25,L4X3-1/2X1/4,DL4X3.5X1/4
L 4x3.5x0.3125,L4X3-1/2X5/16,DL4X3.5X5/16
L 4x3.5x0.375,L4X3-1/2X3/8,DL4X3.5X3/8
L 4x3.5x0.5,L4X3-1/2X1/2,DL4X3.5X1/2
L 4x3x0.25,L4X3X1/4,DL4X3X1/4
L 4x3x0.3125,L4X3X5/16,DL4X3X5/16
L 4x3x0.375,L4X3X3/8,DL4X3X3/8
L 4x3x0.5,L4X3X1/2,DL4X3X1/2
L 4x3x0.625,L4X3X5/8,DL4X3X5/8
L 4x4x0.25,L4X4X1/4,DL4X4X1/4
L 4x4x0.3125,L4X4X5/16,DL4X4X5/16
L 4x4x0.375,L4X4X3/8,DL4X4X3/8
L 4x4x0.4375,L4X4X7/16,DL4X4X7/16
L 4x4x0.5,L4X4X1/2,DL4X4X1/2
L 4x4x0.625,L4X4X5/8,DL4X4X5/8
L 4x4x0.75,L4X4X3/4,DL4X4X3/4
L 5x3.5x0.25,L5X3-1/2X1/4,DL5X3.5X1/4
L 5x3.5x0.3125,L5X3-1/2X5/16,DL5X3.5X5/16
L 5x3.5x0.375,L5X3-1/2X3/8,DL5X3.5X3/8
L 5x3.5x0.5,L5X3-1/2X1/2,DL5X3.5X1/2
L 5x3.5x0.625,L5X3-1/2X5/8,DL5X3.5X5/8
L 5x3.5x0.75,L5X3-1/2X3/4,DL5X3.5X3/4
L 5x3x0.25,L5X3X1/4,DL5X3X1/4
L 5x3x0.3125,L5X3X5/16,DL5X3X5/16
L 5x3x0.375,L5X3X3/8,DL5X3X3/8
L 5x3x0.4375,L5X3X7/16,DL5X3X7/16
L 5x3x0.5,L5X3X1/2,DL5X3X1/2
L 5x5x0.3125,L5X5X5/16,DL5X5X5/16
L 5x5x0.375,L5X5X3/8,DL5X5X3/8
L 5x5x0.4375,L5X5X7/16,DL5X5X7/16
L 5x5x0.5,L5X5X1/2,DL5X5X1/2
L 5x5x0.625,L5X5X5/8,DL5X5X5/8
L 5x5x0.75,L5X5X3/4,DL5X5X3/4
L 5x5x0.875,L5X5X7/8,DL5X5X7/8
L 6x3.5x0.3125,L6X3-1/2X5/16,DL6X3.5X5/16
L 6x3.5x0.375,L6X3-1/2X3/8,DL6X3.5X3/8
L 6x3.5x0.5,L6X3-1/2X1/2,DL6X3.5X1/2
L 6x4x0.3125,L6X4X5/16,DL6X4X5/16
L 6x4x0.375,L6X4X3/8,DL6X4X3/8
L 6x4x0.4375,L6X4X7/16,DL6X4X7/16
L 6x4x0.5,L6X4X1/2,DL6X4X1/2
L 6x4x0.5625,L6X4X9/16,DL6X4X9/16
L 6x4x0.625,L6X4X5/8,DL6X4X5/8
L 6x4x0.75,L6X4X3/4,DL6X4X3/4
L 6x4x0.875,L6X4X7/8,DL6X4X7/8
L 6x6x0.3125,L6X6X5/16,DL6X6X5/16
L 6x6x0.375,L6X6X3/8,DL6X6X3/8
L 6x6x0.4375,L6X6X7/16,DL6X6X7/16
L 6x6x0.5,L6X6X1/2,DL6X6X1/2
L 6x6x0.5625,L6X6X9/16,DL6X6X9/16
L 6x6x0.625,L6X6X5/8,DL6X6X5/8
L 6x6x0.75,L6X6X3/4,DL6X6X3/4
L 6x6x0.875,L6X6X7/8,DL6X6X7/8
L 6x6x1,L6X6X1,DL6X6X1
L 7x4x0.375,L7X4X3/8,DL7X4X3/8
L 7x4x0.4375,L7X4X7/16,DL7X4X7/16
L 7x4x0.5,L7X4X1/2,DL7X4X1/2
L 7x4x0.625,L7X4X5/8,DL7X4X5/8
L 7x4x0.75,L7X4X3/4,DL7X4X3/4
L 8x4x0.4375,L8X4X7/16,DL8X4X7/16
L 8x4x0.5,L8X4X1/2,DL8X4X1/2
L 8x4x0.5625,L8X4X9/16,DL8X4X9/16
L 8x4x0.625,L8X4X5/8,DL8X4X5/8
L 8x4x0.75,L8X4X3/4,DL8X4X3/4
L 8x4x0.875,L8X4X7/8,DL8X4X7/8
L 8x4x1,L8X4X1,DL8X4X1
L 8x6x0.4375,L8X6X7/16,DL8X6X7/16
L 8x6x0.5,L8X6X1/2,DL8X6X1/2
L 8x6x0.5625,L8X6X9/16,DL8X6X9/16
L 8x6x0.625,L8X6X5/8,DL8X6X5/8
L 8x6x0.75,L8X6X3/4,DL8X6X3/4
L 8x6x0.875,L8X6X7/8,DL8X6X7/8
L 8x6x1,L8X6X1,DL8X6X1
L 8x8x0.5,L8X8X1/2,DL8X8X1/2
L 8x8x0.5625,L8X8X9/16,DL8X8X9/16
L 8x8x0.625,L8X8X5/8,DL8X8X5/8
L 8x8x0.75,L8X8X3/4,DL8X8X3/4
L 8x8x0.875,L8X8X7/8,DL8X8X7/8
L 8x8x1,L8X8X1,DL8X8X1
L 8x8x1.125,L8X8X1-1/8,DL8X8X1-1/8
M 10x7.5,M10X7.5,
M 10x8,M10X8,M10X8
M 10x9,M10X9,M10X9
M 12.5x11.6,M12.5X11.6,
M 12.5x12.4,M12.5X12.4,
M 12x10,M12X10,
M 12x10.8,M12X10.8,M12X10.8
M 12x11.8,M12X11.8,M12X11.8
M 3x2.9,M3X2.9,
M 4x3.2,M4X3.2,
M 4x3.45,M4X3.45,
M 4x4.08,M4X4.08,
M 4x6,M4X6,
M 5x18.9,M5X18.9,M5X18.9
M 6x3.7,M6X3.7,
M 6x4.4,M6X4.4,
M 8x6.2,M8X6.2,
M 8x6.5,M8X6.5,
MC 10x22,MC10X22,MC10X22
MC 10x25,MC10X25,MC10X25
MC 10x28.5,MC10X28.5,MC10X28.5
MC 10x33.6,MC10X33.6,MC10X33.6
MC 10x41.1,MC10X41.1,MC10X41.1
MC 10x6.5,MC10X6.5,
MC 10x8.4,MC10X8.4,
MC 12x10.6,MC12X10.6,MC12X10.6
MC 12x31,MC12X31,MC12X31
MC 12x35,MC12X35,MC12X35
MC 12x40,MC12X40,MC12X40
MC 12x45,MC12X45,MC12X45
MC 12x50,MC12X50,MC12X50
MC 13x31.8,MC13X31.8,MC13X31.8
MC 13x35,MC13X35,MC13X35
MC 13x40,MC13X40,MC13X40
MC 13x50,MC13X50,MC13X50
MC 18x42.7,MC18X42.7,MC18X42.7
MC 18x45.8,MC18X45.8,MC18X45.8
MC 18x51.9,MC18X51.9,MC18X51.9
MC 18x58,MC18X58,MC18X58
MC 3x7.1,MC3x7.1,
MC 4x13.8,MC4x13.8,
MC 6x12,MC6X12,MC6X12
MC 6x15.1,MC6X15.1,MC6X15.1
MC 6x15.3,MC6X15.3,
MC 6x16.3,MC6X16.3,MC6X16.3
MC 6x18,MC6X18,MC6X18
MC 6x6.5,MC6x6.5,
MC 6x7,MC6x7,
MC 7x19.1,MC7X19.1,MC7X19.1
MC 7x22.7,MC7X22.7,MC7X22.7
MC 8x18.7,MC8X18.7,MC8X18.7
MC 8x20,MC8X20,MC8X20
MC 8x21.4,MC8X21.4,MC8X21.4
MC 8x22.8,MC8X22.8,MC8X22.8
MC 8x8.5,MC8X8.5,MC8X8.5
MC 9x23.9,MC9X23.9,MC9X23.9
MC 9x25.4,MC9X25.4,MC9X25.4
MT 2.5x9.45,MT2.5X9.45,
MT 2x3,MT2X3,
MT 3x1.85,MT3X1.85,
MT 3x2.2,MT3X2.2,
MT 4x3.1,MT4X3.1,
MT 4x3.25,MT4X3.25,
MT 5x3.75,MT5X3.75,
MT 5x4,MT5X4,MT5X4
MT 5x4.5,MT5X4.5,MT5X4.5
MT 6.25x5.8,MT6.25X5.8,
MT 6.25x6.2,MT6.25X6.2,
MT 6x5,MT6X5,
MT 6x5.4,MT6X5.4,MT6X5.4
MT 6x5.9,MT6X5.9,MT6X5.9
Pipe 0.5STD,Pipe1/2STD,
Pipe 0.5XS,Pipe1/2XS,
Pipe 0.75STD,Pipe3/4STD,
Pipe 0.75XS,Pipe3/4XS,
Pipe 1.25STD,Pipe1-1/4STD,
Pipe 1.25XS,Pipe1-1/4XS,
Pipe 1.5STD,Pipe1-1/2STD,
Pipe 1.5XS,Pipe1-1/2XS,
Pipe 10STD,Pipe10STD,
Pipe 10XS,Pipe10XS,
Pipe 12STD,Pipe12STD,
Pipe 12XS,Pipe12XS,
Pipe 1STD,Pipe1STD,
Pipe 1XS,Pipe1XS,
Pipe 2.5STD,Pipe2-1/2STD,
Pipe 2.5XS,Pipe2-1/2XS,
Pipe 2.5XXS,Pipe2-1/2XXS,
Pipe 2STD ,Pipe2STD ,
Pipe 2XS,Pipe2XS,
Pipe 2XXS,Pipe2XXS,
Pipe 3.5STD ,Pipe3-1/2STD ,
Pipe 3.5XS,Pipe3-1/2XS,
Pipe 3STD,Pipe3STD,
Pipe 3XS,Pipe3XS,
Pipe 3XXS,Pipe3XXS,
Pipe 4STD,Pipe4STD,
Pipe 4XS,Pipe4XS,
Pipe 4XXS,Pipe4XXS,
Pipe 5STD,Pipe5STD,
Pipe 5XS,Pipe5XS,
Pipe 5XXS,Pipe5XXS,
Pipe 6STD,Pipe6STD,
Pipe 6XS,Pipe6XS,
Pipe 6XXS,Pipe6XXS,
Pipe 8STD,Pipe8STD,
Pipe 8XS,Pipe8XS,
Pipe 8XXS,Pipe8XXS,
S 10x25.4,S10X25.4,S10X25.4
S 10x35,S10X35,S10X35
S 12x31.8,S12X31.8,S12X31.8
S 12x35,S12X35,S12X35
S 12x40.8,S12X40.8,S12X40.8
S 12x50,S12X50,S12X50
S 15x42.9,S15X42.9,S15X42.9
S 15x50,S15X50,S15X50
S 18x54.7,S18X54.7,S18X54.7
S 18x70,S18X70,S18X70
S 20x66,S20X66,S20X66
S 20x75,S20X75,S20X75
S 20x86,S20X86,S20X86
S 20x96,S20X96,S20X96
S 24x100,S24X100,S24X100
S 24x106,S24X106,S24X106
S 24x121,S24X121,S24X121
S 24x80,S24X80,S24X80
S 24x90,S24X90,S24X90
S 3x5.7,S3X5.7,S3X5.7
S 3x7.5,S3X7.5,S3X7.5
S 4x7.7,S4X7.7,S4X7.7
S 4x9.5,S4X9.5,S4X9.5
S 5x10,S5X10,S5X10
S 6x12.5,S6X12.5,S6X12.5
S 6x17.2,S6X17.2,S6X17.2
S 8x18.4,S8X18.4,S8X18.4
S 8x23,S8X23,S8X23
ST 1.5x2.85,ST1.5X2.85,
ST 1.5x3.75,ST1.5X3.75,
ST 10x33,ST10X33,ST10X33
ST 10x37.5,ST10X37.5,ST10X37.5
ST 10x43,ST10X43,ST10X43
ST 10x48,ST10X48,ST10X48
ST 12x40,ST12X40,ST12X40
ST 12x45,ST12X45,ST12X45
ST 12x50,ST12X50,ST12X50
ST 12x53,ST12X53,ST12X53
ST 12x60.5,ST12X60.5,ST12X60.5
ST 2.5x5,ST2.5X5,ST2.5X5
ST 2x3.85,ST2X3.85,
ST 2x4.75,ST2X4.75,
ST 3x6.25,ST3X6.25,
ST 3x8.6,ST3X8.6,ST3X8.6
ST 4x11.5,ST4X11.5,ST4X11.5
ST 4x9.2,ST4X9.2,ST4X9.2
ST 5x12.7,ST5X12.7,ST5X12.7
ST 5x17.5,ST5X17.5,ST5X17.5
ST 6x15.9,ST6X15.9,ST6X15.9
ST 6x17.5,ST6X17.5,ST6X17.5
ST 6x20.4,ST6X20.4,ST6X20.4
ST 6x25,ST6X25,ST6X25
ST 7.5x21.45,ST7.5X21.45,
ST 7.5x25,ST7.5X25,ST7-1/2X25
ST 9x27.35,ST9X27.35,
ST 9x35,ST9X35,ST9X35
W 10x100,W10X100,W10X100
W 10x112,W10X112,W10X112
W 10x12,W10X12,W10X12
W 10x15,W10X15,W10X15
W 10x17,W10X17,W10X17
W 10x19,W10X19,W10X19
W 10x22,W10X22,W10X22
W 10x26,W10X26,W10X26
W 10x30,W10X30,W10X30
W 10x33,W10X33,W10X33
W 10x39,W10X39,W10X39
W 10x45,W10X45,W10X45
W 10x49,W10X49,W10X49
W 10x54,W10X54,W10X54
W 10x60,W10X60,W10X60
W 10x68,W10X68,W10X68
W 10x77,W10X77,W10X77
W 10x88,W10X88,W10X88
W 12x106,W12X106,W12X106
W 12x120,W12X120,W12X120
W 12x136,W12X136,W12X136
W 12x14,W12X14,W12X14
W 12x152,W12X152,W12X152
W 12x16,W12X16,W12X16
W 12x170,W12X170,W12X170
W 12x19,W12X19,W12X19
W 12x190,W12X190,W12X190
W 12x210,W12X210,W12X210
W 12x22,W12X22,W12X22
W 12x230,W12X230,W12X230
W 12x252,W12X252,W12X252
W 12x26,W12X26,W12X26
W 12x279,W12X279,W12X279
W 12x30,W12X30,W12X30
W 12x305,W12X305,W12X305
W 12x336,W12X336,W12X336
W 12x35,W12X35,W12X35
W 12x40,W12X40,W12X40
W 12x45,W12X45,W12X45
W 12x50,W12X50,W12X50
W 12x53,W12X53,W12X53
W 12x58,W12X58,W12X58
W 12x65,W12X65,W12X65
W 12x72,W12X72,W12X72
W 12x79,W12X79,W12X79
W 12x87,W12X87,W12X87
W 12x96,W12X96,W12X96
W 14x109,W14X109,W14X109
W 14x120,W14X120,W14X120
W 14x132,W14X132,W14X132
W 14x145,W14X145,W14X145
W 14x159,W14X159,W14X159
W 14x176,W14X176,W14X176
W 14x193,W14X193,W14X193
W 14x211,W14X211,W14X211
W 14x22,W14X22,W14X22
W 14x233,W14X233,W14X233
W 14x257,W14X257,W14X257
W 14x26,W14X26,W14X26
W 14x283,W14X283,W14X283
W 14x30,W14X30,W14X30
W 14x311,W14X311,W14X311
W 14x34,W14X34,W14X34
W 14x342,W14X342,W14X342
W 14x370,W14X370,W14X370
W 14x38,W14X38,W14X38
W 14x398,W14X398,W14X398
W 14x426,W14X426,W14X426
W 14x43,W14X43,W14X43
W 14x455,W14X455,W14X455
W 14x48,W14X48,W14X48
W 14x500,W14X500,W14X500
W 14x53,W14X53,W14X53
W 14x550,W14X550,W14X550
W 14x605,W14X605,W14X605
W 14x61,W14X61,W14X61
W 14x665,W14X665,W14X665
W 14x68,W14X68,W14X68
W 14x730,W14X730,W14X730
W 14x74,W14X74,W14X74
W 14x82,W14X82,W14X82
W 14x90,W14X90,W14X90
W 14x99,W14X99,W14X99
W 16x100,W16X100,W16X100
W 16x26,W16X26,W16X26
W 16x31,W16X31,W16X31
W 16x36,W16X36,W16X36
W 16x40,W16X40,W16X40
W 16x45,W16X45,W16X45
W 16x50,W16X50,W16X50
W 16x57,W16X57,W16X57
W 16x67,W16X67,W16X67
W 16x77,W16X77,W16X77
W 16x89,W16X89,W16X89
W 18x106,W18X106,W18X106
W 18x119,W18X119,W18X119
W 18x130,W18X130,W18X130
W 18x143,W18X143,W18X143
W 18x158,W18X158,W18X158
W 18x175,W18X175,W18X175
W 18x192,W18X192,W18X192
W 18x211,W18X211,W18X211
W 18x234,W18X234,W18X234
W 18x258,W18X258,W18X258
W 18x283,W18X283,W18X283
W 18x311,W18X311,W18X311
W 18x35,W18X35,W18X35
W 18x40,W18X40,W18X40
W 18x46,W18X46,W18X46
W 18x50,W18X50,W18X50
W 18x55,W18X55,W18X55
W 18x60,W18X60,W18X60
W 18x65,W18X65,W18X65
W 18x71,W18X71,W18X71
W 18x76,W18X76,W18X76
W 18x86,W18X86,W18X86
W 18x97,W18X97,W18X97
W 21x101,W21X101,W21X101
W 21x111,W21X111,W21X111
W 21x122,W21X122,W21X122
W 21x132,W21X132,W21X132
W 21x147,W21X147,W21X147
W 21x166,W21X166,W21X166
W 21x182,W21X182,W21X182
W 21x201,W21X201,W21X201
W 21x44,W21X44,W21X44
W 21x48,W21X48,
W 21x50,W21X50,W21X50
W 21x55,W21X55,
W 21x57,W21X57,W21X57
W 21x62,W21X62,W21X62
W 21x68,W21X68,W21X68
W 21x73,W21X73,W21X73
W 21x83,W21X83,W21X83
W 21x93,W21X93,W21X93
W 24x103,W24X103,W24X103
W 24x104,W24X104,W24X104
W 24x117,W24X117,W24X117
W 24x131,W24X131,W24X131
W 24x146,W24X146,W24X146
W 24x162,W24X162,W24X162
W 24x176,W24X176,W24X176
W 24x192,W24X192,W24X192
W 24x207,W24X207,W24X207
W 24x229,W24X229,W24X229
W 24x250,W24X250,W24X250
W 24x279,W24X279,W24X279
W 24x306,W24X306,
W 24x335,W24X335,W24X335
W 24x370,W24X370,
W 24x55,W24X55,W24X55
W 24x62,W24X62,W24X62
W 24x68,W24X68,W24X68
W 24x76,W24X76,W24X76
W 24x84,W24X84,W24X84
W 24x94,W24X94,W24X94
W 27x102,W27X102,W27X102
W 27x114,W27X114,W27X114
W 27x129,W27X129,W27X129
W 27x146,W27X146,W27X146
W 27x161,W27X161,W27X161
W 27x178,W27X178,W27X178
W 27x194,W27X194,W27X194
W 27x217,W27X217,W27X217
W 27x235,W27X235,W27X235
W 27x258,W27X258,W27X258
W 27x281,W27X281,
W 27x307,W27X307,W27X307
W 27x336,W27X336,
W 27x368,W27X368,W27X368
W 27x539,W27X539,W27X539
W 27x84,W27X84,W27X84
W 27x94,W27X94,W27X94
W 30x108,W30X108,W30X108
W 30x116,W30X116,W30X116
W 30x124,W30X124,W30X124
W 30x132,W30X132,W30X132
W 30x148,W30X148,W30X148
W 30x173,W30X173,W30X173
W 30x191,W30X191,W30X191
W 30x211,W30X211,W30X211
W 30x235,W30X235,W30X235
W 30x261,W30X261,W30X261
W 30x292,W30X292,W30X292
W 30x326,W30X326,W30X326
W 30x357,W30X357,
W 30x391,W30X391,W30X391
W 30x90,W30X90,W30X90
W 30x99,W30X99,W30X99
W 33x118,W33X118,W33X118
W 33x130,W33X130,W33X130
W 33x141,W33X141,W33X141
W 33x152,W33X152,W33X152
W 33x169,W33X169,W33X169
W 33x201,W33X201,W33X201
W 33x221,W33X221,W33X221
W 33x241,W33X241,W33X241
W 33x263,W33X263,W33X263
W 33x291,W33X291,W33X291
W 33x318,W33X318,W33X318
W 33x354,W33X354,W33X354
W 33x387,W33X387,
W 36x135,W36X135,W36X135
W 36x150,W36X150,W36X150
W 36x160,W36X160,W36X160
W 36x170,W36X170,W36X170
W 36x182,W36X182,W36X182
W 36x194,W36X194,W36X194
W 36x210,W36X210,W36X210
W 36x231,W36X231,
W 36x232,W36X232,W36X232
W 36x247,W36X247,
W 36x256,W36X256,W36X256
W 36x262,W36X262,
W 36x282,W36X282,
W 36x302,W36X302,
W 36x330,W36X330,
W 36x361,W36X361,
W 36x395,W36X395,
W 36x441,W36X441,
W 36x487,W36X487,
W 36x529,W36X529,
W 36x652,W36X652,
W 36x800,W36X800,
W 40x149,W40X149,W40X149
W 40x167,W40X167,W40X167
W 40x183,W40X183,W40X183
W 40x199,W40X199,W40X199
W 40x211,W40X211,W40X211
W 40x215,W40X215,W40X215
W 40x235,W40X235,W40X235
W 40x249,W40X249,W40X249
W 40x264,W40X264,W40X264
W 40x277,W40X277,W40X277
W 40x278,W40X278,W40X278
W 40x294,W40X294,
W 40x297,W40X297,W40X297
W 40x324,W40X324,
W 40x327,W40X327,
W 40x331,W40X331,W40X331
W 40x362,W40X362,
W 40x372,W40X372,W40X372
W 40x392,W40X392,W40X392
W 40x397,W40X397,
W 40x431,W40X431,W40X431
W 40x503,W40X503,W40X503
W 40x593,W40X593,W40X593
W 44x230,W44X230,W44X230
W 44x262,W44X262,W44X262
W 44x290,W44X290,W44X290
W 44x335,W44X335,W44X335
W 4x13,W4X13,W4X13
W 5x16,W5X16,W5X16
W 5x19,W5X19,W5X19
W 6x12,W6X12,W6X12
W 6x15,W6X15,W6X15
W 6x16,W6X16,W6X16
W 6x20,W6X20,W6X20
W 6x25,W6X25,W6X25
W 6x8.5,W6X8.5,
W 6x9,W6X9,W6X9
W 8x10,W8X10,W8X10
W 8x13,W8X13,W8X13
W 8x15,W8X15,W8X15
W 8x18,W8X18,W8X18
W 8x21,W8X21,W8X21
W 8x24,W8X24,W8X24
W 8x28,W8X28,W8X28
W 8x31,W8X31,W8X31
W 8x35,W8X35,W8X35
W 8x40,W8X40,W8X40
W 8x48,W8X48,W8X48
W 8x58,W8X58,W8X58
W 8x67,W8X67,W8X67
WT 10.5x100.5,WT10.5X100.5,WT10-1/2X100.5
WT 10.5x22,WT10.5X22,WT10-1/2X22
WT 10.5x24,WT10.5X24,
WT 10.5x25,WT10.5X25,WT10-1/2X25
WT 10.5x27.5,WT10.5X27.5,
WT 10.5x28.5,WT10.5X28.5,WT10-1/2X28.5
WT 10.5x31,WT10.5X31,WT10-1/2X31
WT 10.5x34,WT10.5X34,WT10-1/2X34
WT 10.5x36.5,WT10.5X36.5,WT10-1/2X36.5
WT 10.5x41.5,WT10.5X41.5,WT10-1/2X41.5
WT 10.5x46.5,WT10.5X46.5,WT10-1/2X46.5
WT 10.5x50.5,WT10.5X50.5,WT10-1/2X50.5
WT 10.5x55.5,WT10.5X55.5,WT10-1/2X55.5
WT 10.5x61,WT10.5X61,WT10-1/2X61
WT 10.5x66,WT10.5X66,WT10-1/2X66
WT 10.5x73.5,WT10.5X73.5,WT10-1/2X73.5
WT 10.5x83,WT10.5X83,WT10-1/2X83
WT 10.5x91,WT10.5X91,WT10-1/2X91
WT 12x103.5,WT12X103.5,WT12X103.5
WT 12x114.5,WT12X114.5,WT12X114.5
WT 12x125,WT12X125,WT12X125
WT 12x139.5,WT12X139.5,WT12X139.5
WT 12x153,WT12X153,
WT 12x167.5,WT12X167.5,WT12X167.5
WT 12x185,WT12X185,
WT 12x27.5,WT12X27.5,WT12X27.5
WT 12x31,WT12X31,WT12X31
WT 12x34,WT12X34,WT12X34
WT 12x38,WT12X38,WT12X38
WT 12x42,WT12X42,WT12X42
WT 12x47,WT12X47,WT12X47
WT 12x51.5,WT12X51.5,WT12X51.5
WT 12x52,WT12X52,WT12X52
WT 12x58.5,WT12X58.5,WT12X58.5
WT 12x65.5,WT12X65.5,WT12X65.5
WT 12x73,WT12X73,WT12X73
WT 12x81,WT12X81,WT12X81
WT 12x88,WT12X88,WT12X88
WT 12x96,WT12X96,WT12X96
WT 13.5x108.5,WT13.5X108.5,WT13-1/2X108.5
WT 13.5x117.5,WT13.5X117.5,WT13-1/2X117.5
WT 13.5x129,WT13.5X129,WT13-1/2X129
WT 13.5x140.5,WT13.5X140.5,
WT 13.5x153.5,WT13.5X153.5,WT13-1/2X153.5
WT 13.5x168,WT13.5X168,
WT 13.5x184,WT13.5X184,WT13-1/2X184
WT 13.5x269.5,WT13.5X269.5,WT13-1/2X269.5
WT 13.5x42,WT13.5X42,WT13-1/2X42
WT 13.5x47,WT13.5X47,WT13-1/2X47
WT 13.5x51,WT13.5X51,WT13-1/2X51
WT 13.5x57,WT13.5X57,WT13-1/2X57
WT 13.5x64.5,WT13.5X64.5,WT13-1/2X64.5
WT 13.5x73,WT13.5X73,WT13-1/2X73
WT 13.5x80.5,WT13.5X80.5,WT13-1/2X80.5
WT 13.5x89,WT13.5X89,WT13-1/2X89
WT 13.5x97,WT13.5X97,WT13-1/2X97
WT 15x105.5,WT15X105.5,WT15X105.5
WT 15x117.5,WT15X117.5,WT15X117.5
WT 15x130.5,WT15X130.5,WT15X130.5
WT 15x146,WT15X146,WT15X146
WT 15x163,WT15X163,WT15X163
WT 15x178.5,WT15X178.5,
WT 15x195.5,WT15X195.5,WT15X195.5
WT 15x45,WT15X45,WT15X45
WT 15x49.5,WT15X49.5,WT15X49.5
WT 15x54,WT15X54,WT15X54
WT 15x58,WT15X58,WT15X58
WT 15x62,WT15X62,WT15X62
WT 15x66,WT15X66,WT15X66
WT 15x74,WT15X74,WT15X74
WT 15x86.5,WT15X86.5,WT15X86.5
WT 15x95.5,WT15X95.5,WT15X95.5
WT 16.5x100.5,WT16.5X100.5,WT16-1/2X100.5
WT 16.5x110.5,WT16.5X110.5,WT16-1/2X110.5
WT 16.5x120.5,WT16.5X120.5,WT16-1/2X120.5
WT 16.5x131.5,WT16.5X131.5,WT16-1/2X131.5
WT 16.5x145.5,WT16.5X145.5,WT16-1/2X145.5
WT 16.5x159,WT16.5X159,WT16-1/2X159
WT 16.5x177,WT16.5X177,WT16-1/2X177
WT 16.5x193.5,WT16.5X193.5,
WT 16.5x59,WT16.5X59,WT16-1/2X59
WT 16.5x65,WT16.5X65,WT16-1/2X65
WT 16.5x70.5,WT16.5X70.5,WT16-1/2X70.5
WT 16.5x76,WT16.5X76,WT16-1/2X76
WT 16.5x84.5,WT16.5X84.5,WT16-1/2X84.5
WT 18x105,WT18X105,WT18X105
WT 18x115.5,WT18X115.5,
WT 18x116,WT18X116,WT18X116
WT 18x123.5,WT18X123.5,
WT 18x128,WT18X128,WT18X128
WT 18x131,WT18X131,
WT 18x141,WT18X141,
WT 18x151,WT18X151,
WT 18x165,WT18X165,
WT 18x180.5,WT18X180.5,
WT 18x197.5,WT18X197.5,
WT 18x220.5,WT18X220.5,
WT 18x243.5,WT18X243.5,
WT 18x264.5,WT18X264.5,
WT 18x326,WT18X326,
WT 18x400,WT18X400,
WT 18x67.5,WT18X67.5,WT18X67.5
WT 18x75,WT18X75,WT18X75
WT 18x80,WT18X80,WT18X80
WT 18x85,WT18X85,WT18X85
WT 18x91,WT18X91,WT18X91
WT 18x97,WT18X97,WT18X97
WT 2.5x8,WT2.5X8,WT2-1/2X8
WT 2.5x9.5,WT2.5X9.5,WT2-1/2X9.5
WT 20x105.5,WT20X105.5,WT20X105.5
WT 20x107.5,WT20X107.5,WT20X107.5
WT 20x117.5,WT20X117.5,WT20X117.5
WT 20x124.5,WT20X124.5,WT20X124.5
WT 20x132,WT20X132,WT20X132
WT 20x138.5,WT20X138.5,WT20X138.5
WT 20x139,WT20X139,WT20X139
WT 20x147,WT20X147,
WT 20x148.5,WT20X148.5,WT20X148.5
WT 20x162,WT20X162,
WT 20x163.5,WT20X163.5,
WT 20x165.5,WT20X165.5,WT20X165.5
WT 20x181,WT20X181,
WT 20x186,WT20X186,WT20X186
WT 20x196,WT20X196,WT20X196
WT 20x198.5,WT20X198.5,
WT 20x215.5,WT20X215.5,WT20X215.5
WT 20x251.5,WT20X251.5,WT20X251.5
WT 20x296.5,WT20X296.5,WT20X296.5
WT 20x74.5,WT20X74.5,WT20X74.5
WT 20x83.5,WT20X83.5,WT20X83.5
WT 20x91.5,WT20X91.5,WT20X91.5
WT 20x99.5,WT20X99.5,WT20X99.5
WT 22x115,WT22X115,WT22X115
WT 22x131,WT22X131,WT22X131
WT 22x145,WT22X145,WT22X145
WT 22x167.5,WT22X167.5,WT22X167.5
WT 2x6.5,WT2X6.5,WT2X6.5
WT 3x10,WT3X10,WT3X10
WT 3x12.5,WT3X12.5,WT3X12.5
WT 3x4.25,WT3X4.25,
WT 3x4.5,WT3X4.5,WT3X4.5
WT 3x6,WT3X6,WT3X6
WT 3x7.5,WT3X7.5,WT3X7.5
WT 3x8,WT3X8,WT3X8
WT 4x10.5,WT4X10.5,WT4X10.5
WT 4x12,WT4X12,WT4X12
WT 4x14,WT4X14,WT4X14
WT 4x15.5,WT4X15.5,WT4X15.5
WT 4x17.5,WT4X17.5,WT4X17.5
WT 4x20,WT4X20,WT4X20
WT 4x24,WT4X24,WT4X24
WT 4x29,WT4X29,WT4X29
WT 4x33.5,WT4X33.5,WT4X33.5
WT 4x5,WT4X5,WT4X5
WT 4x6.5,WT4X6.5,WT4X6.5
WT 4x7.5,WT4X7.5,WT4X7.5
WT 4x9,WT4X9,WT4X9
WT 5x11,WT5X11,WT5X11
WT 5x13,WT5X13,WT5X13
WT 5x15,WT5X15,WT5X15
WT 5x16.5,WT5X16.5,WT5X16.5
WT 5x19.5,WT5X19.5,WT5X19.5
WT 5x22.5,WT5X22.5,WT5X22.5
WT 5x24.5,WT5X24.5,WT5X24.5
WT 5x27,WT5X27,WT5X27
WT 5x30,WT5X30,WT5X30
WT 5x34,WT5X34,WT5X34
WT 5x38.5,WT5X38.5,WT5X38.5
WT 5x44,WT5X44,WT5X44
WT 5x50,WT5X50,WT5X50
WT 5x56,WT5X56,WT5X56
WT 5x6,WT5X6,WT5X6
WT 5x7.5,WT5X7.5,WT5X7.5
WT 5x8.5,WT5X8.5,WT5X8.5
WT 5x9.5,WT5X9.5,WT5X9.5
WT 6x105,WT6X105,WT6X105
WT 6x11,WT6X11,WT6X11
WT 6x115,WT6X115,WT6X115
WT 6x126,WT6X126,WT6X126
WT 6x13,WT6X13,WT6X13
WT 6x139.5,WT6X139.5,WT6X139.5
WT 6x15,WT6X15,WT6X15
WT 6x152.5,WT6X152.5,WT6X152.5
WT 6x168,WT6X168,WT6X168
WT 6x17.5,WT6X17.5,WT6X17.5
WT 6x20,WT6X20,WT6X20
WT 6x22.5,WT6X22.5,WT6X22.5
WT 6x25,WT6X25,WT6X25
WT 6x26.5,WT6X26.5,WT6X26.5
WT 6x29,WT6X29,WT6X29
WT 6x32.5,WT6X32.5,WT6X32.5
WT 6x36,WT6X36,WT6X36
WT 6x39.5,WT6X39.5,WT6X39.5
WT 6x43.5,WT6X43.5,WT6X43.5
WT 6x48,WT6X48,WT6X48
WT 6x53,WT6X53,WT6X53
WT 6x60,WT6X60,WT6X60
WT 6x68,WT6X68,WT6X68
WT 6x7,WT6X7,WT6X7
WT 6x76,WT6X76,WT6X76
WT 6x8,WT6X8,WT6X8
WT 6x85,WT6X85,WT6X85
WT 6x9.5,WT6X9.5,WT6X9.5
WT 6x95,WT6X95,WT6X95
WT 7x105.5,WT7X105.5,WT7X105.5
WT 7x11,WT7X11,WT7X11
WT 7x116.5,WT7X116.5,WT7X116.5
WT 7x128.5,WT7X128.5,WT7X128.5
WT 7x13,WT7X13,WT7X13
WT 7x141.5,WT7X141.5,WT7X141.5
WT 7x15,WT7X15,WT7X15
WT 7x155.5,WT7X155.5,WT7X155.5
WT 7x17,WT7X17,WT7X17
WT 7x171,WT7X171,WT7X171
WT 7x185,WT7X185,WT7X185
WT 7x19,WT7X19,WT7X19
WT 7x199,WT7X199,WT7X199
WT 7x21.5,WT7X21.5,WT7X21.5
WT 7x213,WT7X213,WT7X213
WT 7x227.5,WT7X227.5,WT7X227.5
WT 7x24,WT7X24,WT7X24
WT 7x250,WT7X250,WT7X250
WT 7x26.5,WT7X26.5,WT7X26.5
WT 7x275,WT7X275,WT7X275
WT 7x30.5,WT7X30.5,WT7X30.5
WT 7x302.5,WT7X302.5,WT7X302.5
WT 7x332.5,WT7X332.5,WT7X332.5
WT 7x34,WT7X34,WT7X34
WT 7x365,WT7X365,WT7X365
WT 7x37,WT7X37,WT7X37
WT 7x41,WT7X41,WT7X41
WT 7x45,WT7X45,WT7X45
WT 7x49.5,WT7X49.5,WT7X49.5
WT 7x54.5,WT7X54.5,WT7X54.5
WT 7x60,WT7X60,WT7X60
WT 7x66,WT7X66,WT7X66
WT 7x72.5,WT7X72.5,WT7X72.5
WT 7x79.5,WT7X79.5,WT7X79.5
WT 7x88,WT7X88,WT7X88
WT 7x96.5,WT7X96.5,WT7X96.5
WT 8x13,WT8X13,WT8X13
WT 8x15.5,WT8X15.5,WT8X15.5
WT 8x18,WT8X18,WT8X18
WT 8x20,WT8X20,WT8X20
WT 8x22.5,WT8X22.5,WT8X22.5
WT 8x25,WT8X25,WT8X25
WT 8x28.5,WT8X28.5,WT8X28.5
WT 8x33.5,WT8X33.5,WT8X33.5
WT 8x38.5,WT8X38.5,WT8X38.5
WT 8x44.5,WT8X44.5,WT8X44.5
WT 8x50,WT8X50,WT8X50
WT 9x105.5,WT9X105.5,WT9X105.5
WT 9x117,WT9X117,WT9X117
WT 9x129,WT9X129,WT9X129
WT 9x141.5,WT9X141.5,WT9X141.5
WT 9x155.5,WT9X155.5,WT9X155.5
WT 9x17.5,WT9X17.5,WT9X17.5
WT 9x20,WT9X20,WT9X20
WT 9x23,WT9X23,WT9X23
WT 9x25,WT9X25,WT9X25
WT 9x27.5,WT9X27.5,WT9X27.5
WT 9x30,WT9X30,WT9X30
WT 9x32.5,WT9X32.5,WT9X32.5
WT 9x35.5,WT9X35.5,WT9X35.5
WT 9x38,WT9X38,WT9X38
WT 9x43,WT9X43,WT9X43
WT 9x48.5,WT9X48.5,WT9X48.5
WT 9x53,WT9X53,WT9X53
WT 9x59.5,WT9X59.5,WT9X59.5
WT 9x65,WT9X65,WT9X65
WT 9x71.5,WT9X71.5,WT9X71.5
WT 9x79,WT9X79,WT9X79
WT 9x87.5,WT9X87.5,WT9X87.5
WT 9x96,WT9X96,WT9X96
