!<mkRTViewData> v1.0.0
BTV/000/CUS .\win_b64\code\lib\CATRdgInterfacesUUID.lib|.\CATRdgInterfaces\CATRdgInterfacesUUID.m
CSC/000/DSI .\CATRdgInterfaces\CATRdgInterfacesUUID.m\Objects\win_b64\mkcsc\CATRdgInterfacesUUID.cscdb|.\CATRdgInterfaces\CATRdgInterfacesUUID.m
@type='ARCHIVE'
@clr='false'
@kind='NATIVE'
@deliverable='true'
@built='true'
