!<mkRTViewData> v1.0.0
BTV/000/CUS .\win_b64\code\lib\CATVoxelServices.lib|.\HierarchicalVoxels\CATVoxelServices.m
INT/000/CUS .\win_b64\code\bin\CATVoxelServices.pdb|.\HierarchicalVoxels\CATVoxelServices.m
RTV/001/CUS .\win_b64\code\bin\CATVoxelServices.dll|.\HierarchicalVoxels\CATVoxelServices.m
CSC/000/DSI .\HierarchicalVoxels\CATVoxelServices.m\Objects\win_b64\mkcsc\CATVoxelServices.cscdb|.\HierarchicalVoxels\CATVoxelServices.m
INT/000/CUS .\win_b64\code\lib\CATVoxelServices.exp|.\HierarchicalVoxels\CATVoxelServices.m
@type='SHARED_LIBRARY'
@clr='false'
@kind='NATIVE'
@deliverable='true'
@built='true'
