!<mkRTViewData> v1.0.0
CSC/000/DSI .\MechanicalModeler\CATMmrCAAImpl.m\Objects\win_b64\mkcsc\CATMmrCAAImpl.cscdb|.\MechanicalModeler\CATMmrCAAImpl.m
@type='NONE'
@clr='false'
@kind='INCLUDED'
@deliverable='true'
@built='true'
