!<mkRTViewData> v1.0.0
CSC/000/DSI .\CATMoldDesignUI\CATMldAnglePinUI.m\Objects\win_b64\mkcsc\CATMldAnglePinUI.cscdb|.\CATMoldDesignUI\CATMldAnglePinUI.m
@type='NONE'
@clr='false'
@kind='INCLUDED'
@deliverable='true'
@built='true'
