!<mkRTViewData> v1.0.0
CSC/000/DSI .\SpaceAnalysis\CATSpaCCP.m\Objects\win_b64\mkcsc\CATSpaCCP.cscdb|.\SpaceAnalysis\CATSpaCCP.m
INT/000/CUS .\win_b64\code\lib\CATSpaCCP.exp|.\SpaceAnalysis\CATSpaCCP.m
BTV/000/CUS .\win_b64\code\lib\CATSpaCCP.lib|.\SpaceAnalysis\CATSpaCCP.m
RTV/001/CUS .\win_b64\code\bin\CATSpaCCP.dll|.\SpaceAnalysis\CATSpaCCP.m
INT/000/CUS .\win_b64\code\bin\CATSpaCCP.pdb|.\SpaceAnalysis\CATSpaCCP.m
@type='SHARED_LIBRARY'
@clr='false'
@kind='NATIVE'
@deliverable='true'
@built='true'
