!<mkRTViewData> v1.0.0
CSC/000/DSI .\DNBHubCommands\DNBIPDMfgCtxUI.m\Objects\win_b64\mkcsc\DNBIPDMfgCtxUI.cscdb|.\DNBHubCommands\DNBIPDMfgCtxUI.m
@type='NONE'
@clr='false'
@kind='INCLUDED'
@deliverable='true'
@built='true'
