!<mkRTViewData> v1.0.0
CSC/000/DSI .\CATTPSUIResources\CATTPSCmdConnectionMgt.m\Objects\win_b64\mkcsc\CATTPSCmdConnectionMgt.cscdb|.\CATTPSUIResources\CATTPSCmdConnectionMgt.m
@type='NONE'
@clr='false'
@kind='INCLUDED'
@deliverable='true'
@built='true'
