!<mkRTViewData> v1.0.0
BTV/002/CUS .\win_b64\code\productIC\AECGeoVisuIC.xml|.\AECGeoVisu
CSC/002/DSI .\AECGeoVisu\IdentityCard\Objects\win_b64\mkcsc\AECGeoVisu.cscdb|.\AECGeoVisu
DAT/002/CUS .\win_b64\code\dictionary\AECGeoVisu.dic|.\AECGeoVisu\CNext\code\dictionary\AECGeoVisu.dic
RTV/002/DSI .\win_b64\code\productIC\AECGeoVisuIC.required|.\AECGeoVisu
BTV/002/CUS .\win_b64\code\productIC\AECGeoVisuIC.script|.\AECGeoVisu
@type='codeFramework'
@built='true'
