!<mkRTViewData> v1.0.0
BTV/002/CUS .\win_b64\code\productIC\CGMV5SpecsQueryIC.xml|.\CGMV5SpecsQuery
CSC/002/DSI .\CGMV5SpecsQuery\IdentityCard\Objects\win_b64\mkcsc\CGMV5SpecsQuery.cscdb|.\CGMV5SpecsQuery
BTV/002/CUS .\win_b64\code\productIC\CGMV5SpecsQueryIC.script|.\CGMV5SpecsQuery
RTV/002/DSI .\win_b64\code\productIC\CGMV5SpecsQueryIC.required|.\CGMV5SpecsQuery
@type='codeFramework'
@built='true'
