!<mkRTViewData> v1.0.0
CSC/000/DSI .\DataExchangeInfrastructure\DataExchangeInfrastructure.m\Objects\win_b64\mkcsc\DataExchangeInfrastructure.cscdb|.\DataExchangeInfrastructure\DataExchangeInfrastructure.m
RTV/001/CUS .\win_b64\code\bin\DataExchangeInfrastructure.dll|.\DataExchangeInfrastructure\DataExchangeInfrastructure.m
BTV/000/CUS .\win_b64\code\lib\DataExchangeInfrastructure.lib|.\DataExchangeInfrastructure\DataExchangeInfrastructure.m
INT/000/CUS .\win_b64\code\bin\DataExchangeInfrastructure.pdb|.\DataExchangeInfrastructure\DataExchangeInfrastructure.m
INT/000/CUS .\win_b64\code\lib\DataExchangeInfrastructure.exp|.\DataExchangeInfrastructure\DataExchangeInfrastructure.m
@type='SHARED_LIBRARY'
@clr='false'
@kind='NATIVE'
@deliverable='true'
@built='true'
