!<mkRTViewData> v1.0.0
CSC/000/DSI .\SIMSequenceModel\CATSIMSequenceDic.m\Objects\win_b64\mkcsc\CATSIMSequenceDic.cscdb|.\SIMSequenceModel\CATSIMSequenceDic.m
RTV/000/CUS .\win_b64\code\dictionary\SIMSequenceModel.dic|.\SIMSequenceModel\CATSIMSequenceDic.m
@type='NONE'
@clr='false'
@kind='INCLUDED'
@deliverable='true'
@built='true'
