!<mkRTViewData> v1.0.0
RTV/001/CUS .\win_b64\code\bin\CATCloudCGMUtilities.dll|.\CATCloudCGMUtilities\CATCloudCGMUtilities.m
INT/000/CUS .\win_b64\code\lib\CATCloudCGMUtilities.exp|.\CATCloudCGMUtilities\CATCloudCGMUtilities.m
CSC/000/DSI .\CATCloudCGMUtilities\CATCloudCGMUtilities.m\Objects\win_b64\mkcsc\CATCloudCGMUtilities.cscdb|.\CATCloudCGMUtilities\CATCloudCGMUtilities.m
BTV/000/CUS .\win_b64\code\lib\CATCloudCGMUtilities.lib|.\CATCloudCGMUtilities\CATCloudCGMUtilities.m
INT/000/CUS .\win_b64\code\bin\CATCloudCGMUtilities.pdb|.\CATCloudCGMUtilities\CATCloudCGMUtilities.m
@type='SHARED_LIBRARY'
@clr='false'
@kind='NATIVE'
@deliverable='true'
@built='true'
