!<mkRTViewData> v1.0.0
RTV/002/DSI .\win_b64\resources\msgcatalog\NlsTest\DNBSensorMessages.CATNls|.\DNBResSensorCommands\CNext\resources\msgcatalog\DNBSensorMessages.CATNls
RTV/002/DSI .\win_b64\resources\msgcatalog\NlsTest\DNBCreateSensorCmd.CATNls|.\DNBResSensorCommands\CNext\resources\msgcatalog\DNBCreateSensorCmd.CATNls
RTV/002/DSI .\win_b64\resources\msgcatalog\NlsTest\DNBCreateSensorDlg.CATNls|.\DNBResSensorCommands\CNext\resources\msgcatalog\DNBCreateSensorDlg.CATNls
RTV/002/DSI .\win_b64\resources\msgcatalog\DbcsTest\DNBSensorMessages.CATNls|.\DNBResSensorCommands\CNext\resources\msgcatalog\DNBSensorMessages.CATNls
RTV/002/DSI .\win_b64\resources\msgcatalog\NlsTest\DNBSensorStatsCmd.CATNls|.\DNBResSensorCommands\CNext\resources\msgcatalog\DNBSensorStatsCmd.CATNls
DAT/002/CUS .\win_b64\resources\graphic\icons\normal\I_DNBDOFSensor.bmp|.\DNBResSensorCommands\CNext\resources\graphic\icons\normal\I_DNBDOFSensor.bmp
BTV/002/CUS .\win_b64\code\productIC\DNBResSensorCommandsIC.xml|.\DNBResSensorCommands
RTV/002/DSI .\win_b64\code\productIC\DNBResSensorCommandsIC.required|.\DNBResSensorCommands
DAT/002/CUS .\win_b64\resources\graphic\icons\normal\I_DNBSensorResource.bmp|.\DNBResSensorCommands\CNext\resources\graphic\icons\normal\I_DNBSensorResource.bmp
DAT/002/CUS .\win_b64\resources\msgcatalog\DNBCreateSensorResourceCmd.CATNls|.\DNBResSensorCommands\CNext\resources\msgcatalog\DNBCreateSensorResourceCmd.CATNls
DAT/002/CUS .\win_b64\resources\msgcatalog\DNBCreateSensorResourceDlg.CATNls|.\DNBResSensorCommands\CNext\resources\msgcatalog\DNBCreateSensorResourceDlg.CATNls
RTV/002/DSI .\win_b64\resources\msgcatalog\DbcsTest\DNBSensorStatsCmd.CATNls|.\DNBResSensorCommands\CNext\resources\msgcatalog\DNBSensorStatsCmd.CATNls
DAT/002/CUS .\win_b64\resources\msgcatalog\DNBSensorStatsCmd.CATNls|.\DNBResSensorCommands\CNext\resources\msgcatalog\DNBSensorStatsCmd.CATNls
RTV/002/DSI .\win_b64\resources\msgcatalog\DbcsTest\DNBCreateDOFSensorCmd.CATNls|.\DNBResSensorCommands\CNext\resources\msgcatalog\DNBCreateDOFSensorCmd.CATNls
RTV/002/DSI .\win_b64\resources\msgcatalog\DbcsTest\DNBCreateSensorCmd.CATNls|.\DNBResSensorCommands\CNext\resources\msgcatalog\DNBCreateSensorCmd.CATNls
DAT/002/CUS .\win_b64\resources\graphic\icons\small\I_DNBSensorResource.bmp|.\DNBResSensorCommands\CNext\resources\graphic\icons\small\I_DNBSensorResource.bmp
RTV/002/DSI .\win_b64\resources\msgcatalog\NlsTest\DNBCreateDOFSensorCmd.CATNls|.\DNBResSensorCommands\CNext\resources\msgcatalog\DNBCreateDOFSensorCmd.CATNls
DAT/002/CUS .\win_b64\resources\graphic\icons\normal\I_DNBSensor.bmp|.\DNBResSensorCommands\CNext\resources\graphic\icons\normal\I_DNBSensor.bmp
DAT/002/CUS .\win_b64\resources\msgcatalog\DNBSensorMessages.CATNls|.\DNBResSensorCommands\CNext\resources\msgcatalog\DNBSensorMessages.CATNls
RTV/002/DSI .\win_b64\resources\msgcatalog\DbcsTest\DNBCreateSensorResourceDlg.CATNls|.\DNBResSensorCommands\CNext\resources\msgcatalog\DNBCreateSensorResourceDlg.CATNls
RTV/002/DSI .\win_b64\resources\msgcatalog\DbcsTest\DNBCreateDOFSensorDlg.CATNls|.\DNBResSensorCommands\CNext\resources\msgcatalog\DNBCreateDOFSensorDlg.CATNls
RTV/002/DSI .\win_b64\resources\msgcatalog\NlsTest\DNBCreateSensorResourceDlg.CATNls|.\DNBResSensorCommands\CNext\resources\msgcatalog\DNBCreateSensorResourceDlg.CATNls
RTV/002/DSI .\win_b64\resources\msgcatalog\DbcsTest\DNBCreateSensorDlg.CATNls|.\DNBResSensorCommands\CNext\resources\msgcatalog\DNBCreateSensorDlg.CATNls
DAT/002/CUS .\win_b64\resources\msgcatalog\DNBCreateSensorCmd.CATNls|.\DNBResSensorCommands\CNext\resources\msgcatalog\DNBCreateSensorCmd.CATNls
DAT/002/CUS .\win_b64\resources\msgcatalog\DNBCreateSensorDlg.CATNls|.\DNBResSensorCommands\CNext\resources\msgcatalog\DNBCreateSensorDlg.CATNls
RTV/002/DSI .\win_b64\resources\msgcatalog\NlsTest\DNBCreateSensorResourceCmd.CATNls|.\DNBResSensorCommands\CNext\resources\msgcatalog\DNBCreateSensorResourceCmd.CATNls
BTV/002/CUS .\win_b64\code\productIC\DNBResSensorCommandsIC.script|.\DNBResSensorCommands
DAT/002/CUS .\win_b64\code\dictionary\DNBResSensorCommands.dic|.\DNBResSensorCommands\CNext\code\dictionary\DNBResSensorCommands.dic
DAT/002/CUS .\win_b64\resources\msgcatalog\DNBCreateDOFSensorCmd.CATNls|.\DNBResSensorCommands\CNext\resources\msgcatalog\DNBCreateDOFSensorCmd.CATNls
CSC/002/DSI .\DNBResSensorCommands\IdentityCard\Objects\win_b64\mkcsc\DNBResSensorCommands.cscdb|.\DNBResSensorCommands
RTV/002/DSI .\win_b64\resources\msgcatalog\NlsTest\DNBCreateDOFSensorDlg.CATNls|.\DNBResSensorCommands\CNext\resources\msgcatalog\DNBCreateDOFSensorDlg.CATNls
RTV/002/DSI .\win_b64\resources\msgcatalog\DbcsTest\DNBCreateSensorResourceCmd.CATNls|.\DNBResSensorCommands\CNext\resources\msgcatalog\DNBCreateSensorResourceCmd.CATNls
DAT/002/CUS .\win_b64\resources\msgcatalog\DNBCreateDOFSensorDlg.CATNls|.\DNBResSensorCommands\CNext\resources\msgcatalog\DNBCreateDOFSensorDlg.CATNls
DAT/002/CUS .\win_b64\resources\graphic\icons\small\I_DNBSensor.bmp|.\DNBResSensorCommands\CNext\resources\graphic\icons\small\I_DNBSensor.bmp
@type='codeFramework'
@built='true'
