!<mkRTViewData> v1.0.0
RTV/001/CUS .\win_b64\code\bin\CATCafRasterDocument.dll|.\CATIAApplicationFrame\CATCafRasterDocument.m
INT/000/CUS .\win_b64\code\bin\CATCafRasterDocument.pdb|.\CATIAApplicationFrame\CATCafRasterDocument.m
INT/000/CUS .\win_b64\code\lib\CATCafRasterDocument.exp|.\CATIAApplicationFrame\CATCafRasterDocument.m
CSC/000/DSI .\CATIAApplicationFrame\CATCafRasterDocument.m\Objects\win_b64\mkcsc\CATCafRasterDocument.cscdb|.\CATIAApplicationFrame\CATCafRasterDocument.m
BTV/000/CUS .\win_b64\code\lib\CATCafRasterDocument.lib|.\CATIAApplicationFrame\CATCafRasterDocument.m
@type='SHARED_LIBRARY'
@clr='false'
@kind='NATIVE'
@deliverable='true'
@built='true'
