!<mkRTViewData> v1.0.0
CSC/000/DSI .\PolyhedralObjects\PolyBodyTools.m\Objects\win_b64\mkcsc\PolyBodyTools.cscdb|.\PolyhedralObjects\PolyBodyTools.m
@type='NONE'
@clr='false'
@kind='INCLUDED'
@deliverable='true'
@built='true'
