!<mkRTViewData> v1.0.0
CSC/000/DSI .\CATIADataFormat\CATAIXTools.m\Objects\win_b64\mkcsc\CATAIXTools.cscdb|.\CATIADataFormat\CATAIXTools.m
@type='NONE'
@clr='false'
@kind='INCLUDED'
@deliverable='true'
@built='true'
