!<mkRTViewData> v1.0.0
CSC/000/DSI .\CATArrangementInterfaces\CATArrangementProIDL.m\Objects\win_b64\mkcsc\CATArrangementProIDL.cscdb|.\CATArrangementInterfaces\CATArrangementProIDL.m
@type='NONE'
@clr='false'
@kind='INCLUDED'
@deliverable='true'
@built='true'
