!<mkRTViewData> v1.0.0
CSC/000/DSI .\MachinistAlgosWTTBase\CATSDM_Manuf.m\Objects\win_b64\mkcsc\CATSDM_Manuf.cscdb|.\MachinistAlgosWTTBase\CATSDM_Manuf.m
BTV/000/CUS .\win_b64\code\lib\CATSDM_Manuf.lib|.\MachinistAlgosWTTBase\CATSDM_Manuf.m
INT/000/CUS .\win_b64\code\bin\CATSDM_Manuf.pdb|.\MachinistAlgosWTTBase\CATSDM_Manuf.m
RTV/001/CUS .\win_b64\code\bin\CATSDM_Manuf.dll|.\MachinistAlgosWTTBase\CATSDM_Manuf.m
INT/000/CUS .\win_b64\code\lib\CATSDM_Manuf.exp|.\MachinistAlgosWTTBase\CATSDM_Manuf.m
@type='SHARED_LIBRARY'
@clr='false'
@kind='NATIVE'
@deliverable='true'
@built='true'
