!<mkRTViewData> v1.0.0
BTV/000/CUS .\win_b64\code\lib\CATGuiThickness.lib|.\GSMUI\CATGuiThickness.m
INT/000/CUS .\win_b64\code\bin\CATGuiThickness.pdb|.\GSMUI\CATGuiThickness.m
INT/000/CUS .\win_b64\code\lib\CATGuiThickness.exp|.\GSMUI\CATGuiThickness.m
CSC/000/DSI .\GSMUI\CATGuiThickness.m\Objects\win_b64\mkcsc\CATGuiThickness.cscdb|.\GSMUI\CATGuiThickness.m
RTV/001/CUS .\win_b64\code\bin\CATGuiThickness.dll|.\GSMUI\CATGuiThickness.m
@type='SHARED_LIBRARY'
@clr='false'
@kind='NATIVE'
@deliverable='true'
@built='true'
