!<mkRTViewData> v1.0.0
BTV/000/CUS .\win_b64\code\lib\CATMmlUUID.lib|.\MechanicalModelerLive\CATMmlUUID.m
CSC/000/DSI .\MechanicalModelerLive\CATMmlUUID.m\Objects\win_b64\mkcsc\CATMmlUUID.cscdb|.\MechanicalModelerLive\CATMmlUUID.m
@type='ARCHIVE'
@clr='false'
@kind='NATIVE'
@deliverable='true'
@built='true'
