!<mkRTViewData> v1.0.0
CSC/000/DSI .\CATJSystem\CATJsyMiniServer.mj\Objects\win_b64\mkcsc\CATJsyMiniServer.cscdb|.\CATJSystem\CATJsyMiniServer.mj
RTV/000/DSI .\win_b64\docs\javaserver\CATJsyMiniServer.jar|.\CATJSystem\CATJsyMiniServer.mj
RTV/000/DSI .\win_b64\docs\java\CATJsyMiniServer.jar|.\CATJSystem\CATJsyMiniServer.mj
@type='JAVA_COMMON'
@clr='false'
@kind='JAVA'
@deliverable='false'
@built='true'
