!<mkRTViewData> v1.0.0
CSC/000/DSI .\ObjectModelerBase\AC0DOMAIN.m\Objects\win_b64\mkcsc\AC0DOMAIN.cscdb|.\ObjectModelerBase\AC0DOMAIN.m
@type='NONE'
@clr='false'
@kind='INCLUDED'
@deliverable='true'
@built='true'
