!<mkRTViewData> v1.0.0
CSC/000/DSI .\CATInstantCollabDesignCAAItf\CATColCAAItfUtils.m\Objects\win_b64\mkcsc\CATColCAAItfUtils.cscdb|.\CATInstantCollabDesignCAAItf\CATColCAAItfUtils.m
@type='NONE'
@clr='false'
@kind='INCLUDED'
@deliverable='true'
@built='true'
