!<mkRTViewData> v1.0.0
BTV/002/CUS .\win_b64\code\productIC\CATXDocLinkInterfacesIC.script|.\CATXDocLinkInterfaces
CSC/002/DSI .\CATXDocLinkInterfaces\IdentityCard\Objects\win_b64\mkcsc\CATXDocLinkInterfaces.cscdb|.\CATXDocLinkInterfaces
BTV/002/CUS .\win_b64\code\productIC\CATXDocLinkInterfacesIC.xml|.\CATXDocLinkInterfaces
DAT/002/CUS .\win_b64\code\dictionary\CATXDocLinkInterfaces.iid|.\CATXDocLinkInterfaces\CNext\code\dictionary\CATXDocLinkInterfaces.iid
RTV/002/DSI .\win_b64\code\productIC\CATXDocLinkInterfacesIC.required|.\CATXDocLinkInterfaces
DAT/002/CUS .\win_b64\code\dictionary\CATXDocLinkInterfaces.dic|.\CATXDocLinkInterfaces\CNext\code\dictionary\CATXDocLinkInterfaces.dic
@type='codeFramework'
@built='true'
