!<mkRTViewData> v1.0.0
RTV/002/DSI .\win_b64\code\productIC\GeometricObjectsCGMIC.required|.\GeometricObjectsCGM
CSC/002/DSI .\GeometricObjectsCGM\IdentityCard\Objects\win_b64\mkcsc\GeometricObjectsCGM.cscdb|.\GeometricObjectsCGM
BTV/002/CUS .\win_b64\code\productIC\GeometricObjectsCGMIC.xml|.\GeometricObjectsCGM
BTV/002/CUS .\win_b64\code\productIC\GeometricObjectsCGMIC.script|.\GeometricObjectsCGM
@type='codeFramework'
@built='true'
