!<mkRTViewData> v1.0.0
CSC/000/DSI .\NewTopologicalObjects\MdlExtrRecog.m\Objects\win_b64\mkcsc\MdlExtrRecog.cscdb|.\NewTopologicalObjects\MdlExtrRecog.m
@type='NONE'
@clr='false'
@kind='INCLUDED'
@deliverable='true'
@built='true'
