!<mkRTViewData> v1.0.0
INT/000/CUS .\win_b64\code\lib\CATGuiFill.exp|.\GSMUI\CATGuiFill.m
CSC/000/DSI .\GSMUI\CATGuiFill.m\Objects\win_b64\mkcsc\CATGuiFill.cscdb|.\GSMUI\CATGuiFill.m
INT/000/CUS .\win_b64\code\bin\CATGuiFill.pdb|.\GSMUI\CATGuiFill.m
RTV/001/CUS .\win_b64\code\bin\CATGuiFill.dll|.\GSMUI\CATGuiFill.m
BTV/000/CUS .\win_b64\code\lib\CATGuiFill.lib|.\GSMUI\CATGuiFill.m
@type='SHARED_LIBRARY'
@clr='false'
@kind='NATIVE'
@deliverable='true'
@built='true'
