!<mkRTViewData> v1.0.0
CSC/000/DSI .\PartDesignFeature\PRTREVOL.m\Objects\win_b64\mkcsc\PRTREVOL.cscdb|.\PartDesignFeature\PRTREVOL.m
@type='NONE'
@clr='false'
@kind='INCLUDED'
@deliverable='true'
@built='true'
