PartNumber	Code	D(in)	Bf(in)	Tw(in)	Tf(in)	R1(in)	R2(in)	SLOPE(deg)	Sx(in)	Sy(in)	A(in2)	P(lb_ft)	L(in)	vxm(in)	vxp(in)	vym(in)	vyp(in)	Ix(in4)	Vx(in3)	Gx(in)	Iy(in4)	Vy(in3)	Gy(in)	J(in4)	Ax(in2)	Ay(in2)	Alpha(deg)
L9x4x1	30	9.000	4.000	1.000	1.000	0.500	0.250	0	0	0	12.03	40.89	25.57	1.67	2.41	4.01	5.60	100.44	17.93	2.89	8.26	3.43	0.83	4.00	4.00	9.00	11.43
L9x4x0.875	30	9.000	4.000	0.875	0.875	0.500	0.250	0	0	0	10.64	36.16	25.57	1.63	2.42	3.98	5.64	90.04	15.96	2.91	7.34	3.03	0.83	2.71	3.50	7.88	11.67
L9x4x0.75	30	9.000	4.000	0.750	0.750	0.500	0.250	0	0	0	9.21	31.33	25.57	1.58	2.44	3.95	5.68	79.07	13.92	2.93	6.42	2.63	0.83	1.72	3.00	6.75	11.89
L9x4x0.625	30	9.000	4.000	0.625	0.625	0.500	0.250	0	0	0	7.76	26.39	25.57	1.53	2.46	3.92	5.72	67.50	11.80	2.95	5.48	2.22	0.84	1.01	2.50	5.63	12.08
L9x4x0.5625	30	9.000	4.000	0.563	0.563	0.500	0.250	0	0	0	7.02	23.88	25.57	1.51	2.48	3.90	5.74	61.48	10.71	2.96	4.99	2.02	0.84	0.74	2.25	5.06	12.17
L9x4x0.5	30	9.000	4.000	0.500	0.500	0.500	0.250	0	0	0	6.28	21.34	25.57	1.48	2.49	3.88	5.76	55.31	9.60	2.97	4.50	1.81	0.85	0.52	2.00	4.50	12.25
L8x6x1	30	8.000	6.000	1.000	1.000	0.500	0.250	0	0	0	13.03	44.29	27.57	2.71	2.96	4.40	5.49	97.87	17.81	2.74	21.15	7.16	1.27	4.33	6.00	8.00	28.43
L8x6x0.875	30	8.000	6.000	0.875	0.875	0.500	0.250	0	0	0	11.51	39.14	27.57	2.65	2.95	4.39	5.51	87.83	15.94	2.76	18.82	6.38	1.28	2.93	5.25	7.00	28.59
L8x6x0.75	30	8.000	6.000	0.750	0.750	0.500	0.250	0	0	0	9.96	33.88	27.57	2.59	2.94	4.37	5.53	77.19	13.97	2.78	16.43	5.58	1.28	1.86	4.50	6.00	28.74
L8x6x0.625	30	8.000	6.000	0.625	0.625	0.500	0.250	0	0	0	8.39	28.51	27.57	2.53	2.94	4.36	5.54	65.94	11.89	2.80	13.98	4.76	1.29	1.09	3.75	5.00	28.87
L8x6x0.5625	30	8.000	6.000	0.563	0.563	0.500	0.250	0	0	0	7.59	25.79	27.57	2.50	2.94	4.35	5.55	60.07	10.82	2.81	12.72	4.33	1.29	0.80	3.38	4.50	28.93
L8x6x0.5	30	8.000	6.000	0.500	0.500	0.500	0.250	0	0	0	6.78	23.04	27.57	2.46	2.94	4.34	5.56	54.03	9.72	2.82	11.44	3.89	1.30	0.56	3.00	4.00	28.98
L8x6x0.4375	30	8.000	6.000	0.438	0.438	0.500	0.250	0	0	0	5.96	20.27	27.57	2.43	2.94	4.34	5.57	47.83	8.59	2.83	10.13	3.45	1.30	0.38	2.63	3.50	29.02
L8x4x1	30	8.000	4.000	1.000	1.000	0.500	0.250	0	0	0	11.03	37.49	23.57	1.74	2.33	3.65	5.07	73.20	14.43	2.58	7.79	3.34	0.84	3.67	4.00	8.00	13.84
L8x4x0.875	30	8.000	4.000	0.875	0.875	0.500	0.250	0	0	0	9.76	33.19	23.57	1.69	2.35	3.63	5.11	65.78	12.88	2.60	6.92	2.95	0.84	2.48	3.50	7.00	14.11
L8x4x0.75	30	8.000	4.000	0.750	0.750	0.500	0.250	0	0	0	8.46	28.78	23.57	1.65	2.36	3.60	5.14	57.91	11.26	2.62	6.06	2.56	0.85	1.58	3.00	6.00	14.35
L8x4x0.625	30	8.000	4.000	0.625	0.625	0.500	0.250	0	0	0	7.14	24.26	23.57	1.60	2.38	3.57	5.18	49.55	9.57	2.64	5.17	2.17	0.85	0.93	2.50	5.00	14.57
L8x4x0.5625	30	8.000	4.000	0.563	0.563	0.500	0.250	0	0	0	6.46	21.97	23.57	1.57	2.39	3.56	5.20	45.19	8.70	2.64	4.71	1.97	0.85	0.68	2.25	4.50	14.66
L8x4x0.5	30	8.000	4.000	0.500	0.500	0.500	0.250	0	0	0	5.78	19.64	23.57	1.54	2.40	3.54	5.21	40.69	7.80	2.65	4.25	1.77	0.86	0.48	2.00	4.00	14.75
L8x4x0.4375	30	8.000	4.000	0.438	0.438	0.500	0.250	0	0	0	5.09	17.29	23.57	1.51	2.41	3.52	5.23	36.07	6.89	2.66	3.78	1.57	0.86	0.32	1.75	3.50	14.83
L7x4x0.875	30	7.000	4.000	0.875	0.875	0.500	0.250	0	0	0	8.89	30.21	21.57	1.77	2.25	3.31	4.57	46.38	10.15	2.28	6.43	2.86	0.85	2.26	3.50	6.13	17.56
L7x4x0.75	30	7.000	4.000	0.750	0.750	0.500	0.250	0	0	0	7.71	26.23	21.57	1.72	2.25	3.29	4.60	40.96	8.91	2.30	5.62	2.49	0.85	1.44	3.00	5.25	17.83
L7x4x0.625	30	7.000	4.000	0.625	0.625	0.500	0.250	0	0	0	6.51	22.14	21.57	1.67	2.26	3.27	4.63	35.16	7.60	2.32	4.80	2.12	0.86	0.84	2.50	4.38	18.07
L7x4x0.5625	30	7.000	4.000	0.563	0.563	0.500	0.250	0	0	0	5.90	20.05	21.57	1.64	2.27	3.25	4.64	32.11	6.91	2.33	4.38	1.93	0.86	0.62	2.25	3.94	18.18
L7x4x0.5	30	7.000	4.000	0.500	0.500	0.500	0.250	0	0	0	5.28	17.94	21.57	1.61	2.28	3.24	4.66	28.95	6.21	2.34	3.95	1.73	0.86	0.44	2.00	3.50	18.27
L7x4x0.4375	30	7.000	4.000	0.438	0.438	0.500	0.250	0	0	0	4.65	15.80	21.57	1.58	2.29	3.23	4.68	25.70	5.49	2.35	3.51	1.53	0.87	0.29	1.75	3.06	18.35
L7x4x0.375	30	7.000	4.000	0.375	0.375	0.500	0.250	0	0	0	4.01	13.64	21.57	1.55	2.30	3.21	4.70	22.33	4.76	2.36	3.05	1.33	0.87	0.19	1.50	2.63	18.41
L6x4x0.875	30	6.000	4.000	0.875	0.875	0.500	0.250	0	0	0	8.01	27.24	19.57	1.85	2.10	3.06	4.02	31.42	7.82	1.98	5.81	2.76	0.85	2.04	3.50	5.25	22.78
L6x4x0.75	30	6.000	4.000	0.750	0.750	0.500	0.250	0	0	0	6.96	23.68	19.57	1.79	2.10	3.05	4.04	27.86	6.89	2.00	5.07	2.41	0.85	1.30	3.00	4.50	23.07
L6x4x0.625	30	6.000	4.000	0.625	0.625	0.500	0.250	0	0	0	5.89	20.01	19.57	1.74	2.10	3.03	4.06	24.01	5.91	2.02	4.33	2.06	0.86	0.76	2.50	3.75	23.32
L6x4x0.5625	30	6.000	4.000	0.563	0.563	0.500	0.250	0	0	0	5.34	18.14	19.57	1.71	2.11	3.02	4.08	21.97	5.39	2.03	3.95	1.87	0.86	0.56	2.25	3.38	23.43
L6x4x0.5	30	6.000	4.000	0.500	0.500	0.500	0.250	0	0	0	4.78	16.24	19.57	1.68	2.11	3.01	4.09	19.85	4.85	2.04	3.56	1.69	0.86	0.40	2.00	3.00	23.53
L6x4x0.4375	30	6.000	4.000	0.438	0.438	0.500	0.250	0	0	0	4.21	14.32	19.57	1.65	2.11	3.00	4.10	17.65	4.30	2.05	3.16	1.50	0.87	0.27	1.75	2.63	23.61
L6x4x0.375	30	6.000	4.000	0.375	0.375	0.500	0.250	0	0	0	3.64	12.36	19.57	1.61	2.12	2.98	4.12	15.36	3.73	2.06	2.76	1.30	0.87	0.17	1.50	2.25	23.67
L6x4x0.3125	30	6.000	4.000	0.313	0.313	0.500	0.250	0	0	0	3.05	10.38	19.57	1.58	2.13	2.97	4.13	12.99	3.14	2.06	2.34	1.10	0.88	0.10	1.25	1.88	23.70
L6x4x0.25	30	6.000	4.000	0.250	0.250	0.500	0.250	0	0	0	2.46	8.38	19.57	1.54	2.15	2.95	4.15	10.53	2.54	2.07	1.91	0.89	0.88	0.05	1.00	1.50	23.67
L6x3.5x0.5	30	6.000	3.500	0.500	0.500	0.500	0.250	0	0	0	4.53	15.39	18.57	1.44	1.97	2.81	4.00	18.07	4.52	2.00	2.56	1.30	0.75	0.38	1.75	3.00	18.73
L6x3.5x0.375	30	6.000	3.500	0.375	0.375	0.500	0.250	0	0	0	3.45	11.73	18.57	1.38	1.98	2.78	4.03	14.00	3.47	2.01	1.99	1.00	0.76	0.16	1.31	2.25	18.91
L6x3.5x0.3125	30	6.000	3.500	0.313	0.313	0.500	0.250	0	0	0	2.90	9.85	18.57	1.35	2.00	2.76	4.05	11.85	2.92	2.02	1.69	0.84	0.76	0.09	1.09	1.88	18.95
L6x3.5x0.25	30	6.000	3.500	0.250	0.250	0.500	0.250	0	0	0	2.34	7.95	18.57	1.31	2.01	2.74	4.07	9.61	2.36	2.03	1.38	0.68	0.77	0.05	0.88	1.50	18.93
L5x3.5x0.75	30	5.000	3.500	0.750	0.750	0.500	0.250	0	0	0	5.84	19.85	16.57	1.63	1.78	2.63	3.38	16.07	4.75	1.66	3.21	1.80	0.74	1.09	2.63	3.75	24.79
L5x3.5x0.625	30	5.000	3.500	0.625	0.625	0.500	0.250	0	0	0	4.95	16.83	16.57	1.57	1.78	2.61	3.40	13.93	4.10	1.68	2.73	1.53	0.74	0.64	2.19	3.13	25.10
L5x3.5x0.5	30	5.000	3.500	0.500	0.500	0.500	0.250	0	0	0	4.03	13.69	16.57	1.51	1.78	2.59	3.42	11.59	3.39	1.70	2.25	1.26	0.75	0.33	1.75	2.50	25.35
L5x3.5x0.4375	30	5.000	3.500	0.438	0.438	0.500	0.250	0	0	0	3.55	12.08	16.57	1.48	1.79	2.58	3.44	10.34	3.01	1.71	2.00	1.12	0.75	0.23	1.53	2.19	25.45
L5x3.5x0.375	30	5.000	3.500	0.375	0.375	0.500	0.250	0	0	0	3.07	10.45	16.57	1.44	1.79	2.57	3.45	9.02	2.62	1.71	1.75	0.97	0.75	0.14	1.31	1.88	25.52
L5x3.5x0.3125	30	5.000	3.500	0.313	0.313	0.500	0.250	0	0	0	2.59	8.79	16.57	1.41	1.80	2.56	3.46	7.65	2.21	1.72	1.48	0.82	0.76	0.08	1.09	1.56	25.56
L5x3.5x0.25	30	5.000	3.500	0.250	0.250	0.500	0.250	0	0	0	2.09	7.10	16.57	1.37	1.81	2.54	3.48	6.21	1.78	1.72	1.21	0.67	0.76	0.04	0.88	1.25	25.54
L5x3x0.5	30	5.000	3.000	0.500	0.500	0.500	0.250	0	0	0	3.78	12.84	15.57	1.27	1.65	2.38	3.33	10.33	3.10	1.65	1.54	0.93	0.64	0.31	1.50	2.50	19.40
L5x3x0.4375	30	5.000	3.000	0.438	0.438	0.500	0.250	0	0	0	3.34	11.34	15.57	1.24	1.66	2.37	3.35	9.22	2.75	1.66	1.37	0.83	0.64	0.21	1.31	2.19	19.53
L5x3x0.375	30	5.000	3.000	0.375	0.375	0.500	0.250	0	0	0	2.89	9.81	15.57	1.21	1.67	2.35	3.37	8.05	2.39	1.67	1.20	0.72	0.64	0.13	1.13	1.88	19.62
L5x3x0.3125	30	5.000	3.000	0.313	0.313	0.500	0.250	0	0	0	2.43	8.26	15.57	1.18	1.68	2.33	3.39	6.83	2.02	1.68	1.02	0.61	0.65	0.08	0.94	1.56	19.68
L5x3x0.25	30	5.000	3.000	0.250	0.250	0.500	0.250	0	0	0	1.96	6.68	15.57	1.14	1.70	2.31	3.41	5.56	1.63	1.68	0.83	0.49	0.65	0.04	0.75	1.25	19.66
L4x3.5x0.625	30	4.000	3.500	0.625	0.625	0.438	0.219	0	0	0	4.32	14.68	14.62	1.60	1.50	2.50	2.80	8.57	3.06	1.41	2.20	1.38	0.71	0.56	2.19	2.50	36.60
L4x3.5x0.5	30	4.000	3.500	0.500	0.500	0.438	0.219	0	0	0	3.52	11.97	14.62	1.53	1.48	2.49	2.81	7.19	2.56	1.43	1.81	1.18	0.72	0.29	1.75	2.00	36.77
L4x3.5x0.4375	30	4.000	3.500	0.438	0.438	0.438	0.219	0	0	0	3.11	10.58	14.62	1.50	1.48	2.49	2.81	6.43	2.29	1.44	1.61	1.07	0.72	0.20	1.53	1.75	36.83
L4x3.5x0.375	30	4.000	3.500	0.375	0.375	0.438	0.219	0	0	0	2.69	9.15	14.62	1.46	1.47	2.49	2.81	5.64	2.00	1.45	1.40	0.95	0.72	0.13	1.31	1.50	36.88
L4x3.5x0.3125	30	4.000	3.500	0.313	0.313	0.438	0.219	0	0	0	2.27	7.71	14.62	1.43	1.47	2.48	2.82	4.80	1.70	1.45	1.19	0.81	0.73	0.07	1.09	1.25	36.92
L4x3.5x0.25	30	4.000	3.500	0.250	0.250	0.438	0.219	0	0	0	1.83	6.23	14.62	1.39	1.47	2.47	2.83	3.91	1.38	1.46	0.98	0.66	0.73	0.04	0.88	1.00	36.92
L4x3x0.625	30	4.000	3.000	0.625	0.625	0.438	0.219	0	0	0	4.00	13.62	13.62	1.40	1.46	2.20	2.74	7.21	2.64	1.34	1.59	1.09	0.63	0.52	1.88	2.50	27.98
L4x3x0.5	30	4.000	3.000	0.500	0.500	0.438	0.219	0	0	0	3.27	11.12	13.62	1.34	1.46	2.19	2.75	6.06	2.20	1.36	1.31	0.90	0.63	0.27	1.50	2.00	28.31
L4x3x0.4375	30	4.000	3.000	0.438	0.438	0.438	0.219	0	0	0	2.89	9.83	13.62	1.31	1.46	2.18	2.76	5.43	1.96	1.37	1.16	0.80	0.63	0.18	1.31	1.75	28.45
L4x3x0.375	30	4.000	3.000	0.375	0.375	0.438	0.219	0	0	0	2.50	8.52	13.62	1.28	1.46	2.17	2.77	4.76	1.72	1.38	1.02	0.70	0.64	0.12	1.13	1.50	28.55
L4x3x0.3125	30	4.000	3.000	0.313	0.313	0.438	0.219	0	0	0	2.11	7.18	13.62	1.24	1.46	2.16	2.78	4.06	1.46	1.39	0.87	0.59	0.64	0.07	0.94	1.25	28.63
L4x3x0.25	30	4.000	3.000	0.250	0.250	0.438	0.219	0	0	0	1.71	5.81	13.62	1.21	1.47	2.15	2.80	3.31	1.18	1.39	0.71	0.48	0.64	0.04	0.75	1.00	28.64
L3.5x3x0.5	30	3.500	3.000	0.500	0.500	0.438	0.219	0	0	0	3.02	10.27	12.62	1.35	1.30	2.14	2.45	4.55	1.86	1.23	1.14	0.84	0.61	0.25	1.50	1.75	35.42
L3.5x3x0.4375	30	3.500	3.000	0.438	0.438	0.438	0.219	0	0	0	2.67	9.09	12.62	1.32	1.29	2.14	2.45	4.09	1.67	1.24	1.01	0.77	0.62	0.17	1.31	1.53	35.52
L3.5x3x0.375	30	3.500	3.000	0.375	0.375	0.438	0.219	0	0	0	2.32	7.88	12.62	1.28	1.29	2.13	2.46	3.59	1.46	1.25	0.89	0.69	0.62	0.11	1.13	1.31	35.59
L3.5x3x0.3125	30	3.500	3.000	0.313	0.313	0.438	0.219	0	0	0	1.95	6.64	12.62	1.25	1.29	2.13	2.46	3.07	1.24	1.25	0.75	0.59	0.62	0.06	0.94	1.09	35.64
L3.5x3x0.25	30	3.500	3.000	0.250	0.250	0.438	0.219	0	0	0	1.58	5.38	12.62	1.21	1.29	2.12	2.47	2.51	1.01	1.26	0.62	0.48	0.62	0.03	0.75	0.88	35.65
L3.5x2.5x0.5	30	3.500	2.500	0.500	0.500	0.438	0.219	0	0	0	2.77	9.42	11.62	1.15	1.25	1.86	2.38	3.76	1.58	1.17	0.77	0.61	0.53	0.23	1.25	1.75	25.75
L3.5x2.5x0.4375	30	3.500	2.500	0.438	0.438	0.438	0.219	0	0	0	2.45	8.34	11.62	1.12	1.25	1.85	2.39	3.38	1.41	1.17	0.68	0.55	0.53	0.16	1.09	1.53	25.94
L3.5x2.5x0.375	30	3.500	2.500	0.375	0.375	0.438	0.219	0	0	0	2.13	7.24	11.62	1.08	1.25	1.84	2.41	2.98	1.24	1.18	0.60	0.48	0.53	0.10	0.94	1.31	26.09
L3.5x2.5x0.3125	30	3.500	2.500	0.313	0.313	0.438	0.219	0	0	0	1.80	6.11	11.62	1.05	1.26	1.83	2.42	2.55	1.05	1.19	0.51	0.40	0.53	0.06	0.78	1.09	26.20
L3.5x2.5x0.25	30	3.500	2.500	0.250	0.250	0.438	0.219	0	0	0	1.46	4.96	11.62	1.01	1.27	1.81	2.43	2.08	0.86	1.20	0.42	0.33	0.54	0.03	0.63	0.88	26.23
L3x2.5x0.5	30	3.000	2.500	0.500	0.500	0.375	0.188	0	0	0	2.52	8.55	10.68	1.17	1.12	1.80	2.09	2.67	1.28	1.03	0.67	0.57	0.51	0.21	1.25	1.50	33.60
L3x2.5x0.4375	30	3.000	2.500	0.438	0.438	0.375	0.188	0	0	0	2.23	7.58	10.68	1.14	1.11	1.79	2.09	2.41	1.15	1.04	0.59	0.52	0.52	0.14	1.09	1.31	33.76
L3x2.5x0.375	30	3.000	2.500	0.375	0.375	0.375	0.188	0	0	0	1.94	6.59	10.68	1.10	1.11	1.79	2.10	2.13	1.02	1.05	0.52	0.47	0.52	0.09	0.94	1.13	33.89
L3x2.5x0.3125	30	3.000	2.500	0.313	0.313	0.375	0.188	0	0	0	1.64	5.56	10.68	1.07	1.11	1.78	2.10	1.83	0.87	1.06	0.44	0.40	0.52	0.05	0.78	0.94	33.99
L3x2.5x0.25	30	3.000	2.500	0.250	0.250	0.375	0.188	0	0	0	1.33	4.51	10.68	1.03	1.11	1.78	2.11	1.51	0.71	1.07	0.36	0.33	0.52	0.03	0.63	0.75	34.05
L3x2.5x0.1875	30	3.000	2.500	0.188	0.188	0.375	0.188	0	0	0	1.01	3.44	10.68	0.99	1.11	1.77	2.12	1.16	0.55	1.07	0.28	0.25	0.53	0.01	0.47	0.56	34.03
L3x2x0.5	30	3.000	2.000	0.500	0.500	0.313	0.156	0	0	0	2.26	7.69	9.73	0.95	1.04	1.54	2.00	2.16	1.08	0.98	0.41	0.39	0.42	0.19	1.00	1.50	22.43
L3x2x0.4375	30	3.000	2.000	0.438	0.438	0.313	0.156	0	0	0	2.01	6.82	9.73	0.92	1.04	1.53	2.01	1.96	0.97	0.99	0.36	0.35	0.42	0.13	0.88	1.31	22.74
L3x2x0.375	30	3.000	2.000	0.375	0.375	0.313	0.156	0	0	0	1.74	5.93	9.73	0.89	1.05	1.52	2.02	1.73	0.86	1.00	0.32	0.30	0.42	0.08	0.75	1.13	23.01
L3x2x0.3125	30	3.000	2.000	0.313	0.313	0.313	0.156	0	0	0	1.48	5.02	9.73	0.86	1.05	1.51	2.04	1.49	0.73	1.01	0.27	0.26	0.43	0.05	0.63	0.94	23.24
L3x2x0.25	30	3.000	2.000	0.250	0.250	0.313	0.156	0	0	0	1.20	4.07	9.73	0.83	1.05	1.50	2.05	1.23	0.60	1.01	0.22	0.21	0.43	0.02	0.50	0.75	23.41
L3x2x0.1875	30	3.000	2.000	0.188	0.188	0.313	0.156	0	0	0	0.91	3.10	9.73	0.80	1.06	1.48	2.07	0.95	0.46	1.02	0.17	0.16	0.43	0.01	0.38	0.56	23.49
L2.5x2x0.375	30	2.500	2.000	0.375	0.375	0.313	0.156	0	0	0	1.56	5.30	8.73	0.92	0.92	1.44	1.73	1.14	0.66	0.85	0.27	0.29	0.42	0.07	0.75	0.94	31.42
L2.5x2x0.3125	30	2.500	2.000	0.313	0.313	0.313	0.156	0	0	0	1.32	4.48	8.73	0.89	0.92	1.44	1.74	0.98	0.57	0.86	0.23	0.25	0.42	0.04	0.63	0.78	31.62
L2.5x2x0.25	30	2.500	2.000	0.250	0.250	0.313	0.156	0	0	0	1.07	3.65	8.73	0.85	0.92	1.43	1.75	0.82	0.47	0.87	0.19	0.21	0.42	0.02	0.50	0.63	31.76
L2.5x2x0.1875	30	2.500	2.000	0.188	0.188	0.313	0.156	0	0	0	0.82	2.78	8.73	0.82	0.92	1.42	1.76	0.63	0.36	0.88	0.15	0.16	0.42	0.01	0.38	0.47	31.82
L2.5x1.5x0.3125	30	2.500	1.500	0.313	0.313	0.313	0.156	0	0	0	1.16	3.95	7.73	0.66	0.82	1.20	1.66	0.77	0.47	0.81	0.12	0.14	0.32	0.04	0.47	0.78	19.02
L2.5x1.5x0.25	30	2.500	1.500	0.250	0.250	0.313	0.156	0	0	0	0.95	3.22	7.73	0.63	0.82	1.18	1.67	0.64	0.38	0.82	0.10	0.12	0.32	0.02	0.38	0.63	19.29
L2.5x1.5x0.1875	30	2.500	1.500	0.188	0.188	0.313	0.156	0	0	0	0.73	2.47	7.73	0.60	0.84	1.17	1.69	0.50	0.29	0.83	0.07	0.09	0.32	0.01	0.28	0.47	19.43
L2x1.5x0.25	30	2.000	1.500	0.250	0.250	0.250	0.125	0	0	0	0.82	2.79	6.79	0.67	0.73	1.09	1.38	0.38	0.27	0.68	0.08	0.11	0.32	0.02	0.38	0.50	28.27
L2x1.5x0.1875	30	2.000	1.500	0.188	0.188	0.250	0.125	0	0	0	0.63	2.13	6.79	0.64	0.73	1.08	1.39	0.30	0.21	0.69	0.06	0.09	0.32	0.01	0.28	0.38	28.47
L2x1.5x0.125	30	2.000	1.500	0.125	0.125	0.250	0.125	0	0	0	0.43	1.46	6.79	0.60	0.74	1.07	1.40	0.21	0.15	0.69	0.04	0.06	0.32	0.00	0.19	0.25	28.50
L2x1.25x0.25	30	2.000	1.250	0.250	0.250	0.250	0.125	0	0	0	0.76	2.57	6.29	0.55	0.67	0.98	1.34	0.32	0.24	0.66	0.05	0.08	0.26	0.02	0.31	0.50	20.46
L2x1.25x0.1875	30	2.000	1.250	0.188	0.188	0.250	0.125	0	0	0	0.58	1.98	6.29	0.52	0.68	0.96	1.35	0.26	0.19	0.66	0.04	0.06	0.27	0.01	0.23	0.38	20.76
L2x1.25x0.125	30	2.000	1.250	0.125	0.125	0.250	0.125	0	0	0	0.40	1.35	6.29	0.49	0.69	0.94	1.37	0.18	0.13	0.67	0.03	0.04	0.27	0.00	0.16	0.25	20.83
L1.75x1.25x0.25	30	1.750	1.250	0.250	0.250	0.188	0.094	0	0	0	0.69	2.35	5.84	0.57	0.63	0.93	1.19	0.24	0.20	0.58	0.05	0.08	0.26	0.01	0.31	0.44	25.79
L1.75x1.25x0.1875	30	1.750	1.250	0.188	0.188	0.188	0.094	0	0	0	0.53	1.81	5.84	0.54	0.63	0.92	1.20	0.19	0.16	0.59	0.04	0.06	0.27	0.01	0.23	0.33	26.17
L1.75x1.25x0.125	30	1.750	1.250	0.125	0.125	0.188	0.094	0	0	0	0.36	1.23	5.84	0.51	0.63	0.91	1.21	0.13	0.11	0.60	0.03	0.04	0.27	0.00	0.16	0.22	26.38
