!<mkRTViewData> v1.0.0
BTV/000/CUS .\win_b64\code\lib\CATJNISMTypeLib.lib|.\SMTInterfaces\CATJNISMTypeLib.m
RTV/001/CUS .\win_b64\code\bin\CATJNISMTypeLib.dll|.\SMTInterfaces\CATJNISMTypeLib.m
INT/000/CUS .\win_b64\code\bin\CATJNISMTypeLib.pdb|.\SMTInterfaces\CATJNISMTypeLib.m
CSC/000/DSI .\SMTInterfaces\CATJNISMTypeLib.m\Objects\win_b64\mkcsc\CATJNISMTypeLib.cscdb|.\SMTInterfaces\CATJNISMTypeLib.m
INT/000/CUS .\win_b64\code\lib\CATJNISMTypeLib.exp|.\SMTInterfaces\CATJNISMTypeLib.m
@type='SHARED_LIBRARY'
@clr='false'
@kind='NATIVE'
@deliverable='true'
@built='true'
