!<mkRTViewData> v1.0.0
BTV/000/CUS .\win_b64\code\lib\CATENOVIAProviderImpl.lib|.\CATImmENOVIAProvider\CATENOVIAProviderImpl.m
INT/000/CUS .\win_b64\code\bin\CATENOVIAProviderImpl.pdb|.\CATImmENOVIAProvider\CATENOVIAProviderImpl.m
INT/000/CUS .\win_b64\code\lib\CATENOVIAProviderImpl.exp|.\CATImmENOVIAProvider\CATENOVIAProviderImpl.m
RTV/001/CUS .\win_b64\code\bin\CATENOVIAProviderImpl.dll|.\CATImmENOVIAProvider\CATENOVIAProviderImpl.m
CSC/000/DSI .\CATImmENOVIAProvider\CATENOVIAProviderImpl.m\Objects\win_b64\mkcsc\CATENOVIAProviderImpl.cscdb|.\CATImmENOVIAProvider\CATENOVIAProviderImpl.m
@type='SHARED_LIBRARY'
@clr='false'
@kind='NATIVE'
@deliverable='true'
@built='true'
