!<mkRTViewData> v1.0.0
INT/000/CUS .\win_b64\code\bin\CATGuiShapeMorphing.pdb|.\GSMUI\CATGuiShapeMorphing.m
INT/000/CUS .\win_b64\code\lib\CATGuiShapeMorphing.exp|.\GSMUI\CATGuiShapeMorphing.m
RTV/001/CUS .\win_b64\code\bin\CATGuiShapeMorphing.dll|.\GSMUI\CATGuiShapeMorphing.m
CSC/000/DSI .\GSMUI\CATGuiShapeMorphing.m\Objects\win_b64\mkcsc\CATGuiShapeMorphing.cscdb|.\GSMUI\CATGuiShapeMorphing.m
BTV/000/CUS .\win_b64\code\lib\CATGuiShapeMorphing.lib|.\GSMUI\CATGuiShapeMorphing.m
@type='SHARED_LIBRARY'
@clr='false'
@kind='NATIVE'
@deliverable='true'
@built='true'
