!<mkRTViewData> v1.0.0
INT/000/CUS .\win_b64\code\bin\CATCldMeshCleaner.pdb|.\CATCloudBasicResources\CATCldMeshCleaner.m
RTV/001/CUS .\win_b64\code\bin\CATCldMeshCleaner.dll|.\CATCloudBasicResources\CATCldMeshCleaner.m
BTV/000/CUS .\win_b64\code\lib\CATCldMeshCleaner.lib|.\CATCloudBasicResources\CATCldMeshCleaner.m
INT/000/CUS .\win_b64\code\lib\CATCldMeshCleaner.exp|.\CATCloudBasicResources\CATCldMeshCleaner.m
CSC/000/DSI .\CATCloudBasicResources\CATCldMeshCleaner.m\Objects\win_b64\mkcsc\CATCldMeshCleaner.cscdb|.\CATCloudBasicResources\CATCldMeshCleaner.m
@type='SHARED_LIBRARY'
@clr='false'
@kind='NATIVE'
@deliverable='true'
@built='true'
