!<mkRTViewData> v1.0.0
RTV/000/CUS .\win_b64\docs\java\CATJdgAwtObj.jar|.\CATJDialog\CATJdgAwtObj.mj
RTV/000/CUS .\win_b64\docs\javaserver\CATJdgAwtObj.jar|.\CATJDialog\CATJdgAwtObj.mj
CSC/000/DSI .\CATJDialog\CATJdgAwtObj.mj\Objects\win_b64\mkcsc\CATJdgAwtObj.cscdb|.\CATJDialog\CATJdgAwtObj.mj
@type='JAVA_COMMON'
@clr='false'
@kind='JAVA'
@deliverable='true'
@built='true'
