!<mkRTViewData> v1.0.0
CSC/000/DSI .\SimulationCommandLegacy\SC0CMPIL.m\Objects\win_b64\mkcsc\SC0CMPIL.cscdb|.\SimulationCommandLegacy\SC0CMPIL.m
@type='NONE'
@clr='false'
@kind='INCLUDED'
@deliverable='true'
@built='true'
