!<mkRTViewData> v1.0.0
CSC/000/DSI .\Material\CATMaterialCAA2.m\Objects\win_b64\mkcsc\CATMaterialCAA2.cscdb|.\Material\CATMaterialCAA2.m
@type='NONE'
@clr='false'
@kind='INCLUDED'
@deliverable='true'
@built='true'
