!<mkRTViewData> v1.0.0
CSC/000/DSI .\ProcessPlatformVisu\SP0VVPRO.m\Objects\win_b64\mkcsc\SP0VVPRO.cscdb|.\ProcessPlatformVisu\SP0VVPRO.m
@type='NONE'
@clr='false'
@kind='INCLUDED'
@deliverable='true'
@built='true'
