!<mkRTViewData> v1.0.0
BTV/000/CUS .\win_b64\code\lib\CATSchUUID.lib|.\CATSchPlatformInterfaces\CATSchUUID.m
CSC/000/DSI .\CATSchPlatformInterfaces\CATSchUUID.m\Objects\win_b64\mkcsc\CATSchUUID.cscdb|.\CATSchPlatformInterfaces\CATSchUUID.m
@type='ARCHIVE'
@clr='false'
@kind='NATIVE'
@deliverable='true'
@built='true'
