# bitmap Profile contouring feature 

# Top limit
"Top"
0

# Check elements
"Checks"
13
7
142 74
156 86
169 91
187 85
184 77
168 64
142 74
5
157 89
157 101
168 101
168 93
157 89
5
170 93
170 101
187 95
187 87
170 93
17
102 60
102 79
119 79
124 82
124 87
139 93
139 83
142 83 
142 94
155 100
155 88
153 87
141 76
139 76
139 74
137 74
102 60
6
142 63
142 72
165 63
147 55
147 61
142 63
7
119 64
137 72
139 72
139 64
133 66
127 66
117 64
6
103 60
113 64
112 60
111 59
111 57
103 60
6
116 60
116 64
131 66
131 60
123 56
116 56
5
113 54
113 59
114 59
114 54
113 52
5
133 59
133 64
138 62
138 56
133 59
5
141 55
141 61
145 60
145 54
141 55
9
121 45
115 48
115 50
122 54
138 54
138 52
142 48
136 45
121 45
4
115 52
116 54
119 54
115 52

#Guiding elements
"Guides"
4
5
89 130
89 132
99 129
99 126
89 130
5
124 116
124 119
167 103
156 103
124 116
9
189 91
189 93
204 90
222 90
229 92
229 90
225 87
202 86
189 91
5
253 98
253 101
260 104
260 101
253 98

# Bottom plane
"Bottom"
0

# Start limit
"Limit1"
1
5
265 106
265 128
269 128
269 106
265 106


# End limit
"Limit2"
1
5
71 159
71 217
74 217
74 159
71 159

#Aux Guiding elements
"AuxGuides"
5
5
76 213
76 216
111 170
111 165
76 214
5
113 162
113 166
127 150
125 149
113 162
5
126 147
129 149
132 146
129 145
126 147
7
131 143
133 145
153 132
183 120
183 116
150 129
131 143
12
186 115
186 119
203 114
219 114
237 118
261 127
261 124
236 114
221 111
204 111
192 113
186 115

# Offset On Limit 1
"MfgOffsetOnRelim1"
1
4
239 151
279 151
279 151
282 151
 
# Offset On Limit 2
"MfgOffsetOnRelim2"
1
4
180 196
232 196
232 196
235 196

# Hardness on Top
"MfgHardnessOnTop"
0

# Hardness on Bottom
"MfgHardnessOnBottom"
0

# Offset on Top
"MfgGlobalOffsetOnTop"
0

# Offset Axial 1
"MfgOffsetAxial1"
1
4
213 87
213 47
213 87
213 94

# Offset Axial 2
"MfgOffsetAxial2"
1
4
121 229
121 172
121 172
121 157

# Material Side
"MaterialSide"
1
8
64 100
59 96
59 91
63 88
67 88
72 91
72 96
68 100
64 100

#SoftBoundary
"MfgSoftBoundary"
1
30
104 239
113 228 
122 218
136 201
147 190
155 182
166 170
171 166
176 163
183 159
194 156
206 156
219 160
228 163
236 166
247 171
254 174
252 177
242 173
230 167
217 163
203 160
189 161
177 167
160 181
145 199
131 214
118 229
106 242
104 239


