# bitmap Lathe Profile Finishing feature
# p 189 194,189 206,201 206,201 194
 
# Part
"Parts"
1
17
175 215
176 208
179 199
185 191
191 187
200 182
209 182
216 185
220 190
221 201
218 209
213 219
206 224
199 228
191 230
182 229
177 223

# End limit
"EndElement"
1
4
125 43
126 7
156 2
156 35

# Start limit
"StartElement"
1
4
234 119
234 77
267 66
265 111

# Local Plane
"LocalPlane"
1
18
205 273
218 269
216 268
252 240
288 269
286 272
298 275
293 264
291 267
254 236
254 184
256 184
251 173
247 184
250 184
250 236
212 265
210 263




