# bitmap Profile contouring feature 

# Top limit
"Top"
2
20
46 156
34 149
51 139
72 127
93 116
118 110
136 108
138 108
140 111
143 117
133 117
132 118
125 118
124 119
115 120
114 121
107 123
96 127
82 135
46 156
14
247 155
208 132
196 126
182 121
177 120
179 119
180 111
193 114
215 122
252 144
261 149
260 149
249 156
247 155

# Check elements
"Checks"
9
13
124 81
124 70
125 70
125 71
127 73
127 74
133 83
138 91
142 101
145 108
145 114
140 106
124 81
8
148 118
148 111
152 114
152 115
154 115
154 121
149 119
148 118
8
157 122
157 116
166 115
168 114
176 113
176 118
161 121
157 122
15
142 92
143 97
146 102
146 104
149 108
156 114
169 111
176 110
178 102
177 97
172 86
149 91
147 91
147 92
142 92
14
131 75
140 89
140 90
168 84
170 84
170 82
162 69
158 78
149 80
146 80
145 81
140 81
136 78
131 75
6
125 66
125 65
129 65
129 67
128 70
125 66
13
134 67
139 70
150 70
155 68
158 65
158 63
156 60
151 58
139 58
135 60
133 62
134 63
134 67
8
143 78
143 75
144 74
152 73
155 73
155 76
150 77
143 78
8
131 72
131 69
135 71
136 71
140 75
140 77
139 77
131 72

#Guiding elements
"Drives"
1
36
47 188
47 158
66 147
90 133
103 127
120 122
136 120
145 120
154 125
163 124
164 123
174 122
175 122
191 127
192 127
206 134
247 158
247 188
246 188
205 164
204 164
186 156
184 156
183 155
174 153
167 152
160 151
132 151
131 152
118 153
117 154
104 157
95 162
90 164
72 174
47 188

# Bottom plane
"Bottom"
1
24
48 191
64 181
68 178
72 178
75 175
95 164
107 159
125 155
137 154
163 154
176 156
192 161
216 173
246 191
213 210
212 210
165 183
155 180
139 180
138 181
131 182
89 206
82 210
48 191

# Start limit
"Limit1"
1
11
214 218
214 212
249 192
249 191
250 190
250 158
260 152
261 152
261 190
259 192
214 218

# End limit
"Limit2"
1
11
33 190
33 152
34 152
44 158
44 190
45 191
45 192
80 212
80 218
34 191
33 190

#Aux Guiding elements
"AuxGuides"
0

# Offset on Top
"MfgGlobalOffsetOnTop"
0

# Offset Axial 1
"MfgOffsetAxial1"
0

# Offset Axial 2
"MfgOffsetAxial2"
0
# Islands
"Islands"
0
# Hardness on Top
"MfgHardnessOnTop"
1
1
170 12

# Hardness on Bottom
"MfgHardnessOnBottom"
1
1
103 253
