# bitmap Trochoid feature

#Guiding elements
"Guides"
1
36
47 209
47 179
66 168
90 154
103 148
120 143
136 141
145 141
156 141
163 142
164 142
174 143
175 143
191 148
192 148
206 155
247 179
247 209
246 209
205 185
204 185
186 177
184 177
183 176
174 174
167 173
160 172
132 172
131 173
118 174
117 175
104 178
95 183
90 185
72 195
47 209


# Bottom plane  
"Bottom"
3
10
217 228
217 214
218 214
218 213
221 211
226 208
228 203
228 200
246 211
217 228
41
92 199
98 198
99 197
100 197
101 197
102 197
102 194
100 194
121 186
125 185
131 184
134 184
160 184
175 187
177 187
186 190
197 197
198 200
196 201
194 200
191 198
186 196
184 195
180 195 
176 192
159 189
130 189
130 190
124 190
119 191
115 194
103 198
76 212
74 212
74 213
74 227
70 225
74 221
74 205
70 213
92 199
45
67 211
60 209
55 209
69 199
88 190
88 189
103 182
106 182
108 180
110 180
110 179
114 179
114 178
118 178
118 177
122 177
122 176 
130 176 
130 175
161 175
162 176
171 176
190 181
190 182
192 182
212 193
207 192
207 193
199 195
180 187
158 181
134 181
133 181
123 184
119 185
99 192
99 193
97 193
97 191
94 193
94 195
88 200
67 211

# Start limit
"Limit1"
1
14
213 238
213 217
215 216
216 217
216 230
219 230  
249 213
249 210
249 179
259 174
261 174
261 211
259 212
214 238

# End limit
"Limit2"
2
8
32 211
32 173
34 174
44 179
44 212
40 215
40 216
32 211
7
60 228
68 227
76 232
76 215
80 217
80 239
60 228

# Offset On Limit 1
"MfgOffsetOnRelim1"
1
4
226 259
284 259
226 259
204 246

# Offset On Limit 2
"MfgOffsetOnRelim2"
0

# Hardness on Top
"MfgHardnessOnTop"
0

# Top limit
"Top"
0

# Check elements
"Checks"
0

# Hardness on Bottom
"MfgHardnessOnBottom"
0

# Offset on Top
"MfgGlobalOffsetOnTop"
0

# Offset Axial 1
"MfgOffsetAxial1"
0

# Offset Axial 2
"MfgOffsetAxial2"
0
