# bitmap Profile contouring feature with Hard Bottom/Hard Top/On Start/To End

# Top limit
"Top"
1
8
216 88
236 76
241 75
259 85
259 86
236 99
235 99
216 88

# Check elements
"Checks"
9
13
122 82
122 71
123 71
123 72
125 74
125 75
131 84
136 92
140 102
143 109
143 115
138 107
122 82
8
146 119
146 112
150 115
150 116
152 116
152 122
147 120
146 119
8
155 123
155 117
164 116
166 115
174 114
174 119
159 122
155 123
15
140 93
141 98
144 103
144 105
147 109
154 115
167 112
174 111
176 103
175 98
170 87
147 92
145 92
145 93
140 93
14
129 76
138 90
138 91
166 85
168 85
168 83
160 70
156 79
147 81
144 81
143 82
138 82
134 79
129 76
6
123 67
123 66
127 66
127 68
126 71
123 67
13
132 68
137 71
148 71
153 69
156 66
156 64
154 61
149 59
137 59
133 61
131 63
132 64
132 68
8
141 79
141 76
142 75
150 74
153 74
153 77
148 78
141 79
8
129 73
129 70
133 72
134 72
138 76
138 78
137 78
129 73

#Guiding elements 
"Guides"
2
6
46 189
58 182
58 165
57 165
48 170
46 169
35
93 162
114 155
131 152
148 152
149 151
156 152
173 154
190 159
191 159
191 160
199 163
217 173
218 173
220 167
221 167
225 165
225 160
201 146
199 145
188 140
165 134
149 133
136 133
135 134
126 134
120 135
103 140
102 140
87 148
86 149
86 153
87 154
91 157
93 160
93 162

# Bottom plane 
"Bottom"
3
9
47 192
58 185
59 191
60 191
63 194
86 208
80 211
48 193
47 192
31
89 206
124 186
130 183
139 181
154 181
155 182
162 183
196 203
207 209
210 211
211 211
221 205
218 199
218 190
191 174
179 169
157 164
132 164
131 165
122 166
100 174
98 175
100 176
99  178
93 179
93 189
90 193
83 197
72 197
88 207
89 206
30
191 171
218 187
218 179
216 176
212 173
195 164
193 164
191 162
177 158
152 154
138 155
128 155
121 157
115 158
112 158
93 165
93 174
95 172
96 173
109 168
123 163
136 161
159 161
160 162
167 163
168 164
175 165
176 166
191 170
191 171

# Start limit 
"Limit1"
2
7
212 219
231 208
224 206
214 212
213 213
212 213
212 219
9
253 195
253 171
248 165
247 166
246 165
246 160
260 152
260 191
253 195

# End limit
"Limit2"
1
14
31 191
31 152
47 162
47 167
46 166
43 166
43 192
44 192
44 193
66 206
78 213
79 213
79 219
31 191

# Offset On Limit 1
"MfgOffsetOnRelim1"
0

# Offset On Limit 2
"MfgOffsetOnRelim2"
1
4
55 232
82 232
82 232
98 222

# Hardness on Top
"MfgHardnessOnTop"
1
1
170 12

# Hardness on Bottom
"MfgHardnessOnBottom"
1
1
103 253

# Offset on Top
"MfgGlobalOffsetOnTop"
1
1
2 12

# Offset Axial 1
"MfgOffsetAxial1"
0

# Offset Axial 2
"MfgOffsetAxial2"
0

#SoftBoundary
"MfgSoftBoundary"
1
19
83 212
104 200
130 186
139 185
156 185
167 187
178 194
187 199
201 206
210 212
210 218
185 203
168 193
155 188
135 189
103 206
96 210
83 217
83 212
