# bitmap Profile contouring feature with Soft Bottom/Hard Top/On Start/To End

# Top limit
"Top"
1
8
217 96
239 83
242 83
261 94
260 94
237 107
236 107
217 96

# Check elements
"Checks"
9
13
122 82
122 71
123 71
123 72
125 74
125 75
131 84
136 92
140 102
143 109
143 115
138 107
122 82
8
146 119
146 112
150 115
150 116
152 116
152 122
147 120
146 119
8
155 123
155 117
164 116
166 115
174 114
174 119
159 122
155 123
15
140 93
141 98
144 103
144 105
147 109
154 115
167 112
174 111
176 103
175 98
170 87
147 92
145 92
145 93
140 93
14
129 76
138 90
138 91
166 85
168 85
168 83
160 70
156 79
147 81
144 81
143 82
138 82
134 79
129 76
6
123 67
123 66
127 66
127 68
126 71
123 67
13
132 68
137 71
148 71
153 69
156 66
156 64
154 61
149 59
137 59
133 61
131 63
132 64
132 68
8
141 79
141 76
142 75
150 74
153 74
153 77
148 78
141 79
8
129 73
129 70
133 72
134 72
138 76
138 78
137 78
129 73

#Guiding elements
"Guides"
2
7
46 186
46 169
46 170
49 170
58 165
58 178
46 186
31
92 159
92 157
86 153
86 149
96 143
109 138
123 135
142 133
154 133
155 134
163 134
184 139
195 143
225 160
225 165
220 168
219 170
218 170
193 156
168 149
161 149
161 148
151 148
150 147
146 147
145 148
129 148
128 149
116 151
104 154
92 159

# Bottom plane
"Bottom"
1
8
133 196
153 184
158 183
177 194
176 194
153 207
152 207
133 196

# Start limit
"Limit1"
1
11
253 183
253 171
252 171
251 168
250 168
249 166
246 166
246 161
260 152
260 179
253 183

# End limit
"Limit2"
1
8
31 179
31 152
47 162
47 167
46 166
43 166
43 186
31 179

# Offset On Limit 1
"MfgOffsetOnRelim1"
0

# Offset On Limit 2
"MfgOffsetOnRelim2"
1
4
17 239
71 239
71 239
90 227


# Hardness on Top
"MfgHardnessOnTop"
1
1
170 12

# Hardness on Bottom
"MfgHardnessOnBottom"
1
1
103 253

# Offset on Top
"MfgGlobalOffsetOnTop"
1
1
2 12

# Offset Axial 1
"MfgOffsetAxial1"
0

# Offset Axial 2
"MfgOffsetAxial2"
0

#Soft Boundary
"MfgSoftBoundary"
0
