# bitmap Profile contouring feature with Hard Bottom/Hard Top/To Start/To End

# Top limit
"Top"
1
10
217 94
236 105
237 105
260 92
258 90
242 81
240 81
235 83
234 84
217 94

# Check elements
"Checks"
9
13
123 81
123 70
124 70
124 71
126 73
126 74
132 83
137 91
141 101
144 108
144 114
139 106
123 81
8
147 118
147 111
151 114
151 115
153 115
153 121
148 119
147 118
8
156 122
156 116
165 115
167 114
175 113
175 118
160 121
156 122
15
141 92
142 97
145 102
145 104
148 108
155 114
168 111
175 110
177 102
176 97
171 86
148 91
146 91
146 92
141 92
14
130 75
139 89
139 90
167 84
169 84
169 82
161 69
157 78
148 80
145 80
144 81
139 81
135 78
130 75
6
124 66
124 65
128 65
128 67
127 70
124 66
13
133 67
138 70
149 70
154 68
157 65
157 63
155 60
150 58
138 58
134 60
132 62
133 63
133 67
8
142 78
142 75
143 74
151 73
154 73
154 76
149 77
142 78
8
130 72
130 69
134 71
135 71
139 75
139 77
138 77
130 72

#Guiding elements 
"Guides"
1
30
94 161
115 154
132 151
149 151
150 150
157 151
174 153
191 158
192 158

228 178

246 188

246 168

243 169

242 168

200 144

189 139
166 133
150 132
137 132
136 133
127 133
121 134
104 139
103 139
88 147
87 148
49 169

47 168

47 188

94 161

# Bottom plane
"Bottom"
1
24
48 191
64 181
68 178
72 178
75 175
95 164
107 159
125 155
137 154
163 154
176 156
192 161
216 173
246 191
213 210
212 210
165 183
155 180
139 180
138 181
131 182
89 206
82 210
48 191


# Start limit
"Limit1"
1
9
213 218
213 212
249 192
249 165
245 165
245 160
261 151
261 190
213 218

# End limit
"Limit2"
1
14
32 190
32 151
48 161
48 166
47 165
44 165
44 191
45 191
45 192
67 205
79 212
80 212
80 218
32 190

# Offset On Limit 1
"MfgOffsetOnRelim1"
1
4
231 240
271 240
231 240
195 221

# Offset On Limit 2
"MfgOffsetOnRelim2"
1
4
55 232
82 232
82 232
98 222

# Hardness on Top
"MfgHardnessOnTop"
1
1
170 32

# Hardness on Bottom
"MfgHardnessOnBottom"
1
1
103 235

# Offset on Top
"MfgGlobalOffsetOnTop"
1
1
2 12

# Offset Axial 1
"MfgOffsetAxial1"
0

# Offset Axial 2
"MfgOffsetAxial2"
0

#SoftBoundary
"MfgSoftBoundary"
1
19
83 212
104 200
130 186
139 185
156 185
167 187
178 194
187 199
201 206
210 212
210 218
185 203
168 193
155 188
135 189
103 206
96 210
83 217
83 212

