# bitmap 4x Curve Sweeping feature 

# Part Elements
"Parts"
1
27
133 273
121 260
116 243
112 207
108 173
101 153
94 142
83 139
70 130
70 122
77 115
80 115
90 110
104 116
120 116
130 110
131 102
157 104
165 106
173 109
182 116
167 142
163 158
161 221
156 244
147 260
133 273

"Checks"
9
19
62  80
94  94
94  95
95  95
95  96
96  96
96  97
97 97
97 98
99 98
99 99
100 99
100 100
102 100
102 101
104 101
104 112
62  95
62  80
9
106 102
106 112
116 112
116 104
111 104
111 103
107 104
107 102
106 102
20
118 104
118 112
119 112
119 111
121 111
121 112
124 110
124 109
126 109
126 108
127 108
127 100
127 101
124 101
124 102
122 102
122 103
119 103
119 104
118 104
34
63  78
65  78
65  77
67  77
67  76
70  76
70  75
72  75
72  82
74  82
74  83
76  83
76  84
79  84
79  85
81  85
81  86
97  86
97 85
99 85
99 84
101 84
101 83
103 83
103 82
104 82
104 77
105 77
115 82
115 83
94  92
93  92
63  79
63  78
21
95  93
97 96
100 96
100 97
101 97
101 98
105 100
108 100
108 101
112 101
112 102
118 102
118 101
121 101
127 98
127 96
126 94
125 94
125 92
117 84
95  93
6
74  78
81  81
81  82
82  82
82  84
74  80
4
84  82
95  82
95  84
84  84
6
97  81
101 79
102 79
102 81
98 83
97  83
15
74  72
74  76
77  78
80  78
80  79
82  80
96  80
101 77
102 77
102 73
101 73
101 72
93  68
82  68
75  72
