# bitmap 5 Axis Helix Machining feature

"Parts"
1
16
121 256
121 243
121 231
119 217
98 148
72 74
125 92
184 116
236 134
259 140
233 197
228 223
229 248
230 259
169 253
144 253

"Checks"
2
18
115 250
113 256
119 262
149 259
233 265
237 265
237 259
243 263
245 269
240 274
230 274
201 270
180 269
149 269
118 271
109 266
106 259
111 252
16
107 266
111 271
119 273
155 271
181 271
198 272
235 277
242 275
239 277
228 277
194 272
154 272
131 273
122 274
114 273
109 270
