# bitmap Profile contouring feature 

# Top limit
"Top"
0

# Check elements
"Checks"
12
12
51 73
51 92
87 106
87 96
90 96
90 107
104 113
104 100
90 89
87 89
87 87
51 73
5
106 102
106 114 
117 114
117 105
106 102
5
119 106
119 114
136 108
136 99
119 106
8
91 87
105 99
118 104
135 97
134 92
133 90
117 76
91 87
5
62 64
62 68 
63 73
63 68
62 64
5
52 71
62 75
60 70
60 68
52 71
5
65 69
65 74
80 77
80 71
65 69
6
66 77
87 85
87 77
82 79
76 79
66 77
5
82 72
82 77
87 75
87 69
82 72
5
90 68
90 74
94 73
94 67
90 68
6
90 76
90 85
115 76
96 68
96 75
90 76
11
64 61
64 63
72 67 
85 67
87 66
87 64
92 64
92 62
85 58
70 58
64 61

#Guiding elements
"Guides"
2
5
69 130
69 132
112 116
106 116
69 130
13
138 103
138 106
175 93
186 90
201 90
214 93
241 103
241 100
214 90
201 87
186 87
175 90
138 103

# Bottom plane
"Bottom"
2
6
55 217 
55 219
62 221
83 193
73 194
55 217
10
64 222
68 224 
78 224
90 219
95 215
108 200
100 197
91 195 
85 195
64 222

# Start limit
"Limit1"
1
5
247 108
247 126
251 124
251 110
247 108

# End limit
"Limit2"
1
5
49 157 
49 217
55 219 
55 159
49 157

#Aux Guiding elements
"AuxGuides"
0

# Offset On Limit 1
"MfgOffsetOnRelim1"
1
4
208 156
253 156
253 156
255 156

# Offset On Limit 2
"MfgOffsetOnRelim2"
1
4
170 173
223 173
223 173
225 173

# Hardness on Top
"MfgHardnessOnTop"
0

# Hardness on Bottom
"MfgHardnessOnBottom"
0

# Offset on Top
"MfgGlobalOffsetOnTop"
0

# Offset Axial 1
"MfgOffsetAxial1"
1
4
193 87
193 37
193 87
193 96

# Offset Axial 2
"MfgOffsetAxial2"
0

#SoftBoundary
"MfgSoftBoundary"
1
22
54 220
65 223
75 226
86 222
96 215
118 189
135 166
150 152
163 143
178 137
197 137
208 141
209 143
198 139
178 139
156 150
133 172
108 204
94 220
77 228
54 222
54 220
