# bitmap 4x Curve Sweeping feature 

# Part Elements
"Parts"
1 
13 
45 189
64 180
81 169
83 171
107 185
108 187
109 188
109 192
105 196
77 211
67 205
53 195
46 190

"Checks"
9
11
41 111
48 107
59 107
68 112
68 116
62 119
48 119
44 117
41 116
40 115
40 111
5
50 121
61 121
61 123
50 123
50 121
9
43 121
40 119
45 121
48 123
48 121
44 119
43 119
40 117
43 121
5
63 122
68 120
68 118
63 120
63 122
12
29 118
60 131
81 122
81 121
70 116
70 121
61 125
49 125
39 121
38 121
38 114
29 117
8
28 132
70 150
70 139
60 132
41 124
29 119
28 118
28 132
10
62 132
71 139
78 140
81 141
83 141
93 137
91 131
83 123
67 130
63 132
4
72 151
82 151
82 143
72 141
5
84 151
93 147
93 139
84 143
84 151

# Face Drives
"Drives"
10 
13  
22 164
43 182
46 182
73 168
102 149
95 143
95 148
84 152
70 152
63 149
58 148
42 156
22 163
34  
93 131
89 127
91 123
104 112
105 112
121 96
121 95
133 83
166 105
180 113
198 121
209 125
225 130
252 135
273 136
273 137
265 147
253 162
242 174
232 185
227 190
218 189
206 185
224 166
224 156
220 152
197 145
176 137
150 123
142 121
132 123
104 144
94 135
93 130
13  
203 192
223 197
209 209
191 223
186 225
178 230
169 235
151 232
144 230
163 221
181 210
192 202
202 192
12  
129 173
144 163
153 163
170 170
172 172
172 175
160 184
155 186
148 186
130 178
128 178
129 174
15
45 186
78 168
101 153
106 146
131 127
134 126
134 131
132 131
124 136
118 142
104 153
81 168
61 180
45 187
45 186
7
138 125
137 126
137 130
145 130
145 126
144 125
138 125
11
148 126
148 131
173 144
192 152
221 162
221 158
218 155
185 144
171 138
152 128
148 126
6
128 181
128 191
131 194
144 200
144 189
128 181
8
147 201
147 189
150 191
153 191
158 188
158 201
153 202
147 201
6
161 198
161 187
173 178
173 188
166 195
161 198

# Soft Guide Contour
"Guides"
1 
15 
42 192
42 194
57 204
73 214
93 224
115 234
139 243
143 241
121 233
101 224
85 217
69 208
58 201
48 194
43 191

