# bitmap Trochoid feature

#Guiding elements
"Guides"
1
36
47 209
47 179
66 167
90 153
103 147
120 142
136 140
145 140
156 140
163 141
164 141
174 142
175 142
191 147
192 147
206 154
247 178
247 208
246 208
205 184
204 184
186 176
184 176
183 175
174 173
167 172
162 172
132 172
131 173
118 174
117 175
104 178
95 183
90 185
72 195
47 209

# Bottom plane  
"Bottom"
3
10
218 228
218 214
219 214
219 213
222 211
227 208
229 203
229 200
247 211
218 228
38
92 199
98 198
99 197
100 197
101 197
102 197
102 194
100 194
121 186
125 185
131 184
134 184
160 184
175 187
177 187
186 190
197 197
198 200
196 201
194 200
191 198
186 196
184 195
180 195 
176 192
159 189
130 189
130 190
124 190
119 191
115 194
103 198
76 212
74 212
75 213
75 227
61 219
92 199
28
57 217
48 212
95 185
107 180
125 176
137 175
163 175
176 177
189 181
209 190
214 193
206 193
200 195
199 195
188 189
172 184
157 181
134 181
133 182
120 184
119 185
96 194
96 192
94 192
94 195
89 199
88 199
57 217

# Start limit
"Limit1"
1
14
213 238
213 216
215 215
217 216
217 230
219 230  
249 213
250 210
250 179
260 174
262 174
262 211
259 212
213 238

# End limit
"Limit2"
2
11
33 211
33 173
34 174
45 179
45 212
46 212
46 214
54 219
51 221
49 221
33 211
7
53 223
57 220
76 232
76 215
81 217
81 240
53 223

# Offset On Limit 1
"MfgOffsetOnRelim1"
1
4
226 260
284 260
226 260
204 247

# Offset On Limit 2
"MfgOffsetOnRelim2"
1
4
20 259
73 259
73 259
93 246

# Top limit
"Top"
0

# Check elements
"Checks"
0


# Hardness on Top
"MfgHardnessOnTop"
0

# Hardness on Bottom
"MfgHardnessOnBottom"
0

# Offset on Top
"MfgGlobalOffsetOnTop"
0

# Offset Axial 1
"MfgOffsetAxial1"
0

# Offset Axial 2
"MfgOffsetAxial2"
0
