# bitmap Profile contouring feature with Hard Bottom/Hard Top/Past Start/Past End

# Top limit
"Top"
2
20
45 157
33 150
50 140
71 128
92 117
117 111
135 109
137 109
139 112
142 118
132 118
131 119
124 119
123 120
114 121
113 122
106 124
95 128
81 136
46 157
14
246 156
207 133
195 127
181 122
176 121
178 120
179 112
192 115
214 123
251 145
260 150
259 150
248 157
246 156

# Check elements
"Checks"
9
13
123 82
123 71
124 71
124 72
126 74
126 75
132 84
137 92
141 102
144 109
144 115
139 107
123 82
8
147 119
147 112
151 115
151 116
153 116
153 122
148 120
147 119
8
156 123
156 117
165 116
167 115
175 114
175 119
160 122
156 123
15
141 93
142 98
145 103
145 105
148 109
155 115
168 112
175 111
177 103
176 98
171 87
148 92
146 92
146 93
141 93
14
130 76
139 90
139 91
167 85
169 85
169 83
161 70
157 79
148 81
145 81
144 82
139 82
135 79
130 76
6
124 67
124 66
128 66
128 68
127 71
124 67
13
133 68
138 71
149 71
154 69
157 66
157 64
155 61
150 59
138 59
134 61
132 63
133 64
133 68
8
142 79
142 76
143 75
151 74
154 74
154 77
149 78
142 79
8
130 73
130 70
134 72
135 72
139 76
139 78
138 78
130 73

#Guiding elements
"Guides"
1
36
46 189
46 159
65 148
89 134
102 128
119 123
135 121
144 121
153 126
162 125
163 124
173 123
174 123
190 128
191 128
207 135
246 159
246 189
245 189
204 165
203 165
185 157
183 157
182 156
173 154
166 153
159 152
131 152
130 153
117 154
116 155
103 158
94 163
89 165
71 175
46 189

# Bottom plane 
"Bottom"
2
28
81 211
60 199
60 198
87 182
97 180
97 178
96 177
102 174
120 167
128 165
138 164
159 164
174 168
183 170
211 185
233 198
233 199
212 211
211 211
166 185
154 181
138 181
137 182
130 183
129 184
122 187
116 191
81 211
34
57 197
82 182
84 181
91 174
92 174
92 176
93 176
97 173
118 165
124 163
137 161
159 161
160 162
167 163
180 167
186 168
186 169
192 171
236 197
246 192
221 178
206 169
191 162
179 158
161 155
130 155
114 158
101 162
85 170
52 189
47 192
53 195
56 197
57 197

# Start limit 
"Limit1"
2
6
213 219
240 203
240 202
236 200
213 213
213 219
13
239 198
248 193
248 192
249 191
249 159
259 153
260 153
260 191
259 192
245 200
244 201
243 201
239 198

# End limit 
"Limit2"
2
13
32 191
32 153
33 153
43 159
43 191
44 192
44 193
53 198
53 199
50 201
48 201
33 192
32 191
7
52 203
56 200
57 200
79 213
79 218
78 218
52 203

# Offset On Limit 1
"MfgOffsetOnRelim1"
1
4
240 257
291 257
240 257 
218 244

# Offset On Limit 2
"MfgOffsetOnRelim2"
1
4
7 253
48 253
48 253
75 236

# Hardness on Top
"MfgHardnessOnTop"
1
1
170 12

# Hardness on Bottom
"MfgHardnessOnBottom"
1
1
103 253

# Offset on Top
"MfgGlobalOffsetOnTop"
1
1
2 12

# Offset Axial 1
"MfgOffsetAxial1"
0

# Offset Axial 2
"MfgOffsetAxial2"
0

#SoftBoundary
"MfgSoftBoundary"
1
19
83 212
104 200
130 186
139 185
156 185
167 187
178 194
187 199
201 206
210 212
210 218
185 203
168 193
155 188
135 189
103 206
96 210
83 217
83 212
