# bitmap Profile contouring feature with Soft Bottom/Hard Top/Past Start/On End

# Top limit
"Top"
1
8
214 87
236 74
239 74
258 85
256 85
234 98
233 98
214 87

# Check elements
"Checks"
9
13
122 81
122 70
123 70
123 71
125 73
125 74
131 83
136 91
140 101
143 108
143 114
138 106
122 81
8
146 118
146 111
150 114
150 115
152 115
152 121
147 119
146 118
8
155 122
155 116
164 115
166 114
174 113
174 118
159 121
155 122
15
140 92
141 97
144 102
144 104
147 108
154 114
167 111
174 110
176 102
175 97
170 86
147 91
145 91
145 92
140 92
14
129 75
138 89
138 90
166 84
168 84
168 82
160 69
156 78
147 80
144 80
143 81
138 81
134 78
129 75
6
123 66
123 65
127 65
127 67
126 70
123 66
13
132 67
137 70
148 70
153 68
156 65
156 63
154 60
149 58
137 58
133 60
131 62
132 63
132 67
8
141 78
141 75
142 74
150 73
153 73
153 76
148 77
141 78
8
129 72
129 69
133 71
134 71
138 75
138 77
137 77
129 72

#Guiding elements
"Guides"
1
44
72 169
71 167
67 164
66 164
66 159
75 154
89 146
100 140
111 137
117 135
131 133
145 132
154 132
155 133
163 133
164 134
174 135
175 136
188 139
198 143
240 168
241 169
244 169
245 168
245 184
244 184
203 160
202 160
187 153
186 153
173 149
156 147
131 147
130 148
123 148
122 149
117 149
116 150
103 153
102 154
82 163
81 164
73 169
72 169

# Bottom plane
"Bottom"
1
8
122 194
144 181
147 181
166 192
164 192
142 205
141 205
122 194

# Start limit
"Limit1"
1
11
248 185
248 165
245 165
244 166
244 161
260 151
260 169
257 174
257 179
256 180
248 185

# End limit
"Limit2"
1
9
31 178
31 151
45 160
45 165
41 166
41 167
38 171
38 182
31 178

# Offset On Limit 1
"MfgOffsetOnRelim1"
1
4
232 253
279 253
232 253
216 244

# Offset On Limit 2
"MfgOffsetOnRelim2"
0



# Hardness on Top
"MfgHardnessOnTop"
1
1
170 12

# Hardness on Bottom
"MfgHardnessOnBottom"
1
1
103 253

# Offset on Top
"MfgGlobalOffsetOnTop"
1
1
2 12

# Offset Axial 1
"MfgOffsetAxial1"
0

# Offset Axial 2
"MfgOffsetAxial2"
0

#Soft Boundary
"MfgSoftBoundary"
0
