# bitmap Profile contouring feature with Soft Bottom/Soft Top/To Start/On End

# Top limit
"Top"
2
25
33 150
45 143
69 129
88 119
105 114
119 111
128 110
133 110
134 109
137 109
137 110
143 118
125 119
125 120
124 121
123 120
105 124
104 125
87 132
85 134
79 137
66 145
49 155
45 157
33 150
18
177 121
179 118
180 112
181 113
189 114
209 121
242 140
260 151
249 156
248 157
247 157
227 145
203 132
192 126
191 126
180 122
178 122
177 121

# Check elements
"Checks"
9
13
123 82
123 71
124 71
124 72
126 74
126 75
132 84
137 92
141 102
144 109
144 115
139 107
123 82
8
147 119
147 112
151 115
151 116
153 116
153 122
148 120
147 119
8
156 123
156 117
165 116
167 115
175 114
175 119
160 122
156 123
15
141 93
142 98
145 103
145 105
148 109
155 115
168 112
175 111
177 103
176 98
171 87
148 92
146 92
146 93
141 93
14
130 76
139 90
139 91
167 85
169 85
169 83
161 70
157 79
148 81
145 81
144 82
139 82
135 79
130 76
6
124 67
124 66
128 66
128 68
127 71
124 67
13
133 68
138 71
149 71
154 69
157 66
157 64
155 61
150 59
138 59
134 61
132 63
133 64
133 68
8
142 79
142 76
143 75
151 74
154 74
154 77
149 78
142 79
8
130 73
130 70
134 72
135 72
139 76
139 78
138 78
130 73

#Guiding elements
"Guides"
1
39
46 185
46 159
67 147
83 138
91 133
98 130
108 126
122 123
128 122
138 121
145 121
146 122
153 126
164 125
164 124
173 123
174 124
177 124
186 127
199 132
220 144
246 159
246 185
231 177
211 165
210 165
202 160
201 160
187 154
161 148
132 148
131 149
124 149
123 150
112 152
97 157
82 165
48 185
46 185

# Bottom plane
"Bottom"
1
8
114 197
135 185
139 184
158 195
156 195
134 208
133 208
114 197

# Start limit
"Limit1"
1
7
249 185
249 159
250 159
251 158
260 153
260 179
249 185

# End limit
"Limit2"
1
7
32 179
32 153
33 153
43 159
43 185
42 185
32 179

# Offset On Limit 1
"MfgOffsetOnRelim1"
1
4
223 238
267 238
223 238
205 229

# Offset On Limit 2
"MfgOffsetOnRelim2"
0


# Hardness on Top
"MfgHardnessOnTop"
1
1
170 12

# Hardness on Bottom
"MfgHardnessOnBottom"
1
1
103 253

# Offset on Top
"MfgGlobalOffsetOnTop"
1
1
2 12

# Offset Axial 1
"MfgOffsetAxial1"
0

# Offset Axial 2
"MfgOffsetAxial2"
0

#Soft Boundary
"MfgSoftBoundary"
0
