# bitmap Profile contouring feature 

# Top limit
"Top"
0

# Check elements
"Checks"
11
7
121 75
135 87
148 92
165 85
164 79
147 65
121 75
5
137 90
137 102
147 102
147 94
137 90
5
150 94
150 102
166 96
166 88
150 94
16
82 61
82 80
98 80
104 83
104 88
118 94
118 84
121 84 
121 93
135 101
135 91
155 89
120 77
118 77
118 75
82 61
6
121 64
121 73
143 64
126 57
126 62
121 64
7
98 65
117 73
118 73
118 65
113 67
105 67
98 65
6
83 59
93 63
92 59
90 58
90 57
83 59
6
95 58
95 63
111 65
111 60
97 57
95 58
5
113 59
113 65
125 61
125 55
113 59
11
94 49
94 51
104 55
118 55
122 53
122 50
115 46
103 46
103 47
98 47 
94 49
4
92 52 
92 57 
93 59
93 54

#Guiding elements
"Guides"
3
5
68 130
68 133
79 129
79 126
68 130
5
104 117
104 120
144 104
136 104
104 116
10
168 92
168 95
183 91
201 91
239 104
239 101
215 92
204 87
181 87
168 92

# Bottom plane
"Bottom"
1
12
54 219
69 225
75 225 
84 222
91 218
102 207
110 196
95 195 
85 194
69 198
54 218
54 219

# Start limit
"Limit1"
1
5
245 110
245 128
250 126
250 108
245 110

# End limit
"Limit2"
1
5
47 157
47 217
53 219
53 159
47 157

#Aux Guiding elements
"AuxGuides"
0

# Offset On Limit 1
"MfgOffsetOnRelim1"
0

# Offset On Limit 2
"MfgOffsetOnRelim2"
1
4
161 163
221 163
221 163
223 163

# Hardness on Top
"MfgHardnessOnTop"
0

# Hardness on Bottom
"MfgHardnessOnBottom"
0

# Offset on Top
"MfgGlobalOffsetOnTop"
0

# Offset Axial 1
"MfgOffsetAxial1"
1
4
192 87
192 37
192 87
192 96

# Offset Axial 2
"MfgOffsetAxial2"
0

#SoftBoundary
"MfgSoftBoundary"
1
22
52 222
63 225
73 228
84 224
94 217
116 191
133 168
148 154
161 145
176 139
195 139
206 143
207 143
196 141
176 141
154 152
131 174
106 206
92 222
75 230
52 224
52 222


