# bitmap 5 Axis Flank Contouring feature
 
# Bottom plane KO
"Parts"
6
5
94 165
52 189
58 188
67 191
103 170
7
106 172
127 185
81 211
70 205
73 200
73 197
70 192
10
97 164
123 156
137 155
158 155
174 157
198 165
190 169
160 160
133 160
105 168
8
110 172
128 165
161 165
185 172
165 184
154 181
139 181
129 184
5
200 166
239 188
235 187
224 190
191 171
7
189 173
223 192
219 195
219 201
223 205
211 211
167 186

# Flancs
"Drives"
3
5
197 113
260 150
247 190
190 158
183 157
10
105 109
115 155
134 152
160 152
180 156
194 112
172 105
152 108
143 103
123 104
7
32 151
45 190
82 169
104 158
113 156
102 109
48 139

# Fixtures
"Fixtures"
9
3
126 54
123 48
127 47
4
155 99
155 105
174 101
174 96
4
146 101
152 105
152 99
146 94
5
122 64
143 98
143 91
134 71
122 53
6
140 75
170 69
176 84
174 93
153 97
146 91
4
140 61
153 59
153 56
140 57
4
137 57
137 60
129 55
129 51
6
138 73
168 67
160 52
155 61
138 64
129 58
10
154 48
152 52
144 53
135 52
132 52
131 45
134 42
141 41
150 41
155 44

# End limit
"EndElement"
2
5
30 152
19 145
31 190
40 196
43 192
4
79 213
79 219
61 208
67 206

# Start limit
"StartElement"
2
5
275 144
263 151
249 191
253 196
261 191
4
213 219
213 213
225 206
231 208

# Offset On Limit 1
"MfgOffsetRelim1"
0

# Offset On Limit 2
"MfgOffsetRelim2"
0

