# bitmap Curve Machining feature

# Check elements
"Checks"
13
9
81 80
81 61
120 76
135 90
135 101
120 95
120 85
116 85
116 93
4
137 102
137 90
148 95
148 103
4
150 94
166 88
166 96
150 102
6
147 65
159 75
159 88
149 92
136 88
122 76
3
166 86
163 78
163 86
4
83 59
92 63
90 57
83 59
4
99 66
116 72
116 67
111 68
5
120 74
146 64
127 57
127 63
120 65
4
92 51
93 59
93 55
92 57
4
95 63
110 65
110 60
95 54
4
112 60
112 66
116 64
116 58
4
125 61
125 53
120 56
120 63
6
111 58
124 51
114 46
98 47
94 50
94 52

#Guiding elements
"Guides"
1
15
239 105
204 93
187 92
171 95
168 97
150 105
144 105
68 135
66 138
68 138
144 108
171 98
187 95
204 98
239 108

# Bottom plane
"Bottom"
0

# Start limit
"Limit1"
1
8
241 102
241 107
244 110
248 110
251 107
251 102
248 99
244 99

# End limit
"Limit2"
1
8
46 155
46 160
49 163
53 163
56 160
56 155
53 152
49 152

#Aux Guiding elements
"AuxGuides"
1
16
56 210
94 161
110 144
127 132
169 115
191 112
210 114
237 124
241 122
210 111
191 109
169 112
127 129
110 141
94 158
55 208

# Offset On Limit
"MfgOffsetOnRelim2"
1
4
169 183
205 183
200 183
169 183

# Offset Axial 1
"MfgOffsetAxial1"
1
4
192 45
226 45
192 45
192 93

# Offset Axial 2
"MfgOffsetAxial2"
1
4
44 116
78 116
78 186
78 116
