# bitmap Profile contouring feature with Hard Bottom/Hard Top/Past Start/On End

# Top limit
"Top"
1
8
208 87
228 75
232 74
233 74
252 85
227 99
227 98
208 87

# Check elements
"Checks"
9
13
122 81
122 70
123 70
123 71
125 73
125 74
131 83
136 91
140 101
143 108
143 114
138 106
122 81
8
146 118
146 111
150 114
150 115
152 115
152 121
147 119
146 118
8
155 122
155 116
164 115
166 114
174 113
174 118
159 121
155 122
15
140 92
141 97
144 102
144 104
147 108
154 114
167 111
174 110
176 102
175 97
170 86
147 91
145 91
145 92
140 92
14
129 75
138 89
138 90
166 84
168 84
168 82
160 69
156 78
147 80
144 80
143 81
138 81
134 78
129 75
6
123 66
123 65
127 65
127 67
126 70
123 66
13
132 67
137 70
148 70
153 68
156 65
156 63
154 60
149 58
137 58
133 60
131 62
132 63
132 67
8
141 78
141 75
142 74
150 73
153 73
153 76
148 77
141 78
8
129 72
129 69
133 71
134 71
138 75
138 77
137 77
129 72

#Guiding elements 
"Guides"
1
36
93 161
114 154
131 151
148 151
149 150
156 151
173 153
190 158
191 158
191 159
209 167
210 168
245 188
245 168
244 169
239 167
199 144
188 139
165 133
149 132
136 132
135 133
126 133
120 134
103 139
102 139
87 147
86 148
85 148
66 159
66 163
72 168
73 172
74 172
94 161
93 161

# Bottom plane 
"Bottom"
2
31
89 205
124 185
130 182
139 180
154 180
155 181 
162 182
196 202
209 209
210 210
211 210
232 198
232 197
191 173
179 168
157 163
132 163
131 164
122 165
100 173
98 174
100 175
99  177
93 178
93 179
87 181
74 188
74 197
70 204
80 210
89 205
35
191 170
200 176
209 180
235 196
244 191
235 185
203 167
192 162
191 161
177 157
152 153
138 154
128 154
121 156
115 157
112 157
93 164
74 175
74 185
75 185
86 179
89 174
94 174
96 172
109 167
123 162
136 160
159 160
160 161
167 162
168 163
175 164
176 165
191 169
191 170

# Start limit 
"Limit1"
2
6
212 218
212 212
235 199
240 202
215 216
212 218
14
237 197
248 192
248 165
244 165
244 160
260 151
260 169
257 173
257 182
251 187
249 193
249 196
244 200
237 197

# End limit 
"Limit2"
2
5
79 218
61 207
68 206
79 212
79 218
12
31 190
31 151
44 159
45 159
45 164
44 165
43 165
38 170
39 172
38 173
38 194
31 190

# Offset On Limit 1
"MfgOffsetOnRelim1"
1
4
226 250
261 250
226 250 
206 238

# Offset On Limit 2
"MfgOffsetOnRelim2"
0

# Hardness on Top
"MfgHardnessOnTop"
1
1
170 12

# Hardness on Bottom
"MfgHardnessOnBottom"
1
1
103 253

# Offset on Top
"MfgGlobalOffsetOnTop"
1
1
2 12

# Offset Axial 1
"MfgOffsetAxial1"
0

# Offset Axial 2
"MfgOffsetAxial2"
0

#SoftBoundary
"MfgSoftBoundary"
1
19
83 212
104 200
130 186
139 185
156 185
167 187
178 194
187 199
201 206
210 212
210 218
185 203
168 193
155 188
135 189
103 206
96 210
83 217
83 212
