# bitmap Trochoid feature

#Guiding elements
"Guides"
1
36
47 210
47 179
66 168
90 154
103 148
119 143
135 142
144 142
156 142
163 142
164 142
174 143
175 143
191 148
192 148
206 155
248 179
248 209
246 209
205 185
204 185
186 177
184 177
183 176
174 174
167 173
160 172
132 172
131 173
118 174
117 175
104 178
95 183
90 185
72 195
47 209

# Bottom plane
"Bottom"
2
52
94 202
74 212
74 226
61 219
61 218
73 212
73 211
74 211
74 210
76 210
76 208
78 208
78 207
92 198
97 197
97 195
101 195 
101 193
125 184
131 183
134 182
160 182
175 187
177 187
186 190
223 213
220 215
220 222
223 225
218 228
218 212
215 212
215 211
213 210 
213 209
212 209
212 208
209 208
209 207
197 200
192 198
183 194
178 192
161 188
161 188
130 188
130 188
124 189
119 190
115 193
103 197
93 202
39
48 212
75 197
75 195
90 187
106 180
124 176
136 175
162 175
179 178
186 180
202 187
213 193
238 208
229 209
225 210
224 210
202 197
199 195
198 195
183 187
157 181
133 181
132 182
123 183
122 184
119 184
118 185
99 192
98 193
97 192
97 190
94 192
94 193
90 197
88 197
74 205
74 207
57 217
48 212

# Start limit
"Limit1"
2
11
214 239
214 217
215 217
215 216
216 216
216 231
219 231
227 226
227 227
233 228
214 239
6
250 211
250 179
262 173
262 211
254 216
250 211

# End limit
"Limit2"
2
11
33 211
33 173
34 174
45 179
45 212
46 212
46 214
54 219
51 221
49 221
33 211
7
53 223
57 220
76 232
76 215
81 217
81 240
53 223

# Offset On Limit 1
"MfgOffsetOnRelim1"
0

# Offset On Limit 2
"MfgOffsetOnRelim2"
1
4
20 259
70 259
70 259
78 255


# Top limit
"Top"
0

# Check elements
"Checks"
0

# Hardness on Top
"MfgHardnessOnTop"
0

# Hardness on Bottom
"MfgHardnessOnBottom"
0

# Offset on Top
"MfgGlobalOffsetOnTop"
0

# Offset Axial 1
"MfgOffsetAxial1"
0

# Offset Axial 2
"MfgOffsetAxial2"
0
