# bitmap Profile contouring feature with Soft Bottom/Hard Top/To Start/On End

# Top limit
"Top"
1
8
212 87
234 74
237 74
255 84
255 85
232 98
231 98
212 87

# Check elements
"Checks"
9
13
123 82
123 71
124 71
124 72
126 74
126 75
132 84
137 92
141 102
144 109
144 115
139 107
123 82
8
147 119
147 112
151 115
151 116
153 116
153 122
148 120
147 119
8
156 123
156 117
165 116
167 115
175 114
175 119
160 122
156 123
15
141 93
142 98
145 103
145 105
148 109
155 115
168 112
175 111
177 103
176 98
171 87
148 92
146 92
146 93
141 93
14
130 76
139 90
139 91
167 85
169 85
169 83
161 70
157 79
148 81
145 81
144 82
139 82
135 79
130 76
6
124 67
124 66
128 66
128 68
127 71
124 67
13
133 68
138 71
149 71
154 69
157 66
157 64
155 61
150 59
138 59
134 61
132 63
133 64
133 68
8
142 79
142 76
143 75
151 74
154 74
154 77
149 78
142 79
8
130 73
130 70
134 72
135 72
139 76
139 78
138 78
130 73

#Guiding elements
"Guides"
2
28
67 165
67 160
84 150
99 142
118 136
132 134
146 133
155 133
175 136
188 140
198 145
200 145
200 149
195 153
195 154
193 156
178 151
159 148
132 148
131 149
123 149
122 150
112 152
95 158
73 170
73 169
62 165
67 165
7
228 175
228 162
229 162
243 170
246 170
246 185
228 175

# Bottom plane
"Bottom"
1
8
113 196
135 183
138 183
157 194
156 194
133 207
132 207
113 196

# Start limit
"Limit1"
1
8
249 186
249 166
246 166
245 167
245 162
261 152
261 179
249 186

# End limit
"Limit2"
1
10
32 179
32 152
33 153
46 160
46 166
43 166
43 167
39 171
39 183
32 179

# Offset On Limit 1
"MfgOffsetOnRelim1"
1
4
214 232
275 232
214 232
205 228

# Offset On Limit 2
"MfgOffsetOnRelim2"
0


# Hardness on Top
"MfgHardnessOnTop"
1
1
170 12

# Hardness on Bottom
"MfgHardnessOnBottom"
1
1
103 253

# Offset on Top
"MfgGlobalOffsetOnTop"
1
1
2 12

# Offset Axial 1
"MfgOffsetAxial1"
0

# Offset Axial 2
"MfgOffsetAxial2"
0

#Soft Boundary
"MfgSoftBoundary"
0
