# bitmap Curve Machining feature 

# Check elements
"Checks"
13
9
81 80
81 61
120 76
135 90
135 101
120 95
120 85
116 85
116 93
4
137 102
137 90
148 95
148 103
4
150 94
166 88
166 96
150 102
6
147 65
159 75
159 88
149 92
136 88
122 76
3
166 86
163 78
163 86
4
83 59
92 63
90 57
83 59
4
99 66
116 72
116 67
111 68
5
120 74
146 64
127 57
127 63
120 65
4
92 51
93 59
93 55
92 57
4
95 63
110 65
110 60
95 54
4
112 60
112 66
116 64
116 58
4
125 61
125 53
120 56
120 63
6
111 58
124 51
114 46
98 47
94 50
94 52

#Guiding elements
"Guides"
1
15
239 105
204 93
187 92
171 95
168 97
150 105
144 105
68 135
66 138
68 138
144 108
171 98
187 95
204 98
239 108

# Bottom plane
"Bottom"
2
44
237 127
212 117
202 115
183 115
175 116
132 132
118 141
105 152
58 211
57 214
59 215
59 221
69 225
76 225
92 216
97 211
86 208
83 210
73 210
68 206
68 203
73 199
79 198
84 189
91 178
108 158
116 152
116 146
120 146
120 160
159 135
159 125
179 120
201 120
210 122
221 122
226 126
226 129
221 133
211 133
208 131
195 136
209 141
237 130
19
206 126
199 124
183 124
170 127
153 133
129 147
111 162
95 180
83 199
88 202
88 206
99 208
127 172
138 160
153 148
174 138
181 136
188 136
206 130

# Start limit
"Limit1"
1
8
241 102
241 107
244 110
248 110
251 107
251 102
248 99
244 99

# End limit
"Limit2"
1
8
46 155
46 160
49 163
53 163
56 160
56 155
53 152
49 152

#Aux Guiding elements
"AuxGuides"
0

# Offset On Limit
"MfgOffsetOnRelim2"
1
4
169 183
205 183
200 183
169 183

# Offset Axial 1
"MfgOffsetAxial1"
1
4
192 45
226 45
192 45
192 93

# Offset Axial 2
"MfgOffsetAxial2"
0
