# bitmap Profile contouring feature with Soft Bottom/Soft Top/Past Start/Past End

# Top limit
"Top"
2
25
33 149
45 142
69 128
88 118
105 113
119 110
128 109
133 109
134 108
137 108
137 109
143 117
125 118
125 119
124 120
123 119
105 123
104 124
87 131
85 133
79 136
66 144
49 154
45 156
33 149
18
177 120
179 117
180 111
181 112
189 113
209 120
242 139
260 149
249 155
248 156
247 156
227 144
203 131
192 125
191 125
180 121
178 121
177 120

# Check elements
"Checks"
9
13
123 81
123 70
124 70
124 71
126 73
126 74
132 83
137 91
141 101
144 108
144 114
139 106
123 81
8
147 118
147 111
151 114
151 115
153 115
153 121
148 119
147 118
8
156 122
156 116
165 115
167 114
175 113
175 118
160 121
156 122
15
141 92
142 97
145 102
145 104
148 108
155 114
168 111
175 110
177 102
176 97
171 86
148 91
146 91
146 92
141 92
14
130 75
139 89
139 90
167 84
169 84
169 82
161 69
157 78
148 80
145 80
144 81
139 81
135 78
130 75
6
124 66
124 65
128 65
128 67
127 70
124 66
13
133 67
138 70
149 70
154 68
157 65
157 63
155 60
150 58
138 58
134 60
132 62
133 63
133 67
8
142 78
142 75
143 74
151 73
154 73
154 76
149 77
142 78
8
130 72
130 69
134 71
135 71
139 75
139 77
138 77
130 72

#Guiding elements
"Guides"
1
39
46 184
46 158
67 146
83 137
91 132
98 129
108 125
122 122
128 121
138 120
145 120
146 121
153 125
164 124
164 123
173 122
174 123
177 123
186 126
199 131
220 143
246 158
246 184
231 176
211 164
210 164
202 159
201 159
187 153
161 147
132 147
131 148
124 148
123 149
112 151
97 156
82 164
48 184
46 184

# Bottom plane
"Bottom"
1
8
125 193
147 180
150 180
169 191
167 191
145 204
144 204
125 193

# Start limit
"Limit1"
1
7
249 184
249 158
250 158
251 157
260 152
260 178
249 184

# End limit
"Limit2"
1
7
32 178
32 152
33 152
43 158
43 184
42 184
32 178

# Offset On Limit 1
"MfgOffsetOnRelim1"
1
4
233 253
282 253
233 253
218 244

# Offset On Limit 2
"MfgOffsetOnRelim2"
1
4
22 244
58 244
58 244
73 236




# Hardness on Top
"MfgHardnessOnTop"
1
1
170 12

# Hardness on Bottom
"MfgHardnessOnBottom"
1
1
103 253

# Offset on Top
"MfgGlobalOffsetOnTop"
1
1
2 12

# Offset Axial 1
"MfgOffsetAxial1"
0

# Offset Axial 2
"MfgOffsetAxial2"
0

#Soft Boundary
"MfgSoftBoundary"
0
