!<mkRTViewData> v1.0.0
RTV/000/CUS .\win_b64\code\dictionary\CATMmFunctionalInterfaces.iid|.\CATMmFunctionalInterfaces\CATMmFunctionalInterfacesRscCNext.m\src\CNext\code\dictionary\CATMmFunctionalInterfaces.iid
@type='RUNTIME_DATA'
@clr='false'
@kind='DATA'
@deliverable='true'
@built='true'
