!<mkRTViewData> v1.0.0
CSC/000/DSI .\GSMModel\GSMModelV6V5NoBuild.m\Objects\win_b64\mkcsc\GSMModelV6V5NoBuild.cscdb|.\GSMModel\GSMModelV6V5NoBuild.m
@type='NONE'
@clr='false'
@kind='INCLUDED'
@deliverable='true'
@built='false'
