!<mkRTViewData> v1.0.0
RTV/001/CUS .\win_b64\code\bin\CATPsdDocument.dll|.\ProductStructureDocument\CATPsdDocument.m
CSC/000/DSI .\ProductStructureDocument\CATPsdDocument.m\Objects\win_b64\mkcsc\CATPsdDocument.cscdb|.\ProductStructureDocument\CATPsdDocument.m
INT/000/CUS .\win_b64\code\bin\CATPsdDocument.pdb|.\ProductStructureDocument\CATPsdDocument.m
BTV/000/CUS .\win_b64\code\lib\CATPsdDocument.lib|.\ProductStructureDocument\CATPsdDocument.m
INT/000/CUS .\win_b64\code\lib\CATPsdDocument.exp|.\ProductStructureDocument\CATPsdDocument.m
@type='SHARED_LIBRARY'
@clr='false'
@kind='NATIVE'
@deliverable='true'
@built='true'
