!<mkRTViewData> v1.0.0
BTV/002/CUS .\win_b64\code\productIC\DNBIgpOlpProcessInterfacesIC.script|.\DNBIgpOlpProcessInterfaces
CSC/002/DSI .\DNBIgpOlpProcessInterfaces\IdentityCard\Objects\win_b64\mkcsc\DNBIgpOlpProcessInterfaces.cscdb|.\DNBIgpOlpProcessInterfaces
DAT/002/CUS .\win_b64\code\dictionary\DNBIgpOlpProcessInterfaces.iid|.\DNBIgpOlpProcessInterfaces\CNext\code\dictionary\DNBIgpOlpProcessInterfaces.iid
RTV/002/DSI .\win_b64\code\productIC\DNBIgpOlpProcessInterfacesIC.required|.\DNBIgpOlpProcessInterfaces
BTV/002/CUS .\win_b64\code\productIC\DNBIgpOlpProcessInterfacesIC.xml|.\DNBIgpOlpProcessInterfaces
@type='codeFramework'
@built='true'
