!<mkRTViewData> v1.0.0
BTV/000/CUS .\win_b64\code\lib\DNBStateSettings.lib|.\DNBDpmBase\DNBStateSettings.m
CSC/000/DSI .\DNBDpmBase\DNBStateSettings.m\Objects\win_b64\mkcsc\DNBStateSettings.cscdb|.\DNBDpmBase\DNBStateSettings.m
RTV/001/CUS .\win_b64\code\bin\DNBStateSettings.dll|.\DNBDpmBase\DNBStateSettings.m
INT/000/CUS .\win_b64\code\bin\DNBStateSettings.pdb|.\DNBDpmBase\DNBStateSettings.m
INT/000/CUS .\win_b64\code\lib\DNBStateSettings.exp|.\DNBDpmBase\DNBStateSettings.m
@type='SHARED_LIBRARY'
@clr='false'
@kind='NATIVE'
@deliverable='true'
@built='true'
