!<mkRTViewData> v1.0.0
CSC/000/DSI .\CATToolingInterfaces\CATToolingPubIDL.m\Objects\win_b64\mkcsc\CATToolingPubIDL.cscdb|.\CATToolingInterfaces\CATToolingPubIDL.m
@type='NONE'
@clr='false'
@kind='INCLUDED'
@deliverable='true'
@built='true'
