!<mkRTViewData> v1.0.0
CSC/000/DSI .\CATMatInterfaces\CATMatItfCPP.m\Objects\win_b64\mkcsc\CATMatItfCPP.cscdb|.\CATMatInterfaces\CATMatItfCPP.m
@type='NONE'
@clr='false'
@kind='INCLUDED'
@deliverable='true'
@built='true'
