!<mkRTViewData> v1.0.0
INT/000/CUS .\win_b64\code\bin\CATHASWksConfiguration.pdb|.\CATHealingAssistantUI\CATHASWksConfiguration.m
INT/000/CUS .\win_b64\code\lib\CATHASWksConfiguration.exp|.\CATHealingAssistantUI\CATHASWksConfiguration.m
BTV/000/CUS .\win_b64\code\lib\CATHASWksConfiguration.lib|.\CATHealingAssistantUI\CATHASWksConfiguration.m
RTV/001/CUS .\win_b64\code\bin\CATHASWksConfiguration.dll|.\CATHealingAssistantUI\CATHASWksConfiguration.m
CSC/000/DSI .\CATHealingAssistantUI\CATHASWksConfiguration.m\Objects\win_b64\mkcsc\CATHASWksConfiguration.cscdb|.\CATHealingAssistantUI\CATHASWksConfiguration.m
@type='SHARED_LIBRARY'
@clr='false'
@kind='NATIVE'
@deliverable='true'
@built='true'
