!<mkRTViewData> v1.0.0
RTV/000/CUS .\win_b64\docs\javaserver\CATJPoUI.jar|.\CATJAdministration\CATJPoUI.mj
RTV/000/CUS .\win_b64\docs\java\CATJPoUI.jar|.\CATJAdministration\CATJPoUI.mj
CSC/000/DSI .\CATJAdministration\CATJPoUI.mj\Objects\win_b64\mkcsc\CATJPoUI.cscdb|.\CATJAdministration\CATJPoUI.mj
@type='JAVA_COMMON'
@clr='false'
@kind='JAVA'
@deliverable='true'
@built='true'
