!<mkRTViewData> v1.0.0
CSC/000/DSI .\CATAnnotationModeler\CATAnnDimensionExpert.m\Objects\win_b64\mkcsc\CATAnnDimensionExpert.cscdb|.\CATAnnotationModeler\CATAnnDimensionExpert.m
@type='NONE'
@clr='false'
@kind='INCLUDED'
@deliverable='true'
@built='true'
