!<mkRTViewData> v1.0.0
CSC/000/DSI .\DNBIgpSetupCommands\DNBWSQTaskCollision.m\Objects\win_b64\mkcsc\DNBWSQTaskCollision.cscdb|.\DNBIgpSetupCommands\DNBWSQTaskCollision.m
@type='NONE'
@clr='false'
@kind='INCLUDED'
@deliverable='true'
@built='true'
