!<mkRTViewData> v1.0.0
CSC/000/DSI .\PartDesignFeature\PRTInvDir.m\Objects\win_b64\mkcsc\PRTInvDir.cscdb|.\PartDesignFeature\PRTInvDir.m
@type='NONE'
@clr='false'
@kind='INCLUDED'
@deliverable='true'
@built='true'
