!<mkRTViewData> v1.0.0
CSC/000/DSI .\ApplicationFrame\CCP_DragDrop.m\Objects\win_b64\mkcsc\CCP_DragDrop.cscdb|.\ApplicationFrame\CCP_DragDrop.m
@type='NONE'
@clr='false'
@kind='INCLUDED'
@deliverable='true'
@built='true'
