!<mkRTViewData> v1.0.0
BTV/000/CUS .\win_b64\code\lib\DNBRobotProfilesCustomization.lib|.\DNBRobotCommands\DNBRobotProfilesCustomization.m
RTV/001/CUS .\win_b64\code\bin\DNBRobotProfilesCustomization.dll|.\DNBRobotCommands\DNBRobotProfilesCustomization.m
INT/000/CUS .\win_b64\code\bin\DNBRobotProfilesCustomization.pdb|.\DNBRobotCommands\DNBRobotProfilesCustomization.m
CSC/000/DSI .\DNBRobotCommands\DNBRobotProfilesCustomization.m\Objects\win_b64\mkcsc\DNBRobotProfilesCustomization.cscdb|.\DNBRobotCommands\DNBRobotProfilesCustomization.m
INT/000/CUS .\win_b64\code\lib\DNBRobotProfilesCustomization.exp|.\DNBRobotCommands\DNBRobotProfilesCustomization.m
@type='SHARED_LIBRARY'
@clr='false'
@kind='NATIVE'
@deliverable='true'
@built='true'
