!<mkRTViewData> v1.0.0
CSC/000/DSI .\NewTopologicalObjects\CATCgmDebugTopology.m\Objects\win_b64\mkcsc\CATCgmDebugTopology.cscdb|.\NewTopologicalObjects\CATCgmDebugTopology.m
@type='SHARED_LIBRARY'
@clr='false'
@kind='NATIVE'
@deliverable='true'
@built='false'
