!<mkRTViewData> v1.0.0
CSC/000/DSI .\ElecSchematicItf\ElecSchematicItfUUID.m\Objects\win_b64\mkcsc\ElecSchematicItfUUID.cscdb|.\ElecSchematicItf\ElecSchematicItfUUID.m
BTV/000/CUS .\win_b64\code\lib\ElecSchematicItfUUID.lib|.\ElecSchematicItf\ElecSchematicItfUUID.m
@type='ARCHIVE'
@clr='false'
@kind='NATIVE'
@deliverable='true'
@built='true'
