!<mkRTViewData> v1.0.0
CSC/000/DSI .\GeometricObjectsCGM\LawCGM.m\Objects\win_b64\mkcsc\LawCGM.cscdb|.\GeometricObjectsCGM\LawCGM.m
@type='NONE'
@clr='false'
@kind='INCLUDED'
@deliverable='true'
@built='true'
