!<mkRTViewData> v1.0.0
INT/000/CUS .\win_b64\code\lib\Drafting2DLItfCPP.exp|.\Drafting2DLInterfaces\Drafting2DLItfCPP.m
BTV/000/CUS .\win_b64\code\lib\Drafting2DLItfCPP.lib|.\Drafting2DLInterfaces\Drafting2DLItfCPP.m
RTV/001/CUS .\win_b64\code\bin\Drafting2DLItfCPP.dll|.\Drafting2DLInterfaces\Drafting2DLItfCPP.m
CSC/000/DSI .\Drafting2DLInterfaces\Drafting2DLItfCPP.m\Objects\win_b64\mkcsc\Drafting2DLItfCPP.cscdb|.\Drafting2DLInterfaces\Drafting2DLItfCPP.m
INT/000/CUS .\win_b64\code\bin\Drafting2DLItfCPP.pdb|.\Drafting2DLInterfaces\Drafting2DLItfCPP.m
@type='SHARED_LIBRARY'
@clr='false'
@kind='NATIVE'
@deliverable='true'
@built='true'
