!<mkRTViewData> v1.0.0
BTV/002/CUS .\win_b64\code\productIC\GenericNamingIntegrationIC.xml|.\GenericNamingIntegration
RTV/002/DSI .\win_b64\code\productIC\GenericNamingIntegrationIC.required|.\GenericNamingIntegration
BTV/002/CUS .\win_b64\code\productIC\GenericNamingIntegrationIC.script|.\GenericNamingIntegration
CSC/002/DSI .\GenericNamingIntegration\IdentityCard\Objects\win_b64\mkcsc\GenericNamingIntegration.cscdb|.\GenericNamingIntegration
@type='codeFramework'
@built='true'
