!<mkRTViewData> v1.0.0
INT/000/CUS .\win_b64\code\bin\CATSubdivisionGeoOperators.pdb|.\CATSubdivisionGeoOperators\CATSubdivisionGeoOperators.m
RTV/001/CUS .\win_b64\code\bin\CATSubdivisionGeoOperators.dll|.\CATSubdivisionGeoOperators\CATSubdivisionGeoOperators.m
INT/000/CUS .\win_b64\code\lib\CATSubdivisionGeoOperators.exp|.\CATSubdivisionGeoOperators\CATSubdivisionGeoOperators.m
BTV/000/CUS .\win_b64\code\lib\CATSubdivisionGeoOperators.lib|.\CATSubdivisionGeoOperators\CATSubdivisionGeoOperators.m
CSC/000/DSI .\CATSubdivisionGeoOperators\CATSubdivisionGeoOperators.m\Objects\win_b64\mkcsc\CATSubdivisionGeoOperators.cscdb|.\CATSubdivisionGeoOperators\CATSubdivisionGeoOperators.m
@type='SHARED_LIBRARY'
@clr='false'
@kind='NATIVE'
@deliverable='true'
@built='true'
