!<mkRTViewData> v1.0.0
CSC/000/DSI .\DNBInverseKinInterfaces\DNBInverseKinProIDL.m\Objects\win_b64\mkcsc\DNBInverseKinProIDL.cscdb|.\DNBInverseKinInterfaces\DNBInverseKinProIDL.m
@type='NONE'
@clr='false'
@kind='INCLUDED'
@deliverable='true'
@built='true'
