!<mkRTViewData> v1.0.0
CSC/000/DSI .\PartDesignFeature\PRTTHICK.m\Objects\win_b64\mkcsc\PRTTHICK.cscdb|.\PartDesignFeature\PRTTHICK.m
@type='NONE'
@clr='false'
@kind='INCLUDED'
@deliverable='true'
@built='true'
