!<mkRTViewData> v1.0.0
INT/000/CUS .\win_b64\code\lib\PPRReplicaCpp.exp|.\PPRGenericWS\PPRReplicaCpp.m
RTV/001/CUS .\win_b64\code\bin\PPRReplicaCpp.dll|.\PPRGenericWS\PPRReplicaCpp.m
CSC/000/DSI .\PPRGenericWS\PPRReplicaCpp.m\Objects\win_b64\mkcsc\PPRReplicaCpp.cscdb|.\PPRGenericWS\PPRReplicaCpp.m
INT/000/CUS .\win_b64\code\bin\PPRReplicaCpp.pdb|.\PPRGenericWS\PPRReplicaCpp.m
BTV/000/CUS .\win_b64\code\lib\PPRReplicaCpp.lib|.\PPRGenericWS\PPRReplicaCpp.m
@type='SHARED_LIBRARY'
@clr='false'
@kind='NATIVE'
@deliverable='true'
@built='true'
