!<mkRTViewData> v1.0.0
CSC/000/DSI .\CGMV5SpecsQuery\CATCGMReplayGraphicalChangeSet.m\Objects\win_b64\mkcsc\CATCGMReplayGraphicalChangeSet.cscdb|.\CGMV5SpecsQuery\CATCGMReplayGraphicalChangeSet.m
INT/000/CUS .\win_b64\code\lib\CATCGMReplayGraphicalChangeSet.exp|.\CGMV5SpecsQuery\CATCGMReplayGraphicalChangeSet.m
RTV/001/CUS .\win_b64\code\bin\CATCGMReplayGraphicalChangeSet.dll|.\CGMV5SpecsQuery\CATCGMReplayGraphicalChangeSet.m
INT/000/CUS .\win_b64\code\bin\CATCGMReplayGraphicalChangeSet.pdb|.\CGMV5SpecsQuery\CATCGMReplayGraphicalChangeSet.m
BTV/000/CUS .\win_b64\code\lib\CATCGMReplayGraphicalChangeSet.lib|.\CGMV5SpecsQuery\CATCGMReplayGraphicalChangeSet.m
@type='SHARED_LIBRARY'
@clr='false'
@kind='NATIVE'
@deliverable='true'
@built='true'
