!<mkRTViewData> v1.0.0
RTV/001/CUS .\win_b64\code\bin\CATMSXML3.dll|.\XMLParser\CATMSXML3.m
INT/000/CUS .\win_b64\code\bin\CATMSXML3.pdb|.\XMLParser\CATMSXML3.m
BTV/000/CUS .\win_b64\code\lib\CATMSXML3.lib|.\XMLParser\CATMSXML3.m
CSC/000/DSI .\XMLParser\CATMSXML3.m\Objects\win_b64\mkcsc\CATMSXML3.cscdb|.\XMLParser\CATMSXML3.m
INT/000/CUS .\win_b64\code\lib\CATMSXML3.exp|.\XMLParser\CATMSXML3.m
@type='SHARED_LIBRARY'
@clr='false'
@kind='NATIVE'
@deliverable='true'
@built='true'
