!<mkRTViewData> v1.0.0
CSC/000/DSI .\CATMoldTechnoResultInterfaces\CATMldTechnoResultItf.m\Objects\win_b64\mkcsc\CATMldTechnoResultItf.cscdb|.\CATMoldTechnoResultInterfaces\CATMldTechnoResultItf.m
@type='NONE'
@clr='false'
@kind='INCLUDED'
@deliverable='true'
@built='true'
