ThreadDiam.	Pitch	HoleDiam.	M	NO_DESC_IN_DRAFTING
1mm	0.25mm	0.729mm	M1
1.2mm	0.25mm	0.929mm	M1.2
1.4mm	0.3mm	1.075mm	M1.4
1.6mm	0.35mm	1.221mm	M1.6
1.8mm	0.35mm	1.421mm	M1.8
2mm	0.4mm	1.567mm	M2
2.5mm	0.45mm	2.013mm	M2.5
3mm	0.5mm	2.459mm	M3
3.5mm	0.6mm	2.850mm	M3.5
4mm	0.7mm	3.242mm	M4
5mm	0.8mm	4.134mm	M5
6mm	1.0mm	4.917mm	M6
7mm	1.0mm	5.917mm	M7
8mm	1.25mm	6.647mm	M8
10mm	1.5mm	8.376mm	M10
12mm	1.75mm	10.106mm	M12
14mm	2.0mm	11.835mm	M14
16mm	2.0mm	13.835mm	M16
18mm	2.5mm	15.294mm	M18
20mm	2.5mm	17.294mm	M20
22mm	2.5mm	19.294mm	M22
24mm	3.0mm	20.752mm	M24
27mm	3.0mm	23.752mm	M27
30mm	3.5mm	26.211mm	M30
33mm	3.5mm	29.211mm	M33
36mm	4.0mm	31.670mm	M36
39mm	4.0mm	34.670mm	M39
42mm	4.5mm	37.129mm	M42
45mm	4.5mm	40.129mm	M45
48mm	5.0mm	42.587mm	M48
52mm	5.0mm	46.587mm	M52
56mm	5.5mm	50.046mm	M56
60mm	5.5mm	54.046mm	M60
64mm	6.0mm	57.505mm	M64
