!<mkRTViewData> v1.0.0
INT/000/CUS .\win_b64\code\bin\DNBDMRGlobalAddinUI.pdb|.\DNBProductUI\DNBDMRGlobalAddinUI.m
INT/000/CUS .\win_b64\code\lib\DNBDMRGlobalAddinUI.exp|.\DNBProductUI\DNBDMRGlobalAddinUI.m
RTV/001/CUS .\win_b64\code\bin\DNBDMRGlobalAddinUI.dll|.\DNBProductUI\DNBDMRGlobalAddinUI.m
BTV/000/CUS .\win_b64\code\lib\DNBDMRGlobalAddinUI.lib|.\DNBProductUI\DNBDMRGlobalAddinUI.m
CSC/000/DSI .\DNBProductUI\DNBDMRGlobalAddinUI.m\Objects\win_b64\mkcsc\DNBDMRGlobalAddinUI.cscdb|.\DNBProductUI\DNBDMRGlobalAddinUI.m
@type='SHARED_LIBRARY'
@clr='false'
@kind='NATIVE'
@deliverable='true'
@built='true'
