!<mkRTViewData> v1.0.0
CSC/000/DSI .\ProductStructure\CATPrdPDMImpl.m\Objects\win_b64\mkcsc\CATPrdPDMImpl.cscdb|.\ProductStructure\CATPrdPDMImpl.m
@type='NONE'
@clr='false'
@kind='INCLUDED'
@deliverable='true'
@built='true'
