!<mkRTViewData> v1.0.0
INT/000/CUS .\win_b64\code\lib\CATMatInterfaces.exp|.\CATMatInterfaces\CATMatInterfaces.m
BTV/000/CUS .\win_b64\code\lib\CATMatInterfaces.lib|.\CATMatInterfaces\CATMatInterfaces.m
RTV/001/CUS .\win_b64\code\bin\CATMatInterfaces.dll|.\CATMatInterfaces\CATMatInterfaces.m
INT/000/CUS .\win_b64\code\bin\CATMatInterfaces.pdb|.\CATMatInterfaces\CATMatInterfaces.m
CSC/000/DSI .\CATMatInterfaces\CATMatInterfaces.m\Objects\win_b64\mkcsc\CATMatInterfaces.cscdb|.\CATMatInterfaces\CATMatInterfaces.m
@type='SHARED_LIBRARY'
@clr='false'
@kind='NATIVE'
@deliverable='true'
@built='true'
