!<mkRTViewData> v1.0.0
BTV/002/CUS .\win_b64\code\productIC\FreeStyleAnalysisInterfaceIC.xml|.\FreeStyleAnalysisInterface
RTV/002/DSI .\win_b64\code\productIC\FreeStyleAnalysisInterfaceIC.required|.\FreeStyleAnalysisInterface
CSC/002/DSI .\FreeStyleAnalysisInterface\IdentityCard\Objects\win_b64\mkcsc\FreeStyleAnalysisInterface.cscdb|.\FreeStyleAnalysisInterface
BTV/002/CUS .\win_b64\code\productIC\FreeStyleAnalysisInterfaceIC.script|.\FreeStyleAnalysisInterface
DAT/002/CUS .\win_b64\code\dictionary\FreeStyleAnalysisInterface.iid|.\FreeStyleAnalysisInterface\CNext\code\dictionary\FreeStyleAnalysisInterface.iid
@type='codeFramework'
@built='true'
