!<mkRTViewData> v1.0.0
CSC/000/DSI .\CATDataExchControlIntf\DECCAServices.m\Objects\win_b64\mkcsc\DECCAServices.cscdb|.\CATDataExchControlIntf\DECCAServices.m
@type='NONE'
@clr='false'
@kind='INCLUDED'
@deliverable='true'
@built='true'
