!<mkRTViewData> v1.0.0
CSC/000/DSI .\CATCoreCavitySeparationUI\CATCCSBorderEdgesUI.m\Objects\win_b64\mkcsc\CATCCSBorderEdgesUI.cscdb|.\CATCoreCavitySeparationUI\CATCCSBorderEdgesUI.m
@type='NONE'
@clr='false'
@kind='INCLUDED'
@deliverable='true'
@built='true'
