!<mkRTViewData> v1.0.0
CSC/000/DSI .\PolyhedralObjects\PolyMODEL.m\Objects\win_b64\mkcsc\PolyMODEL.cscdb|.\PolyhedralObjects\PolyMODEL.m
@type='NONE'
@clr='false'
@kind='INCLUDED'
@deliverable='true'
@built='true'
