!<mkRTViewData> v1.0.0
CSC/000/DSI .\CATMoldDesignUI\CATMldBaseUI.m\Objects\win_b64\mkcsc\CATMldBaseUI.cscdb|.\CATMoldDesignUI\CATMldBaseUI.m
@type='NONE'
@clr='false'
@kind='INCLUDED'
@deliverable='true'
@built='true'
