!<mkRTViewData> v1.0.0
CSC/000/DSI .\CATMoldDesignFeature\CATMldPlane.m\Objects\win_b64\mkcsc\CATMldPlane.cscdb|.\CATMoldDesignFeature\CATMldPlane.m
@type='NONE'
@clr='false'
@kind='INCLUDED'
@deliverable='true'
@built='true'
