!<mkRTViewData> v1.0.0
RTV/002/DSI .\win_b64\code\productIC\MecModInterfacesIC.required|.\MecModInterfaces
BTV/002/CUS .\win_b64\code\productIC\MecModInterfacesIC.script|.\MecModInterfaces
BTV/002/CUS .\win_b64\code\productIC\MecModInterfacesIC.xml|.\MecModInterfaces
CSC/002/DSI .\MecModInterfaces\IdentityCard\Objects\win_b64\mkcsc\MecModInterfaces.cscdb|.\MecModInterfaces
@type='codeFramework'
@built='true'
