!<mkRTViewData> v1.0.0
CSC/000/DSI .\DNBRobotBase\DNBRobotControllerMD.m\Objects\win_b64\mkcsc\DNBRobotControllerMD.cscdb|.\DNBRobotBase\DNBRobotControllerMD.m
@type='NONE'
@clr='false'
@kind='INCLUDED'
@deliverable='true'
@built='true'
