!<mkRTViewData> v1.0.0
CSC/000/DSI .\CATMoldDesignWorkbench\CATMldWksConfiguration.m\Objects\win_b64\mkcsc\CATMldWksConfiguration.cscdb|.\CATMoldDesignWorkbench\CATMldWksConfiguration.m
BTV/000/CUS .\win_b64\code\lib\CATMldWksConfiguration.lib|.\CATMoldDesignWorkbench\CATMldWksConfiguration.m
INT/000/CUS .\win_b64\code\lib\CATMldWksConfiguration.exp|.\CATMoldDesignWorkbench\CATMldWksConfiguration.m
INT/000/CUS .\win_b64\code\bin\CATMldWksConfiguration.pdb|.\CATMoldDesignWorkbench\CATMldWksConfiguration.m
RTV/001/CUS .\win_b64\code\bin\CATMldWksConfiguration.dll|.\CATMoldDesignWorkbench\CATMldWksConfiguration.m
@type='SHARED_LIBRARY'
@clr='false'
@kind='NATIVE'
@deliverable='true'
@built='true'
