!<mkRTViewData> v1.0.0
BTV/000/CUS .\win_b64\code\lib\CATScmBatchReconcile.lib|.\CATPDMReconcile\CATScmBatchReconcile.m
INT/000/CUS .\win_b64\code\lib\CATScmBatchReconcile.exp|.\CATPDMReconcile\CATScmBatchReconcile.m
INT/000/CUS .\win_b64\code\bin\CATScmBatchReconcile.pdb|.\CATPDMReconcile\CATScmBatchReconcile.m
RTV/001/CUS .\win_b64\code\bin\CATScmBatchReconcile.dll|.\CATPDMReconcile\CATScmBatchReconcile.m
CSC/000/DSI .\CATPDMReconcile\CATScmBatchReconcile.m\Objects\win_b64\mkcsc\CATScmBatchReconcile.cscdb|.\CATPDMReconcile\CATScmBatchReconcile.m
@type='SHARED_LIBRARY'
@clr='false'
@kind='NATIVE'
@deliverable='true'
@built='true'
