!<mkRTViewData> v1.0.0
CSC/000/DSI .\ConstraintModelerUI\CMUInterfaces.m\Objects\win_b64\mkcsc\CMUInterfaces.cscdb|.\ConstraintModelerUI\CMUInterfaces.m
@type='NONE'
@clr='false'
@kind='INCLUDED'
@deliverable='true'
@built='true'
