!<mkRTViewData> v1.0.0
CSC/000/DSI .\DNBInfrastructure\DNBAnalysis.m\Objects\win_b64\mkcsc\DNBAnalysis.cscdb|.\DNBInfrastructure\DNBAnalysis.m
@type='NONE'
@clr='false'
@kind='INCLUDED'
@deliverable='true'
@built='true'
