!<mkRTViewData> v1.0.0
CSC/000/DSI .\CATIADataBasics\V4SysCOMDAIX.m\Objects\win_b64\mkcsc\V4SysCOMDAIX.cscdb|.\CATIADataBasics\V4SysCOMDAIX.m
@type='NONE'
@clr='false'
@kind='INCLUDED'
@deliverable='true'
@built='false'
