!<mkRTViewData> v1.0.0
INT/000/CUS .\win_b64\code\bin\CATAnnStandardTools.pdb|.\CATAnnotationModeler\CATAnnStandardTools.m
CSC/000/DSI .\CATAnnotationModeler\CATAnnStandardTools.m\Objects\win_b64\mkcsc\CATAnnStandardTools.cscdb|.\CATAnnotationModeler\CATAnnStandardTools.m
RTV/001/CUS .\win_b64\code\bin\CATAnnStandardTools.exe|.\CATAnnotationModeler\CATAnnStandardTools.m
@type='LOAD_MODULE'
@clr='false'
@kind='NATIVE'
@deliverable='true'
@built='true'
