!<mkRTViewData> v1.0.0
CSC/000/DSI .\CATImmENOVIAProvider\CATENOVIAProviderProIDL.m\Objects\win_b64\mkcsc\CATENOVIAProviderProIDL.cscdb|.\CATImmENOVIAProvider\CATENOVIAProviderProIDL.m
@type='NONE'
@clr='false'
@kind='INCLUDED'
@deliverable='true'
@built='true'
