!<mkRTViewData> v1.0.0
INT/000/CUS .\win_b64\code\bin\CATSysRunBrw.pdb|.\System\CATSysRunBrw.m
INT/000/CUS .\win_b64\code\lib\CATSysRunBrw.exp|.\System\CATSysRunBrw.m
CSC/000/DSI .\System\CATSysRunBrw.m\Objects\win_b64\mkcsc\CATSysRunBrw.cscdb|.\System\CATSysRunBrw.m
BTV/000/CUS .\win_b64\code\lib\CATSysRunBrw.lib|.\System\CATSysRunBrw.m
RTV/001/CUS .\win_b64\code\bin\CATSysRunBrw.dll|.\System\CATSysRunBrw.m
@type='SHARED_LIBRARY'
@clr='false'
@kind='NATIVE'
@deliverable='true'
@built='true'
