!<mkRTViewData> v1.0.0
RTV/002/DSI .\win_b64\code\productIC\CATV6V5ModelServicesIC.required|.\CATV6V5ModelServices
CSC/002/DSI .\CATV6V5ModelServices\IdentityCard\Objects\win_b64\mkcsc\CATV6V5ModelServices.cscdb|.\CATV6V5ModelServices
DAT/002/CUS .\win_b64\resources\graphic\CATV6V5_213PrtModel.feat|.\CATV6V5ModelServices\CNext\resources\graphic\CATV6V5_213PrtModel.feat
BTV/002/CUS .\win_b64\code\productIC\CATV6V5ModelServicesIC.script|.\CATV6V5ModelServices
BTV/002/CUS .\win_b64\code\productIC\CATV6V5ModelServicesIC.xml|.\CATV6V5ModelServices
@type='codeFramework'
@built='true'
