!<mkRTViewData> v1.0.0
CSC/000/DSI .\StereoLithography\SU0STL1.m\Objects\win_b64\mkcsc\SU0STL1.cscdb|.\StereoLithography\SU0STL1.m
@type='NONE'
@clr='false'
@kind='INCLUDED'
@deliverable='true'
@built='true'
