!<mkRTViewData> v1.0.0
RTV/001/CUS .\win_b64\code\bin\E3DV4ToV5CGM.dll|.\CATFlexObjectModeler\E3DV4ToV5CGM.m
BTV/000/CUS .\win_b64\code\lib\E3DV4ToV5CGM.lib|.\CATFlexObjectModeler\E3DV4ToV5CGM.m
CSC/000/DSI .\CATFlexObjectModeler\E3DV4ToV5CGM.m\Objects\win_b64\mkcsc\E3DV4ToV5CGM.cscdb|.\CATFlexObjectModeler\E3DV4ToV5CGM.m
INT/000/CUS .\win_b64\code\bin\E3DV4ToV5CGM.pdb|.\CATFlexObjectModeler\E3DV4ToV5CGM.m
INT/000/CUS .\win_b64\code\lib\E3DV4ToV5CGM.exp|.\CATFlexObjectModeler\E3DV4ToV5CGM.m
@type='SHARED_LIBRARY'
@clr='false'
@kind='NATIVE'
@deliverable='true'
@built='true'
