!<mkRTViewData> v1.0.0
CSC/000/DSI .\BasicTopologicalOpe\CATRegularisator.m\Objects\win_b64\mkcsc\CATRegularisator.cscdb|.\BasicTopologicalOpe\CATRegularisator.m
@type='NONE'
@clr='false'
@kind='INCLUDED'
@deliverable='true'
@built='true'
