!<mkRTViewData> v1.0.0
BTV/000/CUS .\win_b64\code\lib\CATCsbMainInteractive.lib|.\CORBAServerBase\CATCsbMainInteractive.m
CSC/000/DSI .\CORBAServerBase\CATCsbMainInteractive.m\Objects\win_b64\mkcsc\CATCsbMainInteractive.cscdb|.\CORBAServerBase\CATCsbMainInteractive.m
RTV/001/CUS .\win_b64\code\bin\CATCsbMainInteractive.dll|.\CORBAServerBase\CATCsbMainInteractive.m
INT/000/CUS .\win_b64\code\lib\CATCsbMainInteractive.exp|.\CORBAServerBase\CATCsbMainInteractive.m
INT/000/CUS .\win_b64\code\bin\CATCsbMainInteractive.pdb|.\CORBAServerBase\CATCsbMainInteractive.m
@type='SHARED_LIBRARY'
@clr='false'
@kind='NATIVE'
@deliverable='true'
@built='true'
