!<mkRTViewData> v1.0.0
CSC/000/DSI .\Print\CATPrtXMLParser.m\Objects\win_b64\mkcsc\CATPrtXMLParser.cscdb|.\Print\CATPrtXMLParser.m
INT/000/CUS .\win_b64\code\bin\CATPrtXMLParser.pdb|.\Print\CATPrtXMLParser.m
BTV/000/CUS .\win_b64\code\lib\CATPrtXMLParser.lib|.\Print\CATPrtXMLParser.m
INT/000/CUS .\win_b64\code\lib\CATPrtXMLParser.exp|.\Print\CATPrtXMLParser.m
RTV/001/CUS .\win_b64\code\bin\CATPrtXMLParser.dll|.\Print\CATPrtXMLParser.m
@type='SHARED_LIBRARY'
@clr='false'
@kind='NATIVE'
@deliverable='true'
@built='true'
