!<mkRTViewData> v1.0.0
CSC/000/DSI .\DNBSystem\DNBSystemUtilsMD.m\Objects\win_b64\mkcsc\DNBSystemUtilsMD.cscdb|.\DNBSystem\DNBSystemUtilsMD.m
@type='NONE'
@clr='false'
@kind='INCLUDED'
@deliverable='true'
@built='true'
