!<mkRTViewData> v1.0.0
CSC/000/DSI .\DNBDeviceCommands\DNBDeviceAcquisition.m\Objects\win_b64\mkcsc\DNBDeviceAcquisition.cscdb|.\DNBDeviceCommands\DNBDeviceAcquisition.m
@type='NONE'
@clr='false'
@kind='INCLUDED'
@deliverable='true'
@built='true'
