!<mkRTViewData> v1.0.0
CSC/000/DSI .\ObjectSpecsModeler\CATOsmLink.m\Objects\win_b64\mkcsc\CATOsmLink.cscdb|.\ObjectSpecsModeler\CATOsmLink.m
@type='NONE'
@clr='false'
@kind='INCLUDED'
@deliverable='true'
@built='true'
