!<mkRTViewData> v1.0.0
CSC/000/DSI .\CATSubdivisionObjects\CATSobOperators.m\Objects\win_b64\mkcsc\CATSobOperators.cscdb|.\CATSubdivisionObjects\CATSobOperators.m
@type='NONE'
@clr='false'
@kind='INCLUDED'
@deliverable='true'
@built='true'
