!<mkRTViewData> v1.0.0
CSC/000/DSI .\TopologicalOperators\BONEWOPE.m\Objects\win_b64\mkcsc\BONEWOPE.cscdb|.\TopologicalOperators\BONEWOPE.m
@type='NONE'
@clr='false'
@kind='INCLUDED'
@deliverable='true'
@built='true'
