!<mkRTViewData> v1.0.0
INT/000/CUS .\win_b64\code\bin\CATSkmAutomation.pdb|.\SketcherModeler\CATSkmAutomation.m
RTV/001/CUS .\win_b64\code\bin\CATSkmAutomation.dll|.\SketcherModeler\CATSkmAutomation.m
CSC/000/DSI .\SketcherModeler\CATSkmAutomation.m\Objects\win_b64\mkcsc\CATSkmAutomation.cscdb|.\SketcherModeler\CATSkmAutomation.m
BTV/000/CUS .\win_b64\code\lib\CATSkmAutomation.lib|.\SketcherModeler\CATSkmAutomation.m
INT/000/CUS .\win_b64\code\lib\CATSkmAutomation.exp|.\SketcherModeler\CATSkmAutomation.m
@type='SHARED_LIBRARY'
@clr='false'
@kind='NATIVE'
@deliverable='true'
@built='true'
