!<mkRTViewData> v1.0.0
CSC/000/DSI .\GeometricOperators\Y300IINT.m\Objects\win_b64\mkcsc\Y300IINT.cscdb|.\GeometricOperators\Y300IINT.m
@type='NONE'
@clr='false'
@kind='INCLUDED'
@deliverable='true'
@built='true'
