!<mkRTViewData> v1.0.0
DAT/002/CUS .\win_b64\resources\msgcatalog\CATPrintPageLayoutDialog.CATNls|.\Print\CNext\resources\msgcatalog\CATPrintPageLayoutDialog.CATNls
DAT/002/CUS .\win_b64\resources\msgcatalog\CATPrintTileDialog.CATRsc|.\Print\CNext\resources\msgcatalog\CATPrintTileDialog.CATRsc
DAT/002/CUS .\win_b64\resources\msgcatalog\CATPrintPreviewDialog.CATNls|.\Print\CNext\resources\msgcatalog\CATPrintPreviewDialog.CATNls
RTV/002/DSI .\win_b64\resources\msgcatalog\NlsTest\CATPrintPositionDialog.CATNls|.\Print\CNext\resources\msgcatalog\CATPrintPositionDialog.CATNls
DAT/002/CUS .\win_b64\resources\graphic\icons\normal\I_OKPreview.bmp|.\Print\CNext\resources\graphic\icons\normal\I_OKPreview.bmp
RTV/002/DSI .\win_b64\resources\msgcatalog\DbcsTest\CATPrintRangeDialog.CATNls|.\Print\CNext\resources\msgcatalog\CATPrintRangeDialog.CATNls
RTV/002/DSI .\win_b64\resources\msgcatalog\NlsTest\CATPrinterConfigureDialog.CATNls|.\Print\CNext\resources\msgcatalog\CATPrinterConfigureDialog.CATNls
DAT/002/CUS .\win_b64\resources\msgcatalog\CATPrintAreaDialog.CATNls|.\Print\CNext\resources\msgcatalog\CATPrintAreaDialog.CATNls
RTV/002/DSI .\win_b64\resources\msgcatalog\NlsTest\CATPrintCGMDialog.CATNls|.\Print\CNext\resources\msgcatalog\CATPrintCGMDialog.CATNls
RTV/002/DSI .\win_b64\resources\msgcatalog\DbcsTest\CATPrintCaptureDialog.CATNls|.\Print\CNext\resources\msgcatalog\CATPrintCaptureDialog.CATNls
DAT/002/CUS .\win_b64\resources\batchdesc\PrintBatchDescriptor.xml|.\Print\CNext\resources\batchdesc\PrintBatchDescriptor.xml
RTV/002/DSI .\win_b64\resources\msgcatalog\DbcsTest\CATPrintPDFFontsDialog.CATNls|.\Print\CNext\resources\msgcatalog\CATPrintPDFFontsDialog.CATNls
RTV/002/DSI .\win_b64\resources\msgcatalog\DbcsTest\CATPrintCaptureOptionDialog.CATNls|.\Print\CNext\resources\msgcatalog\CATPrintCaptureOptionDialog.CATNls
DAT/002/CUS .\win_b64\resources\msgcatalog\CATPrintAlbumViewList.CATNls|.\Print\CNext\resources\msgcatalog\CATPrintAlbumViewList.CATNls
DAT/002/CUS .\win_b64\resources\ICCColorProfiles\sRGBColorSpaceProfile_readme.txt|.\Print\CNext\resources\ICCColorProfiles\sRGBColorSpaceProfile_readme.txt
DAT/002/CUS .\win_b64\resources\msgcatalog\CATPrintTileDialog.CATNls|.\Print\CNext\resources\msgcatalog\CATPrintTileDialog.CATNls
CSC/002/DSI .\Print\IdentityCard\Objects\win_b64\mkcsc\Print.cscdb|.\Print
DAT/002/CUS .\win_b64\resources\msgcatalog\CATPrintExportDialog.CATNls|.\Print\CNext\resources\msgcatalog\CATPrintExportDialog.CATNls
DAT/002/CUS .\win_b64\resources\graphic\TileVert.bmp|.\Print\CNext\resources\graphic\TileVert.bmp
DAT/002/CUS .\win_b64\resources\graphic\LocalPrinter16_16.bmp|.\Print\CNext\resources\graphic\LocalPrinter16_16.bmp
DAT/002/CUS .\win_b64\resources\graphic\NetworkPrinterAsDft.bmp|.\Print\CNext\resources\graphic\NetworkPrinterAsDft.bmp
RTV/002/DSI .\win_b64\resources\msgcatalog\DbcsTest\CATPrinterDialog.CATNls|.\Print\CNext\resources\msgcatalog\CATPrinterDialog.CATNls
RTV/002/DSI .\win_b64\resources\msgcatalog\NlsTest\CATPrintCaptureDialog.CATNls|.\Print\CNext\resources\msgcatalog\CATPrintCaptureDialog.CATNls
RTV/002/DSI .\win_b64\resources\msgcatalog\NlsTest\CATPrinterDialog.CATNls|.\Print\CNext\resources\msgcatalog\CATPrinterDialog.CATNls
DAT/002/CUS .\win_b64\resources\msgcatalog\CATPrintCaptureViewerDialog.CATRsc|.\Print\CNext\resources\msgcatalog\CATPrintCaptureViewerDialog.CATRsc
RTV/002/DSI .\win_b64\resources\msgcatalog\NlsTest\CATPrintPixelExportDialog.CATNls|.\Print\CNext\resources\msgcatalog\CATPrintPixelExportDialog.CATNls
RTV/002/DSI .\win_b64\resources\msgcatalog\DbcsTest\CATAddPrinterDialog.CATNls|.\Print\CNext\resources\msgcatalog\CATAddPrinterDialog.CATNls
DAT/002/CUS .\win_b64\resources\msgcatalog\CATPrintViewerDialog.CATRsc|.\Print\CNext\resources\msgcatalog\CATPrintViewerDialog.CATRsc
RTV/002/DSI .\win_b64\code\productIC\PrintIC.required|.\Print
RTV/002/DSI .\win_b64\resources\msgcatalog\NlsTest\CATPrintPDFDialog.CATNls|.\Print\CNext\resources\msgcatalog\CATPrintPDFDialog.CATNls
RTV/002/DSI .\win_b64\resources\msgcatalog\NlsTest\CATPrintAlbumViewList.CATNls|.\Print\CNext\resources\msgcatalog\CATPrintAlbumViewList.CATNls
RTV/002/DSI .\win_b64\resources\msgcatalog\DbcsTest\CATPrinterFilterDialog.CATNls|.\Print\CNext\resources\msgcatalog\CATPrinterFilterDialog.CATNls
DAT/002/CUS .\win_b64\resources\graphic\icons\small\I_PixProperties.bmp|.\Print\CNext\resources\graphic\icons\small\I_PixProperties.bmp
DAT/002/CUS .\win_b64\resources\graphic\I_SquareCap.bmp|.\Print\CNext\resources\graphic\I_SquareCap.bmp
RTV/002/DSI .\win_b64\resources\msgcatalog\DbcsTest\CATPrinterConfigureDialog.CATNls|.\Print\CNext\resources\msgcatalog\CATPrinterConfigureDialog.CATNls
DAT/002/CUS .\win_b64\resources\graphic\HPAutoRotate.bmp|.\Print\CNext\resources\graphic\HPAutoRotate.bmp
RTV/002/DSI .\win_b64\resources\msgcatalog\NlsTest\CATPrintCaptureDialog2.CATNls|.\Print\CNext\resources\msgcatalog\CATPrintCaptureDialog2.CATNls
RTV/002/DSI .\win_b64\resources\msgcatalog\NlsTest\CATPrintCaptureViewerDialog.CATNls|.\Print\CNext\resources\msgcatalog\CATPrintCaptureViewerDialog.CATNls
DAT/002/CUS .\win_b64\resources\msgcatalog\CATPrintExportOptionDialog.CATNls|.\Print\CNext\resources\msgcatalog\CATPrintExportOptionDialog.CATNls
DAT/002/CUS .\win_b64\resources\graphic\I_LocalPrinterAsDft.bmp|.\Print\CNext\resources\graphic\I_LocalPrinterAsDft.bmp
DAT/002/CUS .\win_b64\resources\msgcatalog\CATPrintDialog.CATNls|.\Print\CNext\resources\msgcatalog\CATPrintDialog.CATNls
DAT/002/CUS .\win_b64\startup\PrintServices\SheetV4Dump\CATSheetV4Dump.bat|.\Print\CNext\startup\PrintServices\SheetV4Dump\CATSheetV4Dump.bat
DAT/002/CUS .\win_b64\resources\graphic\HPMonoroll.bmp|.\Print\CNext\resources\graphic\HPMonoroll.bmp
DAT/002/CUS .\win_b64\resources\graphic\I_NetworkPrinter16_16.bmp|.\Print\CNext\resources\graphic\I_NetworkPrinter16_16.bmp
DAT/002/CUS .\win_b64\resources\graphic\icons\small\I_PixEdit.bmp|.\Print\CNext\resources\graphic\icons\small\I_PixEdit.bmp
RTV/002/DSI .\win_b64\resources\msgcatalog\NlsTest\CATPrintProgressDialog.CATNls|.\Print\CNext\resources\msgcatalog\CATPrintProgressDialog.CATNls
RTV/002/DSI .\win_b64\resources\msgcatalog\NlsTest\CATPrintPageLayoutDialog.CATNls|.\Print\CNext\resources\msgcatalog\CATPrintPageLayoutDialog.CATNls
RTV/002/DSI .\win_b64\resources\msgcatalog\DbcsTest\CATPrintExportOptionDialog.CATNls|.\Print\CNext\resources\msgcatalog\CATPrintExportOptionDialog.CATNls
DAT/002/CUS .\win_b64\resources\msgcatalog\CATPrintAlbumDialog.CATNls|.\Print\CNext\resources\msgcatalog\CATPrintAlbumDialog.CATNls
RTV/002/DSI .\win_b64\resources\msgcatalog\DbcsTest\CATPrintVectorExportDialog.CATNls|.\Print\CNext\resources\msgcatalog\CATPrintVectorExportDialog.CATNls
DAT/002/CUS .\win_b64\resources\msgcatalog\CATPrintRastDialog.CATNls|.\Print\CNext\resources\msgcatalog\CATPrintRastDialog.CATNls
RTV/002/DSI .\win_b64\resources\msgcatalog\NlsTest\CATPrintHP1055CDialog.CATNls|.\Print\CNext\resources\msgcatalog\CATPrintHP1055CDialog.CATNls
DAT/002/CUS .\win_b64\resources\msgcatalog\CATPrinterManagerDialog.CATNls|.\Print\CNext\resources\msgcatalog\CATPrinterManagerDialog.CATNls
RTV/002/DSI .\win_b64\resources\msgcatalog\NlsTest\CATPrintPropertiesDialog.CATNls|.\Print\CNext\resources\msgcatalog\CATPrintPropertiesDialog.CATNls
DAT/002/CUS .\win_b64\resources\msgcatalog\CATPrintFontsDialog.CATNls|.\Print\CNext\resources\msgcatalog\CATPrintFontsDialog.CATNls
DAT/002/CUS .\win_b64\startup\PrintServices\PrintDriverPlugIn\CATPDPluginAPI.h|.\Print\CNext\startup\PrintServices\PrintDriverPlugIn\CATPDPluginAPI.h
DAT/002/CUS .\win_b64\resources\graphic\icons\normal\I_Refresh.bmp|.\Print\CNext\resources\graphic\icons\normal\I_Refresh.bmp
DAT/002/CUS .\win_b64\resources\graphic\HPQualityNormal.bmp|.\Print\CNext\resources\graphic\HPQualityNormal.bmp
DAT/002/CUS .\win_b64\resources\msgcatalog\CATPrintSVGFontsDialog.CATNls|.\Print\CNext\resources\msgcatalog\CATPrintSVGFontsDialog.CATNls
DAT/002/CUS .\win_b64\resources\msgcatalog\CATPrintSelectImagesDialog.CATNls|.\Print\CNext\resources\msgcatalog\CATPrintSelectImagesDialog.CATNls
DAT/002/CUS .\win_b64\resources\msgcatalog\CATPrintMarginsDialog.CATNls|.\Print\CNext\resources\msgcatalog\CATPrintMarginsDialog.CATNls
DAT/002/CUS .\win_b64\resources\graphic\I_UnixDriver16_16.bmp|.\Print\CNext\resources\graphic\I_UnixDriver16_16.bmp
DAT/002/CUS .\win_b64\resources\msgcatalog\CATPrintPageSetupDialog.CATNls|.\Print\CNext\resources\msgcatalog\CATPrintPageSetupDialog.CATNls
DAT/002/CUS .\win_b64\resources\graphic\icons\I_AreaSel.bmp|.\Print\CNext\resources\graphic\icons\I_AreaSel.bmp
DAT/002/CUS .\win_b64\resources\msgcatalog\CATPrintHPGLColorDialog.CATNls|.\Print\CNext\resources\msgcatalog\CATPrintHPGLColorDialog.CATNls
DAT/002/CUS .\win_b64\resources\msgcatalog\CATPrintPDFDialog.CATNls|.\Print\CNext\resources\msgcatalog\CATPrintPDFDialog.CATNls
DAT/002/CUS .\win_b64\resources\graphic\3DS_logo.bmp|.\Print\CNext\resources\graphic\3DS_logo.bmp
DAT/002/CUS .\win_b64\resources\graphic\icons\normal\I_WindowsPrinter.bmp|.\Print\CNext\resources\graphic\icons\normal\I_WindowsPrinter.bmp
RTV/002/DSI .\win_b64\resources\msgcatalog\DbcsTest\CATPrintCaptureProgressDialog.CATNls|.\Print\CNext\resources\msgcatalog\CATPrintCaptureProgressDialog.CATNls
DAT/002/CUS .\win_b64\resources\msgcatalog\CATPrintCaptureDialog.CATRsc|.\Print\CNext\resources\msgcatalog\CATPrintCaptureDialog.CATRsc
DAT/002/CUS .\win_b64\resources\msgcatalog\CATPrintCaptureDialog.CATNls|.\Print\CNext\resources\msgcatalog\CATPrintCaptureDialog.CATNls
RTV/002/DSI .\win_b64\resources\msgcatalog\DbcsTest\CATPrintPageSetupDialog.CATNls|.\Print\CNext\resources\msgcatalog\CATPrintPageSetupDialog.CATNls
RTV/002/DSI .\win_b64\resources\msgcatalog\NlsTest\CATPrintHP1055CDialogAbout.CATNls|.\Print\CNext\resources\msgcatalog\CATPrintHP1055CDialogAbout.CATNls
RTV/002/DSI .\win_b64\resources\msgcatalog\NlsTest\CATPrintPageSetupDialog.CATNls|.\Print\CNext\resources\msgcatalog\CATPrintPageSetupDialog.CATNls
RTV/002/DSI .\win_b64\resources\msgcatalog\NlsTest\CATPrinterFilterDialog.CATNls|.\Print\CNext\resources\msgcatalog\CATPrinterFilterDialog.CATNls
RTV/002/DSI .\win_b64\resources\msgcatalog\DbcsTest\CATPrintViewerDialog.CATNls|.\Print\CNext\resources\msgcatalog\CATPrintViewerDialog.CATNls
DAT/002/CUS .\win_b64\resources\graphic\TilePosition.bmp|.\Print\CNext\resources\graphic\TilePosition.bmp
RTV/002/DSI .\win_b64\resources\msgcatalog\NlsTest\CATPrintAlbumDialog.CATNls|.\Print\CNext\resources\msgcatalog\CATPrintAlbumDialog.CATNls
RTV/002/DSI .\win_b64\resources\msgcatalog\NlsTest\CATPrinterManagerDialog.CATNls|.\Print\CNext\resources\msgcatalog\CATPrinterManagerDialog.CATNls
RTV/002/DSI .\win_b64\resources\msgcatalog\DbcsTest\CATPrintSVGFontsDialog.CATNls|.\Print\CNext\resources\msgcatalog\CATPrintSVGFontsDialog.CATNls
RTV/002/DSI .\win_b64\resources\msgcatalog\NlsTest\CATPrintSelectImagesDialog.CATNls|.\Print\CNext\resources\msgcatalog\CATPrintSelectImagesDialog.CATNls
DAT/002/CUS .\win_b64\resources\msgcatalog\CATPrintHPGLImportDialog.CATNls|.\Print\CNext\resources\msgcatalog\CATPrintHPGLImportDialog.CATNls
RTV/002/DSI .\win_b64\resources\msgcatalog\DbcsTest\CATPrintEPSDialog.CATNls|.\Print\CNext\resources\msgcatalog\CATPrintEPSDialog.CATNls
RTV/002/DSI .\win_b64\resources\msgcatalog\NlsTest\CATPrintHPGLColorDialog.CATNls|.\Print\CNext\resources\msgcatalog\CATPrintHPGLColorDialog.CATNls
DAT/002/CUS .\win_b64\resources\graphic\HPQualityFast.bmp|.\Print\CNext\resources\graphic\HPQualityFast.bmp
RTV/002/DSI .\win_b64\resources\msgcatalog\NlsTest\CATPrintTilePreviewDialog.CATNls|.\Print\CNext\resources\msgcatalog\CATPrintTilePreviewDialog.CATNls
RTV/002/DSI .\win_b64\resources\msgcatalog\NlsTest\CATPrintHPGLDialog.CATNls|.\Print\CNext\resources\msgcatalog\CATPrintHPGLDialog.CATNls
RTV/002/DSI .\win_b64\resources\msgcatalog\DbcsTest\CATPrintPositionDialog.CATNls|.\Print\CNext\resources\msgcatalog\CATPrintPositionDialog.CATNls
RTV/002/DSI .\win_b64\resources\msgcatalog\NlsTest\CATPrintSVGFontsDialog.CATNls|.\Print\CNext\resources\msgcatalog\CATPrintSVGFontsDialog.CATNls
RTV/002/DSI .\win_b64\resources\msgcatalog\DbcsTest\CATPrintFormDialog.CATNls|.\Print\CNext\resources\msgcatalog\CATPrintFormDialog.CATNls
DAT/002/CUS .\win_b64\resources\printerDTD\printer.dtd|.\Print\CNext\resources\printerDTD\printer.dtd
RTV/002/DSI .\win_b64\resources\msgcatalog\NlsTest\CATPrintVectorExportDialog.CATNls|.\Print\CNext\resources\msgcatalog\CATPrintVectorExportDialog.CATNls
DAT/002/CUS .\win_b64\resources\msgcatalog\CATPrinterDialog.CATNls|.\Print\CNext\resources\msgcatalog\CATPrinterDialog.CATNls
RTV/002/DSI .\win_b64\resources\msgcatalog\NlsTest\CATPrintExportOptionDialog.CATNls|.\Print\CNext\resources\msgcatalog\CATPrintExportOptionDialog.CATNls
RTV/002/DSI .\win_b64\resources\msgcatalog\NlsTest\CATPrintViewerDialog.CATNls|.\Print\CNext\resources\msgcatalog\CATPrintViewerDialog.CATNls
RTV/002/DSI .\win_b64\resources\msgcatalog\DbcsTest\CATPrintHP4000Dialog.CATNls|.\Print\CNext\resources\msgcatalog\CATPrintHP4000Dialog.CATNls
DAT/002/CUS .\win_b64\resources\msgcatalog\CATPrintAreaDialog.CATRsc|.\Print\CNext\resources\msgcatalog\CATPrintAreaDialog.CATRsc
DAT/002/CUS .\win_b64\resources\msgcatalog\CATPrintHPGLDialog.CATNls|.\Print\CNext\resources\msgcatalog\CATPrintHPGLDialog.CATNls
DAT/002/CUS .\win_b64\resources\graphic\icons\I_QualityWarning.bmp|.\Print\CNext\resources\graphic\icons\I_QualityWarning.bmp
DAT/002/CUS .\win_b64\resources\msgcatalog\CATPrintCaptureOptionDialog.CATNls|.\Print\CNext\resources\msgcatalog\CATPrintCaptureOptionDialog.CATNls
DAT/002/CUS .\win_b64\resources\graphic\LocalPrinterAsDft.bmp|.\Print\CNext\resources\graphic\LocalPrinterAsDft.bmp
DAT/002/CUS .\win_b64\resources\graphic\HP_logo.bmp|.\Print\CNext\resources\graphic\HP_logo.bmp
DAT/002/CUS .\win_b64\resources\msgcatalog\CATPrinterFilterDialog.CATNls|.\Print\CNext\resources\msgcatalog\CATPrinterFilterDialog.CATNls
DAT/002/CUS .\win_b64\startup\PrintServices\PrintDriverPlugIn\CATPDPluginTemplate.cpp|.\Print\CNext\startup\PrintServices\PrintDriverPlugIn\CATPDPluginTemplate.cpp
DAT/002/CUS .\win_b64\resources\graphic\icons\small\I_ShowAlbum.bmp|.\Print\CNext\resources\graphic\icons\small\I_ShowAlbum.bmp
DAT/002/CUS .\win_b64\resources\graphic\icons\normal\I_ShowAlbum.bmp|.\Print\CNext\resources\graphic\icons\normal\I_ShowAlbum.bmp
DAT/002/CUS .\win_b64\startup\PrintServices\PrintBatch\PrintBatchUtility.bat|.\Print\CNext\startup\PrintServices\PrintBatch\PrintBatchUtility.bat
DAT/002/CUS .\win_b64\startup\PrintServices\PrintBatch\PrintBatchParameters.xml|.\Print\CNext\startup\PrintServices\PrintBatch\PrintBatchParameters.xml
DAT/002/CUS .\win_b64\resources\graphic\icons\normal\I_PixEdit.bmp|.\Print\CNext\resources\graphic\icons\normal\I_PixEdit.bmp
DAT/002/CUS .\win_b64\resources\msgcatalog\CATVectorImageDlgInfo.CATNls|.\Print\CNext\resources\msgcatalog\CATVectorImageDlgInfo.CATNls
RTV/002/DSI .\win_b64\resources\msgcatalog\NlsTest\CATPrintAreaDialog.CATNls|.\Print\CNext\resources\msgcatalog\CATPrintAreaDialog.CATNls
DAT/002/CUS .\win_b64\resources\graphic\icons\normal\I_PixProperties.bmp|.\Print\CNext\resources\graphic\icons\normal\I_PixProperties.bmp
DAT/002/CUS .\win_b64\resources\graphic\HPQualityBest.bmp|.\Print\CNext\resources\graphic\HPQualityBest.bmp
RTV/002/DSI .\win_b64\resources\msgcatalog\NlsTest\CATPrintTileDialog.CATNls|.\Print\CNext\resources\msgcatalog\CATPrintTileDialog.CATNls
DAT/002/CUS .\win_b64\resources\graphic\TileOverlap.bmp|.\Print\CNext\resources\graphic\TileOverlap.bmp
RTV/002/DSI .\win_b64\resources\msgcatalog\DbcsTest\CATPrintExportDialog.CATNls|.\Print\CNext\resources\msgcatalog\CATPrintExportDialog.CATNls
DAT/002/CUS .\win_b64\resources\graphic\TileCentre.bmp|.\Print\CNext\resources\graphic\TileCentre.bmp
DAT/002/CUS .\win_b64\resources\msgcatalog\CATPrintOptionsDialog.CATNls|.\Print\CNext\resources\msgcatalog\CATPrintOptionsDialog.CATNls
DAT/002/CUS .\win_b64\code\dictionary\Print.iid|.\Print\CNext\code\dictionary\Print.iid
RTV/002/DSI .\win_b64\resources\msgcatalog\NlsTest\CATPrintRastDialog.CATNls|.\Print\CNext\resources\msgcatalog\CATPrintRastDialog.CATNls
RTV/002/DSI .\win_b64\resources\msgcatalog\NlsTest\CATPrintEPSDialog.CATNls|.\Print\CNext\resources\msgcatalog\CATPrintEPSDialog.CATNls
RTV/002/DSI .\win_b64\resources\msgcatalog\NlsTest\CATPrintCaptureOptionDialog.CATNls|.\Print\CNext\resources\msgcatalog\CATPrintCaptureOptionDialog.CATNls
RTV/002/DSI .\win_b64\resources\msgcatalog\DbcsTest\CATPrintHP1055CDialog.CATNls|.\Print\CNext\resources\msgcatalog\CATPrintHP1055CDialog.CATNls
RTV/002/DSI .\win_b64\resources\msgcatalog\DbcsTest\CATPrintTilePreviewDialog.CATNls|.\Print\CNext\resources\msgcatalog\CATPrintTilePreviewDialog.CATNls
DAT/002/CUS .\win_b64\code\command\PrintBatch.bat|.\Print\CNext\code\command\PrintBatch.bat
DAT/002/CUS .\win_b64\startup\PrintServices\SheetV4Dump\CATSheetV4Dump.sh|.\Print\CNext\startup\PrintServices\SheetV4Dump\CATSheetV4Dump.sh
DAT/002/CUS .\win_b64\resources\graphic\icons\normal\I_DefaultPath.bmp|.\Print\CNext\resources\graphic\icons\normal\I_DefaultPath.bmp
DAT/002/CUS .\win_b64\resources\msgcatalog\CATPrintTileViewer.CATRsc|.\Print\CNext\resources\msgcatalog\CATPrintTileViewer.CATRsc
RTV/002/DSI .\win_b64\resources\msgcatalog\NlsTest\CATPrintOptionsDialog.CATNls|.\Print\CNext\resources\msgcatalog\CATPrintOptionsDialog.CATNls
DAT/002/CUS .\win_b64\resources\msgcatalog\CATPrintAlbumDialog.CATRsc|.\Print\CNext\resources\msgcatalog\CATPrintAlbumDialog.CATRsc
RTV/002/DSI .\win_b64\resources\msgcatalog\DbcsTest\CATPrintFilesNamesSelect.CATNls|.\Print\CNext\resources\msgcatalog\CATPrintFilesNamesSelect.CATNls
DAT/002/CUS .\win_b64\resources\msgcatalog\CATPrintHP1055CDialog.CATNls|.\Print\CNext\resources\msgcatalog\CATPrintHP1055CDialog.CATNls
DAT/002/CUS .\win_b64\resources\msgcatalog\CATPrintVectorExportDialog.CATNls|.\Print\CNext\resources\msgcatalog\CATPrintVectorExportDialog.CATNls
DAT/002/CUS .\win_b64\resources\msgcatalog\CATPrintEPSDialog.CATNls|.\Print\CNext\resources\msgcatalog\CATPrintEPSDialog.CATNls
RTV/002/DSI .\win_b64\resources\msgcatalog\DbcsTest\CATPrintPDFDialog.CATNls|.\Print\CNext\resources\msgcatalog\CATPrintPDFDialog.CATNls
DAT/002/CUS .\win_b64\resources\graphic\3DS_HPLogos.bmp|.\Print\CNext\resources\graphic\3DS_HPLogos.bmp
RTV/002/DSI .\win_b64\resources\msgcatalog\NlsTest\CATPrintPreviewDialog.CATNls|.\Print\CNext\resources\msgcatalog\CATPrintPreviewDialog.CATNls
RTV/002/DSI .\win_b64\resources\msgcatalog\DbcsTest\CATPrintCaptureViewerDialog.CATNls|.\Print\CNext\resources\msgcatalog\CATPrintCaptureViewerDialog.CATNls
DAT/002/CUS .\win_b64\resources\msgcatalog\CATAddPrinterDialog.CATNls|.\Print\CNext\resources\msgcatalog\CATAddPrinterDialog.CATNls
RTV/002/DSI .\win_b64\resources\msgcatalog\DbcsTest\CATPrintSVGDialog.CATNls|.\Print\CNext\resources\msgcatalog\CATPrintSVGDialog.CATNls
DAT/002/CUS .\win_b64\resources\msgcatalog\CATPrintTileViewer.CATNls|.\Print\CNext\resources\msgcatalog\CATPrintTileViewer.CATNls
DAT/002/CUS .\win_b64\resources\msgcatalog\Print.CATRsc|.\Print\CNext\resources\msgcatalog\Print.CATRsc
RTV/002/DSI .\win_b64\resources\msgcatalog\DbcsTest\CATPrintMarginsDialog.CATNls|.\Print\CNext\resources\msgcatalog\CATPrintMarginsDialog.CATNls
DAT/002/CUS .\win_b64\resources\msgcatalog\CATPrintSVGDialog.CATNls|.\Print\CNext\resources\msgcatalog\CATPrintSVGDialog.CATNls
DAT/002/CUS .\win_b64\resources\msgcatalog\CATPrintHP1055CDialogAbout.CATNls|.\Print\CNext\resources\msgcatalog\CATPrintHP1055CDialogAbout.CATNls
RTV/002/DSI .\win_b64\resources\msgcatalog\DbcsTest\CATPrintHPGLImportDialog.CATNls|.\Print\CNext\resources\msgcatalog\CATPrintHPGLImportDialog.CATNls
RTV/002/DSI .\win_b64\resources\msgcatalog\DbcsTest\CATPrintHP1055CDialogAbout.CATNls|.\Print\CNext\resources\msgcatalog\CATPrintHP1055CDialogAbout.CATNls
RTV/002/DSI .\win_b64\resources\msgcatalog\DbcsTest\CATPrintHPGL2Dialog.CATNls|.\Print\CNext\resources\msgcatalog\CATPrintHPGL2Dialog.CATNls
DAT/002/CUS .\win_b64\resources\graphic\icons\normal\I_UnixDriver.bmp|.\Print\CNext\resources\graphic\icons\normal\I_UnixDriver.bmp
DAT/002/CUS .\win_b64\startup\PrintServices\PrintDriverPlugIn\BUILD\WINDOWS\WINDOWSBuild.bat|.\Print\CNext\startup\PrintServices\PrintDriverPlugIn\BUILD\WINDOWS\WINDOWSBuild.bat
DAT/002/CUS .\win_b64\resources\graphic\icons\small\I_Refresh.bmp|.\Print\CNext\resources\graphic\icons\small\I_Refresh.bmp
DAT/002/CUS .\win_b64\resources\graphic\HPMultiroll.bmp|.\Print\CNext\resources\graphic\HPMultiroll.bmp
DAT/002/CUS .\win_b64\resources\graphic\I_UnixDriverAsDft.bmp|.\Print\CNext\resources\graphic\I_UnixDriverAsDft.bmp
DAT/002/CUS .\win_b64\resources\graphic\icons\small\I_OKPreview.bmp|.\Print\CNext\resources\graphic\icons\small\I_OKPreview.bmp
RTV/002/DSI .\win_b64\resources\msgcatalog\NlsTest\CATPrintTileViewer.CATNls|.\Print\CNext\resources\msgcatalog\CATPrintTileViewer.CATNls
RTV/002/DSI .\win_b64\resources\msgcatalog\NlsTest\CATPrintScriptEditorDialog.CATNls|.\Print\CNext\resources\msgcatalog\CATPrintScriptEditorDialog.CATNls
RTV/002/DSI .\win_b64\resources\msgcatalog\DbcsTest\CATPrintAreaDialog.CATNls|.\Print\CNext\resources\msgcatalog\CATPrintAreaDialog.CATNls
RTV/002/DSI .\win_b64\resources\msgcatalog\DbcsTest\CATPrintPreviewDialog.CATNls|.\Print\CNext\resources\msgcatalog\CATPrintPreviewDialog.CATNls
RTV/002/DSI .\win_b64\resources\msgcatalog\DbcsTest\CATPrinterManagerDialog.CATNls|.\Print\CNext\resources\msgcatalog\CATPrinterManagerDialog.CATNls
DAT/002/CUS .\win_b64\startup\PrintServices\PrintDriverPlugIn\BUILD\WINDOWS\CATPDPLugin.mak|.\Print\CNext\startup\PrintServices\PrintDriverPlugIn\BUILD\WINDOWS\CATPDPLugin.mak
DAT/002/CUS .\win_b64\resources\graphic\icons\small\I_UnixDriver.bmp|.\Print\CNext\resources\graphic\icons\small\I_UnixDriver.bmp
DAT/002/CUS .\win_b64\startup\PrintServices\PrintBatch\PrintBatchUtility.sh|.\Print\CNext\startup\PrintServices\PrintBatch\PrintBatchUtility.sh
RTV/002/DSI .\win_b64\resources\msgcatalog\NlsTest\CATPrintPDFFontsDialog.CATNls|.\Print\CNext\resources\msgcatalog\CATPrintPDFFontsDialog.CATNls
RTV/002/DSI .\win_b64\resources\msgcatalog\NlsTest\CATPrintDialog.CATNls|.\Print\CNext\resources\msgcatalog\CATPrintDialog.CATNls
DAT/002/CUS .\win_b64\resources\graphic\icons\normal\I_CANCELPreview.bmp|.\Print\CNext\resources\graphic\icons\normal\I_CANCELPreview.bmp
RTV/002/DSI .\win_b64\resources\msgcatalog\DbcsTest\CATPrintCaptureDialog2.CATNls|.\Print\CNext\resources\msgcatalog\CATPrintCaptureDialog2.CATNls
DAT/002/CUS .\win_b64\resources\msgcatalog\CATPrintPositionDialog.CATNls|.\Print\CNext\resources\msgcatalog\CATPrintPositionDialog.CATNls
RTV/002/DSI .\win_b64\resources\msgcatalog\DbcsTest\CATPrintAlbumDialog.CATNls|.\Print\CNext\resources\msgcatalog\CATPrintAlbumDialog.CATNls
RTV/002/DSI .\win_b64\resources\msgcatalog\DbcsTest\CATPrintPageLayoutDialog.CATNls|.\Print\CNext\resources\msgcatalog\CATPrintPageLayoutDialog.CATNls
DAT/002/CUS .\win_b64\resources\graphic\HPLogo.bmp|.\Print\CNext\resources\graphic\HPLogo.bmp
RTV/002/DSI .\win_b64\resources\msgcatalog\DbcsTest\CATPrintSelectImagesDialog.CATNls|.\Print\CNext\resources\msgcatalog\CATPrintSelectImagesDialog.CATNls
RTV/002/DSI .\win_b64\resources\msgcatalog\DbcsTest\CATPrintPixelExportDialog.CATNls|.\Print\CNext\resources\msgcatalog\CATPrintPixelExportDialog.CATNls
RTV/002/DSI .\win_b64\resources\msgcatalog\DbcsTest\CATPrintFontsDialog.CATNls|.\Print\CNext\resources\msgcatalog\CATPrintFontsDialog.CATNls
DAT/002/CUS .\win_b64\resources\graphic\I_RoundCap.bmp|.\Print\CNext\resources\graphic\I_RoundCap.bmp
RTV/002/DSI .\win_b64\resources\msgcatalog\NlsTest\CATPrintFormDialog.CATNls|.\Print\CNext\resources\msgcatalog\CATPrintFormDialog.CATNls
DAT/002/CUS .\win_b64\resources\graphic\PrintTest.cgm|.\Print\CNext\resources\graphic\PrintTest.cgm
DAT/002/CUS .\win_b64\resources\graphic\TileHor.bmp|.\Print\CNext\resources\graphic\TileHor.bmp
RTV/002/DSI .\win_b64\resources\msgcatalog\NlsTest\CATPrintSVGDialog.CATNls|.\Print\CNext\resources\msgcatalog\CATPrintSVGDialog.CATNls
RTV/002/DSI .\win_b64\resources\msgcatalog\DbcsTest\CATPrintScriptEditorDialog.CATNls|.\Print\CNext\resources\msgcatalog\CATPrintScriptEditorDialog.CATNls
DAT/002/CUS .\win_b64\resources\graphic\I_FlatCap.bmp|.\Print\CNext\resources\graphic\I_FlatCap.bmp
RTV/002/DSI .\win_b64\resources\msgcatalog\NlsTest\CATPrintHPGL2Dialog.CATNls|.\Print\CNext\resources\msgcatalog\CATPrintHPGL2Dialog.CATNls
RTV/002/DSI .\win_b64\resources\msgcatalog\NlsTest\CATPrintImageViewerDialog.CATNls|.\Print\CNext\resources\msgcatalog\CATPrintImageViewerDialog.CATNls
DAT/002/CUS .\win_b64\resources\msgcatalog\CATPrintImageViewerDialog.CATNls|.\Print\CNext\resources\msgcatalog\CATPrintImageViewerDialog.CATNls
DAT/002/CUS .\win_b64\resources\graphic\HPInkedArea.bmp|.\Print\CNext\resources\graphic\HPInkedArea.bmp
DAT/002/CUS .\win_b64\resources\msgcatalog\CATPrintHPGL2Dialog.CATNls|.\Print\CNext\resources\msgcatalog\CATPrintHPGL2Dialog.CATNls
DAT/002/CUS .\win_b64\resources\msgcatalog\CATPrintFormDialog.CATNls|.\Print\CNext\resources\msgcatalog\CATPrintFormDialog.CATNls
BTV/002/CUS .\win_b64\code\productIC\PrintIC.script|.\Print
RTV/002/DSI .\win_b64\resources\msgcatalog\NlsTest\CATVectorImageDlgInfo.CATNls|.\Print\CNext\resources\msgcatalog\CATVectorImageDlgInfo.CATNls
DAT/002/CUS .\win_b64\resources\graphic\HPMedia.bmp|.\Print\CNext\resources\graphic\HPMedia.bmp
RTV/002/DSI .\win_b64\resources\msgcatalog\NlsTest\CATPrintCaptureProgressDialog.CATNls|.\Print\CNext\resources\msgcatalog\CATPrintCaptureProgressDialog.CATNls
DAT/002/CUS .\win_b64\resources\graphic\AddPrinter.bmp|.\Print\CNext\resources\graphic\AddPrinter.bmp
RTV/002/DSI .\win_b64\resources\msgcatalog\NlsTest\CATPrintHPGLImportDialog.CATNls|.\Print\CNext\resources\msgcatalog\CATPrintHPGLImportDialog.CATNls
RTV/002/DSI .\win_b64\resources\msgcatalog\NlsTest\CATPrintHP4000Dialog.CATNls|.\Print\CNext\resources\msgcatalog\CATPrintHP4000Dialog.CATNls
DAT/002/CUS .\win_b64\resources\msgcatalog\CATPrintTilePreviewDialog.CATNls|.\Print\CNext\resources\msgcatalog\CATPrintTilePreviewDialog.CATNls
DAT/002/CUS .\win_b64\resources\graphic\I_NetworkPrinterAsDft.bmp|.\Print\CNext\resources\graphic\I_NetworkPrinterAsDft.bmp
DAT/002/CUS .\win_b64\resources\graphic\NetworkPrinter16_16.bmp|.\Print\CNext\resources\graphic\NetworkPrinter16_16.bmp
DAT/002/CUS .\win_b64\resources\graphic\HP4000Monoroll.bmp|.\Print\CNext\resources\graphic\HP4000Monoroll.bmp
RTV/002/DSI .\win_b64\resources\msgcatalog\DbcsTest\CATPrintTileDialog.CATNls|.\Print\CNext\resources\msgcatalog\CATPrintTileDialog.CATNls
DAT/002/CUS .\win_b64\resources\msgcatalog\CATPrintScriptEditorDialog.CATNls|.\Print\CNext\resources\msgcatalog\CATPrintScriptEditorDialog.CATNls
RTV/002/DSI .\win_b64\resources\msgcatalog\DbcsTest\CATPrintAlbumViewList.CATNls|.\Print\CNext\resources\msgcatalog\CATPrintAlbumViewList.CATNls
DAT/002/CUS .\win_b64\resources\msgcatalog\CATPrintAlbumViewList.CATRsc|.\Print\CNext\resources\msgcatalog\CATPrintAlbumViewList.CATRsc
RTV/002/DSI .\win_b64\resources\msgcatalog\NlsTest\CATAddPrinterDialog.CATNls|.\Print\CNext\resources\msgcatalog\CATAddPrinterDialog.CATNls
DAT/002/CUS .\win_b64\resources\msgcatalog\CATPrintCGMDialog.CATNls|.\Print\CNext\resources\msgcatalog\CATPrintCGMDialog.CATNls
RTV/002/DSI .\win_b64\resources\msgcatalog\DbcsTest\CATPrintRastDialog.CATNls|.\Print\CNext\resources\msgcatalog\CATPrintRastDialog.CATNls
DAT/002/CUS .\win_b64\resources\msgcatalog\CATPrintHP4000Dialog.CATNls|.\Print\CNext\resources\msgcatalog\CATPrintHP4000Dialog.CATNls
DAT/002/CUS .\win_b64\resources\msgcatalog\CATPrintPropertiesDialog.CATNls|.\Print\CNext\resources\msgcatalog\CATPrintPropertiesDialog.CATNls
RTV/002/DSI .\win_b64\resources\msgcatalog\NlsTest\CATPrintFilesNamesSelect.CATNls|.\Print\CNext\resources\msgcatalog\CATPrintFilesNamesSelect.CATNls
DAT/002/CUS .\win_b64\resources\graphic\DS_logo.bmp|.\Print\CNext\resources\graphic\DS_logo.bmp
DAT/002/CUS .\win_b64\resources\graphic\I_LocalPrinter16_16.bmp|.\Print\CNext\resources\graphic\I_LocalPrinter16_16.bmp
DAT/002/CUS .\win_b64\resources\msgcatalog\CATPrintCaptureDialog2.CATNls|.\Print\CNext\resources\msgcatalog\CATPrintCaptureDialog2.CATNls
DAT/002/CUS .\win_b64\resources\msgcatalog\CATPrintFilesNamesSelect.CATNls|.\Print\CNext\resources\msgcatalog\CATPrintFilesNamesSelect.CATNls
RTV/002/DSI .\win_b64\resources\msgcatalog\DbcsTest\CATPrintImageViewerDialog.CATNls|.\Print\CNext\resources\msgcatalog\CATPrintImageViewerDialog.CATNls
DAT/002/CUS .\win_b64\resources\msgcatalog\CATPrintPDFFontsDialog.CATNls|.\Print\CNext\resources\msgcatalog\CATPrintPDFFontsDialog.CATNls
DAT/002/CUS .\win_b64\startup\PrintServices\PrintDriverPlugIn\SAMPLES\CATPDPluginTraces.cpp|.\Print\CNext\startup\PrintServices\PrintDriverPlugIn\SAMPLES\CATPDPluginTraces.cpp
RTV/002/DSI .\win_b64\resources\msgcatalog\DbcsTest\CATPrintOptionsDialog.CATNls|.\Print\CNext\resources\msgcatalog\CATPrintOptionsDialog.CATNls
RTV/002/DSI .\win_b64\resources\msgcatalog\DbcsTest\CATPrintPropertiesDialog.CATNls|.\Print\CNext\resources\msgcatalog\CATPrintPropertiesDialog.CATNls
DAT/002/CUS .\win_b64\resources\msgcatalog\CATPrintRangeDialog.CATNls|.\Print\CNext\resources\msgcatalog\CATPrintRangeDialog.CATNls
RTV/002/DSI .\win_b64\resources\msgcatalog\DbcsTest\CATPrintHPGLDialog.CATNls|.\Print\CNext\resources\msgcatalog\CATPrintHPGLDialog.CATNls
RTV/002/DSI .\win_b64\resources\msgcatalog\NlsTest\CATPrintRangeDialog.CATNls|.\Print\CNext\resources\msgcatalog\CATPrintRangeDialog.CATNls
DAT/002/CUS .\win_b64\code\command\PrintBatch.sh|.\Print\CNext\code\command\PrintBatch.sh
DAT/002/CUS .\win_b64\startup\PrintServices\PrintBatch\INPUT.model|.\Print\CNext\startup\PrintServices\PrintBatch\INPUT.model
DAT/002/CUS .\win_b64\resources\graphic\icons\small\I_DefaultPath.bmp|.\Print\CNext\resources\graphic\icons\small\I_DefaultPath.bmp
RTV/002/DSI .\win_b64\resources\msgcatalog\DbcsTest\CATPrintCGMDialog.CATNls|.\Print\CNext\resources\msgcatalog\CATPrintCGMDialog.CATNls
RTV/002/DSI .\win_b64\resources\msgcatalog\DbcsTest\CATPrintDialog.CATNls|.\Print\CNext\resources\msgcatalog\CATPrintDialog.CATNls
DAT/002/CUS .\win_b64\startup\PrintServices\PrintDriverPlugIn\ReadmeFirst.html|.\Print\CNext\startup\PrintServices\PrintDriverPlugIn\ReadmeFirst.html
DAT/002/CUS .\win_b64\resources\msgcatalog\CATPrinterConfigureDialog.CATNls|.\Print\CNext\resources\msgcatalog\CATPrinterConfigureDialog.CATNls
DAT/002/CUS .\win_b64\resources\ICCColorProfiles\sRGBColorSpaceProfile.icm|.\Print\CNext\resources\ICCColorProfiles\sRGBColorSpaceProfile.icm
RTV/002/DSI .\win_b64\resources\msgcatalog\DbcsTest\CATVectorImageDlgInfo.CATNls|.\Print\CNext\resources\msgcatalog\CATVectorImageDlgInfo.CATNls
DAT/002/CUS .\win_b64\resources\graphic\icons\small\I_CANCELPreview.bmp|.\Print\CNext\resources\graphic\icons\small\I_CANCELPreview.bmp
DAT/002/CUS .\win_b64\resources\msgcatalog\CATPrintCaptureViewerDialog.CATNls|.\Print\CNext\resources\msgcatalog\CATPrintCaptureViewerDialog.CATNls
DAT/002/CUS .\win_b64\resources\msgcatalog\CATPrintCaptureProgressDialog.CATNls|.\Print\CNext\resources\msgcatalog\CATPrintCaptureProgressDialog.CATNls
RTV/002/DSI .\win_b64\resources\msgcatalog\DbcsTest\CATPrintProgressDialog.CATNls|.\Print\CNext\resources\msgcatalog\CATPrintProgressDialog.CATNls
DAT/002/CUS .\win_b64\code\dictionary\Print.dic|.\Print\CNext\code\dictionary\Print.dic
DAT/002/CUS .\win_b64\resources\msgcatalog\CATPrintPixelExportDialog.CATNls|.\Print\CNext\resources\msgcatalog\CATPrintPixelExportDialog.CATNls
RTV/002/DSI .\win_b64\resources\msgcatalog\NlsTest\CATPrintMarginsDialog.CATNls|.\Print\CNext\resources\msgcatalog\CATPrintMarginsDialog.CATNls
BTV/002/CUS .\win_b64\code\productIC\PrintIC.xml|.\Print
DAT/002/CUS .\win_b64\resources\msgcatalog\CATPrintViewerDialog.CATNls|.\Print\CNext\resources\msgcatalog\CATPrintViewerDialog.CATNls
DAT/002/CUS .\win_b64\resources\msgcatalog\CATPrintProgressDialog.CATNls|.\Print\CNext\resources\msgcatalog\CATPrintProgressDialog.CATNls
RTV/002/DSI .\win_b64\resources\msgcatalog\NlsTest\CATPrintExportDialog.CATNls|.\Print\CNext\resources\msgcatalog\CATPrintExportDialog.CATNls
RTV/002/DSI .\win_b64\resources\msgcatalog\DbcsTest\CATPrintHPGLColorDialog.CATNls|.\Print\CNext\resources\msgcatalog\CATPrintHPGLColorDialog.CATNls
DAT/002/CUS .\win_b64\resources\msgcatalog\CATPrintCaptureDialog2.CATRsc|.\Print\CNext\resources\msgcatalog\CATPrintCaptureDialog2.CATRsc
DAT/002/CUS .\win_b64\resources\msgcatalog\CATPrintImageViewerDialog.CATRsc|.\Print\CNext\resources\msgcatalog\CATPrintImageViewerDialog.CATRsc
RTV/002/DSI .\win_b64\resources\msgcatalog\NlsTest\CATPrintFontsDialog.CATNls|.\Print\CNext\resources\msgcatalog\CATPrintFontsDialog.CATNls
RTV/002/DSI .\win_b64\resources\msgcatalog\DbcsTest\CATPrintTileViewer.CATNls|.\Print\CNext\resources\msgcatalog\CATPrintTileViewer.CATNls
@type='codeFramework'
@built='true'
