!<mkRTViewData> v1.0.0
BTV/002/CUS .\win_b64\code\productIC\ProductStructureDocumentIC.script|.\ProductStructureDocument
RTV/002/DSI .\win_b64\code\productIC\ProductStructureDocumentIC.required|.\ProductStructureDocument
DAT/002/CUS .\win_b64\code\dictionary\ProductStructureDocument.dic|.\ProductStructureDocument\CNext\code\dictionary\ProductStructureDocument.dic
BTV/002/CUS .\win_b64\code\productIC\ProductStructureDocumentIC.xml|.\ProductStructureDocument
CSC/002/DSI .\ProductStructureDocument\IdentityCard\Objects\win_b64\mkcsc\ProductStructureDocument.cscdb|.\ProductStructureDocument
@type='codeFramework'
@built='true'
