!<mkRTViewData> v1.0.0
CSC/000/DSI .\ObjectSpecsModeler\RollImpl.m\Objects\win_b64\mkcsc\RollImpl.cscdb|.\ObjectSpecsModeler\RollImpl.m
@type='NONE'
@clr='false'
@kind='INCLUDED'
@deliverable='true'
@built='true'
