!<mkRTViewData> v1.0.0
CSC/000/DSI .\PartDesignFeature\PRTBOOLEAN.m\Objects\win_b64\mkcsc\PRTBOOLEAN.cscdb|.\PartDesignFeature\PRTBOOLEAN.m
@type='NONE'
@clr='false'
@kind='INCLUDED'
@deliverable='true'
@built='true'
