!<mkRTViewData> v1.0.0
RTV/001/CUS .\win_b64\code\bin\CATGuiReflectLine.dll|.\GSMUI\CATGuiReflectLine.m
BTV/000/CUS .\win_b64\code\lib\CATGuiReflectLine.lib|.\GSMUI\CATGuiReflectLine.m
INT/000/CUS .\win_b64\code\bin\CATGuiReflectLine.pdb|.\GSMUI\CATGuiReflectLine.m
INT/000/CUS .\win_b64\code\lib\CATGuiReflectLine.exp|.\GSMUI\CATGuiReflectLine.m
CSC/000/DSI .\GSMUI\CATGuiReflectLine.m\Objects\win_b64\mkcsc\CATGuiReflectLine.cscdb|.\GSMUI\CATGuiReflectLine.m
@type='SHARED_LIBRARY'
@clr='false'
@kind='NATIVE'
@deliverable='true'
@built='true'
