!<mkRTViewData> v1.0.0
CSC/000/DSI .\DNBResourceProgramModel\DNBResourceProgramReplace.m\Objects\win_b64\mkcsc\DNBResourceProgramReplace.cscdb|.\DNBResourceProgramModel\DNBResourceProgramReplace.m
@type='NONE'
@clr='false'
@kind='INCLUDED'
@deliverable='true'
@built='true'
