!<mkRTViewData> v1.0.0
INT/000/CUS .\win_b64\code\bin\CATPartDesignStandard.pdb|.\PartDesignUI\CATPartDesignStandard.m
CSC/000/DSI .\PartDesignUI\CATPartDesignStandard.m\Objects\win_b64\mkcsc\CATPartDesignStandard.cscdb|.\PartDesignUI\CATPartDesignStandard.m
INT/000/CUS .\win_b64\code\lib\CATPartDesignStandard.exp|.\PartDesignUI\CATPartDesignStandard.m
BTV/000/CUS .\win_b64\code\lib\CATPartDesignStandard.lib|.\PartDesignUI\CATPartDesignStandard.m
RTV/001/CUS .\win_b64\code\bin\CATPartDesignStandard.dll|.\PartDesignUI\CATPartDesignStandard.m
@type='SHARED_LIBRARY'
@clr='false'
@kind='NATIVE'
@deliverable='true'
@built='true'
