!<mkRTViewData> v1.0.0
INT/000/CUS .\win_b64\code\bin\DNBMfgHubIntigrationCommands.pdb|.\DNBHubCommands\DNBMfgHubIntigrationCommands.m
BTV/000/CUS .\win_b64\code\lib\DNBMfgHubIntigrationCommands.lib|.\DNBHubCommands\DNBMfgHubIntigrationCommands.m
CSC/000/DSI .\DNBHubCommands\DNBMfgHubIntigrationCommands.m\Objects\win_b64\mkcsc\DNBMfgHubIntigrationCommands.cscdb|.\DNBHubCommands\DNBMfgHubIntigrationCommands.m
RTV/001/CUS .\win_b64\code\bin\DNBMfgHubIntigrationCommands.dll|.\DNBHubCommands\DNBMfgHubIntigrationCommands.m
INT/000/CUS .\win_b64\code\lib\DNBMfgHubIntigrationCommands.exp|.\DNBHubCommands\DNBMfgHubIntigrationCommands.m
@type='SHARED_LIBRARY'
@clr='false'
@kind='NATIVE'
@deliverable='true'
@built='true'
