!<mkRTViewData> v1.0.0
DAT/002/CUS .\win_b64\docs\java\J2EE_excludedJars.txt|.\J2EEInterfaces\CNext\docs\java\J2EE_excludedJars.txt
RTV/002/DSI .\win_b64\code\productIC\J2EEInterfacesIC.required|.\J2EEInterfaces
CSC/002/DSI .\J2EEInterfaces\IdentityCard\Objects\win_b64\mkcsc\J2EEInterfaces.cscdb|.\J2EEInterfaces
BTV/002/CUS .\win_b64\code\productIC\J2EEInterfacesIC.script|.\J2EEInterfaces
BTV/002/CUS .\win_b64\code\productIC\J2EEInterfacesIC.xml|.\J2EEInterfaces
DAT/002/CUS .\win_b64\docs\java\J2EE_excludedserverJars.txt|.\J2EEInterfaces\CNext\docs\java\J2EE_excludedserverJars.txt
@type='codeFramework'
@built='true'
