!<mkRTViewData> v1.0.0
CSC/000/DSI .\CATIAApplicationFrame\SELECT.m\Objects\win_b64\mkcsc\SELECT.cscdb|.\CATIAApplicationFrame\SELECT.m
@type='NONE'
@clr='false'
@kind='INCLUDED'
@deliverable='true'
@built='true'
