!<mkRTViewData> v1.0.0
INT/000/CUS .\win_b64\code\lib\CATGuiWrapCurve.exp|.\GSMUI\CATGuiWrapCurve.m
INT/000/CUS .\win_b64\code\bin\CATGuiWrapCurve.pdb|.\GSMUI\CATGuiWrapCurve.m
BTV/000/CUS .\win_b64\code\lib\CATGuiWrapCurve.lib|.\GSMUI\CATGuiWrapCurve.m
RTV/001/CUS .\win_b64\code\bin\CATGuiWrapCurve.dll|.\GSMUI\CATGuiWrapCurve.m
CSC/000/DSI .\GSMUI\CATGuiWrapCurve.m\Objects\win_b64\mkcsc\CATGuiWrapCurve.cscdb|.\GSMUI\CATGuiWrapCurve.m
@type='SHARED_LIBRARY'
@clr='false'
@kind='NATIVE'
@deliverable='true'
@built='true'
