!<mkRTViewData> v1.0.0
CSC/000/DSI .\DNBSimulationBase\DNBObserverBase.m\Objects\win_b64\mkcsc\DNBObserverBase.cscdb|.\DNBSimulationBase\DNBObserverBase.m
@type='NONE'
@clr='false'
@kind='INCLUDED'
@deliverable='true'
@built='true'
