!<mkRTViewData> v1.0.0
BTV/000/CUS .\win_b64\code\lib\CATDlgBitmap.lib|.\Dialog\CATDlgBitmap.m
CSC/000/DSI .\Dialog\CATDlgBitmap.m\Objects\win_b64\mkcsc\CATDlgBitmap.cscdb|.\Dialog\CATDlgBitmap.m
@type='ARCHIVE'
@clr='false'
@kind='NATIVE'
@deliverable='true'
@built='true'
