!<mkRTViewData> v1.0.0
CSC/000/DSI .\CATCDS\CartesianModelisation.m\Objects\win_b64\mkcsc\CartesianModelisation.cscdb|.\CATCDS\CartesianModelisation.m
@type='NONE'
@clr='false'
@kind='INCLUDED'
@deliverable='true'
@built='true'
