!<mkRTViewData> v1.0.0
CSC/000/DSI .\CATIPDAdapterInterfaces\MfgHubPubIDL.m\Objects\win_b64\mkcsc\MfgHubPubIDL.cscdb|.\CATIPDAdapterInterfaces\MfgHubPubIDL.m
@type='NONE'
@clr='false'
@kind='INCLUDED'
@deliverable='true'
@built='true'
