!<mkRTViewData> v1.0.0
RTV/001/CUS .\win_b64\code\bin\CATGuiBlend.dll|.\GSMUI\CATGuiBlend.m
BTV/000/CUS .\win_b64\code\lib\CATGuiBlend.lib|.\GSMUI\CATGuiBlend.m
CSC/000/DSI .\GSMUI\CATGuiBlend.m\Objects\win_b64\mkcsc\CATGuiBlend.cscdb|.\GSMUI\CATGuiBlend.m
INT/000/CUS .\win_b64\code\bin\CATGuiBlend.pdb|.\GSMUI\CATGuiBlend.m
INT/000/CUS .\win_b64\code\lib\CATGuiBlend.exp|.\GSMUI\CATGuiBlend.m
@type='SHARED_LIBRARY'
@clr='false'
@kind='NATIVE'
@deliverable='true'
@built='true'
