!<mkRTViewData> v1.0.0
CSC/000/DSI .\Visualization\CATVisIteratorsImpl.m\Objects\win_b64\mkcsc\CATVisIteratorsImpl.cscdb|.\Visualization\CATVisIteratorsImpl.m
@type='NONE'
@clr='false'
@kind='INCLUDED'
@deliverable='true'
@built='true'
