!<mkRTViewData> v1.0.0
CSC/000/DSI .\CATMmFunctionalInterfaces\CATMmFunctionalInterfacesUUID.m\Objects\win_b64\mkcsc\CATMmFunctionalInterfacesUUID.cscdb|.\CATMmFunctionalInterfaces\CATMmFunctionalInterfacesUUID.m
BTV/000/CUS .\win_b64\code\lib\CATMmFunctionalInterfacesUUID.lib|.\CATMmFunctionalInterfaces\CATMmFunctionalInterfacesUUID.m
@type='ARCHIVE'
@clr='false'
@kind='NATIVE'
@deliverable='true'
@built='true'
