!<mkRTViewData> v1.0.0
CSC/000/DSI .\PolyhedralOperators\CATPolyDeformOperators.m\Objects\win_b64\mkcsc\CATPolyDeformOperators.cscdb|.\PolyhedralOperators\CATPolyDeformOperators.m
@type='NONE'
@clr='false'
@kind='INCLUDED'
@deliverable='true'
@built='true'
