!<mkRTViewData> v1.0.0
CSC/000/DSI .\DNBMHIUIBase\DNBMHIRelationTab.m\Objects\win_b64\mkcsc\DNBMHIRelationTab.cscdb|.\DNBMHIUIBase\DNBMHIRelationTab.m
@type='NONE'
@clr='false'
@kind='INCLUDED'
@deliverable='true'
@built='true'
