!<mkRTViewData> v1.0.0
CSC/000/DSI .\CATAnalysisInterfaces\CATAnalysisProIDL.m\Objects\win_b64\mkcsc\CATAnalysisProIDL.cscdb|.\CATAnalysisInterfaces\CATAnalysisProIDL.m
@type='NONE'
@clr='false'
@kind='INCLUDED'
@deliverable='true'
@built='true'
