!<mkRTViewData> v1.0.0
INT/000/CUS .\win_b64\code\lib\CATGSMWireOperators.exp|.\CATGSMWireOperators\CATGSMWireOperators.m
CSC/000/DSI .\CATGSMWireOperators\CATGSMWireOperators.m\Objects\win_b64\mkcsc\CATGSMWireOperators.cscdb|.\CATGSMWireOperators\CATGSMWireOperators.m
INT/000/CUS .\win_b64\code\bin\CATGSMWireOperators.pdb|.\CATGSMWireOperators\CATGSMWireOperators.m
RTV/001/CUS .\win_b64\code\bin\CATGSMWireOperators.dll|.\CATGSMWireOperators\CATGSMWireOperators.m
BTV/000/CUS .\win_b64\code\lib\CATGSMWireOperators.lib|.\CATGSMWireOperators\CATGSMWireOperators.m
@type='SHARED_LIBRARY'
@clr='false'
@kind='NATIVE'
@deliverable='true'
@built='true'
