!<mkRTViewData> v1.0.0
CSC/000/DSI .\DNBGraphEditor\DNBDpmPertVisu.m\Objects\win_b64\mkcsc\DNBDpmPertVisu.cscdb|.\DNBGraphEditor\DNBDpmPertVisu.m
@type='NONE'
@clr='false'
@kind='INCLUDED'
@deliverable='true'
@built='true'
