!<mkRTViewData> v1.0.0
CSC/000/DSI .\CATImmersiveUI\CATJoystickDriver.m\Objects\win_b64\mkcsc\CATJoystickDriver.cscdb|.\CATImmersiveUI\CATJoystickDriver.m
RTV/001/CUS .\win_b64\code\bin\CATJoystickDriver.exe|.\CATImmersiveUI\CATJoystickDriver.m
INT/000/CUS .\win_b64\code\bin\CATJoystickDriver.pdb|.\CATImmersiveUI\CATJoystickDriver.m
@type='LOAD_MODULE'
@clr='false'
@kind='NATIVE'
@deliverable='true'
@built='true'
