!<mkRTViewData> v1.0.0
CSC/000/DSI .\FittingSimulation\G60E1OM.m\Objects\win_b64\mkcsc\G60E1OM.cscdb|.\FittingSimulation\G60E1OM.m
@type='NONE'
@clr='false'
@kind='INCLUDED'
@deliverable='true'
@built='true'
