!<mkRTViewData> v1.0.0
CSC/000/DSI .\CATIABaseIAO\CATIAUnite.m\Objects\win_b64\mkcsc\CATIAUnite.cscdb|.\CATIABaseIAO\CATIAUnite.m
@type='NONE'
@clr='false'
@kind='INCLUDED'
@deliverable='true'
@built='true'
