!<mkRTViewData> v1.0.0
INT/000/CUS .\win_b64\code\bin\CATGngBRepAccess.pdb|.\GenericNaming\CATGngBRepAccess.m
BTV/000/CUS .\win_b64\code\lib\CATGngBRepAccess.lib|.\GenericNaming\CATGngBRepAccess.m
CSC/000/DSI .\GenericNaming\CATGngBRepAccess.m\Objects\win_b64\mkcsc\CATGngBRepAccess.cscdb|.\GenericNaming\CATGngBRepAccess.m
RTV/001/CUS .\win_b64\code\bin\CATGngBRepAccess.dll|.\GenericNaming\CATGngBRepAccess.m
INT/000/CUS .\win_b64\code\lib\CATGngBRepAccess.exp|.\GenericNaming\CATGngBRepAccess.m
@type='SHARED_LIBRARY'
@clr='false'
@kind='NATIVE'
@deliverable='true'
@built='true'
