!<mkRTViewData> v1.0.0
BTV/000/CUS .\win_b64\code\lib\CATAnalysisMaterialUUID.lib|.\CATAnalysisMaterial\CATAnalysisMaterialUUID.m
CSC/000/DSI .\CATAnalysisMaterial\CATAnalysisMaterialUUID.m\Objects\win_b64\mkcsc\CATAnalysisMaterialUUID.cscdb|.\CATAnalysisMaterial\CATAnalysisMaterialUUID.m
@type='ARCHIVE'
@clr='false'
@kind='NATIVE'
@deliverable='true'
@built='true'
