!<mkRTViewData> v1.0.0
CSC/000/DSI .\GMPolyOperators\GMPolyBasicOper.m\Objects\win_b64\mkcsc\GMPolyBasicOper.cscdb|.\GMPolyOperators\GMPolyBasicOper.m
@type='NONE'
@clr='false'
@kind='INCLUDED'
@deliverable='true'
@built='true'
