!<mkRTViewData> v1.0.0
INT/000/CUS .\win_b64\code\bin\CATPspPublication.pdb|.\CATPlantShipUI\CATPspPublication.m
RTV/001/CUS .\win_b64\code\bin\CATPspPublication.dll|.\CATPlantShipUI\CATPspPublication.m
INT/000/CUS .\win_b64\code\lib\CATPspPublication.exp|.\CATPlantShipUI\CATPspPublication.m
BTV/000/CUS .\win_b64\code\lib\CATPspPublication.lib|.\CATPlantShipUI\CATPspPublication.m
CSC/000/DSI .\CATPlantShipUI\CATPspPublication.m\Objects\win_b64\mkcsc\CATPspPublication.cscdb|.\CATPlantShipUI\CATPspPublication.m
@type='SHARED_LIBRARY'
@clr='false'
@kind='NATIVE'
@deliverable='true'
@built='true'
