!<mkRTViewData> v1.0.0
CSC/000/DSI .\CATSurfacicUIResources\CATSurfacicUIResourcesUUID.m\Objects\win_b64\mkcsc\CATSurfacicUIResourcesUUID.cscdb|.\CATSurfacicUIResources\CATSurfacicUIResourcesUUID.m
BTV/000/CUS .\win_b64\code\lib\CATSurfacicUIResourcesUUID.lib|.\CATSurfacicUIResources\CATSurfacicUIResourcesUUID.m
@type='ARCHIVE'
@clr='false'
@kind='NATIVE'
@deliverable='true'
@built='true'
