!<mkRTViewData> v1.0.0
BTV/002/CUS .\win_b64\code\productIC\CATStrFunctionalInterfacesIC.xml|.\CATStrFunctionalInterfaces
RTV/002/DSI .\win_b64\code\productIC\CATStrFunctionalInterfacesIC.required|.\CATStrFunctionalInterfaces
BTV/002/CUS .\win_b64\code\productIC\CATStrFunctionalInterfacesIC.script|.\CATStrFunctionalInterfaces
DAT/002/CUS .\win_b64\code\dictionary\CATStrFunctionalInterfaces.dic|.\CATStrFunctionalInterfaces\CNext\code\dictionary\CATStrFunctionalInterfaces.dic
DAT/002/CUS .\win_b64\code\dictionary\CATStrFunctionalInterfaces.iid|.\CATStrFunctionalInterfaces\CNext\code\dictionary\CATStrFunctionalInterfaces.iid
CSC/002/DSI .\CATStrFunctionalInterfaces\IdentityCard\Objects\win_b64\mkcsc\CATStrFunctionalInterfaces.cscdb|.\CATStrFunctionalInterfaces
@type='codeFramework'
@built='true'
