!<mkRTViewData> v1.0.0
DAT/002/CUS .\win_b64\code\dictionary\CATSurfacicOperators.dic|.\CATSurfacicOperators\CNext\code\dictionary\CATSurfacicOperators.dic
BTV/002/CUS .\win_b64\code\productIC\CATSurfacicOperatorsIC.script|.\CATSurfacicOperators
RTV/002/DSI .\win_b64\code\productIC\CATSurfacicOperatorsIC.required|.\CATSurfacicOperators
BTV/002/CUS .\win_b64\code\productIC\CATSurfacicOperatorsIC.xml|.\CATSurfacicOperators
CSC/002/DSI .\CATSurfacicOperators\IdentityCard\Objects\win_b64\mkcsc\CATSurfacicOperators.cscdb|.\CATSurfacicOperators
@type='codeFramework'
@built='true'
