!<mkRTViewData> v1.0.0
CSC/000/DSI .\CATSchPlatformInterfaces\CATSchItfUUID.m\Objects\win_b64\mkcsc\CATSchItfUUID.cscdb|.\CATSchPlatformInterfaces\CATSchItfUUID.m
BTV/000/CUS .\win_b64\code\lib\CATSchItfUUID.lib|.\CATSchPlatformInterfaces\CATSchItfUUID.m
@type='ARCHIVE'
@clr='false'
@kind='NATIVE'
@deliverable='true'
@built='true'
