!<mkRTViewData> v1.0.0
BTV/000/CUS .\win_b64\code\lib\CATTessellationHLR.lib|.\Tessellation\CATTessellationHLR.m
INT/000/CUS .\win_b64\code\lib\CATTessellationHLR.exp|.\Tessellation\CATTessellationHLR.m
CSC/000/DSI .\Tessellation\CATTessellationHLR.m\Objects\win_b64\mkcsc\CATTessellationHLR.cscdb|.\Tessellation\CATTessellationHLR.m
INT/000/CUS .\win_b64\code\bin\CATTessellationHLR.pdb|.\Tessellation\CATTessellationHLR.m
RTV/001/CUS .\win_b64\code\bin\CATTessellationHLR.dll|.\Tessellation\CATTessellationHLR.m
@type='SHARED_LIBRARY'
@clr='false'
@kind='NATIVE'
@deliverable='true'
@built='true'
