!<mkRTViewData> v1.0.0
BTV/000/CUS .\win_b64\code\lib\CATPspClientAppUtils.lib|.\CATPlantShipEnov\CATPspClientAppUtils.m
INT/000/CUS .\win_b64\code\bin\CATPspClientAppUtils.pdb|.\CATPlantShipEnov\CATPspClientAppUtils.m
CSC/000/DSI .\CATPlantShipEnov\CATPspClientAppUtils.m\Objects\win_b64\mkcsc\CATPspClientAppUtils.cscdb|.\CATPlantShipEnov\CATPspClientAppUtils.m
RTV/001/CUS .\win_b64\code\bin\CATPspClientAppUtils.dll|.\CATPlantShipEnov\CATPspClientAppUtils.m
INT/000/CUS .\win_b64\code\lib\CATPspClientAppUtils.exp|.\CATPlantShipEnov\CATPspClientAppUtils.m
@type='SHARED_LIBRARY'
@clr='false'
@kind='NATIVE'
@deliverable='true'
@built='true'
