!<mkRTViewData> v1.0.0
INT/000/CUS .\win_b64\code\bin\CATLightXml.pdb|.\XMLParser\CATLightXml.m
INT/000/CUS .\win_b64\code\lib\CATLightXml.exp|.\XMLParser\CATLightXml.m
RTV/001/CUS .\win_b64\code\bin\CATLightXml.dll|.\XMLParser\CATLightXml.m
BTV/000/CUS .\win_b64\code\lib\CATLightXml.lib|.\XMLParser\CATLightXml.m
CSC/000/DSI .\XMLParser\CATLightXml.m\Objects\win_b64\mkcsc\CATLightXml.cscdb|.\XMLParser\CATLightXml.m
@type='SHARED_LIBRARY'
@clr='false'
@kind='NATIVE'
@deliverable='true'
@built='true'
