!<mkRTViewData> v1.0.0
INT/000/CUS .\win_b64\code\lib\CATVisNoGraphicalAPI.exp|.\VisualizationBase\CATVisNoGraphicalAPI.m
RTV/001/CUS .\win_b64\code\bin\CATVisNoGraphicalAPI.dll|.\VisualizationBase\CATVisNoGraphicalAPI.m
INT/000/CUS .\win_b64\code\bin\CATVisNoGraphicalAPI.pdb|.\VisualizationBase\CATVisNoGraphicalAPI.m
CSC/000/DSI .\VisualizationBase\CATVisNoGraphicalAPI.m\Objects\win_b64\mkcsc\CATVisNoGraphicalAPI.cscdb|.\VisualizationBase\CATVisNoGraphicalAPI.m
BTV/000/CUS .\win_b64\code\lib\CATVisNoGraphicalAPI.lib|.\VisualizationBase\CATVisNoGraphicalAPI.m
@type='EL_LIBRARY'
@clr='false'
@kind='NATIVE'
@deliverable='true'
@built='true'
