!<mkRTViewData> v1.0.0
RTV/001/CUS .\win_b64\code\bin\CATKweScript.dll|.\GenerativeKnowledge\CATKweScript.m
INT/000/CUS .\win_b64\code\lib\CATKweScript.exp|.\GenerativeKnowledge\CATKweScript.m
CSC/000/DSI .\GenerativeKnowledge\CATKweScript.m\Objects\win_b64\mkcsc\CATKweScript.cscdb|.\GenerativeKnowledge\CATKweScript.m
BTV/000/CUS .\win_b64\code\lib\CATKweScript.lib|.\GenerativeKnowledge\CATKweScript.m
INT/000/CUS .\win_b64\code\bin\CATKweScript.pdb|.\GenerativeKnowledge\CATKweScript.m
@type='SHARED_LIBRARY'
@clr='false'
@kind='NATIVE'
@deliverable='true'
@built='true'
