!<mkRTViewData> v1.0.0
RTV/001/CUS .\win_b64\code\bin\CATOsmCatalogUtilities.dll|.\ObjectSpecsTools\CATOsmCatalogUtilities.m
INT/000/CUS .\win_b64\code\bin\CATOsmCatalogUtilities.pdb|.\ObjectSpecsTools\CATOsmCatalogUtilities.m
CSC/000/DSI .\ObjectSpecsTools\CATOsmCatalogUtilities.m\Objects\win_b64\mkcsc\CATOsmCatalogUtilities.cscdb|.\ObjectSpecsTools\CATOsmCatalogUtilities.m
INT/000/CUS .\win_b64\code\lib\CATOsmCatalogUtilities.exp|.\ObjectSpecsTools\CATOsmCatalogUtilities.m
BTV/000/CUS .\win_b64\code\lib\CATOsmCatalogUtilities.lib|.\ObjectSpecsTools\CATOsmCatalogUtilities.m
@type='SHARED_LIBRARY'
@clr='false'
@kind='NATIVE'
@deliverable='true'
@built='true'
