!<mkRTViewData> v1.0.0
CSC/000/DSI .\CATToolingInterfaces\CATToolingInterfacesUUID.m\Objects\win_b64\mkcsc\CATToolingInterfacesUUID.cscdb|.\CATToolingInterfaces\CATToolingInterfacesUUID.m
BTV/000/CUS .\win_b64\code\lib\CATToolingInterfacesUUID.lib|.\CATToolingInterfaces\CATToolingInterfacesUUID.m
@type='ARCHIVE'
@clr='false'
@kind='NATIVE'
@deliverable='true'
@built='true'
