!<mkRTViewData> v1.0.0
CSC/000/DSI .\PartDesignFeature\PRTUPGRADE.m\Objects\win_b64\mkcsc\PRTUPGRADE.cscdb|.\PartDesignFeature\PRTUPGRADE.m
@type='NONE'
@clr='false'
@kind='INCLUDED'
@deliverable='true'
@built='true'
