!<mkRTViewData> v1.0.0
CSC/000/DSI .\DNBAsyActivityInterfaces\DNBAsyActivityItf.m\Objects\win_b64\mkcsc\DNBAsyActivityItf.cscdb|.\DNBAsyActivityInterfaces\DNBAsyActivityItf.m
INT/000/CUS .\win_b64\code\lib\DNBAsyActivityItf.exp|.\DNBAsyActivityInterfaces\DNBAsyActivityItf.m
INT/000/CUS .\win_b64\code\bin\DNBAsyActivityItf.pdb|.\DNBAsyActivityInterfaces\DNBAsyActivityItf.m
RTV/001/CUS .\win_b64\code\bin\DNBAsyActivityItf.dll|.\DNBAsyActivityInterfaces\DNBAsyActivityItf.m
BTV/000/CUS .\win_b64\code\lib\DNBAsyActivityItf.lib|.\DNBAsyActivityInterfaces\DNBAsyActivityItf.m
@type='SHARED_LIBRARY'
@clr='false'
@kind='NATIVE'
@deliverable='true'
@built='true'
