!<mkRTViewData> v1.0.0
BTV/002/CUS .\win_b64\code\productIC\TopologicObjectsCATIAIC.script|.\TopologicObjectsCATIA
RTV/002/DSI .\win_b64\code\productIC\TopologicObjectsCATIAIC.required|.\TopologicObjectsCATIA
BTV/002/CUS .\win_b64\code\productIC\TopologicObjectsCATIAIC.xml|.\TopologicObjectsCATIA
CSC/002/DSI .\TopologicObjectsCATIA\IdentityCard\Objects\win_b64\mkcsc\TopologicObjectsCATIA.cscdb|.\TopologicObjectsCATIA
@type='codeFramework'
@built='true'
