!<mkRTViewData> v1.0.0
BTV/002/CUS .\win_b64\code\productIC\CATSubdivisionGeoOperatorsIC.script|.\CATSubdivisionGeoOperators
BTV/002/CUS .\win_b64\code\productIC\CATSubdivisionGeoOperatorsIC.xml|.\CATSubdivisionGeoOperators
CSC/002/DSI .\CATSubdivisionGeoOperators\IdentityCard\Objects\win_b64\mkcsc\CATSubdivisionGeoOperators.cscdb|.\CATSubdivisionGeoOperators
RTV/002/DSI .\win_b64\code\productIC\CATSubdivisionGeoOperatorsIC.required|.\CATSubdivisionGeoOperators
@type='codeFramework'
@built='true'
