!<mkRTViewData> v1.0.0
CSC/000/DSI .\DraftingInfrastructure\CATDfsStandard.m\Objects\win_b64\mkcsc\CATDfsStandard.cscdb|.\DraftingInfrastructure\CATDfsStandard.m
@type='NONE'
@clr='false'
@kind='INCLUDED'
@deliverable='true'
@built='true'
