!<mkRTViewData> v1.0.0
RTV/001/CUS .\win_b64\code\bin\CATGui3DCurveOffset.dll|.\GSMUI\CATGui3DCurveOffset.m
BTV/000/CUS .\win_b64\code\lib\CATGui3DCurveOffset.lib|.\GSMUI\CATGui3DCurveOffset.m
INT/000/CUS .\win_b64\code\bin\CATGui3DCurveOffset.pdb|.\GSMUI\CATGui3DCurveOffset.m
CSC/000/DSI .\GSMUI\CATGui3DCurveOffset.m\Objects\win_b64\mkcsc\CATGui3DCurveOffset.cscdb|.\GSMUI\CATGui3DCurveOffset.m
INT/000/CUS .\win_b64\code\lib\CATGui3DCurveOffset.exp|.\GSMUI\CATGui3DCurveOffset.m
@type='SHARED_LIBRARY'
@clr='false'
@kind='NATIVE'
@deliverable='true'
@built='true'
