!<mkRTViewData> v1.0.0
BTV/000/CUS .\win_b64\code\lib\CATMoldDesignUIUUID.lib|.\CATMoldDesignUI\CATMoldDesignUIUUID.m
CSC/000/DSI .\CATMoldDesignUI\CATMoldDesignUIUUID.m\Objects\win_b64\mkcsc\CATMoldDesignUIUUID.cscdb|.\CATMoldDesignUI\CATMoldDesignUIUUID.m
@type='ARCHIVE'
@clr='false'
@kind='NATIVE'
@deliverable='true'
@built='true'
