!<mkRTViewData> v1.0.0
BTV/000/DSI .\SpecialAPI\PublicGenerated\win_b64\Cxx_vc9.h|.\SpecialAPI\CxxSupport.m\src\win_b64_VC_11\Cxx_vc9.h
BTV/000/DSI .\SpecialAPI\PublicGenerated\win_b64\Cxx_vc11_candidate.h|.\SpecialAPI\CxxSupport.m\src\win_b64_VC_11\Cxx_vc11_candidate.h
BTV/000/DSI .\SpecialAPI\PublicGenerated\win_b64\CxxSupport.h|.\SpecialAPI\CxxSupport.m\src\win_b64_VC_11\CxxSupport.h
BTV/000/DSI .\SpecialAPI\PublicGenerated\win_b64\Cxx_vc11.h|.\SpecialAPI\CxxSupport.m\src\win_b64_VC_11\Cxx_vc11.h
@type='BUILDTIME_DATA'
@clr='false'
@kind='DATA'
@deliverable='true'
@built='true'
