!<mkRTViewData> v1.0.0
CSC/000/DSI .\CATHealingAssistantAlgos\CATHealingAssistantAlgos.m\Objects\win_b64\mkcsc\CATHealingAssistantAlgos.cscdb|.\CATHealingAssistantAlgos\CATHealingAssistantAlgos.m
BTV/000/CUS .\win_b64\code\lib\CATHealingAssistantAlgos.lib|.\CATHealingAssistantAlgos\CATHealingAssistantAlgos.m
RTV/001/CUS .\win_b64\code\bin\CATHealingAssistantAlgos.dll|.\CATHealingAssistantAlgos\CATHealingAssistantAlgos.m
INT/000/CUS .\win_b64\code\bin\CATHealingAssistantAlgos.pdb|.\CATHealingAssistantAlgos\CATHealingAssistantAlgos.m
INT/000/CUS .\win_b64\code\lib\CATHealingAssistantAlgos.exp|.\CATHealingAssistantAlgos\CATHealingAssistantAlgos.m
@type='SHARED_LIBRARY'
@clr='false'
@kind='NATIVE'
@deliverable='true'
@built='true'
