!<mkRTViewData> v1.0.0
CSC/000/DSI .\DNBMHIInterfaces\DNBMHIItfProIDL.m\Objects\win_b64\mkcsc\DNBMHIItfProIDL.cscdb|.\DNBMHIInterfaces\DNBMHIItfProIDL.m
@type='NONE'
@clr='false'
@kind='INCLUDED'
@deliverable='true'
@built='true'
