!<mkRTViewData> v1.0.0
DAT/002/CUS .\win_b64\code\dictionary\DraftingInfrastructureUI.dic|.\DraftingInfrastructureUI\CNext\code\dictionary\DraftingInfrastructureUI.dic
DAT/002/CUS .\win_b64\resources\standard\CATDftStdTypeLayerAndFilter.xml|.\DraftingInfrastructureUI\CNext\resources\standard\CATDftStdTypeLayerAndFilter.xml
BTV/002/CUS .\win_b64\code\productIC\DraftingInfrastructureUIIC.script|.\DraftingInfrastructureUI
BTV/002/CUS .\win_b64\code\productIC\DraftingInfrastructureUIIC.xml|.\DraftingInfrastructureUI
DAT/002/CUS .\win_b64\resources\standard\CATDftStdLayersAndFilters.xml|.\DraftingInfrastructureUI\CNext\resources\standard\CATDftStdLayersAndFilters.xml
RTV/002/DSI .\win_b64\code\productIC\DraftingInfrastructureUIIC.required|.\DraftingInfrastructureUI
DAT/002/CUS .\win_b64\code\dictionary\DraftingInfrastructureUI.iid|.\DraftingInfrastructureUI\CNext\code\dictionary\DraftingInfrastructureUI.iid
CSC/002/DSI .\DraftingInfrastructureUI\IdentityCard\Objects\win_b64\mkcsc\DraftingInfrastructureUI.cscdb|.\DraftingInfrastructureUI
@type='codeFramework'
@built='true'
