!<mkRTViewData> v1.0.0
BTV/002/CUS .\win_b64\code\productIC\PrjMngtInterfacesIC.script|.\PrjMngtInterfaces
DAT/002/CUS .\win_b64\code\dictionary\PrjMngtInterfaces.iid|.\PrjMngtInterfaces\CNext\code\dictionary\PrjMngtInterfaces.iid
DAT/002/CUS .\win_b64\code\dictionary\PrjMngtInterfaces.dic|.\PrjMngtInterfaces\CNext\code\dictionary\PrjMngtInterfaces.dic
BTV/002/CUS .\win_b64\code\productIC\PrjMngtInterfacesIC.xml|.\PrjMngtInterfaces
DAT/002/CUS .\win_b64\reffiles\disciplines\Project.dtd|.\PrjMngtInterfaces\CNext\reffiles\disciplines\Project.dtd
CSC/002/DSI .\PrjMngtInterfaces\IdentityCard\Objects\win_b64\mkcsc\PrjMngtInterfaces.cscdb|.\PrjMngtInterfaces
DAT/002/CUS .\win_b64\reffiles\disciplines\Application.dtd|.\PrjMngtInterfaces\CNext\reffiles\disciplines\Application.dtd
RTV/002/DSI .\win_b64\code\productIC\PrjMngtInterfacesIC.required|.\PrjMngtInterfaces
@type='codeFramework'
@built='true'
