!<mkRTViewData> v1.0.0
CSC/000/DSI .\NewTopologicalObjects\CheckOperators.m\Objects\win_b64\mkcsc\CheckOperators.cscdb|.\NewTopologicalObjects\CheckOperators.m
@type='NONE'
@clr='false'
@kind='INCLUDED'
@deliverable='true'
@built='true'
