!<mkRTViewData> v1.0.0
CSC/000/DSI .\Visualization\VE0GROUP.m\Objects\win_b64\mkcsc\VE0GROUP.cscdb|.\Visualization\VE0GROUP.m
@type='NONE'
@clr='false'
@kind='INCLUDED'
@deliverable='true'
@built='true'
