!<mkRTViewData> v1.0.0
CSC/000/DSI .\DNBHubCommands\DNBMHIAlternativeCommands.m\Objects\win_b64\mkcsc\DNBMHIAlternativeCommands.cscdb|.\DNBHubCommands\DNBMHIAlternativeCommands.m
@type='NONE'
@clr='false'
@kind='INCLUDED'
@deliverable='true'
@built='true'
