!<mkRTViewData> v1.0.0
CSC/000/DSI .\PartInterfaces\PartProIDL.m\Objects\win_b64\mkcsc\PartProIDL.cscdb|.\PartInterfaces\PartProIDL.m
@type='NONE'
@clr='false'
@kind='INCLUDED'
@deliverable='true'
@built='true'
