!<mkRTViewData> v1.0.0
INT/000/CUS .\win_b64\code\bin\CATSchIDLBasicImpl.pdb|.\CATSchPlatformModeler\CATSchIDLBasicImpl.m
RTV/001/CUS .\win_b64\code\bin\CATSchIDLBasicImpl.dll|.\CATSchPlatformModeler\CATSchIDLBasicImpl.m
INT/000/CUS .\win_b64\code\lib\CATSchIDLBasicImpl.exp|.\CATSchPlatformModeler\CATSchIDLBasicImpl.m
CSC/000/DSI .\CATSchPlatformModeler\CATSchIDLBasicImpl.m\Objects\win_b64\mkcsc\CATSchIDLBasicImpl.cscdb|.\CATSchPlatformModeler\CATSchIDLBasicImpl.m
BTV/000/CUS .\win_b64\code\lib\CATSchIDLBasicImpl.lib|.\CATSchPlatformModeler\CATSchIDLBasicImpl.m
@type='SHARED_LIBRARY'
@clr='false'
@kind='NATIVE'
@deliverable='true'
@built='true'
