!<mkRTViewData> v1.0.0
CSC/000/DSI .\FittingSimulation\CATFitDic.m\Objects\win_b64\mkcsc\CATFitDic.cscdb|.\FittingSimulation\CATFitDic.m
@type='NONE'
@clr='false'
@kind='INCLUDED'
@deliverable='true'
@built='true'
