CATRouPartNumber	CATRouSize1	CATRouSize2	CATRouOutsideDiameter	CATRouOutsideDiameter2	FaceToFaceLength
REDCON-WM-00.75in-00.50in	3/4"	1/2"	0.75in	0.5in	1.5in
REDCON-WM-01.00in-00.50in	1"	1/2"	1in	0.5in	2.0in
REDCON-WM-01.00in-00.75in	1"	3/4"	1in	0.75in	2.0in
REDCON-WM-01.25in-00.50in	1 1/4"	1/2"	1.25in	0.5in	2.0in
REDCON-WM-01.25in-00.75in	1 1/4"	3/4"	1.25in	0.75in	2.0in
REDCON-WM-01.25in-01.00in	1 1/4"	1"	1.25in	1in	2.0in
REDCON-WM-01.50in-00.50in	1 1/2"	1/2"	1.5in	0.5in	2.5in
REDCON-WM-01.50in-00.75in	1 1/2"	3/4"	1.5in	0.75in	2.5in
REDCON-WM-01.50in-01.00in	1 1/2"	1"	1.5in	1in	2.5in
REDCON-WM-01.50in-01.25in	1 1/2"	1 1/4"	1.5in	1.25in	2.5in
REDCON-WM-02.00in-00.75in	2"	3/4"	2in	0.75in	3.0in
REDCON-WM-02.00in-01.00in	2"	1"	2in	1in	3.0in
REDCON-WM-02.00in-01.25in	2"	1 1/4"	2in	1.25in	3.0in
REDCON-WM-02.00in-01.50in	2"	1 1/2"	2in	1.5in	3.0in
REDCON-WM-02.50in-01.00in	2 1/2"	1"	2.5in	1in	3.5in
REDCON-WM-02.50in-01.25in	2 1/2"	1 1/4"	2.5in	1.25in	3.5in
REDCON-WM-02.50in-01.50in	2 1/2"	1 1/2"	2.5in	1.5in	3.5in
REDCON-WM-02.50in-02.00in	2 1/2"	2"	2.5in	2in	3.5in
REDCON-WM-03.00in-01.25in	3"	1 1/4"	3in	1.25in	3.5in
REDCON-WM-03.00in-01.50in	3"	1 1/2"	3in	1.5in	3.5in
REDCON-WM-03.00in-02.00in	3"	2"	3in	2in	3.5in
REDCON-WM-03.00in-02.50in	3"	2 1/2"	3in	2.5in	3.5in
REDCON-WM-03.50in-01.25in	3 1/2"	1 1/4"	3.5in	1.25in	4.0in
REDCON-WM-03.50in-01.50in	3 1/2"	1 1/2"	3.5in	1.5in	4.0in
REDCON-WM-03.50in-02.00in	3 1/2"	2"	3.5in	2in	4.0in
REDCON-WM-03.50in-02.50in	3 1/2"	2 1/2"	3.5in	2.5in	4.0in
REDCON-WM-03.50in-03.00in	3 1/2"	3"	3.5in	3in	4.0in
REDCON-WM-04.00in-01.50in	4"	1 1/2"	4in	1.5in	4.0in
REDCON-WM-04.00in-02.00in	4"	2"	4in	2in	4.0in
REDCON-WM-04.00in-02.50in	4"	2 1/2"	4in	2.5in	4.0in
REDCON-WM-04.00in-03.00in	4"	3"	4in	3in	4.0in
REDCON-WM-04.00in-03.50in	4"	3 1/2"	4in	3.5in	4.0in
REDCON-WM-05.00in-02.00in	5"	2"	5in	2in	5.0in
REDCON-WM-05.00in-02.50in	5"	2 1/2"	5in	2.5in	5.0in
REDCON-WM-05.00in-03.00in	5"	3"	5in	3in	5.0in
REDCON-WM-05.00in-03.50in	5"	3 1/2"	5in	3.5in	5.0in
REDCON-WM-05.00in-04.00in	5"	4"	5in	4in	5.0in
REDCON-WM-06.00in-02.50in	6"	2 1/2"	6in	2.5in	5.5in
REDCON-WM-06.00in-03.00in	6"	3"	6in	3in	5.5in
REDCON-WM-06.00in-03.50in	6"	3 1/2"	6in	3.5in	5.5in
REDCON-WM-06.00in-04.00in	6"	4"	6in	4in	5.5in
REDCON-WM-06.00in-05.00in	6"	5"	6in	5in	5.5in
REDCON-WM-08.00in-03.50in	8"	3 1/2"	8in	3.5in	6.0in
REDCON-WM-08.00in-04.00in	8"	4"	8in	4in	6.0in
REDCON-WM-08.00in-05.00in	8"	5"	8in	5in	6.0in
REDCON-WM-08.00in-06.00in	8"	6"	8in	6in	6.0in
REDCON-WM-10.00in-04.00in	10"	4"	10in	4in	7.0in
REDCON-WM-10.00in-05.00in	10"	5"	10in	5in	7.0in
REDCON-WM-10.00in-06.00in	10"	6"	10in	6in	7.0in
REDCON-WM-10.00in-08.00in	10"	8"	10in	8in	7.0in
REDCON-WM-12.00in-10.00in	12"	10"	12in	10in	8.0in
REDCON-WM-12.00in-05.00in	12"	5"	12in	5in	8.0in
REDCON-WM-12.00in-06.00in	12"	6"	12in	6in	8.0in
REDCON-WM-12.00in-08.00in	12"	8"	12in	8in	8.0in
REDCON-WM-14.00in-10.00in	14"	10"	14in	10in	13in
REDCON-WM-14.00in-12.00in	14"	12"	14in	12in	13in
REDCON-WM-14.00in-06.00in	14"	6"	14in	6in	13in
REDCON-WM-14.00in-08.00in	14"	8"	14in	8in	13in
REDCON-WM-16.00in-10.00in	16"	10"	16in	10in	16in
REDCON-WM-16.00in-12.00in	16"	12"	16in	12in	16in
REDCON-WM-16.00in-14.00in	16"	14"	16in	14in	16in
REDCON-WM-16.00in-08.00in	16"	8"	16in	8in	16in
REDCON-WM-18.00in-10.00in	18"	10"	18in	10in	15in
REDCON-WM-18.00in-12.00in	18"	12"	18in	12in	15in
REDCON-WM-18.00in-14.00in	18"	14"	18in	14in	15in
REDCON-WM-18.00in-16.00in	18"	16"	18in	16in	15in
REDCON-WM-20.00in-12.00in	20"	12"	20in	12in	20in
REDCON-WM-20.00in-14.00in	20"	14"	20in	14in	20in
REDCON-WM-20.00in-16.00in	20"	16"	20in	16in	20in
REDCON-WM-20.00in-18.00in	20"	18"	20in	18in	20in
REDCON-WM-22.00in-14.00in	22"	14"	22in	14in	20in
REDCON-WM-22.00in-16.00in	22"	16"	22in	16in	20in
REDCON-WM-22.00in-18.00in	22"	18"	22in	18in	20in
REDCON-WM-22.00in-20.00in	22"	20"	22in	20in	20in
REDCON-WM-24.00in-16.00in	24"	16"	24in	16in	20in
REDCON-WM-24.00in-18.00in	24"	18"	24in	18in	20in
REDCON-WM-24.00in-20.00in	24"	20"	24in	20in	20in
REDCON-WM-24.00in-22.00in	24"	22"	24in	22in	20in
REDCON-WM-26.00in-18.00in	26"	18"	26in	18in	24in
REDCON-WM-26.00in-20.00in	26"	20"	26in	20in	24in
REDCON-WM-26.00in-22.00in	26"	22"	26in	22in	24in
REDCON-WM-26.00in-24.00in	26"	24"	26in	24in	24in
REDCON-WM-28.00in-18.00in	28"	18"	28in	18in	24in
REDCON-WM-28.00in-20.00in	28"	20"	28in	20in	24in
REDCON-WM-28.00in-24.00in	28"	24"	28in	24in	24in
REDCON-WM-28.00in-26.00in	28"	26"	28in	26in	24in
REDCON-WM-30.00in-20.00in	30"	20"	30in	20in	24in
REDCON-WM-30.00in-24.00in	30"	24"	30in	24in	24in
REDCON-WM-30.00in-26.00in	30"	26"	30in	26in	24in
REDCON-WM-30.00in-28.00in	30"	28"	30in	28in	24in
REDCON-WM-32.00in-24.00in	32"	24"	32in	24in	24in
REDCON-WM-32.00in-26.00in	32"	26"	32in	26in	24in
REDCON-WM-32.00in-28.00in	32"	28"	32in	28in	24in
REDCON-WM-32.00in-30.00in	32"	30"	32in	30in	24in
REDCON-WM-34.00in-24.00in	34"	24"	34in	24in	24in
REDCON-WM-34.00in-26.00in	34"	26"	34in	26in	24in
REDCON-WM-34.00in-30.00in	34"	30"	34in	30in	24in
REDCON-WM-34.00in-32.00in	34"	32"	34in	32in	24in
REDCON-WM-36.00in-24.00in	36"	24"	36in	24in	24in
REDCON-WM-36.00in-26.00in	36"	26"	36in	26in	24in
REDCON-WM-36.00in-30.00in	36"	30"	36in	30in	24in
REDCON-WM-36.00in-32.00in	36"	32"	36in	32in	24in
REDCON-WM-36.00in-34.00in	36"	34"	36in	34in	24in
REDCON-WM-42.00in-24.00in	42"	24"	42in	24in	24in
REDCON-WM-42.00in-26.00in	42"	26"	42in	26in	24in
REDCON-WM-42.00in-30.00in	42"	30"	42in	30in	24in
REDCON-WM-42.00in-32.00in	42"	32"	42in	32in	24in
REDCON-WM-42.00in-34.00in	42"	34"	42in	34in	24in
REDCON-WM-42.00in-36.00in	42"	36"	42in	36in	24in
REDCON-WM-48.00in-40.00in	48"	40"	48in	40in	28in
REDCON-WM-48.00in-42.00in	48"	42"	48in	42in	28in
REDCON-WM-48.00in-44.00in	48"	44"	48in	44in	28in
REDCON-WM-48.00in-46.00in	48"	46"	48in	46in	28in
