!<mkRTViewData> v1.0.0
CSC/000/DSI .\MechanicalModeler\CATMmrBrepMode.m\Objects\win_b64\mkcsc\CATMmrBrepMode.cscdb|.\MechanicalModeler\CATMmrBrepMode.m
@type='NONE'
@clr='false'
@kind='INCLUDED'
@deliverable='true'
@built='true'
