!<mkRTViewData> v1.0.0
BTV/000/CUS .\win_b64\code\lib\SurfaceMachiningAlgoInterfacesUUID.lib|.\SurfaceMachiningAlgoInterfaces\SurfaceMachiningAlgoInterfacesUUID.m
CSC/000/DSI .\SurfaceMachiningAlgoInterfaces\SurfaceMachiningAlgoInterfacesUUID.m\Objects\win_b64\mkcsc\SurfaceMachiningAlgoInterfacesUUID.cscdb|.\SurfaceMachiningAlgoInterfaces\SurfaceMachiningAlgoInterfacesUUID.m
@type='ARCHIVE'
@clr='false'
@kind='NATIVE'
@deliverable='true'
@built='true'
