!<mkRTViewData> v1.0.0
RTV/001/CUS .\win_b64\code\bin\CATCefHttp.dll|.\CATIAApplicationFrame\CATCefHttp.m
CSC/000/DSI .\CATIAApplicationFrame\CATCefHttp.m\Objects\win_b64\mkcsc\CATCefHttp.cscdb|.\CATIAApplicationFrame\CATCefHttp.m
BTV/000/CUS .\win_b64\code\lib\CATCefHttp.lib|.\CATIAApplicationFrame\CATCefHttp.m
INT/000/CUS .\win_b64\code\lib\CATCefHttp.exp|.\CATIAApplicationFrame\CATCefHttp.m
INT/000/CUS .\win_b64\code\bin\CATCefHttp.pdb|.\CATIAApplicationFrame\CATCefHttp.m
@type='SHARED_LIBRARY'
@clr='false'
@kind='NATIVE'
@deliverable='true'
@built='true'
