!<mkRTViewData> v1.0.0
BTV/000/CUS .\win_b64\code\lib\CATGuiSweepSketch.lib|.\GSMUI\CATGuiSweepSketch.m
RTV/001/CUS .\win_b64\code\bin\CATGuiSweepSketch.dll|.\GSMUI\CATGuiSweepSketch.m
INT/000/CUS .\win_b64\code\lib\CATGuiSweepSketch.exp|.\GSMUI\CATGuiSweepSketch.m
CSC/000/DSI .\GSMUI\CATGuiSweepSketch.m\Objects\win_b64\mkcsc\CATGuiSweepSketch.cscdb|.\GSMUI\CATGuiSweepSketch.m
INT/000/CUS .\win_b64\code\bin\CATGuiSweepSketch.pdb|.\GSMUI\CATGuiSweepSketch.m
@type='SHARED_LIBRARY'
@clr='false'
@kind='NATIVE'
@deliverable='true'
@built='true'
