!<mkRTViewData> v1.0.0
RTV/001/CUS .\win_b64\code\bin\GW0LIBCX.dll|.\CORBAServerInfra\GW0LIBCX.m
BTV/000/CUS .\win_b64\code\lib\GW0LIBCX.lib|.\CORBAServerInfra\GW0LIBCX.m
INT/000/CUS .\win_b64\code\bin\GW0LIBCX.pdb|.\CORBAServerInfra\GW0LIBCX.m
CSC/000/DSI .\CORBAServerInfra\GW0LIBCX.m\Objects\win_b64\mkcsc\GW0LIBCX.cscdb|.\CORBAServerInfra\GW0LIBCX.m
INT/000/CUS .\win_b64\code\lib\GW0LIBCX.exp|.\CORBAServerInfra\GW0LIBCX.m
@type='SHARED_LIBRARY'
@clr='false'
@kind='NATIVE'
@deliverable='true'
@built='true'
