!<mkRTViewData> v1.0.0
CSC/000/DSI .\DNBPSYResourceModel\DNBSourceNSinkModel.m\Objects\win_b64\mkcsc\DNBSourceNSinkModel.cscdb|.\DNBPSYResourceModel\DNBSourceNSinkModel.m
@type='NONE'
@clr='false'
@kind='INCLUDED'
@deliverable='true'
@built='true'
