{
  "urlParams": "?addinmode=catiav5&lockedapp=true&activeLargeView",
  "urlParamsImplicitLargeView": "?addinmode=catiav5&lockedapp=true",
  "initParams": {
    "content": {
      "UXOptions": {
        "dnD": false,
        "globalToolbarActions": {
          "export": false,
          "preview": false,
          "print": false,
          "saveAsFavorite": true
        },
        "lastIndexationTime": true,
        "localActions": false,
        "searchRecentContent": true
      },
      "default_with_precond": false,
      "mode": "default",
      "show_precond": false,
      "source": [ "3dspace" ],
      "tenant": "OnPremise",
      "widget_id": "catiav5",
      "recent_search": {
      }
    },
    "version": "1.0"
  }
}
