!<mkRTViewData> v1.0.0
RTV/002/DSI .\win_b64\code\productIC\CATPDMBaseInterfacesIC.required|.\CATPDMBaseInterfaces
DAT/002/CUS .\win_b64\code\dictionary\CATPDMBaseInterfaces.dic|.\CATPDMBaseInterfaces\CNext\code\dictionary\CATPDMBaseInterfaces.dic
BTV/002/CUS .\win_b64\code\productIC\CATPDMBaseInterfacesIC.xml|.\CATPDMBaseInterfaces
DAT/002/CUS .\win_b64\code\dictionary\CATPDMBaseInterfaces.iid|.\CATPDMBaseInterfaces\CNext\code\dictionary\CATPDMBaseInterfaces.iid
CSC/002/DSI .\CATPDMBaseInterfaces\IdentityCard\Objects\win_b64\mkcsc\CATPDMBaseInterfaces.cscdb|.\CATPDMBaseInterfaces
BTV/002/CUS .\win_b64\code\productIC\CATPDMBaseInterfacesIC.script|.\CATPDMBaseInterfaces
@type='codeFramework'
@built='true'
