!<mkRTViewData> v1.0.0
INT/000/CUS .\win_b64\code\lib\CATDraftingSktBaseCommands.exp|.\DraftingSktBaseCommands\CATDraftingSktBaseCommands.m
RTV/001/CUS .\win_b64\code\bin\CATDraftingSktBaseCommands.dll|.\DraftingSktBaseCommands\CATDraftingSktBaseCommands.m
INT/000/CUS .\win_b64\code\bin\CATDraftingSktBaseCommands.pdb|.\DraftingSktBaseCommands\CATDraftingSktBaseCommands.m
BTV/000/CUS .\win_b64\code\lib\CATDraftingSktBaseCommands.lib|.\DraftingSktBaseCommands\CATDraftingSktBaseCommands.m
CSC/000/DSI .\DraftingSktBaseCommands\CATDraftingSktBaseCommands.m\Objects\win_b64\mkcsc\CATDraftingSktBaseCommands.cscdb|.\DraftingSktBaseCommands\CATDraftingSktBaseCommands.m
@type='SHARED_LIBRARY'
@clr='false'
@kind='NATIVE'
@deliverable='true'
@built='true'
