!<mkRTViewData> v1.0.0
CSC/000/DSI .\DNBDeviceActivityBase\DNBDeviceActivityRollup.m\Objects\win_b64\mkcsc\DNBDeviceActivityRollup.cscdb|.\DNBDeviceActivityBase\DNBDeviceActivityRollup.m
@type='NONE'
@clr='false'
@kind='INCLUDED'
@deliverable='true'
@built='true'
