!<mkRTViewData> v1.0.0
CSC/000/DSI .\CATCDS\ProfileSolver.m\Objects\win_b64\mkcsc\ProfileSolver.cscdb|.\CATCDS\ProfileSolver.m
@type='NONE'
@clr='false'
@kind='INCLUDED'
@deliverable='true'
@built='true'
