!<mkRTViewData> v1.0.0
CSC/000/DSI .\AdvancedTopologicalOpe\CATAdvancedTopologicalOpe.m\Objects\win_b64\mkcsc\CATAdvancedTopologicalOpe.cscdb|.\AdvancedTopologicalOpe\CATAdvancedTopologicalOpe.m
RTV/001/CUS .\win_b64\code\bin\CATAdvancedTopologicalOpe.dll|.\AdvancedTopologicalOpe\CATAdvancedTopologicalOpe.m
RTV/000/CUS .\win_b64\code\dictionary\AdvancedTopologicalOpe.dic|.\AdvancedTopologicalOpe\CATAdvancedTopologicalOpe.m
INT/000/CUS .\win_b64\code\bin\CATAdvancedTopologicalOpe.pdb|.\AdvancedTopologicalOpe\CATAdvancedTopologicalOpe.m
BTV/000/CUS .\win_b64\code\lib\CATAdvancedTopologicalOpe.lib|.\AdvancedTopologicalOpe\CATAdvancedTopologicalOpe.m
INT/000/CUS .\win_b64\code\lib\CATAdvancedTopologicalOpe.exp|.\AdvancedTopologicalOpe\CATAdvancedTopologicalOpe.m
@type='SHARED_LIBRARY'
@clr='false'
@kind='NATIVE'
@deliverable='true'
@built='true'
