!<mkRTViewData> v1.0.0
RTV/001/CUS .\win_b64\code\bin\CATOmbDocAttributes.dll|.\ObjectModelerBase\CATOmbDocAttributes.m
INT/000/CUS .\win_b64\code\bin\CATOmbDocAttributes.pdb|.\ObjectModelerBase\CATOmbDocAttributes.m
BTV/000/CUS .\win_b64\code\lib\CATOmbDocAttributes.lib|.\ObjectModelerBase\CATOmbDocAttributes.m
CSC/000/DSI .\ObjectModelerBase\CATOmbDocAttributes.m\Objects\win_b64\mkcsc\CATOmbDocAttributes.cscdb|.\ObjectModelerBase\CATOmbDocAttributes.m
INT/000/CUS .\win_b64\code\lib\CATOmbDocAttributes.exp|.\ObjectModelerBase\CATOmbDocAttributes.m
@type='SHARED_LIBRARY'
@clr='false'
@kind='NATIVE'
@deliverable='true'
@built='true'
