!<mkRTViewData> v1.0.0
BTV/000/CUS .\win_b64\code\lib\CATMmlSys.lib|.\MechanicalModelerLive\CATMmlSys.m
CSC/000/DSI .\MechanicalModelerLive\CATMmlSys.m\Objects\win_b64\mkcsc\CATMmlSys.cscdb|.\MechanicalModelerLive\CATMmlSys.m
RTV/001/CUS .\win_b64\code\bin\CATMmlSys.dll|.\MechanicalModelerLive\CATMmlSys.m
INT/000/CUS .\win_b64\code\lib\CATMmlSys.exp|.\MechanicalModelerLive\CATMmlSys.m
INT/000/CUS .\win_b64\code\bin\CATMmlSys.pdb|.\MechanicalModelerLive\CATMmlSys.m
@type='SHARED_LIBRARY'
@clr='false'
@kind='NATIVE'
@deliverable='true'
@built='true'
