!<mkRTViewData> v1.0.0
RTV/002/DSI .\win_b64\code\productIC\DNBPSYResourceInterfacesIC.required|.\DNBPSYResourceInterfaces
DAT/002/CUS .\win_b64\code\dictionary\DNBPSYResourceInterfaces.dic|.\DNBPSYResourceInterfaces\CNext\code\dictionary\DNBPSYResourceInterfaces.dic
BTV/002/CUS .\win_b64\code\productIC\DNBPSYResourceInterfacesIC.xml|.\DNBPSYResourceInterfaces
BTV/002/CUS .\win_b64\code\productIC\DNBPSYResourceInterfacesIC.script|.\DNBPSYResourceInterfaces
CSC/002/DSI .\DNBPSYResourceInterfaces\IdentityCard\Objects\win_b64\mkcsc\DNBPSYResourceInterfaces.cscdb|.\DNBPSYResourceInterfaces
@type='codeFramework'
@built='true'
