!<mkRTViewData> v1.0.0
BTV/002/CUS .\win_b64\code\productIC\CAACloudQsrItfIC.xml|.\CAACloudQsrItf
CSC/002/DSI .\CAACloudQsrItf\IdentityCard\Objects\win_b64\mkcsc\CAACloudQsrItf.cscdb|.\CAACloudQsrItf
BTV/002/CUS .\win_b64\code\productIC\CAACloudQsrItfIC.script|.\CAACloudQsrItf
RTV/002/DSI .\win_b64\code\productIC\CAACloudQsrItfIC.required|.\CAACloudQsrItf
DAT/002/CUS .\win_b64\code\dictionary\CAACloudQsrItf.iid|.\CAACloudQsrItf\CNext\code\dictionary\CAACloudQsrItf.iid
@type='codeFramework'
@built='true'
