!<mkRTViewData> v1.0.0
RTV/001/CUS .\win_b64\code\bin\VPMMIGLF.exe|.\CDMAInteroperability\VpmMigLF.m
INT/000/CUS .\win_b64\code\bin\VPMMIGLF.pdb|.\CDMAInteroperability\VpmMigLF.m
CSC/000/DSI .\CDMAInteroperability\VpmMigLF.m\Objects\win_b64\mkcsc\VpmMigLF.cscdb|.\CDMAInteroperability\VpmMigLF.m
@type='LOAD_MODULE'
@clr='false'
@kind='NATIVE'
@deliverable='true'
@built='true'
