!<mkRTViewData> v1.0.0
CSC/000/DSI .\DNBHumanSimInterfaces\DNBHumanSimInterfaces.m\Objects\win_b64\mkcsc\DNBHumanSimInterfaces.cscdb|.\DNBHumanSimInterfaces\DNBHumanSimInterfaces.m
BTV/000/CUS .\win_b64\code\lib\DNBHumanSimInterfaces.lib|.\DNBHumanSimInterfaces\DNBHumanSimInterfaces.m
RTV/001/CUS .\win_b64\code\bin\DNBHumanSimInterfaces.dll|.\DNBHumanSimInterfaces\DNBHumanSimInterfaces.m
INT/000/CUS .\win_b64\code\bin\DNBHumanSimInterfaces.pdb|.\DNBHumanSimInterfaces\DNBHumanSimInterfaces.m
INT/000/CUS .\win_b64\code\lib\DNBHumanSimInterfaces.exp|.\DNBHumanSimInterfaces\DNBHumanSimInterfaces.m
@type='SHARED_LIBRARY'
@clr='false'
@kind='NATIVE'
@deliverable='true'
@built='true'
