!<mkRTViewData> v1.0.0
BTV/002/CUS .\win_b64\code\productIC\CATV4SystemIC.script|.\CATV4System
CSC/002/DSI .\CATV4System\IdentityCard\Objects\win_b64\mkcsc\CATV4System.cscdb|.\CATV4System
RTV/002/DSI .\win_b64\code\productIC\CATV4SystemIC.required|.\CATV4System
BTV/002/CUS .\win_b64\code\productIC\CATV4SystemIC.xml|.\CATV4System
@type='codeFramework'
@built='true'
