!<mkRTViewData> v1.0.0
RTV/001/CUS .\win_b64\code\bin\CATClnArr.dll|.\CATArrangement\CATClnArr.m
INT/000/CUS .\win_b64\code\bin\CATClnArr.pdb|.\CATArrangement\CATClnArr.m
BTV/000/CUS .\win_b64\code\lib\CATClnArr.lib|.\CATArrangement\CATClnArr.m
CSC/000/DSI .\CATArrangement\CATClnArr.m\Objects\win_b64\mkcsc\CATClnArr.cscdb|.\CATArrangement\CATClnArr.m
INT/000/CUS .\win_b64\code\lib\CATClnArr.exp|.\CATArrangement\CATClnArr.m
@type='SHARED_LIBRARY'
@clr='false'
@kind='NATIVE'
@deliverable='true'
@built='true'
