!<mkRTViewData> v1.0.0
CSC/000/DSI .\MecModInterfaces\CATJNIMecModTypeLib.m\Objects\win_b64\mkcsc\CATJNIMecModTypeLib.cscdb|.\MecModInterfaces\CATJNIMecModTypeLib.m
RTV/001/CUS .\win_b64\code\bin\CATJNIMecModTypeLib.dll|.\MecModInterfaces\CATJNIMecModTypeLib.m
INT/000/CUS .\win_b64\code\bin\CATJNIMecModTypeLib.pdb|.\MecModInterfaces\CATJNIMecModTypeLib.m
INT/000/CUS .\win_b64\code\lib\CATJNIMecModTypeLib.exp|.\MecModInterfaces\CATJNIMecModTypeLib.m
BTV/000/CUS .\win_b64\code\lib\CATJNIMecModTypeLib.lib|.\MecModInterfaces\CATJNIMecModTypeLib.m
@type='SHARED_LIBRARY'
@clr='false'
@kind='NATIVE'
@deliverable='true'
@built='true'
