!<mkRTViewData> v1.0.0
CSC/000/DSI .\CATMoldDesignFeature\CATMldUtility.m\Objects\win_b64\mkcsc\CATMldUtility.cscdb|.\CATMoldDesignFeature\CATMldUtility.m
@type='NONE'
@clr='false'
@kind='INCLUDED'
@deliverable='true'
@built='true'
