!<mkRTViewData> v1.0.0
CSC/000/DSI .\TopologicalOperators\Draft.m\Objects\win_b64\mkcsc\Draft.cscdb|.\TopologicalOperators\Draft.m
@type='NONE'
@clr='false'
@kind='INCLUDED'
@deliverable='true'
@built='true'
