!<mkRTViewData> v1.0.0
CSC/000/DSI .\PrintBase\CATPrt.m\Objects\win_b64\mkcsc\CATPrt.cscdb|.\PrintBase\CATPrt.m
INT/000/CUS .\win_b64\code\bin\CATPrt.pdb|.\PrintBase\CATPrt.m
INT/000/CUS .\win_b64\code\lib\CATPrt.exp|.\PrintBase\CATPrt.m
BTV/000/CUS .\win_b64\code\lib\CATPrt.lib|.\PrintBase\CATPrt.m
RTV/001/CUS .\win_b64\code\bin\CATPrt.dll|.\PrintBase\CATPrt.m
@type='SHARED_LIBRARY'
@clr='false'
@kind='NATIVE'
@deliverable='true'
@built='true'
