!<mkRTViewData> v1.0.0
BTV/000/CUS .\win_b64\code\lib\CATJNIOBMTypeLib.lib|.\CATOBMInterfaces\CATJNIOBMTypeLib.m
CSC/000/DSI .\CATOBMInterfaces\CATJNIOBMTypeLib.m\Objects\win_b64\mkcsc\CATJNIOBMTypeLib.cscdb|.\CATOBMInterfaces\CATJNIOBMTypeLib.m
INT/000/CUS .\win_b64\code\bin\CATJNIOBMTypeLib.pdb|.\CATOBMInterfaces\CATJNIOBMTypeLib.m
RTV/001/CUS .\win_b64\code\bin\CATJNIOBMTypeLib.dll|.\CATOBMInterfaces\CATJNIOBMTypeLib.m
INT/000/CUS .\win_b64\code\lib\CATJNIOBMTypeLib.exp|.\CATOBMInterfaces\CATJNIOBMTypeLib.m
@type='SHARED_LIBRARY'
@clr='false'
@kind='NATIVE'
@deliverable='true'
@built='true'
