!<mkRTViewData> v1.0.0
INT/000/CUS .\win_b64\code\bin\CATBatchStarter.pdb|.\BatchInfrastructure\CATBatchStarter.m
CSC/000/DSI .\BatchInfrastructure\CATBatchStarter.m\Objects\win_b64\mkcsc\CATBatchStarter.cscdb|.\BatchInfrastructure\CATBatchStarter.m
RTV/001/CUS .\win_b64\code\bin\CATBatchStarter.exe|.\BatchInfrastructure\CATBatchStarter.m
@type='LOAD_MODULE'
@clr='false'
@kind='NATIVE'
@deliverable='true'
@built='true'
