!<mkRTViewData> v1.0.0
CSC/000/DSI .\Assembly\AssemblyUUID.m\Objects\win_b64\mkcsc\AssemblyUUID.cscdb|.\Assembly\AssemblyUUID.m
BTV/000/CUS .\win_b64\code\lib\AssemblyUUID.lib|.\Assembly\AssemblyUUID.m
@type='ARCHIVE'
@clr='false'
@kind='NATIVE'
@deliverable='true'
@built='true'
