!<mkRTViewData> v1.0.0
CSC/000/DSI .\DataCommonProtocolUse\DataCommonProtocolUse.m\Objects\win_b64\mkcsc\DataCommonProtocolUse.cscdb|.\DataCommonProtocolUse\DataCommonProtocolUse.m
INT/000/CUS .\win_b64\code\lib\DataCommonProtocolUse.exp|.\DataCommonProtocolUse\DataCommonProtocolUse.m
BTV/000/CUS .\win_b64\code\lib\DataCommonProtocolUse.lib|.\DataCommonProtocolUse\DataCommonProtocolUse.m
INT/000/CUS .\win_b64\code\bin\DataCommonProtocolUse.pdb|.\DataCommonProtocolUse\DataCommonProtocolUse.m
RTV/001/CUS .\win_b64\code\bin\DataCommonProtocolUse.dll|.\DataCommonProtocolUse\DataCommonProtocolUse.m
@type='SHARED_LIBRARY'
@clr='false'
@kind='NATIVE'
@deliverable='true'
@built='true'
