!<mkRTViewData> v1.0.0
CSC/000/DSI .\VisualizationBase\CATVisShaderCGFX.m\Objects\win_b64\mkcsc\CATVisShaderCGFX.cscdb|.\VisualizationBase\CATVisShaderCGFX.m
@type='NONE'
@clr='false'
@kind='INCLUDED'
@deliverable='true'
@built='true'
