!<mkRTViewData> v1.0.0
DAT/002/CUS .\win_b64\resources\msgcatalog\AUTLciVMGeneOptionsDlg.CATNls|.\AUTLciVM\CNext.specifics_Windows_NT\resources\msgcatalog\AUTLciVMGeneOptionsDlg.CATNls
RTV/002/DSI .\win_b64\resources\msgcatalog\DbcsTest\AUTLciVmEngine.CATNls|.\AUTLciVM\CNext.specifics_Windows_NT\resources\msgcatalog\AUTLciVmEngine.CATNls
RTV/002/DSI .\win_b64\resources\msgcatalog\NlsTest\AUTLciVMGeneOptionsDlg.CATNls|.\AUTLciVM\CNext.specifics_Windows_NT\resources\msgcatalog\AUTLciVMGeneOptionsDlg.CATNls
DAT/002/CUS .\win_b64\resources\msgcatalog\AUTLciVMGeneOptionsDlg.CATRsc|.\AUTLciVM\CNext.specifics_Windows_NT\resources\msgcatalog\AUTLciVMGeneOptionsDlg.CATRsc
BTV/002/CUS .\win_b64\code\productIC\AUTLciVMIC.script|.\AUTLciVM
RTV/002/DSI .\win_b64\resources\msgcatalog\NlsTest\AUTLciVMGeneOptions.CATNls|.\AUTLciVM\CNext.specifics_Windows_NT\resources\msgcatalog\AUTLciVMGeneOptions.CATNls
RTV/002/DSI .\win_b64\code\productIC\AUTLciVMIC.required|.\AUTLciVM
DAT/002/CUS .\win_b64\resources\msgcatalog\AUTLciVMGeneOptions.CATNls|.\AUTLciVM\CNext.specifics_Windows_NT\resources\msgcatalog\AUTLciVMGeneOptions.CATNls
DAT/002/CUS .\win_b64\code\dictionary\AUTLciVM.fact|.\AUTLciVM\CNext.specifics_Windows_NT\code\dictionary\AUTLciVM.fact
RTV/002/DSI .\win_b64\resources\msgcatalog\DbcsTest\AUTCsmPrdTraceDialog.CATNls|.\AUTLciVM\CNext.specifics_Windows_NT\resources\msgcatalog\AUTCsmPrdTraceDialog.CATNls
DAT/002/CUS .\win_b64\code\dictionary\AUTLciVM.dic|.\AUTLciVM\CNext.specifics_Windows_NT\code\dictionary\AUTLciVM.dic
BTV/002/CUS .\win_b64\code\productIC\AUTLciVMIC.xml|.\AUTLciVM
RTV/002/DSI .\win_b64\resources\msgcatalog\NlsTest\AUTCsmPrdTraceDialog.CATNls|.\AUTLciVM\CNext.specifics_Windows_NT\resources\msgcatalog\AUTCsmPrdTraceDialog.CATNls
DAT/002/CUS .\win_b64\resources\msgcatalog\AUTCsmPrdTraceDialog.CATRsc|.\AUTLciVM\CNext.specifics_Windows_NT\resources\msgcatalog\AUTCsmPrdTraceDialog.CATRsc
DAT/002/CUS .\win_b64\resources\msgcatalog\AUTCsmPrdTraceDialog.CATNls|.\AUTLciVM\CNext.specifics_Windows_NT\resources\msgcatalog\AUTCsmPrdTraceDialog.CATNls
DAT/002/CUS .\win_b64\resources\msgcatalog\AUTLciVmEngine.CATNls|.\AUTLciVM\CNext.specifics_Windows_NT\resources\msgcatalog\AUTLciVmEngine.CATNls
RTV/002/DSI .\win_b64\resources\msgcatalog\DbcsTest\AUTLciVMGeneOptionsDlg.CATNls|.\AUTLciVM\CNext.specifics_Windows_NT\resources\msgcatalog\AUTLciVMGeneOptionsDlg.CATNls
CSC/002/DSI .\AUTLciVM\IdentityCard\Objects\win_b64\mkcsc\AUTLciVM.cscdb|.\AUTLciVM
RTV/002/DSI .\win_b64\resources\msgcatalog\NlsTest\AUTLciVmEngine.CATNls|.\AUTLciVM\CNext.specifics_Windows_NT\resources\msgcatalog\AUTLciVmEngine.CATNls
RTV/002/DSI .\win_b64\resources\msgcatalog\DbcsTest\AUTLciVMGeneOptions.CATNls|.\AUTLciVM\CNext.specifics_Windows_NT\resources\msgcatalog\AUTLciVMGeneOptions.CATNls
DAT/002/CUS .\win_b64\resources\msgcatalog\AUTLciVMGeneOptions.CATRsc|.\AUTLciVM\CNext.specifics_Windows_NT\resources\msgcatalog\AUTLciVMGeneOptions.CATRsc
@type='codeFramework'
@built='true'
