!<mkRTViewData> v1.0.0
RTV/002/DSI .\win_b64\code\productIC\DNBEKPInterfacesIC.required|.\DNBEKPInterfaces
DAT/002/CUS .\win_b64\code\dictionary\DNBEKPInterfaces.iid|.\DNBEKPInterfaces\CNext\code\dictionary\DNBEKPInterfaces.iid
BTV/002/CUS .\win_b64\code\productIC\DNBEKPInterfacesIC.xml|.\DNBEKPInterfaces
BTV/002/CUS .\win_b64\code\productIC\DNBEKPInterfacesIC.script|.\DNBEKPInterfaces
CSC/002/DSI .\DNBEKPInterfaces\IdentityCard\Objects\win_b64\mkcsc\DNBEKPInterfaces.cscdb|.\DNBEKPInterfaces
@type='codeFramework'
@built='true'
