!<mkRTViewData> v1.0.0
CSC/000/DSI .\CATIAApplicationFrame\OM0EDPRO.m\Objects\win_b64\mkcsc\OM0EDPRO.cscdb|.\CATIAApplicationFrame\OM0EDPRO.m
@type='NONE'
@clr='false'
@kind='INCLUDED'
@deliverable='true'
@built='true'
