!<mkRTViewData> v1.0.0
INT/000/CUS .\win_b64\code\bin\CATTessellateBodyStatic_CATech.pdb|.\Tessellation\CATTessellateBodyStatic_CATech.m
CSC/000/DSI .\Tessellation\CATTessellateBodyStatic_CATech.m\Objects\win_b64\mkcsc\CATTessellateBodyStatic_CATech.cscdb|.\Tessellation\CATTessellateBodyStatic_CATech.m
INT/000/CUS .\win_b64\code\lib\CATTessellateBodyStatic_CATech.exp|.\Tessellation\CATTessellateBodyStatic_CATech.m
BTV/000/CUS .\win_b64\code\lib\CATTessellateBodyStatic_CATech.lib|.\Tessellation\CATTessellateBodyStatic_CATech.m
RTV/001/CUS .\win_b64\code\bin\CATTessellateBodyStatic_CATech.dll|.\Tessellation\CATTessellateBodyStatic_CATech.m
@type='SHARED_LIBRARY'
@clr='false'
@kind='NATIVE'
@deliverable='true'
@built='true'
