!<mkRTViewData> v1.0.0
BTV/000/CUS .\win_b64\code\lib\CATMmrAxisSystem.lib|.\CATSurfacicResources\CATMmrAxisSystem.m
CSC/000/DSI .\CATSurfacicResources\CATMmrAxisSystem.m\Objects\win_b64\mkcsc\CATMmrAxisSystem.cscdb|.\CATSurfacicResources\CATMmrAxisSystem.m
RTV/001/CUS .\win_b64\code\bin\CATMmrAxisSystem.dll|.\CATSurfacicResources\CATMmrAxisSystem.m
INT/000/CUS .\win_b64\code\bin\CATMmrAxisSystem.pdb|.\CATSurfacicResources\CATMmrAxisSystem.m
INT/000/CUS .\win_b64\code\lib\CATMmrAxisSystem.exp|.\CATSurfacicResources\CATMmrAxisSystem.m
@type='SHARED_LIBRARY'
@clr='false'
@kind='NATIVE'
@deliverable='true'
@built='true'
