!<mkRTViewData> v1.0.0
RTV/001/CUS .\win_b64\code\bin\CATDUAInfra.dll|.\CATDataCompatibilityInfra\CATDUAInfra.m
BTV/000/CUS .\win_b64\code\lib\CATDUAInfra.lib|.\CATDataCompatibilityInfra\CATDUAInfra.m
CSC/000/DSI .\CATDataCompatibilityInfra\CATDUAInfra.m\Objects\win_b64\mkcsc\CATDUAInfra.cscdb|.\CATDataCompatibilityInfra\CATDUAInfra.m
INT/000/CUS .\win_b64\code\bin\CATDUAInfra.pdb|.\CATDataCompatibilityInfra\CATDUAInfra.m
INT/000/CUS .\win_b64\code\lib\CATDUAInfra.exp|.\CATDataCompatibilityInfra\CATDUAInfra.m
@type='SHARED_LIBRARY'
@clr='false'
@kind='NATIVE'
@deliverable='true'
@built='true'
