!<mkRTViewData> v1.0.0
CSC/000/DSI .\NewTopologicalObjects\Disconnect.m\Objects\win_b64\mkcsc\Disconnect.cscdb|.\NewTopologicalObjects\Disconnect.m
@type='NONE'
@clr='false'
@kind='INCLUDED'
@deliverable='true'
@built='true'
