!<mkRTViewData> v1.0.0
CSC/000/DSI .\StepDataExchange\DXZlib.m\Objects\win_b64\mkcsc\DXZlib.cscdb|.\StepDataExchange\DXZlib.m
@type='NONE'
@clr='false'
@kind='INCLUDED'
@deliverable='true'
@built='true'
