!<mkRTViewData> v1.0.0
CSC/000/DSI .\NavigatorInterfaces\CATNavigatorItf.m\Objects\win_b64\mkcsc\CATNavigatorItf.cscdb|.\NavigatorInterfaces\CATNavigatorItf.m
RTV/001/CUS .\win_b64\code\bin\CATNavigatorItf.dll|.\NavigatorInterfaces\CATNavigatorItf.m
BTV/000/CUS .\win_b64\code\lib\CATNavigatorItf.lib|.\NavigatorInterfaces\CATNavigatorItf.m
INT/000/CUS .\win_b64\code\bin\CATNavigatorItf.pdb|.\NavigatorInterfaces\CATNavigatorItf.m
INT/000/CUS .\win_b64\code\lib\CATNavigatorItf.exp|.\NavigatorInterfaces\CATNavigatorItf.m
@type='SHARED_LIBRARY'
@clr='false'
@kind='NATIVE'
@deliverable='true'
@built='true'
