!<mkRTViewData> v1.0.0
INT/000/CUS .\win_b64\code\lib\CATPinNewVersion.exp|.\PSNInteroperability\CATPinNewVersion.m
CSC/000/DSI .\PSNInteroperability\CATPinNewVersion.m\Objects\win_b64\mkcsc\CATPinNewVersion.cscdb|.\PSNInteroperability\CATPinNewVersion.m
BTV/000/CUS .\win_b64\code\lib\CATPinNewVersion.lib|.\PSNInteroperability\CATPinNewVersion.m
INT/000/CUS .\win_b64\code\bin\CATPinNewVersion.pdb|.\PSNInteroperability\CATPinNewVersion.m
RTV/001/CUS .\win_b64\code\bin\CATPinNewVersion.dll|.\PSNInteroperability\CATPinNewVersion.m
@type='SHARED_LIBRARY'
@clr='false'
@kind='NATIVE'
@deliverable='true'
@built='true'
