!<mkRTViewData> v1.0.0
INT/000/CUS .\win_b64\code\lib\CATPDMBaseContainer.exp|.\CATPDMBase\CATPDMBaseContainer.m
BTV/000/CUS .\win_b64\code\lib\CATPDMBaseContainer.lib|.\CATPDMBase\CATPDMBaseContainer.m
RTV/001/CUS .\win_b64\code\bin\CATPDMBaseContainer.dll|.\CATPDMBase\CATPDMBaseContainer.m
INT/000/CUS .\win_b64\code\bin\CATPDMBaseContainer.pdb|.\CATPDMBase\CATPDMBaseContainer.m
CSC/000/DSI .\CATPDMBase\CATPDMBaseContainer.m\Objects\win_b64\mkcsc\CATPDMBaseContainer.cscdb|.\CATPDMBase\CATPDMBaseContainer.m
@type='SHARED_LIBRARY'
@clr='false'
@kind='NATIVE'
@deliverable='true'
@built='true'
