!<mkRTViewData> v1.0.0
CSC/000/DSI .\PolyhedralOperators\CATPolyFillHolesOperators.m\Objects\win_b64\mkcsc\CATPolyFillHolesOperators.cscdb|.\PolyhedralOperators\CATPolyFillHolesOperators.m
@type='NONE'
@clr='false'
@kind='INCLUDED'
@deliverable='true'
@built='true'
