!<mkRTViewData> v1.0.0
CSC/000/DSI .\CATIAApplicationFrame\CATCafPrintAutoCtrlToolsOptions.m\Objects\win_b64\mkcsc\CATCafPrintAutoCtrlToolsOptions.cscdb|.\CATIAApplicationFrame\CATCafPrintAutoCtrlToolsOptions.m
BTV/000/CUS .\win_b64\code\lib\CATCafPrintAutoCtrlToolsOptions.lib|.\CATIAApplicationFrame\CATCafPrintAutoCtrlToolsOptions.m
RTV/001/CUS .\win_b64\code\bin\CATCafPrintAutoCtrlToolsOptions.dll|.\CATIAApplicationFrame\CATCafPrintAutoCtrlToolsOptions.m
INT/000/CUS .\win_b64\code\lib\CATCafPrintAutoCtrlToolsOptions.exp|.\CATIAApplicationFrame\CATCafPrintAutoCtrlToolsOptions.m
INT/000/CUS .\win_b64\code\bin\CATCafPrintAutoCtrlToolsOptions.pdb|.\CATIAApplicationFrame\CATCafPrintAutoCtrlToolsOptions.m
@type='SHARED_LIBRARY'
@clr='false'
@kind='NATIVE'
@deliverable='true'
@built='true'
