.125	1/8in
.25	1/4in
.375	3/8in
.5	1/2in
.75	3/4in
1	1in
1.25	1 1/4in
1.5	1 1/2in
2	2in
2.5	2 1/2in
3	3in
3.5	3 1/2in
4	4in
5	5in
6	6in
8	8in
10	10in
12	12in
14	14in
16	16in
18	18in
20	20in
22	22in
24	24in
26	26in
28	28in
30	30in
32	32in
34	34in
36	36in
38	38in
40	40in
42	42in
44	44in
46	46in
48	48in
