10	SCHEDULE 10
20	SCHEDULE 20
30	SCHEDULE 30
STD	STANDARD
40	SCHEDULE 40
60	SCHEDULE 60
XS	EXTRA STRONG
80	SCHEDULE 80
100	SCHEDULE 100
120	SCHEDULE 120
140	SCHEDULE 140
160	SCHEDULE 160
XXS	DOUBLE EXTRA STRONG
5S	SCHEDULE 5S
10S	SCHEDULE 10S
40S	SCHEDULE 40S
80S	SCHEDULE 80S
