!<mkRTViewData> v1.0.0
BTV/002/CUS .\win_b64\code\productIC\AUTClmUIIC.script|.\AUTClmUI
DAT/002/CUS .\win_b64\code\dictionary\AUTClmUI.dic|.\AUTClmUI\CNext.specifics_Windows_NT\code\dictionary\AUTClmUI.dic
CSC/002/DSI .\AUTClmUI\IdentityCard\Objects\win_b64\mkcsc\AUTClmUI.cscdb|.\AUTClmUI
RTV/002/DSI .\win_b64\code\productIC\AUTClmUIIC.required|.\AUTClmUI
BTV/002/CUS .\win_b64\code\productIC\AUTClmUIIC.xml|.\AUTClmUI
@type='codeFramework'
@built='true'
