!<mkRTViewData> v1.0.0
CSC/000/DSI .\PartDesignFeature\PRTFACTORY.m\Objects\win_b64\mkcsc\PRTFACTORY.cscdb|.\PartDesignFeature\PRTFACTORY.m
@type='NONE'
@clr='false'
@kind='INCLUDED'
@deliverable='true'
@built='true'
