!<mkRTViewData> v1.0.0
INT/000/CUS .\win_b64\code\bin\CATJPESStarter.pdb|.\CATJAdministration\CATJPESStarter.m
RTV/001/CUS .\win_b64\code\bin\CATJPESStarter.exe|.\CATJAdministration\CATJPESStarter.m
CSC/000/DSI .\CATJAdministration\CATJPESStarter.m\Objects\win_b64\mkcsc\CATJPESStarter.cscdb|.\CATJAdministration\CATJPESStarter.m
@type='LOAD_MODULE'
@clr='false'
@kind='NATIVE'
@deliverable='true'
@built='true'
