!<mkRTViewData> v1.0.0
CSC/000/DSI .\PrismaticMachiningInterfaces\PrismaticProIDL.m\Objects\win_b64\mkcsc\PrismaticProIDL.cscdb|.\PrismaticMachiningInterfaces\PrismaticProIDL.m
@type='NONE'
@clr='false'
@kind='INCLUDED'
@deliverable='true'
@built='true'
