!<mkRTViewData> v1.0.0
BTV/000/CUS .\win_b64\code\lib\GUIDVPMServices.lib|.\VPMServices\GUIDVPMServices.m
CSC/000/DSI .\VPMServices\GUIDVPMServices.m\Objects\win_b64\mkcsc\GUIDVPMServices.cscdb|.\VPMServices\GUIDVPMServices.m
RTV/001/CUS .\win_b64\code\bin\GUIDVPMServices.dll|.\VPMServices\GUIDVPMServices.m
INT/000/CUS .\win_b64\code\bin\GUIDVPMServices.pdb|.\VPMServices\GUIDVPMServices.m
INT/000/CUS .\win_b64\code\lib\GUIDVPMServices.exp|.\VPMServices\GUIDVPMServices.m
@type='SHARED_LIBRARY'
@clr='false'
@kind='NATIVE'
@deliverable='true'
@built='true'
