!<mkRTViewData> v1.0.0
BTV/000/CUS .\win_b64\code\lib\CATImmWtpTools.lib|.\CATImmWtpImpl\CATImmWtpTools.m
CSC/000/DSI .\CATImmWtpImpl\CATImmWtpTools.m\Objects\win_b64\mkcsc\CATImmWtpTools.cscdb|.\CATImmWtpImpl\CATImmWtpTools.m
RTV/001/CUS .\win_b64\code\bin\CATImmWtpTools.dll|.\CATImmWtpImpl\CATImmWtpTools.m
INT/000/CUS .\win_b64\code\bin\CATImmWtpTools.pdb|.\CATImmWtpImpl\CATImmWtpTools.m
INT/000/CUS .\win_b64\code\lib\CATImmWtpTools.exp|.\CATImmWtpImpl\CATImmWtpTools.m
@type='SHARED_LIBRARY'
@clr='false'
@kind='NATIVE'
@deliverable='true'
@built='true'
