!<mkRTViewData> v1.0.0
RTV/002/DSI .\win_b64\code\productIC\SGMOperatorsInterfacesIC.required|.\SGMOperatorsInterfaces
BTV/002/CUS .\win_b64\code\productIC\SGMOperatorsInterfacesIC.xml|.\SGMOperatorsInterfaces
BTV/002/CUS .\win_b64\code\productIC\SGMOperatorsInterfacesIC.script|.\SGMOperatorsInterfaces
CSC/002/DSI .\SGMOperatorsInterfaces\IdentityCard\Objects\win_b64\mkcsc\SGMOperatorsInterfaces.cscdb|.\SGMOperatorsInterfaces
@type='codeFramework'
@built='true'
