!<mkRTViewData> v1.0.0
BTV/000/CUS .\win_b64\code\lib\CRTRTCINITWP.lib|.\System\CRTRTCINITWP.m
CSC/000/DSI .\System\CRTRTCINITWP.m\Objects\win_b64\mkcsc\CRTRTCINITWP.cscdb|.\System\CRTRTCINITWP.m
@type='ARCHIVE'
@clr='false'
@kind='NATIVE'
@deliverable='true'
@built='true'
