!<mkRTViewData> v1.0.0
CSC/000/DSI .\CATV4IntegrationBase\MigrationCommand.m\Objects\win_b64\mkcsc\MigrationCommand.cscdb|.\CATV4IntegrationBase\MigrationCommand.m
RTV/001/CUS .\win_b64\code\bin\MigrationCommand.exe|.\CATV4IntegrationBase\MigrationCommand.m
INT/000/CUS .\win_b64\code\bin\MigrationCommand.pdb|.\CATV4IntegrationBase\MigrationCommand.m
@type='LOAD_MODULE'
@clr='false'
@kind='NATIVE'
@deliverable='true'
@built='true'
