!<mkRTViewData> v1.0.0
CSC/000/DSI .\DNBGraphEditor\PV0BASE.m\Objects\win_b64\mkcsc\PV0BASE.cscdb|.\DNBGraphEditor\PV0BASE.m
@type='NONE'
@clr='false'
@kind='INCLUDED'
@deliverable='true'
@built='true'
