!<mkRTViewData> v1.0.0
CSC/000/DSI .\FunctionalTopologicalOpe\FuncTopology.m\Objects\win_b64\mkcsc\FuncTopology.cscdb|.\FunctionalTopologicalOpe\FuncTopology.m
@type='NONE'
@clr='false'
@kind='INCLUDED'
@deliverable='true'
@built='true'
