!<mkRTViewData> v1.0.0
RTV/001/CUS .\win_b64\code\bin\DNBIgpOlpSettings.dll|.\DNBIgpOlpUI\DNBIgpOlpSettings.m
INT/000/CUS .\win_b64\code\bin\DNBIgpOlpSettings.pdb|.\DNBIgpOlpUI\DNBIgpOlpSettings.m
INT/000/CUS .\win_b64\code\lib\DNBIgpOlpSettings.exp|.\DNBIgpOlpUI\DNBIgpOlpSettings.m
CSC/000/DSI .\DNBIgpOlpUI\DNBIgpOlpSettings.m\Objects\win_b64\mkcsc\DNBIgpOlpSettings.cscdb|.\DNBIgpOlpUI\DNBIgpOlpSettings.m
BTV/000/CUS .\win_b64\code\lib\DNBIgpOlpSettings.lib|.\DNBIgpOlpUI\DNBIgpOlpSettings.m
@type='SHARED_LIBRARY'
@clr='false'
@kind='NATIVE'
@deliverable='true'
@built='true'
