!<mkRTViewData> v1.0.0
BTV/000/CUS .\win_b64\code\lib\AnalysisMeshingModelUUID.lib|.\AnalysisMeshingModel\AnalysisMeshingModelUUID.m
CSC/000/DSI .\AnalysisMeshingModel\AnalysisMeshingModelUUID.m\Objects\win_b64\mkcsc\AnalysisMeshingModelUUID.cscdb|.\AnalysisMeshingModel\AnalysisMeshingModelUUID.m
@type='ARCHIVE'
@clr='false'
@kind='NATIVE'
@deliverable='true'
@built='true'
