!<mkRTViewData> v1.0.0
DAT/002/CUS .\win_b64\code\command\ReadFatherOfMoveActFromExcel.CATScript|.\DNBAsyActivityBase\CNext\code\command\ReadFatherOfMoveActFromExcel.CATScript
CSC/002/DSI .\DNBAsyActivityBase\IdentityCard\Objects\win_b64\mkcsc\DNBAsyActivityBase.cscdb|.\DNBAsyActivityBase
BTV/002/CUS .\win_b64\code\productIC\DNBAsyActivityBaseIC.xml|.\DNBAsyActivityBase
DAT/002/CUS .\win_b64\resources\msgcatalog\DNBAsyActivityBaseCmd.CATNls|.\DNBAsyActivityBase\CNext\resources\msgcatalog\DNBAsyActivityBaseCmd.CATNls
DAT/002/CUS .\win_b64\code\dictionary\DNBAsyActivityBase.dic|.\DNBAsyActivityBase\CNext\code\dictionary\DNBAsyActivityBase.dic
DAT/002/CUS .\win_b64\code\dictionary\DNBAsyActivityBase.fact|.\DNBAsyActivityBase\CNext\code\dictionary\DNBAsyActivityBase.fact
RTV/002/DSI .\win_b64\resources\msgcatalog\DbcsTest\DNBAsyActivityBaseCmd.CATNls|.\DNBAsyActivityBase\CNext\resources\msgcatalog\DNBAsyActivityBaseCmd.CATNls
DAT/002/CUS .\win_b64\code\command\WriteFatherOfMoveActToExcel.CATScript|.\DNBAsyActivityBase\CNext\code\command\WriteFatherOfMoveActToExcel.CATScript
RTV/002/DSI .\win_b64\resources\msgcatalog\DbcsTest\DNBAPSAsyMotionActivitySimRollupFactory.CATNls|.\DNBAsyActivityBase\CNext\resources\msgcatalog\DNBAPSAsyMotionActivitySimRollupFactory.CATNls
RTV/002/DSI .\win_b64\resources\msgcatalog\NlsTest\DNBAPSAsyMotionActivitySimRollupFactory.CATNls|.\DNBAsyActivityBase\CNext\resources\msgcatalog\DNBAPSAsyMotionActivitySimRollupFactory.CATNls
DAT/002/CUS .\win_b64\code\command\WriteTrackToExcel.CATScript|.\DNBAsyActivityBase\CNext\code\command\WriteTrackToExcel.CATScript
DAT/002/CUS .\win_b64\code\command\CopyMoveActivity_Matrix.CATScript|.\DNBAsyActivityBase\CNext\code\command\CopyMoveActivity_Matrix.CATScript
DAT/002/CUS .\win_b64\resources\msgcatalog\DNBAPSAsyMotionActivitySimRollupFactory.CATNls|.\DNBAsyActivityBase\CNext\resources\msgcatalog\DNBAPSAsyMotionActivitySimRollupFactory.CATNls
DAT/002/CUS .\win_b64\resources\msgcatalog\DNBSync3DModelCmd.CATNls|.\DNBAsyActivityBase\CNext\resources\msgcatalog\DNBSync3DModelCmd.CATNls
BTV/002/CUS .\win_b64\code\productIC\DNBAsyActivityBaseIC.script|.\DNBAsyActivityBase
DAT/002/CUS .\win_b64\code\command\DPMASM_HideAnnotations.CATScript|.\DNBAsyActivityBase\CNext\code\command\DPMASM_HideAnnotations.CATScript
RTV/002/DSI .\win_b64\resources\msgcatalog\NlsTest\DNBAsyActivityBaseCmd.CATNls|.\DNBAsyActivityBase\CNext\resources\msgcatalog\DNBAsyActivityBaseCmd.CATNls
RTV/002/DSI .\win_b64\resources\msgcatalog\DbcsTest\DNBSync3DModelCmd.CATNls|.\DNBAsyActivityBase\CNext\resources\msgcatalog\DNBSync3DModelCmd.CATNls
DAT/002/CUS .\win_b64\resources\graphic\DNBAssemblyLibrary.feat|.\DNBAsyActivityBase\CNext\resources\graphic\DNBAssemblyLibrary.feat
DAT/002/CUS .\win_b64\code\command\CopyMoveActivity_RPY.CATScript|.\DNBAsyActivityBase\CNext\code\command\CopyMoveActivity_RPY.CATScript
DAT/002/CUS .\win_b64\resources\msgcatalog\DNBAssemblyIPDAuthAct.CATRsc|.\DNBAsyActivityBase\CNext\resources\msgcatalog\DNBAssemblyIPDAuthAct.CATRsc
RTV/002/DSI .\win_b64\resources\msgcatalog\NlsTest\DNBSync3DModelCmd.CATNls|.\DNBAsyActivityBase\CNext\resources\msgcatalog\DNBSync3DModelCmd.CATNls
DAT/002/CUS .\win_b64\code\command\DPMASM_ShowAnnotations.CATScript|.\DNBAsyActivityBase\CNext\code\command\DPMASM_ShowAnnotations.CATScript
DAT/002/CUS .\win_b64\code\dictionary\DNBAsyActivityBase.iid|.\DNBAsyActivityBase\CNext\code\dictionary\DNBAsyActivityBase.iid
RTV/002/DSI .\win_b64\code\productIC\DNBAsyActivityBaseIC.required|.\DNBAsyActivityBase
DAT/002/CUS .\win_b64\code\command\ReadTrackFromExcelAsMoveAct.CATScript|.\DNBAsyActivityBase\CNext\code\command\ReadTrackFromExcelAsMoveAct.CATScript
@type='codeFramework'
@built='true'
