!<mkRTViewData> v1.0.0
CSC/000/DSI .\CATSubdivisionMeshGenerator\CATSmgSegmentation.m\Objects\win_b64\mkcsc\CATSmgSegmentation.cscdb|.\CATSubdivisionMeshGenerator\CATSmgSegmentation.m
@type='NONE'
@clr='false'
@kind='INCLUDED'
@deliverable='true'
@built='true'
