!<mkRTViewData> v1.0.0
BTV/000/CUS .\win_b64\code\lib\CATTTRSUUID.lib|.\CATTTRSInterfaces\CATTTRSUUID.m
CSC/000/DSI .\CATTTRSInterfaces\CATTTRSUUID.m\Objects\win_b64\mkcsc\CATTTRSUUID.cscdb|.\CATTTRSInterfaces\CATTTRSUUID.m
@type='ARCHIVE'
@clr='false'
@kind='NATIVE'
@deliverable='true'
@built='true'
