!<mkRTViewData> v1.0.0
CSC/000/DSI .\SketcherUI\SketcherUIUUID.m\Objects\win_b64\mkcsc\SketcherUIUUID.cscdb|.\SketcherUI\SketcherUIUUID.m
BTV/000/CUS .\win_b64\code\lib\SketcherUIUUID.lib|.\SketcherUI\SketcherUIUUID.m
@type='ARCHIVE'
@clr='false'
@kind='NATIVE'
@deliverable='true'
@built='true'
