!<mkRTViewData> v1.0.0
INT/000/CUS .\win_b64\code\bin\CATGngReportUtilities.pdb|.\GenericNaming\CATGngReportUtilities.m
RTV/001/CUS .\win_b64\code\bin\CATGngReportUtilities.dll|.\GenericNaming\CATGngReportUtilities.m
INT/000/CUS .\win_b64\code\lib\CATGngReportUtilities.exp|.\GenericNaming\CATGngReportUtilities.m
BTV/000/CUS .\win_b64\code\lib\CATGngReportUtilities.lib|.\GenericNaming\CATGngReportUtilities.m
CSC/000/DSI .\GenericNaming\CATGngReportUtilities.m\Objects\win_b64\mkcsc\CATGngReportUtilities.cscdb|.\GenericNaming\CATGngReportUtilities.m
@type='SHARED_LIBRARY'
@clr='false'
@kind='NATIVE'
@deliverable='true'
@built='true'
