!<mkRTViewData> v1.0.0
INT/000/CUS .\win_b64\code\lib\CATRpmReporterItfCPP.exp|.\CATReporterInterfaces\CATRpmReporterItfCPP.m
CSC/000/DSI .\CATReporterInterfaces\CATRpmReporterItfCPP.m\Objects\win_b64\mkcsc\CATRpmReporterItfCPP.cscdb|.\CATReporterInterfaces\CATRpmReporterItfCPP.m
RTV/001/CUS .\win_b64\code\bin\CATRpmReporterItfCPP.dll|.\CATReporterInterfaces\CATRpmReporterItfCPP.m
BTV/000/CUS .\win_b64\code\lib\CATRpmReporterItfCPP.lib|.\CATReporterInterfaces\CATRpmReporterItfCPP.m
INT/000/CUS .\win_b64\code\bin\CATRpmReporterItfCPP.pdb|.\CATReporterInterfaces\CATRpmReporterItfCPP.m
@type='SHARED_LIBRARY'
@clr='false'
@kind='NATIVE'
@deliverable='true'
@built='true'
