!<mkRTViewData> v1.0.0
CSC/000/DSI .\ConstraintModelerUI\CATConstraintSettings.m\Objects\win_b64\mkcsc\CATConstraintSettings.cscdb|.\ConstraintModelerUI\CATConstraintSettings.m
INT/000/CUS .\win_b64\code\lib\CATConstraintSettings.exp|.\ConstraintModelerUI\CATConstraintSettings.m
BTV/000/CUS .\win_b64\code\lib\CATConstraintSettings.lib|.\ConstraintModelerUI\CATConstraintSettings.m
INT/000/CUS .\win_b64\code\bin\CATConstraintSettings.pdb|.\ConstraintModelerUI\CATConstraintSettings.m
RTV/001/CUS .\win_b64\code\bin\CATConstraintSettings.dll|.\ConstraintModelerUI\CATConstraintSettings.m
@type='SHARED_LIBRARY'
@clr='false'
@kind='NATIVE'
@deliverable='true'
@built='true'
