!<mkRTViewData> v1.0.0
BTV/000/CUS .\win_b64\code\lib\CATClnPrd.lib|.\ProductStructure\CATClnPrd.m
INT/000/CUS .\win_b64\code\bin\CATClnPrd.pdb|.\ProductStructure\CATClnPrd.m
CSC/000/DSI .\ProductStructure\CATClnPrd.m\Objects\win_b64\mkcsc\CATClnPrd.cscdb|.\ProductStructure\CATClnPrd.m
INT/000/CUS .\win_b64\code\lib\CATClnPrd.exp|.\ProductStructure\CATClnPrd.m
RTV/001/CUS .\win_b64\code\bin\CATClnPrd.dll|.\ProductStructure\CATClnPrd.m
@type='SHARED_LIBRARY'
@clr='false'
@kind='NATIVE'
@deliverable='true'
@built='true'
