!<mkRTViewData> v1.0.0
CSC/000/DSI .\ObjectModelerCATIA\AC0UAX.m\Objects\win_b64\mkcsc\AC0UAX.cscdb|.\ObjectModelerCATIA\AC0UAX.m
@type='NONE'
@clr='false'
@kind='INCLUDED'
@deliverable='true'
@built='true'
