!<mkRTViewData> v1.0.0
RTV/001/CUS .\win_b64\code\bin\P3Frame.dll|.\CATImmersiveUI\P3Frame.m
INT/000/CUS .\win_b64\code\lib\P3Frame.exp|.\CATImmersiveUI\P3Frame.m
BTV/000/CUS .\win_b64\code\lib\P3Frame.lib|.\CATImmersiveUI\P3Frame.m
INT/000/CUS .\win_b64\code\bin\P3Frame.pdb|.\CATImmersiveUI\P3Frame.m
CSC/000/DSI .\CATImmersiveUI\P3Frame.m\Objects\win_b64\mkcsc\P3Frame.cscdb|.\CATImmersiveUI\P3Frame.m
@type='SHARED_LIBRARY'
@clr='false'
@kind='NATIVE'
@deliverable='true'
@built='true'
