!<mkRTViewData> v1.0.0
BTV/002/CUS .\win_b64\code\productIC\CATMecModLiveUseItfIC.script|.\CATMecModLiveUseItf
RTV/002/DSI .\win_b64\code\productIC\CATMecModLiveUseItfIC.required|.\CATMecModLiveUseItf
BTV/002/CUS .\win_b64\code\productIC\CATMecModLiveUseItfIC.xml|.\CATMecModLiveUseItf
CSC/002/DSI .\CATMecModLiveUseItf\IdentityCard\Objects\win_b64\mkcsc\CATMecModLiveUseItf.cscdb|.\CATMecModLiveUseItf
@type='codeFramework'
@built='true'
