!<mkRTViewData> v1.0.0
CSC/000/DSI .\ObjectSpecsModeler\SpecsModeler.m\Objects\win_b64\mkcsc\SpecsModeler.cscdb|.\ObjectSpecsModeler\SpecsModeler.m
@type='NONE'
@clr='false'
@kind='INCLUDED'
@deliverable='true'
@built='true'
