PartNumber	Size	MCT_InternalHeight (mm)	MCT_InternalWidth (mm)	MCT_FrameThickness (mm)	No_Of_Columns	No_Of_Rows	MCT_Frame_depth (mm)	EndPackingHeight (mm)
MCT_RGS_2x1	2	60	120	10	1	1	60	40
MCT_RGS_4x1	4	120	120	10	1	1	60	40
MCT_RGS_6x1	6	180	120	10	1	1	60	40
MCT_RGS_8x1	8	240	120	10	1	1	60	40
