!<mkRTViewData> v1.0.0
CSC/000/DSI .\MecModInterfaces\MecModProIDL.m\Objects\win_b64\mkcsc\MecModProIDL.cscdb|.\MecModInterfaces\MecModProIDL.m
@type='NONE'
@clr='false'
@kind='INCLUDED'
@deliverable='true'
@built='true'
