!<mkRTViewData> v1.0.0
RTV/001/CUS .\win_b64\code\bin\CATVBAInfra.dll|.\VBA\CATVBAInfra.m
INT/000/CUS .\win_b64\code\lib\CATVBAInfra.exp|.\VBA\CATVBAInfra.m
CSC/000/DSI .\VBA\CATVBAInfra.m\Objects\win_b64\mkcsc\CATVBAInfra.cscdb|.\VBA\CATVBAInfra.m
INT/000/CUS .\win_b64\code\bin\CATVBAInfra.pdb|.\VBA\CATVBAInfra.m
BTV/000/CUS .\win_b64\code\lib\CATVBAInfra.lib|.\VBA\CATVBAInfra.m
@type='SHARED_LIBRARY'
@clr='false'
@kind='NATIVE'
@deliverable='true'
@built='true'
