!<mkRTViewData> v1.0.0
RTV/000/CUS .\win_b64\code\dictionary\FreeFormOperators.dic|.\FreeFormOperators\FreeFormOperatorsRscCNext.m\src\CNext\code\dictionary\FreeFormOperators.dic
@type='RUNTIME_DATA'
@clr='false'
@kind='DATA'
@deliverable='true'
@built='true'
