!<mkRTViewData> v1.0.0
INT/000/CUS .\win_b64\code\bin\CATCsbMainServer.pdb|.\CORBAServerInfra\CATCsbMainServer.m
RTV/001/CUS .\win_b64\code\bin\CATCsbMainServer.dll|.\CORBAServerInfra\CATCsbMainServer.m
INT/000/CUS .\win_b64\code\lib\CATCsbMainServer.exp|.\CORBAServerInfra\CATCsbMainServer.m
BTV/000/CUS .\win_b64\code\lib\CATCsbMainServer.lib|.\CORBAServerInfra\CATCsbMainServer.m
CSC/000/DSI .\CORBAServerInfra\CATCsbMainServer.m\Objects\win_b64\mkcsc\CATCsbMainServer.cscdb|.\CORBAServerInfra\CATCsbMainServer.m
@type='SHARED_LIBRARY'
@clr='false'
@kind='NATIVE'
@deliverable='true'
@built='true'
