!<mkRTViewData> v1.0.0
CSC/000/DSI .\CATCloudCGMUtilities\CATCloudToBRep.m\Objects\win_b64\mkcsc\CATCloudToBRep.cscdb|.\CATCloudCGMUtilities\CATCloudToBRep.m
@type='NONE'
@clr='false'
@kind='INCLUDED'
@deliverable='true'
@built='true'
