!<mkRTViewData> v1.0.0
INT/000/CUS .\win_b64\code\bin\CATEnoEXPInterop.pdb|.\EnoviaV5Adapter\CATEnoEXPInterop.m
RTV/001/CUS .\win_b64\code\bin\CATEnoEXPInterop.dll|.\EnoviaV5Adapter\CATEnoEXPInterop.m
BTV/000/CUS .\win_b64\code\lib\CATEnoEXPInterop.lib|.\EnoviaV5Adapter\CATEnoEXPInterop.m
CSC/000/DSI .\EnoviaV5Adapter\CATEnoEXPInterop.m\Objects\win_b64\mkcsc\CATEnoEXPInterop.cscdb|.\EnoviaV5Adapter\CATEnoEXPInterop.m
INT/000/CUS .\win_b64\code\lib\CATEnoEXPInterop.exp|.\EnoviaV5Adapter\CATEnoEXPInterop.m
@type='SHARED_LIBRARY'
@clr='false'
@kind='NATIVE'
@deliverable='true'
@built='true'
