!<mkRTViewData> v1.0.0
CSC/000/DSI .\PartDesignUI\PRTSECTIONING.m\Objects\win_b64\mkcsc\PRTSECTIONING.cscdb|.\PartDesignUI\PRTSECTIONING.m
@type='NONE'
@clr='false'
@kind='INCLUDED'
@deliverable='true'
@built='true'
