!<mkRTViewData> v1.0.0
BTV/000/CUS .\win_b64\code\lib\CATAfrLicensing.lib|.\ApplicationFrame\CATAfrLicensing.m
RTV/001/CUS .\win_b64\code\bin\CATAfrLicensing.dll|.\ApplicationFrame\CATAfrLicensing.m
INT/000/CUS .\win_b64\code\lib\CATAfrLicensing.exp|.\ApplicationFrame\CATAfrLicensing.m
CSC/000/DSI .\ApplicationFrame\CATAfrLicensing.m\Objects\win_b64\mkcsc\CATAfrLicensing.cscdb|.\ApplicationFrame\CATAfrLicensing.m
INT/000/CUS .\win_b64\code\bin\CATAfrLicensing.pdb|.\ApplicationFrame\CATAfrLicensing.m
@type='SHARED_LIBRARY'
@clr='false'
@kind='NATIVE'
@deliverable='true'
@built='true'
