!<mkRTViewData> v1.0.0
INT/000/CUS .\win_b64\code\bin\DPFFramePS.pdb|.\DELE5Interfaces\DPFFramePS.m
RTV/001/CUS .\win_b64\code\bin\DPFFramePS.dll|.\DELE5Interfaces\DPFFramePS.m
INT/000/CUS .\win_b64\code\lib\DPFFramePS.exp|.\DELE5Interfaces\DPFFramePS.m
BTV/000/CUS .\win_b64\code\lib\DPFFramePS.lib|.\DELE5Interfaces\DPFFramePS.m
CSC/000/DSI .\DELE5Interfaces\DPFFramePS.m\Objects\win_b64\mkcsc\DPFFramePS.cscdb|.\DELE5Interfaces\DPFFramePS.m
@type='SHARED_LIBRARY'
@clr='false'
@kind='NATIVE'
@deliverable='true'
@built='true'
