!<mkRTViewData> v1.0.0
RTV/001/CUS .\win_b64\code\bin\CATSurfacicMathLight.dll|.\SurfacicMathematics\CATSurfacicMathLight.m
BTV/000/CUS .\win_b64\code\lib\CATSurfacicMathLight.lib|.\SurfacicMathematics\CATSurfacicMathLight.m
INT/000/CUS .\win_b64\code\bin\CATSurfacicMathLight.pdb|.\SurfacicMathematics\CATSurfacicMathLight.m
INT/000/CUS .\win_b64\code\lib\CATSurfacicMathLight.exp|.\SurfacicMathematics\CATSurfacicMathLight.m
CSC/000/DSI .\SurfacicMathematics\CATSurfacicMathLight.m\Objects\win_b64\mkcsc\CATSurfacicMathLight.cscdb|.\SurfacicMathematics\CATSurfacicMathLight.m
@type='SHARED_LIBRARY'
@clr='false'
@kind='NATIVE'
@deliverable='true'
@built='true'
