!<mkRTViewData> v1.0.0
CSC/000/DSI .\DNBFasReporting\DNBFasReportingModel.m\Objects\win_b64\mkcsc\DNBFasReportingModel.cscdb|.\DNBFasReporting\DNBFasReportingModel.m
@type='NONE'
@clr='false'
@kind='INCLUDED'
@deliverable='true'
@built='true'
