!<mkRTViewData> v1.0.0
RTV/001/CUS .\win_b64\code\bin\CATFaiDynAnalysis.dll|.\FreeStyleAnalysisInterface\CATFaiDynAnalysis.m
BTV/000/CUS .\win_b64\code\lib\CATFaiDynAnalysis.lib|.\FreeStyleAnalysisInterface\CATFaiDynAnalysis.m
INT/000/CUS .\win_b64\code\lib\CATFaiDynAnalysis.exp|.\FreeStyleAnalysisInterface\CATFaiDynAnalysis.m
INT/000/CUS .\win_b64\code\bin\CATFaiDynAnalysis.pdb|.\FreeStyleAnalysisInterface\CATFaiDynAnalysis.m
CSC/000/DSI .\FreeStyleAnalysisInterface\CATFaiDynAnalysis.m\Objects\win_b64\mkcsc\CATFaiDynAnalysis.cscdb|.\FreeStyleAnalysisInterface\CATFaiDynAnalysis.m
@type='SHARED_LIBRARY'
@clr='false'
@kind='NATIVE'
@deliverable='true'
@built='true'
