!<mkRTViewData> v1.0.0
CSC/000/DSI .\CATImmENOVIAProvider\CATENOVIAProviderItfCPP.m\Objects\win_b64\mkcsc\CATENOVIAProviderItfCPP.cscdb|.\CATImmENOVIAProvider\CATENOVIAProviderItfCPP.m
@type='NONE'
@clr='false'
@kind='INCLUDED'
@deliverable='true'
@built='true'
