!<mkRTViewData> v1.0.0
RTV/000/CUS .\win_b64\resources\msgcatalog\French\CATCkeUnits.CATNls|G:\CXR27\BSFNLS\LiteralFeatures\LiteralFeaturesRSC.m\src\resources\msgcatalog\French\CATCkeUnits.CATNls
RTV/000/CUS .\win_b64\resources\msgcatalog\German\CATKWEError.CATNls|G:\CXR27\BSFNLS\LiteralFeatures\LiteralFeaturesRSC.m\src\resources\msgcatalog\German\CATKWEError.CATNls
RTV/000/CUS .\win_b64\resources\msgcatalog\French\CATLifErrors.CATNls|G:\CXR27\BSFNLS\LiteralFeatures\LiteralFeaturesRSC.m\src\resources\msgcatalog\French\CATLifErrors.CATNls
RTV/000/CUS .\win_b64\resources\msgcatalog\Italian\CATDTEvaluators.CATNls|G:\CXR27\BSFNLS\LiteralFeatures\LiteralFeaturesRSC.m\src\resources\msgcatalog\Italian\CATDTEvaluators.CATNls
RTV/000/CUS .\win_b64\resources\msgcatalog\French\CATKweCheckError.CATNls|G:\CXR27\BSFNLS\LiteralFeatures\LiteralFeaturesRSC.m\src\resources\msgcatalog\French\CATKweCheckError.CATNls
RTV/000/CUS .\win_b64\resources\msgcatalog\German\CATLifMeasures.CATNls|G:\CXR27\BSFNLS\LiteralFeatures\LiteralFeaturesRSC.m\src\resources\msgcatalog\German\CATLifMeasures.CATNls
RTV/000/CUS .\win_b64\resources\msgcatalog\Simplified_Chinese\CATCkeDictionary.CATNls|G:\CXR27\BSFNLS\LiteralFeatures\LiteralFeaturesRSC.m\src\resources\msgcatalog\Simplified_Chinese\CATCkeDictionary.CATNls
RTV/000/CUS .\win_b64\resources\msgcatalog\Korean\CATCkeUnits.CATNls|G:\CXR27\BSFNLS\LiteralFeatures\LiteralFeaturesRSC.m\src\resources\msgcatalog\Korean\CATCkeUnits.CATNls
RTV/000/CUS .\win_b64\resources\msgcatalog\Japanese\CATLifMeasures.CATNls|G:\CXR27\BSFNLS\LiteralFeatures\LiteralFeaturesRSC.m\src\resources\msgcatalog\Japanese\CATLifMeasures.CATNls
RTV/000/DSI .\win_b64\resources\msgcatalog\DbcsTest\CATKWEError.CATNls|.\LiteralFeatures\LiteralFeaturesRSC.m\src\resources\msgcatalog\CATKWEError.CATNls
RTV/000/DSI .\win_b64\resources\msgcatalog\NlsTest\CATLiteralTypes.CATNls|.\LiteralFeatures\LiteralFeaturesRSC.m\src\resources\msgcatalog\CATLiteralTypes.CATNls
RTV/000/CUS .\win_b64\resources\msgcatalog\CATMmRelationsExt.CATNls|.\LiteralFeatures\LiteralFeaturesRSC.m\src\resources\msgcatalog\CATMmRelationsExt.CATNls
RTV/000/DSI .\win_b64\resources\msgcatalog\NlsTest\CATLifEvaluationErrors.CATNls|.\LiteralFeatures\LiteralFeaturesRSC.m\src\resources\msgcatalog\CATLifEvaluationErrors.CATNls
RTV/000/CUS .\win_b64\resources\msgcatalog\Italian\CATMmRelationsExt.CATNls|G:\CXR27\BSFNLS\LiteralFeatures\LiteralFeaturesRSC.m\src\resources\msgcatalog\Italian\CATMmRelationsExt.CATNls
RTV/000/CUS .\win_b64\resources\msgcatalog\Japanese\CATKWEError.CATNls|G:\CXR27\BSFNLS\LiteralFeatures\LiteralFeaturesRSC.m\src\resources\msgcatalog\Japanese\CATKWEError.CATNls
RTV/000/CUS .\win_b64\resources\msgcatalog\Russian\CATCkeDesignTable.CATNls|G:\CXR27\BSFNLS\LiteralFeatures\LiteralFeaturesRSC.m\src\resources\msgcatalog\Russian\CATCkeDesignTable.CATNls
RTV/000/DSI .\win_b64\resources\msgcatalog\DbcsTest\CATMethodName.CATNls|.\LiteralFeatures\LiteralFeaturesRSC.m\src\resources\msgcatalog\CATMethodName.CATNls
RTV/000/CUS .\win_b64\resources\msgcatalog\Russian\CATCkeImportServices.CATNls|G:\CXR27\BSFNLS\LiteralFeatures\LiteralFeaturesRSC.m\src\resources\msgcatalog\Russian\CATCkeImportServices.CATNls
RTV/000/CUS .\win_b64\resources\msgcatalog\Simplified_Chinese\CATCkeRelationFeat.CATNls|G:\CXR27\BSFNLS\LiteralFeatures\LiteralFeaturesRSC.m\src\resources\msgcatalog\Simplified_Chinese\CATCkeRelationFeat.CATNls
RTV/000/DSI .\win_b64\resources\msgcatalog\NlsTest\CATMmRelationsExt.CATNls|.\LiteralFeatures\LiteralFeaturesRSC.m\src\resources\msgcatalog\CATMmRelationsExt.CATNls
RTV/000/CUS .\win_b64\resources\msgcatalog\German\CATLiteralTypes.CATNls|G:\CXR27\BSFNLS\LiteralFeatures\LiteralFeaturesRSC.m\src\resources\msgcatalog\German\CATLiteralTypes.CATNls
RTV/000/CUS .\win_b64\resources\msgcatalog\Russian\CATCkeDictionary.CATNls|G:\CXR27\BSFNLS\LiteralFeatures\LiteralFeaturesRSC.m\src\resources\msgcatalog\Russian\CATCkeDictionary.CATNls
RTV/000/DSI .\win_b64\resources\msgcatalog\NlsTest\CATCkeRelationFeat.CATNls|.\LiteralFeatures\LiteralFeaturesRSC.m\src\resources\msgcatalog\CATCkeRelationFeat.CATNls
RTV/000/DSI .\win_b64\resources\msgcatalog\NlsTest\CATKWEError.CATNls|.\LiteralFeatures\LiteralFeaturesRSC.m\src\resources\msgcatalog\CATKWEError.CATNls
RTV/000/CUS .\win_b64\resources\msgcatalog\CATCkeDesignTable.CATNls|.\LiteralFeatures\LiteralFeaturesRSC.m\src\resources\msgcatalog\CATCkeDesignTable.CATNls
RTV/000/CUS .\win_b64\resources\msgcatalog\Japanese\CATCkeDesignTable.CATNls|G:\CXR27\BSFNLS\LiteralFeatures\LiteralFeaturesRSC.m\src\resources\msgcatalog\Japanese\CATCkeDesignTable.CATNls
RTV/000/CUS .\win_b64\resources\msgcatalog\CATCkeErrors.CATNls|.\LiteralFeatures\LiteralFeaturesRSC.m\src\resources\msgcatalog\CATCkeErrors.CATNls
RTV/000/CUS .\win_b64\resources\msgcatalog\Russian\LiteralsNLS.CATNls|G:\CXR27\BSFNLS\LiteralFeatures\LiteralFeaturesRSC.m\src\resources\msgcatalog\Russian\LiteralsNLS.CATNls
RTV/000/CUS .\win_b64\resources\featurecatalog\Literals.feat|.\LiteralFeatures\LiteralFeaturesRSC.m\src\resources\featurecatalog\Literals.feat
RTV/000/CUS .\win_b64\resources\msgcatalog\French\CATLiteralTypes.CATNls|G:\CXR27\BSFNLS\LiteralFeatures\LiteralFeaturesRSC.m\src\resources\msgcatalog\French\CATLiteralTypes.CATNls
RTV/000/CUS .\win_b64\resources\msgcatalog\CATDTEvaluators.CATNls|.\LiteralFeatures\LiteralFeaturesRSC.m\src\resources\msgcatalog\CATDTEvaluators.CATNls
RTV/000/CUS .\win_b64\resources\msgcatalog\Korean\CATCkeErrors.CATNls|G:\CXR27\BSFNLS\LiteralFeatures\LiteralFeaturesRSC.m\src\resources\msgcatalog\Korean\CATCkeErrors.CATNls
RTV/000/CUS .\win_b64\resources\msgcatalog\CATLifMeasures.CATNls|.\LiteralFeatures\LiteralFeaturesRSC.m\src\resources\msgcatalog\CATLifMeasures.CATNls
RTV/000/DSI .\win_b64\resources\msgcatalog\DbcsTest\CATCkeDesignTable.CATNls|.\LiteralFeatures\LiteralFeaturesRSC.m\src\resources\msgcatalog\CATCkeDesignTable.CATNls
RTV/000/CUS .\win_b64\resources\msgcatalog\LiteralsNLS.CATNls|.\LiteralFeatures\LiteralFeaturesRSC.m\src\resources\msgcatalog\LiteralsNLS.CATNls
RTV/000/CUS .\win_b64\code\dictionary\LiteralFeatures.dic|.\LiteralFeatures\LiteralFeaturesRSC.m\src\code\dictionary\LiteralFeatures.dic
RTV/000/CUS .\win_b64\resources\msgcatalog\CATCkeImportServices.CATNls|.\LiteralFeatures\LiteralFeaturesRSC.m\src\resources\msgcatalog\CATCkeImportServices.CATNls
RTV/000/DSI .\win_b64\resources\msgcatalog\NlsTest\LiteralsNLS.CATNls|.\LiteralFeatures\LiteralFeaturesRSC.m\src\resources\msgcatalog\LiteralsNLS.CATNls
RTV/000/CUS .\win_b64\resources\msgcatalog\German\CATDTEvaluators.CATNls|G:\CXR27\BSFNLS\LiteralFeatures\LiteralFeaturesRSC.m\src\resources\msgcatalog\German\CATDTEvaluators.CATNls
RTV/000/CUS .\win_b64\resources\msgcatalog\French\CATCkeDictionary.CATNls|G:\CXR27\BSFNLS\LiteralFeatures\LiteralFeaturesRSC.m\src\resources\msgcatalog\French\CATCkeDictionary.CATNls
RTV/000/CUS .\win_b64\resources\msgcatalog\French\CATDTEvaluators.CATNls|G:\CXR27\BSFNLS\LiteralFeatures\LiteralFeaturesRSC.m\src\resources\msgcatalog\French\CATDTEvaluators.CATNls
RTV/000/CUS .\win_b64\resources\msgcatalog\Simplified_Chinese\CATLifMeasures.CATNls|G:\CXR27\BSFNLS\LiteralFeatures\LiteralFeaturesRSC.m\src\resources\msgcatalog\Simplified_Chinese\CATLifMeasures.CATNls
RTV/000/CUS .\win_b64\resources\msgcatalog\Japanese\CATDTEvaluators.CATNls|G:\CXR27\BSFNLS\LiteralFeatures\LiteralFeaturesRSC.m\src\resources\msgcatalog\Japanese\CATDTEvaluators.CATNls
RTV/000/CUS .\win_b64\resources\msgcatalog\French\LiteralsNLS.CATNls|G:\CXR27\BSFNLS\LiteralFeatures\LiteralFeaturesRSC.m\src\resources\msgcatalog\French\LiteralsNLS.CATNls
RTV/000/CUS .\win_b64\resources\msgcatalog\Russian\CATDTEvaluators.CATNls|G:\CXR27\BSFNLS\LiteralFeatures\LiteralFeaturesRSC.m\src\resources\msgcatalog\Russian\CATDTEvaluators.CATNls
RTV/000/CUS .\win_b64\resources\msgcatalog\Simplified_Chinese\CATCkeImportServices.CATNls|G:\CXR27\BSFNLS\LiteralFeatures\LiteralFeaturesRSC.m\src\resources\msgcatalog\Simplified_Chinese\CATCkeImportServices.CATNls
RTV/000/DSI .\win_b64\resources\msgcatalog\DbcsTest\CATDTEvaluators.CATNls|.\LiteralFeatures\LiteralFeaturesRSC.m\src\resources\msgcatalog\CATDTEvaluators.CATNls
RTV/000/CUS .\win_b64\resources\featurecatalog\CATCkeUnits|.\LiteralFeatures\LiteralFeaturesRSC.m\src\resources\featurecatalog\CATCkeUnits
RTV/000/CUS .\win_b64\resources\msgcatalog\Simplified_Chinese\CATMethodName.CATNls|G:\CXR27\BSFNLS\LiteralFeatures\LiteralFeaturesRSC.m\src\resources\msgcatalog\Simplified_Chinese\CATMethodName.CATNls
RTV/000/CUS .\win_b64\resources\msgcatalog\Simplified_Chinese\CATKweCheckError.CATNls|G:\CXR27\BSFNLS\LiteralFeatures\LiteralFeaturesRSC.m\src\resources\msgcatalog\Simplified_Chinese\CATKweCheckError.CATNls
RTV/000/CUS .\win_b64\resources\msgcatalog\Italian\CATCkeDictionary.CATNls|G:\CXR27\BSFNLS\LiteralFeatures\LiteralFeaturesRSC.m\src\resources\msgcatalog\Italian\CATCkeDictionary.CATNls
RTV/000/CUS .\win_b64\resources\msgcatalog\Japanese\CATMmParameterExt.CATNls|G:\CXR27\BSFNLS\LiteralFeatures\LiteralFeaturesRSC.m\src\resources\msgcatalog\Japanese\CATMmParameterExt.CATNls
RTV/000/DSI .\win_b64\resources\msgcatalog\DbcsTest\CATCkeUnits.CATNls|.\LiteralFeatures\LiteralFeaturesRSC.m\src\resources\msgcatalog\CATCkeUnits.CATNls
RTV/000/CUS .\win_b64\resources\msgcatalog\German\CATMmParameterExt.CATNls|G:\CXR27\BSFNLS\LiteralFeatures\LiteralFeaturesRSC.m\src\resources\msgcatalog\German\CATMmParameterExt.CATNls
RTV/000/DSI .\win_b64\resources\msgcatalog\DbcsTest\CATMmParameterExt.CATNls|.\LiteralFeatures\LiteralFeaturesRSC.m\src\resources\msgcatalog\CATMmParameterExt.CATNls
RTV/000/DSI .\win_b64\resources\msgcatalog\NlsTest\CATKweCheckError.CATNls|.\LiteralFeatures\LiteralFeaturesRSC.m\src\resources\msgcatalog\CATKweCheckError.CATNls
RTV/000/CUS .\win_b64\resources\msgcatalog\German\CATCkeErrors.CATNls|G:\CXR27\BSFNLS\LiteralFeatures\LiteralFeaturesRSC.m\src\resources\msgcatalog\German\CATCkeErrors.CATNls
RTV/000/CUS .\win_b64\resources\msgcatalog\Korean\CATLifErrors.CATNls|G:\CXR27\BSFNLS\LiteralFeatures\LiteralFeaturesRSC.m\src\resources\msgcatalog\Korean\CATLifErrors.CATNls
RTV/000/CUS .\win_b64\resources\msgcatalog\Korean\CATLifMeasures.CATNls|G:\CXR27\BSFNLS\LiteralFeatures\LiteralFeaturesRSC.m\src\resources\msgcatalog\Korean\CATLifMeasures.CATNls
RTV/000/CUS .\win_b64\resources\msgcatalog\Japanese\CATCkeErrors.CATNls|G:\CXR27\BSFNLS\LiteralFeatures\LiteralFeaturesRSC.m\src\resources\msgcatalog\Japanese\CATCkeErrors.CATNls
RTV/000/CUS .\win_b64\resources\msgcatalog\German\CATMmRelationsExt.CATNls|G:\CXR27\BSFNLS\LiteralFeatures\LiteralFeaturesRSC.m\src\resources\msgcatalog\German\CATMmRelationsExt.CATNls
RTV/000/DSI .\win_b64\resources\msgcatalog\NlsTest\CATDTEvaluators.CATNls|.\LiteralFeatures\LiteralFeaturesRSC.m\src\resources\msgcatalog\CATDTEvaluators.CATNls
RTV/000/DSI .\win_b64\resources\msgcatalog\NlsTest\CATCkeDictionary.CATNls|.\LiteralFeatures\LiteralFeaturesRSC.m\src\resources\msgcatalog\CATCkeDictionary.CATNls
RTV/000/CUS .\win_b64\resources\msgcatalog\CATKWEError.CATNls|.\LiteralFeatures\LiteralFeaturesRSC.m\src\resources\msgcatalog\CATKWEError.CATNls
RTV/000/CUS .\win_b64\resources\msgcatalog\Italian\CATLiteralTypes.CATNls|G:\CXR27\BSFNLS\LiteralFeatures\LiteralFeaturesRSC.m\src\resources\msgcatalog\Italian\CATLiteralTypes.CATNls
RTV/000/CUS .\win_b64\resources\msgcatalog\French\CATLifEvaluationErrors.CATNls|G:\CXR27\BSFNLS\LiteralFeatures\LiteralFeaturesRSC.m\src\resources\msgcatalog\French\CATLifEvaluationErrors.CATNls
RTV/000/CUS .\win_b64\resources\msgcatalog\Japanese\CATCkeImportServices.CATNls|G:\CXR27\BSFNLS\LiteralFeatures\LiteralFeaturesRSC.m\src\resources\msgcatalog\Japanese\CATCkeImportServices.CATNls
RTV/000/DSI .\win_b64\resources\msgcatalog\DbcsTest\CATCkeImportServices.CATNls|.\LiteralFeatures\LiteralFeaturesRSC.m\src\resources\msgcatalog\CATCkeImportServices.CATNls
RTV/000/CUS .\win_b64\resources\msgcatalog\CATLifErrors.CATNls|.\LiteralFeatures\LiteralFeaturesRSC.m\src\resources\msgcatalog\CATLifErrors.CATNls
RTV/000/CUS .\win_b64\resources\msgcatalog\Italian\CATCkeImportServices.CATNls|G:\CXR27\BSFNLS\LiteralFeatures\LiteralFeaturesRSC.m\src\resources\msgcatalog\Italian\CATCkeImportServices.CATNls
RTV/000/CUS .\win_b64\resources\msgcatalog\French\CATMmParameterExt.CATNls|G:\CXR27\BSFNLS\LiteralFeatures\LiteralFeaturesRSC.m\src\resources\msgcatalog\French\CATMmParameterExt.CATNls
RTV/000/CUS .\win_b64\resources\msgcatalog\Russian\CATCkeUnits.CATNls|G:\CXR27\BSFNLS\LiteralFeatures\LiteralFeaturesRSC.m\src\resources\msgcatalog\Russian\CATCkeUnits.CATNls
RTV/000/CUS .\win_b64\resources\msgcatalog\Korean\CATMmParameterExt.CATNls|G:\CXR27\BSFNLS\LiteralFeatures\LiteralFeaturesRSC.m\src\resources\msgcatalog\Korean\CATMmParameterExt.CATNls
RTV/000/CUS .\win_b64\resources\msgcatalog\French\CATCkeRelationFeat.CATNls|G:\CXR27\BSFNLS\LiteralFeatures\LiteralFeaturesRSC.m\src\resources\msgcatalog\French\CATCkeRelationFeat.CATNls
RTV/000/CUS .\win_b64\resources\msgcatalog\German\CATKweCheckError.CATNls|G:\CXR27\BSFNLS\LiteralFeatures\LiteralFeaturesRSC.m\src\resources\msgcatalog\German\CATKweCheckError.CATNls
RTV/000/DSI .\win_b64\resources\msgcatalog\DbcsTest\CATLifMeasures.CATNls|.\LiteralFeatures\LiteralFeaturesRSC.m\src\resources\msgcatalog\CATLifMeasures.CATNls
RTV/000/CUS .\win_b64\resources\msgcatalog\Korean\CATCkeImportServices.CATNls|G:\CXR27\BSFNLS\LiteralFeatures\LiteralFeaturesRSC.m\src\resources\msgcatalog\Korean\CATCkeImportServices.CATNls
RTV/000/CUS .\win_b64\resources\msgcatalog\German\CATLifErrors.CATNls|G:\CXR27\BSFNLS\LiteralFeatures\LiteralFeaturesRSC.m\src\resources\msgcatalog\German\CATLifErrors.CATNls
RTV/000/CUS .\win_b64\resources\msgcatalog\Italian\CATKweCheckError.CATNls|G:\CXR27\BSFNLS\LiteralFeatures\LiteralFeaturesRSC.m\src\resources\msgcatalog\Italian\CATKweCheckError.CATNls
RTV/000/CUS .\win_b64\code\dictionary\LiteralFeatures.iid|.\LiteralFeatures\LiteralFeaturesRSC.m\src\code\dictionary\LiteralFeatures.iid
RTV/000/CUS .\win_b64\resources\msgcatalog\CATMmParameterExt.CATNls|.\LiteralFeatures\LiteralFeaturesRSC.m\src\resources\msgcatalog\CATMmParameterExt.CATNls
RTV/000/CUS .\win_b64\resources\msgcatalog\Korean\CATKWEError.CATNls|G:\CXR27\BSFNLS\LiteralFeatures\LiteralFeaturesRSC.m\src\resources\msgcatalog\Korean\CATKWEError.CATNls
RTV/000/DSI .\win_b64\resources\msgcatalog\NlsTest\CATLifMeasures.CATNls|.\LiteralFeatures\LiteralFeaturesRSC.m\src\resources\msgcatalog\CATLifMeasures.CATNls
RTV/000/CUS .\win_b64\resources\msgcatalog\Russian\CATLifEvaluationErrors.CATNls|G:\CXR27\BSFNLS\LiteralFeatures\LiteralFeaturesRSC.m\src\resources\msgcatalog\Russian\CATLifEvaluationErrors.CATNls
RTV/000/CUS .\win_b64\resources\msgcatalog\Korean\CATDTEvaluators.CATNls|G:\CXR27\BSFNLS\LiteralFeatures\LiteralFeaturesRSC.m\src\resources\msgcatalog\Korean\CATDTEvaluators.CATNls
RTV/000/CUS .\win_b64\resources\msgcatalog\German\CATCkeRelationFeat.CATNls|G:\CXR27\BSFNLS\LiteralFeatures\LiteralFeaturesRSC.m\src\resources\msgcatalog\German\CATCkeRelationFeat.CATNls
RTV/000/CUS .\win_b64\resources\msgcatalog\Korean\CATLifEvaluationErrors.CATNls|G:\CXR27\BSFNLS\LiteralFeatures\LiteralFeaturesRSC.m\src\resources\msgcatalog\Korean\CATLifEvaluationErrors.CATNls
RTV/000/CUS .\win_b64\resources\msgcatalog\Simplified_Chinese\CATLiteralTypes.CATNls|G:\CXR27\BSFNLS\LiteralFeatures\LiteralFeaturesRSC.m\src\resources\msgcatalog\Simplified_Chinese\CATLiteralTypes.CATNls
RTV/000/CUS .\win_b64\resources\msgcatalog\German\CATCkeImportServices.CATNls|G:\CXR27\BSFNLS\LiteralFeatures\LiteralFeaturesRSC.m\src\resources\msgcatalog\German\CATCkeImportServices.CATNls
RTV/000/CUS .\win_b64\resources\msgcatalog\Korean\CATKweCheckError.CATNls|G:\CXR27\BSFNLS\LiteralFeatures\LiteralFeaturesRSC.m\src\resources\msgcatalog\Korean\CATKweCheckError.CATNls
RTV/000/CUS .\win_b64\resources\msgcatalog\CATKweCheckError.CATNls|.\LiteralFeatures\LiteralFeaturesRSC.m\src\resources\msgcatalog\CATKweCheckError.CATNls
RTV/000/CUS .\win_b64\resources\msgcatalog\Japanese\CATCkeRelationFeat.CATNls|G:\CXR27\BSFNLS\LiteralFeatures\LiteralFeaturesRSC.m\src\resources\msgcatalog\Japanese\CATCkeRelationFeat.CATNls
RTV/000/CUS .\win_b64\resources\msgcatalog\Italian\CATKWEError.CATNls|G:\CXR27\BSFNLS\LiteralFeatures\LiteralFeaturesRSC.m\src\resources\msgcatalog\Italian\CATKWEError.CATNls
RTV/000/CUS .\win_b64\resources\msgcatalog\CATPackageStandard.CATRsc|.\LiteralFeatures\LiteralFeaturesRSC.m\src\resources\msgcatalog\CATPackageStandard.CATRsc
RTV/000/CUS .\win_b64\resources\msgcatalog\Simplified_Chinese\CATDTEvaluators.CATNls|G:\CXR27\BSFNLS\LiteralFeatures\LiteralFeaturesRSC.m\src\resources\msgcatalog\Simplified_Chinese\CATDTEvaluators.CATNls
RTV/000/CUS .\win_b64\resources\msgcatalog\Japanese\CATMmRelationsExt.CATNls|G:\CXR27\BSFNLS\LiteralFeatures\LiteralFeaturesRSC.m\src\resources\msgcatalog\Japanese\CATMmRelationsExt.CATNls
RTV/000/CUS .\win_b64\resources\msgcatalog\Russian\CATMmParameterExt.CATNls|G:\CXR27\BSFNLS\LiteralFeatures\LiteralFeaturesRSC.m\src\resources\msgcatalog\Russian\CATMmParameterExt.CATNls
RTV/000/CUS .\win_b64\resources\msgcatalog\Simplified_Chinese\CATLifEvaluationErrors.CATNls|G:\CXR27\BSFNLS\LiteralFeatures\LiteralFeaturesRSC.m\src\resources\msgcatalog\Simplified_Chinese\CATLifEvaluationErrors.CATNls
RTV/000/CUS .\win_b64\resources\msgcatalog\French\CATCkeDesignTable.CATNls|G:\CXR27\BSFNLS\LiteralFeatures\LiteralFeaturesRSC.m\src\resources\msgcatalog\French\CATCkeDesignTable.CATNls
RTV/000/CUS .\win_b64\resources\msgcatalog\Japanese\CATMethodName.CATNls|G:\CXR27\BSFNLS\LiteralFeatures\LiteralFeaturesRSC.m\src\resources\msgcatalog\Japanese\CATMethodName.CATNls
RTV/000/DSI .\win_b64\resources\msgcatalog\NlsTest\CATCkeErrors.CATNls|.\LiteralFeatures\LiteralFeaturesRSC.m\src\resources\msgcatalog\CATCkeErrors.CATNls
RTV/000/CUS .\win_b64\resources\msgcatalog\Simplified_Chinese\CATMmRelationsExt.CATNls|G:\CXR27\BSFNLS\LiteralFeatures\LiteralFeaturesRSC.m\src\resources\msgcatalog\Simplified_Chinese\CATMmRelationsExt.CATNls
RTV/000/CUS .\win_b64\resources\msgcatalog\Korean\CATCkeDictionary.CATNls|G:\CXR27\BSFNLS\LiteralFeatures\LiteralFeaturesRSC.m\src\resources\msgcatalog\Korean\CATCkeDictionary.CATNls
RTV/000/DSI .\win_b64\resources\msgcatalog\NlsTest\CATCkeDesignTable.CATNls|.\LiteralFeatures\LiteralFeaturesRSC.m\src\resources\msgcatalog\CATCkeDesignTable.CATNls
RTV/000/CUS .\win_b64\resources\msgcatalog\French\CATMmRelationsExt.CATNls|G:\CXR27\BSFNLS\LiteralFeatures\LiteralFeaturesRSC.m\src\resources\msgcatalog\French\CATMmRelationsExt.CATNls
RTV/000/CUS .\win_b64\resources\msgcatalog\German\CATLifEvaluationErrors.CATNls|G:\CXR27\BSFNLS\LiteralFeatures\LiteralFeaturesRSC.m\src\resources\msgcatalog\German\CATLifEvaluationErrors.CATNls
RTV/000/CUS .\win_b64\resources\msgcatalog\Japanese\CATLifErrors.CATNls|G:\CXR27\BSFNLS\LiteralFeatures\LiteralFeaturesRSC.m\src\resources\msgcatalog\Japanese\CATLifErrors.CATNls
RTV/000/CUS .\win_b64\resources\msgcatalog\Russian\CATLifMeasures.CATNls|G:\CXR27\BSFNLS\LiteralFeatures\LiteralFeaturesRSC.m\src\resources\msgcatalog\Russian\CATLifMeasures.CATNls
RTV/000/DSI .\win_b64\resources\msgcatalog\NlsTest\CATLifErrors.CATNls|.\LiteralFeatures\LiteralFeaturesRSC.m\src\resources\msgcatalog\CATLifErrors.CATNls
RTV/000/CUS .\win_b64\resources\msgcatalog\Italian\CATCkeErrors.CATNls|G:\CXR27\BSFNLS\LiteralFeatures\LiteralFeaturesRSC.m\src\resources\msgcatalog\Italian\CATCkeErrors.CATNls
RTV/000/DSI .\win_b64\resources\msgcatalog\DbcsTest\CATLifErrors.CATNls|.\LiteralFeatures\LiteralFeaturesRSC.m\src\resources\msgcatalog\CATLifErrors.CATNls
RTV/000/DSI .\win_b64\resources\msgcatalog\NlsTest\CATMethodName.CATNls|.\LiteralFeatures\LiteralFeaturesRSC.m\src\resources\msgcatalog\CATMethodName.CATNls
RTV/000/CUS .\win_b64\resources\msgcatalog\French\CATCkeImportServices.CATNls|G:\CXR27\BSFNLS\LiteralFeatures\LiteralFeaturesRSC.m\src\resources\msgcatalog\French\CATCkeImportServices.CATNls
RTV/000/CUS .\win_b64\resources\msgcatalog\German\CATMethodName.CATNls|G:\CXR27\BSFNLS\LiteralFeatures\LiteralFeaturesRSC.m\src\resources\msgcatalog\German\CATMethodName.CATNls
RTV/000/CUS .\win_b64\resources\msgcatalog\CATCkeRelationFeat.CATNls|.\LiteralFeatures\LiteralFeaturesRSC.m\src\resources\msgcatalog\CATCkeRelationFeat.CATNls
RTV/000/CUS .\win_b64\resources\msgcatalog\Japanese\CATKweCheckError.CATNls|G:\CXR27\BSFNLS\LiteralFeatures\LiteralFeaturesRSC.m\src\resources\msgcatalog\Japanese\CATKweCheckError.CATNls
RTV/000/CUS .\win_b64\resources\msgcatalog\Simplified_Chinese\CATKWEError.CATNls|G:\CXR27\BSFNLS\LiteralFeatures\LiteralFeaturesRSC.m\src\resources\msgcatalog\Simplified_Chinese\CATKWEError.CATNls
RTV/000/CUS .\win_b64\resources\msgcatalog\Italian\CATMmParameterExt.CATNls|G:\CXR27\BSFNLS\LiteralFeatures\LiteralFeaturesRSC.m\src\resources\msgcatalog\Italian\CATMmParameterExt.CATNls
RTV/000/DSI .\win_b64\resources\msgcatalog\DbcsTest\CATMmRelationsExt.CATNls|.\LiteralFeatures\LiteralFeaturesRSC.m\src\resources\msgcatalog\CATMmRelationsExt.CATNls
RTV/000/CUS .\win_b64\resources\msgcatalog\Simplified_Chinese\CATCkeUnits.CATNls|G:\CXR27\BSFNLS\LiteralFeatures\LiteralFeaturesRSC.m\src\resources\msgcatalog\Simplified_Chinese\CATCkeUnits.CATNls
RTV/000/DSI .\win_b64\resources\msgcatalog\NlsTest\CATMmParameterExt.CATNls|.\LiteralFeatures\LiteralFeaturesRSC.m\src\resources\msgcatalog\CATMmParameterExt.CATNls
RTV/000/CUS .\win_b64\resources\msgcatalog\CATLifEvaluationErrors.CATNls|.\LiteralFeatures\LiteralFeaturesRSC.m\src\resources\msgcatalog\CATLifEvaluationErrors.CATNls
RTV/000/CUS .\win_b64\resources\msgcatalog\Simplified_Chinese\CATCkeDesignTable.CATNls|G:\CXR27\BSFNLS\LiteralFeatures\LiteralFeaturesRSC.m\src\resources\msgcatalog\Simplified_Chinese\CATCkeDesignTable.CATNls
RTV/000/CUS .\win_b64\resources\msgcatalog\CATCkeDictionary.CATNls|.\LiteralFeatures\LiteralFeaturesRSC.m\src\resources\msgcatalog\CATCkeDictionary.CATNls
RTV/000/CUS .\win_b64\resources\msgcatalog\Russian\CATLifErrors.CATNls|G:\CXR27\BSFNLS\LiteralFeatures\LiteralFeaturesRSC.m\src\resources\msgcatalog\Russian\CATLifErrors.CATNls
RTV/000/CUS .\win_b64\resources\msgcatalog\Italian\CATLifEvaluationErrors.CATNls|G:\CXR27\BSFNLS\LiteralFeatures\LiteralFeaturesRSC.m\src\resources\msgcatalog\Italian\CATLifEvaluationErrors.CATNls
RTV/000/CUS .\win_b64\resources\msgcatalog\French\CATLifMeasures.CATNls|G:\CXR27\BSFNLS\LiteralFeatures\LiteralFeaturesRSC.m\src\resources\msgcatalog\French\CATLifMeasures.CATNls
RTV/000/CUS .\win_b64\resources\msgcatalog\Korean\CATMethodName.CATNls|G:\CXR27\BSFNLS\LiteralFeatures\LiteralFeaturesRSC.m\src\resources\msgcatalog\Korean\CATMethodName.CATNls
RTV/000/CUS .\win_b64\code\dictionary\LiteralFeatures.func|.\LiteralFeatures\LiteralFeaturesRSC.m\src\code\dictionary\LiteralFeatures.func
RTV/000/CUS .\win_b64\resources\msgcatalog\Russian\CATKweCheckError.CATNls|G:\CXR27\BSFNLS\LiteralFeatures\LiteralFeaturesRSC.m\src\resources\msgcatalog\Russian\CATKweCheckError.CATNls
RTV/000/CUS .\win_b64\resources\msgcatalog\Simplified_Chinese\CATLifErrors.CATNls|G:\CXR27\BSFNLS\LiteralFeatures\LiteralFeaturesRSC.m\src\resources\msgcatalog\Simplified_Chinese\CATLifErrors.CATNls
RTV/000/DSI .\win_b64\resources\msgcatalog\NlsTest\CATCkeUnits.CATNls|.\LiteralFeatures\LiteralFeaturesRSC.m\src\resources\msgcatalog\CATCkeUnits.CATNls
RTV/000/CUS .\win_b64\resources\msgcatalog\German\CATCkeUnits.CATNls|G:\CXR27\BSFNLS\LiteralFeatures\LiteralFeaturesRSC.m\src\resources\msgcatalog\German\CATCkeUnits.CATNls
RTV/000/CUS .\win_b64\resources\msgcatalog\Japanese\CATLiteralTypes.CATNls|G:\CXR27\BSFNLS\LiteralFeatures\LiteralFeaturesRSC.m\src\resources\msgcatalog\Japanese\CATLiteralTypes.CATNls
RTV/000/CUS .\win_b64\resources\msgcatalog\CATCkeUnits.CATNls|.\LiteralFeatures\LiteralFeaturesRSC.m\src\resources\msgcatalog\CATCkeUnits.CATNls
RTV/000/CUS .\win_b64\resources\msgcatalog\Russian\CATLiteralTypes.CATNls|G:\CXR27\BSFNLS\LiteralFeatures\LiteralFeaturesRSC.m\src\resources\msgcatalog\Russian\CATLiteralTypes.CATNls
RTV/000/DSI .\win_b64\resources\msgcatalog\DbcsTest\CATCkeRelationFeat.CATNls|.\LiteralFeatures\LiteralFeaturesRSC.m\src\resources\msgcatalog\CATCkeRelationFeat.CATNls
RTV/000/DSI .\win_b64\resources\msgcatalog\DbcsTest\CATCkeErrors.CATNls|.\LiteralFeatures\LiteralFeaturesRSC.m\src\resources\msgcatalog\CATCkeErrors.CATNls
RTV/000/CUS .\win_b64\resources\msgcatalog\French\CATKWEError.CATNls|G:\CXR27\BSFNLS\LiteralFeatures\LiteralFeaturesRSC.m\src\resources\msgcatalog\French\CATKWEError.CATNls
RTV/000/CUS .\win_b64\resources\msgcatalog\Italian\CATCkeRelationFeat.CATNls|G:\CXR27\BSFNLS\LiteralFeatures\LiteralFeaturesRSC.m\src\resources\msgcatalog\Italian\CATCkeRelationFeat.CATNls
RTV/000/CUS .\win_b64\resources\msgcatalog\Italian\CATCkeDesignTable.CATNls|G:\CXR27\BSFNLS\LiteralFeatures\LiteralFeaturesRSC.m\src\resources\msgcatalog\Italian\CATCkeDesignTable.CATNls
RTV/000/DSI .\win_b64\resources\msgcatalog\DbcsTest\CATKweCheckError.CATNls|.\LiteralFeatures\LiteralFeaturesRSC.m\src\resources\msgcatalog\CATKweCheckError.CATNls
RTV/000/CUS .\win_b64\resources\msgcatalog\Japanese\LiteralsNLS.CATNls|G:\CXR27\BSFNLS\LiteralFeatures\LiteralFeaturesRSC.m\src\resources\msgcatalog\Japanese\LiteralsNLS.CATNls
RTV/000/CUS .\win_b64\resources\msgcatalog\CATLiteralTypes.CATNls|.\LiteralFeatures\LiteralFeaturesRSC.m\src\resources\msgcatalog\CATLiteralTypes.CATNls
RTV/000/CUS .\win_b64\resources\msgcatalog\Korean\CATMmRelationsExt.CATNls|G:\CXR27\BSFNLS\LiteralFeatures\LiteralFeaturesRSC.m\src\resources\msgcatalog\Korean\CATMmRelationsExt.CATNls
RTV/000/CUS .\win_b64\resources\msgcatalog\Simplified_Chinese\CATCkeErrors.CATNls|G:\CXR27\BSFNLS\LiteralFeatures\LiteralFeaturesRSC.m\src\resources\msgcatalog\Simplified_Chinese\CATCkeErrors.CATNls
RTV/000/CUS .\win_b64\resources\msgcatalog\Korean\CATLiteralTypes.CATNls|G:\CXR27\BSFNLS\LiteralFeatures\LiteralFeaturesRSC.m\src\resources\msgcatalog\Korean\CATLiteralTypes.CATNls
RTV/000/CUS .\win_b64\resources\msgcatalog\German\CATCkeDictionary.CATNls|G:\CXR27\BSFNLS\LiteralFeatures\LiteralFeaturesRSC.m\src\resources\msgcatalog\German\CATCkeDictionary.CATNls
RTV/000/CUS .\win_b64\resources\msgcatalog\Italian\CATLifErrors.CATNls|G:\CXR27\BSFNLS\LiteralFeatures\LiteralFeaturesRSC.m\src\resources\msgcatalog\Italian\CATLifErrors.CATNls
RTV/000/CUS .\win_b64\resources\msgcatalog\Korean\LiteralsNLS.CATNls|G:\CXR27\BSFNLS\LiteralFeatures\LiteralFeaturesRSC.m\src\resources\msgcatalog\Korean\LiteralsNLS.CATNls
RTV/000/CUS .\win_b64\resources\msgcatalog\French\CATMethodName.CATNls|G:\CXR27\BSFNLS\LiteralFeatures\LiteralFeaturesRSC.m\src\resources\msgcatalog\French\CATMethodName.CATNls
RTV/000/CUS .\win_b64\resources\msgcatalog\Russian\CATKWEError.CATNls|G:\CXR27\BSFNLS\LiteralFeatures\LiteralFeaturesRSC.m\src\resources\msgcatalog\Russian\CATKWEError.CATNls
RTV/000/DSI .\win_b64\resources\msgcatalog\NlsTest\CATCkeImportServices.CATNls|.\LiteralFeatures\LiteralFeaturesRSC.m\src\resources\msgcatalog\CATCkeImportServices.CATNls
RTV/000/CUS .\win_b64\resources\msgcatalog\Italian\CATMethodName.CATNls|G:\CXR27\BSFNLS\LiteralFeatures\LiteralFeaturesRSC.m\src\resources\msgcatalog\Italian\CATMethodName.CATNls
RTV/000/CUS .\win_b64\resources\msgcatalog\German\CATCkeDesignTable.CATNls|G:\CXR27\BSFNLS\LiteralFeatures\LiteralFeaturesRSC.m\src\resources\msgcatalog\German\CATCkeDesignTable.CATNls
RTV/000/DSI .\win_b64\resources\msgcatalog\DbcsTest\CATLifEvaluationErrors.CATNls|.\LiteralFeatures\LiteralFeaturesRSC.m\src\resources\msgcatalog\CATLifEvaluationErrors.CATNls
RTV/000/CUS .\win_b64\resources\msgcatalog\Simplified_Chinese\CATMmParameterExt.CATNls|G:\CXR27\BSFNLS\LiteralFeatures\LiteralFeaturesRSC.m\src\resources\msgcatalog\Simplified_Chinese\CATMmParameterExt.CATNls
RTV/000/CUS .\win_b64\resources\msgcatalog\Japanese\CATCkeUnits.CATNls|G:\CXR27\BSFNLS\LiteralFeatures\LiteralFeaturesRSC.m\src\resources\msgcatalog\Japanese\CATCkeUnits.CATNls
RTV/000/DSI .\win_b64\resources\msgcatalog\DbcsTest\CATCkeDictionary.CATNls|.\LiteralFeatures\LiteralFeaturesRSC.m\src\resources\msgcatalog\CATCkeDictionary.CATNls
RTV/000/CUS .\win_b64\resources\msgcatalog\Japanese\CATLifEvaluationErrors.CATNls|G:\CXR27\BSFNLS\LiteralFeatures\LiteralFeaturesRSC.m\src\resources\msgcatalog\Japanese\CATLifEvaluationErrors.CATNls
RTV/000/CUS .\win_b64\resources\msgcatalog\Russian\CATMethodName.CATNls|G:\CXR27\BSFNLS\LiteralFeatures\LiteralFeaturesRSC.m\src\resources\msgcatalog\Russian\CATMethodName.CATNls
RTV/000/DSI .\win_b64\resources\msgcatalog\DbcsTest\LiteralsNLS.CATNls|.\LiteralFeatures\LiteralFeaturesRSC.m\src\resources\msgcatalog\LiteralsNLS.CATNls
RTV/000/CUS .\win_b64\resources\featurecatalog\CATCkeMagnitudes|.\LiteralFeatures\LiteralFeaturesRSC.m\src\resources\featurecatalog\CATCkeMagnitudes
RTV/000/CUS .\win_b64\resources\msgcatalog\Russian\CATMmRelationsExt.CATNls|G:\CXR27\BSFNLS\LiteralFeatures\LiteralFeaturesRSC.m\src\resources\msgcatalog\Russian\CATMmRelationsExt.CATNls
RTV/000/CUS .\win_b64\resources\msgcatalog\German\LiteralsNLS.CATNls|G:\CXR27\BSFNLS\LiteralFeatures\LiteralFeaturesRSC.m\src\resources\msgcatalog\German\LiteralsNLS.CATNls
RTV/000/CUS .\win_b64\resources\msgcatalog\Italian\CATCkeUnits.CATNls|G:\CXR27\BSFNLS\LiteralFeatures\LiteralFeaturesRSC.m\src\resources\msgcatalog\Italian\CATCkeUnits.CATNls
RTV/000/CUS .\win_b64\resources\msgcatalog\Italian\CATLifMeasures.CATNls|G:\CXR27\BSFNLS\LiteralFeatures\LiteralFeaturesRSC.m\src\resources\msgcatalog\Italian\CATLifMeasures.CATNls
RTV/000/CUS .\win_b64\resources\msgcatalog\Russian\CATCkeErrors.CATNls|G:\CXR27\BSFNLS\LiteralFeatures\LiteralFeaturesRSC.m\src\resources\msgcatalog\Russian\CATCkeErrors.CATNls
RTV/000/CUS .\win_b64\resources\msgcatalog\CATMethodName.CATNls|.\LiteralFeatures\LiteralFeaturesRSC.m\src\resources\msgcatalog\CATMethodName.CATNls
RTV/000/CUS .\win_b64\resources\msgcatalog\Japanese\CATCkeDictionary.CATNls|G:\CXR27\BSFNLS\LiteralFeatures\LiteralFeaturesRSC.m\src\resources\msgcatalog\Japanese\CATCkeDictionary.CATNls
RTV/000/DSI .\win_b64\resources\msgcatalog\DbcsTest\CATLiteralTypes.CATNls|.\LiteralFeatures\LiteralFeaturesRSC.m\src\resources\msgcatalog\CATLiteralTypes.CATNls
RTV/000/CUS .\win_b64\resources\msgcatalog\Korean\CATCkeRelationFeat.CATNls|G:\CXR27\BSFNLS\LiteralFeatures\LiteralFeaturesRSC.m\src\resources\msgcatalog\Korean\CATCkeRelationFeat.CATNls
RTV/000/CUS .\win_b64\resources\msgcatalog\Simplified_Chinese\LiteralsNLS.CATNls|G:\CXR27\BSFNLS\LiteralFeatures\LiteralFeaturesRSC.m\src\resources\msgcatalog\Simplified_Chinese\LiteralsNLS.CATNls
RTV/000/CUS .\win_b64\resources\msgcatalog\Italian\LiteralsNLS.CATNls|G:\CXR27\BSFNLS\LiteralFeatures\LiteralFeaturesRSC.m\src\resources\msgcatalog\Italian\LiteralsNLS.CATNls
RTV/000/CUS .\win_b64\resources\msgcatalog\French\CATCkeErrors.CATNls|G:\CXR27\BSFNLS\LiteralFeatures\LiteralFeaturesRSC.m\src\resources\msgcatalog\French\CATCkeErrors.CATNls
RTV/000/CUS .\win_b64\resources\msgcatalog\Russian\CATCkeRelationFeat.CATNls|G:\CXR27\BSFNLS\LiteralFeatures\LiteralFeaturesRSC.m\src\resources\msgcatalog\Russian\CATCkeRelationFeat.CATNls
RTV/000/CUS .\win_b64\resources\msgcatalog\Korean\CATCkeDesignTable.CATNls|G:\CXR27\BSFNLS\LiteralFeatures\LiteralFeaturesRSC.m\src\resources\msgcatalog\Korean\CATCkeDesignTable.CATNls
@type='RUNTIME_DATA'
@clr='false'
@kind='DATA'
@deliverable='true'
@built='true'
