!<mkRTViewData> v1.0.0
INT/000/CUS .\win_b64\code\bin\CATCurveBasedInfrastructure.pdb|.\CurveBasedInfrastructure\CATCurveBasedInfrastructure.m
INT/000/CUS .\win_b64\code\lib\CATCurveBasedInfrastructure.exp|.\CurveBasedInfrastructure\CATCurveBasedInfrastructure.m
BTV/000/CUS .\win_b64\code\lib\CATCurveBasedInfrastructure.lib|.\CurveBasedInfrastructure\CATCurveBasedInfrastructure.m
RTV/001/CUS .\win_b64\code\bin\CATCurveBasedInfrastructure.dll|.\CurveBasedInfrastructure\CATCurveBasedInfrastructure.m
CSC/000/DSI .\CurveBasedInfrastructure\CATCurveBasedInfrastructure.m\Objects\win_b64\mkcsc\CATCurveBasedInfrastructure.cscdb|.\CurveBasedInfrastructure\CATCurveBasedInfrastructure.m
@type='SHARED_LIBRARY'
@clr='false'
@kind='NATIVE'
@deliverable='true'
@built='true'
