!<mkRTViewData> v1.0.0
CSC/000/DSI .\CATPDMBaseInterfaces\CATPDMBaseItfCPP.m\Objects\win_b64\mkcsc\CATPDMBaseItfCPP.cscdb|.\CATPDMBaseInterfaces\CATPDMBaseItfCPP.m
@type='NONE'
@clr='false'
@kind='INCLUDED'
@deliverable='true'
@built='true'
