!<mkRTViewData> v1.0.0
RTV/001/CUS .\win_b64\code\bin\epfilter2PS.dll|.\DELE5Interfaces\epfilter2PS.m
BTV/000/CUS .\win_b64\code\lib\epfilter2PS.lib|.\DELE5Interfaces\epfilter2PS.m
CSC/000/DSI .\DELE5Interfaces\epfilter2PS.m\Objects\win_b64\mkcsc\epfilter2PS.cscdb|.\DELE5Interfaces\epfilter2PS.m
INT/000/CUS .\win_b64\code\bin\epfilter2PS.pdb|.\DELE5Interfaces\epfilter2PS.m
INT/000/CUS .\win_b64\code\lib\epfilter2PS.exp|.\DELE5Interfaces\epfilter2PS.m
@type='SHARED_LIBRARY'
@clr='false'
@kind='NATIVE'
@deliverable='true'
@built='true'
