!<mkRTViewData> v1.0.0
CSC/000/DSI .\OSMInterfaces\OSMInterfacesItfCPP.m\Objects\win_b64\mkcsc\OSMInterfacesItfCPP.cscdb|.\OSMInterfaces\OSMInterfacesItfCPP.m
@type='NONE'
@clr='false'
@kind='INCLUDED'
@deliverable='true'
@built='true'
