!<mkRTViewData> v1.0.0
CSC/000/DSI .\DNBDpmExecutionServices\DNBTimeSolver.m\Objects\win_b64\mkcsc\DNBTimeSolver.cscdb|.\DNBDpmExecutionServices\DNBTimeSolver.m
@type='NONE'
@clr='false'
@kind='INCLUDED'
@deliverable='true'
@built='true'
