!<mkRTViewData> v1.0.0
CSC/000/DSI .\KnowledgeInterfaces\KnowledgeProIDL.m\Objects\win_b64\mkcsc\KnowledgeProIDL.cscdb|.\KnowledgeInterfaces\KnowledgeProIDL.m
@type='NONE'
@clr='false'
@kind='INCLUDED'
@deliverable='true'
@built='true'
