!<mkRTViewData> v1.0.0
CSC/000/DSI .\DNBDeviceModel\DNBDOFTargetMD.m\Objects\win_b64\mkcsc\DNBDOFTargetMD.cscdb|.\DNBDeviceModel\DNBDOFTargetMD.m
@type='NONE'
@clr='false'
@kind='INCLUDED'
@deliverable='true'
@built='true'
