!<mkRTViewData> v1.0.0
RTV/000/CUS .\win_b64\code\clr\DSYClrClassLoader.dll|.\V5JSystem\DSYClrClassLoader.m
INT/000/CUS .\win_b64\code\clr\DSYClrClassLoader.pdb|.\V5JSystem\DSYClrClassLoader.m
@type='CSHARP_DLL'
@clr='true'
@kind='NATIVE'
@deliverable='true'
@built='true'
