!<mkRTViewData> v1.0.0
CSC/000/DSI .\CATMoldDesignUI\CATMldCountersunkScrewUI.m\Objects\win_b64\mkcsc\CATMldCountersunkScrewUI.cscdb|.\CATMoldDesignUI\CATMldCountersunkScrewUI.m
@type='NONE'
@clr='false'
@kind='INCLUDED'
@deliverable='true'
@built='true'
