!<mkRTViewData> v1.0.0
BTV/000/CUS .\win_b64\code\lib\CATPspDictClassImpl.lib|.\CATPlantShipModeler\CATPspDictClassImpl.m
INT/000/CUS .\win_b64\code\bin\CATPspDictClassImpl.pdb|.\CATPlantShipModeler\CATPspDictClassImpl.m
RTV/001/CUS .\win_b64\code\bin\CATPspDictClassImpl.dll|.\CATPlantShipModeler\CATPspDictClassImpl.m
INT/000/CUS .\win_b64\code\lib\CATPspDictClassImpl.exp|.\CATPlantShipModeler\CATPspDictClassImpl.m
CSC/000/DSI .\CATPlantShipModeler\CATPspDictClassImpl.m\Objects\win_b64\mkcsc\CATPspDictClassImpl.cscdb|.\CATPlantShipModeler\CATPspDictClassImpl.m
@type='SHARED_LIBRARY'
@clr='false'
@kind='NATIVE'
@deliverable='true'
@built='true'
