!<mkRTViewData> v1.0.0
CSC/000/DSI .\ProductStructureUI\PRDSettings.m\Objects\win_b64\mkcsc\PRDSettings.cscdb|.\ProductStructureUI\PRDSettings.m
@type='NONE'
@clr='false'
@kind='INCLUDED'
@deliverable='true'
@built='true'
