!<mkRTViewData> v1.0.0
CSC/000/DSI .\CATV4DataAdmin\CATAIXServices.m\Objects\win_b64\mkcsc\CATAIXServices.cscdb|.\CATV4DataAdmin\CATAIXServices.m
@type='NONE'
@clr='false'
@kind='INCLUDED'
@deliverable='true'
@built='true'
