!<mkRTViewData> v1.0.0
RTV/000/DSI .\win_b64\resources\msgcatalog\NlsTest\CATMf3DAxisSystemAppliCleanerError.CATNls|.\CATSurfacicResources\CATSurfacicResourcesRscCNext.m\src\CNext\resources\msgcatalog\CATMf3DAxisSystemAppliCleanerError.CATNls
RTV/000/CUS .\win_b64\resources\msgcatalog\Japanese\AxisSystemNLS.CATNls|G:\CXR27\BSFNLS\CATSurfacicResources\CATSurfacicResourcesRscCNext.m\src\CNext\resources\msgcatalog\Japanese\AxisSystemNLS.CATNls
RTV/000/DSI .\win_b64\resources\msgcatalog\DbcsTest\CATMf3DAxisSystemAppliCleanerError.CATNls|.\CATSurfacicResources\CATSurfacicResourcesRscCNext.m\src\CNext\resources\msgcatalog\CATMf3DAxisSystemAppliCleanerError.CATNls
RTV/000/CUS .\win_b64\resources\msgcatalog\French\CATExtremeScaleMessages.CATNls|G:\CXR27\BSFNLS\CATSurfacicResources\CATSurfacicResourcesRscCNext.m\src\CNext\resources\msgcatalog\French\CATExtremeScaleMessages.CATNls
RTV/000/CUS .\win_b64\resources\msgcatalog\AxisSystemNLS.CATNls|.\CATSurfacicResources\CATSurfacicResourcesRscCNext.m\src\CNext\resources\msgcatalog\AxisSystemNLS.CATNls
RTV/000/CUS .\win_b64\resources\msgcatalog\German\CATExtremeScaleMessages.CATNls|G:\CXR27\BSFNLS\CATSurfacicResources\CATSurfacicResourcesRscCNext.m\src\CNext\resources\msgcatalog\German\CATExtremeScaleMessages.CATNls
RTV/000/CUS .\win_b64\resources\msgcatalog\Japanese\CATGmoInternalError.CATNls|G:\CXR27\BSFNLS\CATSurfacicResources\CATSurfacicResourcesRscCNext.m\src\CNext\resources\msgcatalog\Japanese\CATGmoInternalError.CATNls
RTV/000/DSI .\win_b64\resources\msgcatalog\DbcsTest\AxisSystemNLS.CATNls|.\CATSurfacicResources\CATSurfacicResourcesRscCNext.m\src\CNext\resources\msgcatalog\AxisSystemNLS.CATNls
RTV/000/CUS .\win_b64\resources\msgcatalog\German\CATStRelimitWiresOperator.CATNls|G:\CXR27\BSFNLS\CATSurfacicResources\CATSurfacicResourcesRscCNext.m\src\CNext\resources\msgcatalog\German\CATStRelimitWiresOperator.CATNls
RTV/000/CUS .\win_b64\resources\msgcatalog\CATMf3DAxisSystemAppliCleanerError.CATNls|.\CATSurfacicResources\CATSurfacicResourcesRscCNext.m\src\CNext\resources\msgcatalog\CATMf3DAxisSystemAppliCleanerError.CATNls
RTV/000/DSI .\win_b64\resources\msgcatalog\NlsTest\AxisSystemNLS.CATNls|.\CATSurfacicResources\CATSurfacicResourcesRscCNext.m\src\CNext\resources\msgcatalog\AxisSystemNLS.CATNls
RTV/000/CUS .\win_b64\resources\msgcatalog\Simplified_Chinese\CATStRelimitWiresOperator.CATNls|G:\CXR27\BSFNLS\CATSurfacicResources\CATSurfacicResourcesRscCNext.m\src\CNext\resources\msgcatalog\Simplified_Chinese\CATStRelimitWiresOperator.CATNls
RTV/000/CUS .\win_b64\resources\msgcatalog\Russian\CATMf3DAxisSystemAppliCleanerError.CATNls|G:\CXR27\BSFNLS\CATSurfacicResources\CATSurfacicResourcesRscCNext.m\src\CNext\resources\msgcatalog\Russian\CATMf3DAxisSystemAppliCleanerError.CATNls
RTV/000/CUS .\win_b64\resources\msgcatalog\TesselateNLS.CATNls|.\CATSurfacicResources\CATSurfacicResourcesRscCNext.m\src\CNext\resources\msgcatalog\TesselateNLS.CATNls
RTV/000/CUS .\win_b64\resources\msgcatalog\Simplified_Chinese\CATMf3DAxisSystemAppliCleanerError.CATNls|G:\CXR27\BSFNLS\CATSurfacicResources\CATSurfacicResourcesRscCNext.m\src\CNext\resources\msgcatalog\Simplified_Chinese\CATMf3DAxisSystemAppliCleanerError.CATNls
RTV/000/CUS .\win_b64\resources\msgcatalog\Simplified_Chinese\TesselateNLS.CATNls|G:\CXR27\BSFNLS\CATSurfacicResources\CATSurfacicResourcesRscCNext.m\src\CNext\resources\msgcatalog\Simplified_Chinese\TesselateNLS.CATNls
RTV/000/CUS .\win_b64\resources\msgcatalog\German\CATSurfResDisplayName.CATNls|G:\CXR27\BSFNLS\CATSurfacicResources\CATSurfacicResourcesRscCNext.m\src\CNext\resources\msgcatalog\German\CATSurfResDisplayName.CATNls
RTV/000/CUS .\win_b64\resources\msgcatalog\Russian\CATStRelimitWiresOperator.CATNls|G:\CXR27\BSFNLS\CATSurfacicResources\CATSurfacicResourcesRscCNext.m\src\CNext\resources\msgcatalog\Russian\CATStRelimitWiresOperator.CATNls
RTV/000/DSI .\win_b64\resources\msgcatalog\DbcsTest\CATSurfResDisplayName.CATNls|.\CATSurfacicResources\CATSurfacicResourcesRscCNext.m\src\CNext\resources\msgcatalog\CATSurfResDisplayName.CATNls
RTV/000/CUS .\win_b64\resources\msgcatalog\Italian\AxisSystemNLS.CATNls|G:\CXR27\BSFNLS\CATSurfacicResources\CATSurfacicResourcesRscCNext.m\src\CNext\resources\msgcatalog\Italian\AxisSystemNLS.CATNls
RTV/000/DSI .\win_b64\resources\msgcatalog\DbcsTest\CATGmoInputError.CATNls|.\CATSurfacicResources\CATSurfacicResourcesRscCNext.m\src\CNext\resources\msgcatalog\CATGmoInputError.CATNls
RTV/000/DSI .\win_b64\resources\msgcatalog\NlsTest\CATExtremeScaleMessages.CATNls|.\CATSurfacicResources\CATSurfacicResourcesRscCNext.m\src\CNext\resources\msgcatalog\CATExtremeScaleMessages.CATNls
RTV/000/CUS .\win_b64\resources\msgcatalog\Japanese\CATMf3DAxisSystemAppliCleanerError.CATNls|G:\CXR27\BSFNLS\CATSurfacicResources\CATSurfacicResourcesRscCNext.m\src\CNext\resources\msgcatalog\Japanese\CATMf3DAxisSystemAppliCleanerError.CATNls
RTV/000/CUS .\win_b64\resources\msgcatalog\German\CATMf3DAxisSystemAppliCleanerError.CATNls|G:\CXR27\BSFNLS\CATSurfacicResources\CATSurfacicResourcesRscCNext.m\src\CNext\resources\msgcatalog\German\CATMf3DAxisSystemAppliCleanerError.CATNls
RTV/000/CUS .\win_b64\resources\msgcatalog\Italian\CATGmoInternalError.CATNls|G:\CXR27\BSFNLS\CATSurfacicResources\CATSurfacicResourcesRscCNext.m\src\CNext\resources\msgcatalog\Italian\CATGmoInternalError.CATNls
RTV/000/CUS .\win_b64\resources\msgcatalog\Korean\CATSurfResDisplayName.CATNls|G:\CXR27\BSFNLS\CATSurfacicResources\CATSurfacicResourcesRscCNext.m\src\CNext\resources\msgcatalog\Korean\CATSurfResDisplayName.CATNls
RTV/000/CUS .\win_b64\resources\msgcatalog\Italian\CATGmoInputError.CATNls|G:\CXR27\BSFNLS\CATSurfacicResources\CATSurfacicResourcesRscCNext.m\src\CNext\resources\msgcatalog\Italian\CATGmoInputError.CATNls
RTV/000/DSI .\win_b64\resources\msgcatalog\NlsTest\CATGmoInputError.CATNls|.\CATSurfacicResources\CATSurfacicResourcesRscCNext.m\src\CNext\resources\msgcatalog\CATGmoInputError.CATNls
RTV/000/CUS .\win_b64\resources\msgcatalog\Japanese\CATMf3DAxisSystemChkRuleAsUnstable.CATNls|G:\CXR27\BSFNLS\CATSurfacicResources\CATSurfacicResourcesRscCNext.m\src\CNext\resources\msgcatalog\Japanese\CATMf3DAxisSystemChkRuleAsUnstable.CATNls
RTV/000/CUS .\win_b64\resources\msgcatalog\Japanese\CATExtremeScaleMessages.CATNls|G:\CXR27\BSFNLS\CATSurfacicResources\CATSurfacicResourcesRscCNext.m\src\CNext\resources\msgcatalog\Japanese\CATExtremeScaleMessages.CATNls
RTV/000/CUS .\win_b64\resources\msgcatalog\CATGmoInputError.CATNls|.\CATSurfacicResources\CATSurfacicResourcesRscCNext.m\src\CNext\resources\msgcatalog\CATGmoInputError.CATNls
RTV/000/CUS .\win_b64\resources\msgcatalog\Italian\CATSurfResDisplayName.CATNls|G:\CXR27\BSFNLS\CATSurfacicResources\CATSurfacicResourcesRscCNext.m\src\CNext\resources\msgcatalog\Italian\CATSurfResDisplayName.CATNls
RTV/000/DSI .\win_b64\resources\msgcatalog\DbcsTest\CATExtremeScaleMessages.CATNls|.\CATSurfacicResources\CATSurfacicResourcesRscCNext.m\src\CNext\resources\msgcatalog\CATExtremeScaleMessages.CATNls
RTV/000/CUS .\win_b64\resources\msgcatalog\French\TesselateNLS.CATNls|G:\CXR27\BSFNLS\CATSurfacicResources\CATSurfacicResourcesRscCNext.m\src\CNext\resources\msgcatalog\French\TesselateNLS.CATNls
RTV/000/CUS .\win_b64\resources\msgcatalog\Korean\CATGmoInputError.CATNls|G:\CXR27\BSFNLS\CATSurfacicResources\CATSurfacicResourcesRscCNext.m\src\CNext\resources\msgcatalog\Korean\CATGmoInputError.CATNls
RTV/000/CUS .\win_b64\resources\msgcatalog\Japanese\CATGmoInputError.CATNls|G:\CXR27\BSFNLS\CATSurfacicResources\CATSurfacicResourcesRscCNext.m\src\CNext\resources\msgcatalog\Japanese\CATGmoInputError.CATNls
RTV/000/CUS .\win_b64\resources\msgcatalog\Simplified_Chinese\CATSurfResDisplayName.CATNls|G:\CXR27\BSFNLS\CATSurfacicResources\CATSurfacicResourcesRscCNext.m\src\CNext\resources\msgcatalog\Simplified_Chinese\CATSurfResDisplayName.CATNls
RTV/000/CUS .\win_b64\resources\msgcatalog\French\AxisSystemNLS.CATNls|G:\CXR27\BSFNLS\CATSurfacicResources\CATSurfacicResourcesRscCNext.m\src\CNext\resources\msgcatalog\French\AxisSystemNLS.CATNls
RTV/000/CUS .\win_b64\resources\msgcatalog\French\CATGmoInputError.CATNls|G:\CXR27\BSFNLS\CATSurfacicResources\CATSurfacicResourcesRscCNext.m\src\CNext\resources\msgcatalog\French\CATGmoInputError.CATNls
RTV/000/DSI .\win_b64\resources\msgcatalog\NlsTest\CATSurfResDisplayName.CATNls|.\CATSurfacicResources\CATSurfacicResourcesRscCNext.m\src\CNext\resources\msgcatalog\CATSurfResDisplayName.CATNls
RTV/000/CUS .\win_b64\resources\msgcatalog\Italian\TesselateNLS.CATNls|G:\CXR27\BSFNLS\CATSurfacicResources\CATSurfacicResourcesRscCNext.m\src\CNext\resources\msgcatalog\Italian\TesselateNLS.CATNls
RTV/000/CUS .\win_b64\resources\msgcatalog\Russian\CATSurfResDisplayName.CATNls|G:\CXR27\BSFNLS\CATSurfacicResources\CATSurfacicResourcesRscCNext.m\src\CNext\resources\msgcatalog\Russian\CATSurfResDisplayName.CATNls
RTV/000/CUS .\win_b64\resources\msgcatalog\Russian\TesselateNLS.CATNls|G:\CXR27\BSFNLS\CATSurfacicResources\CATSurfacicResourcesRscCNext.m\src\CNext\resources\msgcatalog\Russian\TesselateNLS.CATNls
RTV/000/DSI .\win_b64\resources\msgcatalog\NlsTest\TesselateNLS.CATNls|.\CATSurfacicResources\CATSurfacicResourcesRscCNext.m\src\CNext\resources\msgcatalog\TesselateNLS.CATNls
RTV/000/CUS .\win_b64\resources\msgcatalog\Italian\CATExtremeScaleMessages.CATNls|G:\CXR27\BSFNLS\CATSurfacicResources\CATSurfacicResourcesRscCNext.m\src\CNext\resources\msgcatalog\Italian\CATExtremeScaleMessages.CATNls
RTV/000/CUS .\win_b64\resources\msgcatalog\German\CATGmoInputError.CATNls|G:\CXR27\BSFNLS\CATSurfacicResources\CATSurfacicResourcesRscCNext.m\src\CNext\resources\msgcatalog\German\CATGmoInputError.CATNls
RTV/000/CUS .\win_b64\resources\msgcatalog\Russian\CATExtremeScaleMessages.CATNls|G:\CXR27\BSFNLS\CATSurfacicResources\CATSurfacicResourcesRscCNext.m\src\CNext\resources\msgcatalog\Russian\CATExtremeScaleMessages.CATNls
RTV/000/CUS .\win_b64\resources\msgcatalog\German\TesselateNLS.CATNls|G:\CXR27\BSFNLS\CATSurfacicResources\CATSurfacicResourcesRscCNext.m\src\CNext\resources\msgcatalog\German\TesselateNLS.CATNls
RTV/000/CUS .\win_b64\resources\msgcatalog\French\CATMf3DAxisSystemAppliCleanerError.CATNls|G:\CXR27\BSFNLS\CATSurfacicResources\CATSurfacicResourcesRscCNext.m\src\CNext\resources\msgcatalog\French\CATMf3DAxisSystemAppliCleanerError.CATNls
RTV/000/CUS .\win_b64\resources\msgcatalog\CATMf3DAxisSystemChkRuleAsUnstable.CATNls|.\CATSurfacicResources\CATSurfacicResourcesRscCNext.m\src\CNext\resources\msgcatalog\CATMf3DAxisSystemChkRuleAsUnstable.CATNls
RTV/000/CUS .\win_b64\resources\msgcatalog\Korean\CATExtremeScaleMessages.CATNls|G:\CXR27\BSFNLS\CATSurfacicResources\CATSurfacicResourcesRscCNext.m\src\CNext\resources\msgcatalog\Korean\CATExtremeScaleMessages.CATNls
RTV/000/CUS .\win_b64\resources\msgcatalog\Korean\CATMf3DAxisSystemAppliCleanerError.CATNls|G:\CXR27\BSFNLS\CATSurfacicResources\CATSurfacicResourcesRscCNext.m\src\CNext\resources\msgcatalog\Korean\CATMf3DAxisSystemAppliCleanerError.CATNls
RTV/000/CUS .\win_b64\resources\msgcatalog\CATExtremeScaleMessages.CATNls|.\CATSurfacicResources\CATSurfacicResourcesRscCNext.m\src\CNext\resources\msgcatalog\CATExtremeScaleMessages.CATNls
RTV/000/DSI .\win_b64\resources\msgcatalog\NlsTest\CATMf3DAxisSystemChkRuleAsUnstable.CATNls|.\CATSurfacicResources\CATSurfacicResourcesRscCNext.m\src\CNext\resources\msgcatalog\CATMf3DAxisSystemChkRuleAsUnstable.CATNls
RTV/000/CUS .\win_b64\resources\msgcatalog\Russian\CATGmoInputError.CATNls|G:\CXR27\BSFNLS\CATSurfacicResources\CATSurfacicResourcesRscCNext.m\src\CNext\resources\msgcatalog\Russian\CATGmoInputError.CATNls
RTV/000/CUS .\win_b64\resources\msgcatalog\Korean\CATStRelimitWiresOperator.CATNls|G:\CXR27\BSFNLS\CATSurfacicResources\CATSurfacicResourcesRscCNext.m\src\CNext\resources\msgcatalog\Korean\CATStRelimitWiresOperator.CATNls
RTV/000/CUS .\win_b64\resources\msgcatalog\CATStRelimitWiresOperator.CATNls|.\CATSurfacicResources\CATSurfacicResourcesRscCNext.m\src\CNext\resources\msgcatalog\CATStRelimitWiresOperator.CATNls
RTV/000/CUS .\win_b64\resources\msgcatalog\French\CATGmoInternalError.CATNls|G:\CXR27\BSFNLS\CATSurfacicResources\CATSurfacicResourcesRscCNext.m\src\CNext\resources\msgcatalog\French\CATGmoInternalError.CATNls
RTV/000/CUS .\win_b64\resources\msgcatalog\Japanese\CATSurfResDisplayName.CATNls|G:\CXR27\BSFNLS\CATSurfacicResources\CATSurfacicResourcesRscCNext.m\src\CNext\resources\msgcatalog\Japanese\CATSurfResDisplayName.CATNls
RTV/000/CUS .\win_b64\resources\msgcatalog\Korean\AxisSystemNLS.CATNls|G:\CXR27\BSFNLS\CATSurfacicResources\CATSurfacicResourcesRscCNext.m\src\CNext\resources\msgcatalog\Korean\AxisSystemNLS.CATNls
RTV/000/DSI .\win_b64\resources\msgcatalog\DbcsTest\CATGmoInternalError.CATNls|.\CATSurfacicResources\CATSurfacicResourcesRscCNext.m\src\CNext\resources\msgcatalog\CATGmoInternalError.CATNls
RTV/000/CUS .\win_b64\resources\msgcatalog\German\CATGmoInternalError.CATNls|G:\CXR27\BSFNLS\CATSurfacicResources\CATSurfacicResourcesRscCNext.m\src\CNext\resources\msgcatalog\German\CATGmoInternalError.CATNls
RTV/000/CUS .\win_b64\resources\msgcatalog\Korean\TesselateNLS.CATNls|G:\CXR27\BSFNLS\CATSurfacicResources\CATSurfacicResourcesRscCNext.m\src\CNext\resources\msgcatalog\Korean\TesselateNLS.CATNls
RTV/000/CUS .\win_b64\resources\msgcatalog\Simplified_Chinese\CATExtremeScaleMessages.CATNls|G:\CXR27\BSFNLS\CATSurfacicResources\CATSurfacicResourcesRscCNext.m\src\CNext\resources\msgcatalog\Simplified_Chinese\CATExtremeScaleMessages.CATNls
RTV/000/CUS .\win_b64\resources\msgcatalog\Simplified_Chinese\CATGmoInputError.CATNls|G:\CXR27\BSFNLS\CATSurfacicResources\CATSurfacicResourcesRscCNext.m\src\CNext\resources\msgcatalog\Simplified_Chinese\CATGmoInputError.CATNls
RTV/000/CUS .\win_b64\resources\msgcatalog\Russian\CATGmoInternalError.CATNls|G:\CXR27\BSFNLS\CATSurfacicResources\CATSurfacicResourcesRscCNext.m\src\CNext\resources\msgcatalog\Russian\CATGmoInternalError.CATNls
RTV/000/CUS .\win_b64\resources\msgcatalog\Italian\CATMf3DAxisSystemAppliCleanerError.CATNls|G:\CXR27\BSFNLS\CATSurfacicResources\CATSurfacicResourcesRscCNext.m\src\CNext\resources\msgcatalog\Italian\CATMf3DAxisSystemAppliCleanerError.CATNls
RTV/000/CUS .\win_b64\resources\msgcatalog\Japanese\CATStRelimitWiresOperator.CATNls|G:\CXR27\BSFNLS\CATSurfacicResources\CATSurfacicResourcesRscCNext.m\src\CNext\resources\msgcatalog\Japanese\CATStRelimitWiresOperator.CATNls
RTV/000/DSI .\win_b64\resources\msgcatalog\DbcsTest\TesselateNLS.CATNls|.\CATSurfacicResources\CATSurfacicResourcesRscCNext.m\src\CNext\resources\msgcatalog\TesselateNLS.CATNls
RTV/000/CUS .\win_b64\resources\msgcatalog\Simplified_Chinese\CATMf3DAxisSystemChkRuleAsUnstable.CATNls|G:\CXR27\BSFNLS\CATSurfacicResources\CATSurfacicResourcesRscCNext.m\src\CNext\resources\msgcatalog\Simplified_Chinese\CATMf3DAxisSystemChkRuleAsUnstable.CATNls
RTV/000/CUS .\win_b64\resources\msgcatalog\French\CATStRelimitWiresOperator.CATNls|G:\CXR27\BSFNLS\CATSurfacicResources\CATSurfacicResourcesRscCNext.m\src\CNext\resources\msgcatalog\French\CATStRelimitWiresOperator.CATNls
RTV/000/CUS .\win_b64\resources\msgcatalog\Korean\CATGmoInternalError.CATNls|G:\CXR27\BSFNLS\CATSurfacicResources\CATSurfacicResourcesRscCNext.m\src\CNext\resources\msgcatalog\Korean\CATGmoInternalError.CATNls
RTV/000/CUS .\win_b64\resources\msgcatalog\CATGmoInternalError.CATNls|.\CATSurfacicResources\CATSurfacicResourcesRscCNext.m\src\CNext\resources\msgcatalog\CATGmoInternalError.CATNls
RTV/000/CUS .\win_b64\resources\msgcatalog\Russian\CATMf3DAxisSystemChkRuleAsUnstable.CATNls|G:\CXR27\BSFNLS\CATSurfacicResources\CATSurfacicResourcesRscCNext.m\src\CNext\resources\msgcatalog\Russian\CATMf3DAxisSystemChkRuleAsUnstable.CATNls
RTV/000/DSI .\win_b64\resources\msgcatalog\NlsTest\CATGmoInternalError.CATNls|.\CATSurfacicResources\CATSurfacicResourcesRscCNext.m\src\CNext\resources\msgcatalog\CATGmoInternalError.CATNls
RTV/000/CUS .\win_b64\resources\msgcatalog\Japanese\TesselateNLS.CATNls|G:\CXR27\BSFNLS\CATSurfacicResources\CATSurfacicResourcesRscCNext.m\src\CNext\resources\msgcatalog\Japanese\TesselateNLS.CATNls
RTV/000/CUS .\win_b64\resources\msgcatalog\German\CATMf3DAxisSystemChkRuleAsUnstable.CATNls|G:\CXR27\BSFNLS\CATSurfacicResources\CATSurfacicResourcesRscCNext.m\src\CNext\resources\msgcatalog\German\CATMf3DAxisSystemChkRuleAsUnstable.CATNls
RTV/000/CUS .\win_b64\resources\msgcatalog\Russian\AxisSystemNLS.CATNls|G:\CXR27\BSFNLS\CATSurfacicResources\CATSurfacicResourcesRscCNext.m\src\CNext\resources\msgcatalog\Russian\AxisSystemNLS.CATNls
RTV/000/CUS .\win_b64\resources\msgcatalog\Simplified_Chinese\CATGmoInternalError.CATNls|G:\CXR27\BSFNLS\CATSurfacicResources\CATSurfacicResourcesRscCNext.m\src\CNext\resources\msgcatalog\Simplified_Chinese\CATGmoInternalError.CATNls
RTV/000/DSI .\win_b64\resources\msgcatalog\NlsTest\CATStRelimitWiresOperator.CATNls|.\CATSurfacicResources\CATSurfacicResourcesRscCNext.m\src\CNext\resources\msgcatalog\CATStRelimitWiresOperator.CATNls
RTV/000/CUS .\win_b64\resources\msgcatalog\French\CATSurfResDisplayName.CATNls|G:\CXR27\BSFNLS\CATSurfacicResources\CATSurfacicResourcesRscCNext.m\src\CNext\resources\msgcatalog\French\CATSurfResDisplayName.CATNls
RTV/000/CUS .\win_b64\resources\msgcatalog\Simplified_Chinese\AxisSystemNLS.CATNls|G:\CXR27\BSFNLS\CATSurfacicResources\CATSurfacicResourcesRscCNext.m\src\CNext\resources\msgcatalog\Simplified_Chinese\AxisSystemNLS.CATNls
RTV/000/DSI .\win_b64\resources\msgcatalog\DbcsTest\CATStRelimitWiresOperator.CATNls|.\CATSurfacicResources\CATSurfacicResourcesRscCNext.m\src\CNext\resources\msgcatalog\CATStRelimitWiresOperator.CATNls
RTV/000/DSI .\win_b64\resources\msgcatalog\DbcsTest\CATMf3DAxisSystemChkRuleAsUnstable.CATNls|.\CATSurfacicResources\CATSurfacicResourcesRscCNext.m\src\CNext\resources\msgcatalog\CATMf3DAxisSystemChkRuleAsUnstable.CATNls
RTV/000/CUS .\win_b64\resources\msgcatalog\German\AxisSystemNLS.CATNls|G:\CXR27\BSFNLS\CATSurfacicResources\CATSurfacicResourcesRscCNext.m\src\CNext\resources\msgcatalog\German\AxisSystemNLS.CATNls
RTV/000/CUS .\win_b64\resources\msgcatalog\Korean\CATMf3DAxisSystemChkRuleAsUnstable.CATNls|G:\CXR27\BSFNLS\CATSurfacicResources\CATSurfacicResourcesRscCNext.m\src\CNext\resources\msgcatalog\Korean\CATMf3DAxisSystemChkRuleAsUnstable.CATNls
RTV/000/CUS .\win_b64\resources\msgcatalog\Italian\CATMf3DAxisSystemChkRuleAsUnstable.CATNls|G:\CXR27\BSFNLS\CATSurfacicResources\CATSurfacicResourcesRscCNext.m\src\CNext\resources\msgcatalog\Italian\CATMf3DAxisSystemChkRuleAsUnstable.CATNls
RTV/000/CUS .\win_b64\resources\msgcatalog\CATSurfResDisplayName.CATNls|.\CATSurfacicResources\CATSurfacicResourcesRscCNext.m\src\CNext\resources\msgcatalog\CATSurfResDisplayName.CATNls
RTV/000/CUS .\win_b64\resources\msgcatalog\Italian\CATStRelimitWiresOperator.CATNls|G:\CXR27\BSFNLS\CATSurfacicResources\CATSurfacicResourcesRscCNext.m\src\CNext\resources\msgcatalog\Italian\CATStRelimitWiresOperator.CATNls
RTV/000/CUS .\win_b64\resources\msgcatalog\French\CATMf3DAxisSystemChkRuleAsUnstable.CATNls|G:\CXR27\BSFNLS\CATSurfacicResources\CATSurfacicResourcesRscCNext.m\src\CNext\resources\msgcatalog\French\CATMf3DAxisSystemChkRuleAsUnstable.CATNls
@type='RUNTIME_DATA'
@clr='false'
@kind='DATA'
@deliverable='true'
@built='true'
