!<mkRTViewData> v1.0.0
CSC/000/DSI .\CATIAAECGeoModeler\EngToolVisu.m\Objects\win_b64\mkcsc\EngToolVisu.cscdb|.\CATIAAECGeoModeler\EngToolVisu.m
@type='NONE'
@clr='false'
@kind='INCLUDED'
@deliverable='true'
@built='true'
