!<mkRTViewData> v1.0.0
CSC/000/DSI .\CATHealingAssistantFeature\CATHASUtility.m\Objects\win_b64\mkcsc\CATHASUtility.cscdb|.\CATHealingAssistantFeature\CATHASUtility.m
@type='NONE'
@clr='false'
@kind='INCLUDED'
@deliverable='true'
@built='true'
