!<mkRTViewData> v1.0.0
RTV/001/CUS .\win_b64\code\bin\CATMathStream.dll|.\Mathematics\CATMathStream.m
BTV/000/CUS .\win_b64\code\lib\CATMathStream.lib|.\Mathematics\CATMathStream.m
INT/000/CUS .\win_b64\code\lib\CATMathStream.exp|.\Mathematics\CATMathStream.m
CSC/000/DSI .\Mathematics\CATMathStream.m\Objects\win_b64\mkcsc\CATMathStream.cscdb|.\Mathematics\CATMathStream.m
INT/000/CUS .\win_b64\code\bin\CATMathStream.pdb|.\Mathematics\CATMathStream.m
@type='SHARED_LIBRARY'
@clr='false'
@kind='NATIVE'
@deliverable='true'
@built='true'
