!<mkRTViewData> v1.0.0
INT/000/CUS .\win_b64\code\bin\CATCkeKnowledgeEnoviaLink.pdb|.\KnowledgeModeler\CATCkeKnowledgeEnoviaLink.m
CSC/000/DSI .\KnowledgeModeler\CATCkeKnowledgeEnoviaLink.m\Objects\win_b64\mkcsc\CATCkeKnowledgeEnoviaLink.cscdb|.\KnowledgeModeler\CATCkeKnowledgeEnoviaLink.m
INT/000/CUS .\win_b64\code\lib\CATCkeKnowledgeEnoviaLink.exp|.\KnowledgeModeler\CATCkeKnowledgeEnoviaLink.m
BTV/000/CUS .\win_b64\code\lib\CATCkeKnowledgeEnoviaLink.lib|.\KnowledgeModeler\CATCkeKnowledgeEnoviaLink.m
RTV/001/CUS .\win_b64\code\bin\CATCkeKnowledgeEnoviaLink.dll|.\KnowledgeModeler\CATCkeKnowledgeEnoviaLink.m
@type='SHARED_LIBRARY'
@clr='false'
@kind='NATIVE'
@deliverable='true'
@built='true'
