!<mkRTViewData> v1.0.0
RTV/000/CUS .\win_b64\docs\java\CATJavaRpmReporterTypeLib.jar|.\CATReporterInterfaces\CATJavaRpmReporterTypeLib.mj
CSC/000/DSI .\CATReporterInterfaces\CATJavaRpmReporterTypeLib.mj\Objects\win_b64\mkcsc\CATJavaRpmReporterTypeLib.cscdb|.\CATReporterInterfaces\CATJavaRpmReporterTypeLib.mj
@type='JAVA_CLIENT'
@clr='false'
@kind='JAVA'
@deliverable='true'
@built='true'
