!<mkRTViewData> v1.0.0
RTV/000/CUS .\win_b64\code\bin\CATSmaInterfacesTypeLib.tlb|.\CATSmaInterfaces\CATSmaInterfacesTypeLib.m
@type='TYPELIB'
@clr='false'
@kind='NATIVE'
@deliverable='true'
@built='true'
