!<mkRTViewData> v1.0.0
CSC/000/DSI .\XlatorCGM\CATXlatorCgm.m\Objects\win_b64\mkcsc\CATXlatorCgm.cscdb|.\XlatorCGM\CATXlatorCgm.m
@type='NONE'
@clr='false'
@kind='INCLUDED'
@deliverable='true'
@built='false'
