!<mkRTViewData> v1.0.0
CSC/000/DSI .\GeometricOperators\EXTCGEOPE.m\Objects\win_b64\mkcsc\EXTCGEOPE.cscdb|.\GeometricOperators\EXTCGEOPE.m
@type='NONE'
@clr='false'
@kind='INCLUDED'
@deliverable='true'
@built='true'
