!<mkRTViewData> v1.0.0
INT/000/CUS .\win_b64\code\lib\CATVisShader.exp|.\VisualizationBase\CATVisShader.m
CSC/000/DSI .\VisualizationBase\CATVisShader.m\Objects\win_b64\mkcsc\CATVisShader.cscdb|.\VisualizationBase\CATVisShader.m
INT/000/CUS .\win_b64\code\bin\CATVisShader.pdb|.\VisualizationBase\CATVisShader.m
RTV/001/CUS .\win_b64\code\bin\CATVisShader.dll|.\VisualizationBase\CATVisShader.m
BTV/000/CUS .\win_b64\code\lib\CATVisShader.lib|.\VisualizationBase\CATVisShader.m
@type='SHARED_LIBRARY'
@clr='false'
@kind='NATIVE'
@deliverable='true'
@built='true'
