!<mkRTViewData> v1.0.0
INT/000/CUS .\win_b64\code\lib\CATFitToolsOptions.exp|.\FittingSimulation\CATFitToolsOptions.m
CSC/000/DSI .\FittingSimulation\CATFitToolsOptions.m\Objects\win_b64\mkcsc\CATFitToolsOptions.cscdb|.\FittingSimulation\CATFitToolsOptions.m
RTV/001/CUS .\win_b64\code\bin\CATFitToolsOptions.dll|.\FittingSimulation\CATFitToolsOptions.m
INT/000/CUS .\win_b64\code\bin\CATFitToolsOptions.pdb|.\FittingSimulation\CATFitToolsOptions.m
BTV/000/CUS .\win_b64\code\lib\CATFitToolsOptions.lib|.\FittingSimulation\CATFitToolsOptions.m
@type='SHARED_LIBRARY'
@clr='false'
@kind='NATIVE'
@deliverable='true'
@built='true'
