!<mkRTViewData> v1.0.0
INT/000/CUS .\win_b64\code\lib\CATImmItf.exp|.\CATImmWtpInterfaces\CATImmItf.m
RTV/001/CUS .\win_b64\code\bin\CATImmItf.dll|.\CATImmWtpInterfaces\CATImmItf.m
BTV/000/CUS .\win_b64\code\lib\CATImmItf.lib|.\CATImmWtpInterfaces\CATImmItf.m
INT/000/CUS .\win_b64\code\bin\CATImmItf.pdb|.\CATImmWtpInterfaces\CATImmItf.m
CSC/000/DSI .\CATImmWtpInterfaces\CATImmItf.m\Objects\win_b64\mkcsc\CATImmItf.cscdb|.\CATImmWtpInterfaces\CATImmItf.m
@type='SHARED_LIBRARY'
@clr='false'
@kind='NATIVE'
@deliverable='true'
@built='true'
