!<mkRTViewData> v1.0.0
CSC/000/DSI .\System\CATSys4DCacheMigr.m\Objects\win_b64\mkcsc\CATSys4DCacheMigr.cscdb|.\System\CATSys4DCacheMigr.m
@type='LOAD_MODULE'
@clr='false'
@kind='NATIVE'
@deliverable='true'
@built='false'
