!<mkRTViewData> v1.0.0
CSC/000/DSI .\SimulationInterfaces\SimulationProIDL.m\Objects\win_b64\mkcsc\SimulationProIDL.cscdb|.\SimulationInterfaces\SimulationProIDL.m
@type='NONE'
@clr='false'
@kind='INCLUDED'
@deliverable='true'
@built='true'
