!<mkRTViewData> v1.0.0
CSC/000/DSI .\ComponentsCatalogsInterfaces\CatalogInterfacesProtIDL.m\Objects\win_b64\mkcsc\CatalogInterfacesProtIDL.cscdb|.\ComponentsCatalogsInterfaces\CatalogInterfacesProtIDL.m
@type='NONE'
@clr='false'
@kind='INCLUDED'
@deliverable='true'
@built='true'
