!<mkRTViewData> v1.0.0
CSC/000/DSI .\PLMSecuritySSOCClient\PLMSecuritySSOCClientUUID.m\Objects\win_b64\mkcsc\PLMSecuritySSOCClientUUID.cscdb|.\PLMSecuritySSOCClient\PLMSecuritySSOCClientUUID.m
BTV/000/CUS .\win_b64\code\lib\PLMSecuritySSOCClientUUID.lib|.\PLMSecuritySSOCClient\PLMSecuritySSOCClientUUID.m
@type='ARCHIVE'
@clr='false'
@kind='NATIVE'
@deliverable='true'
@built='true'
