!<mkRTViewData> v1.0.0
BTV/000/CUS .\win_b64\code\lib\CATLatheMachiningItf.lib|.\LatheMachiningInterfaces\CATLatheMachiningItf.m
INT/000/CUS .\win_b64\code\bin\CATLatheMachiningItf.pdb|.\LatheMachiningInterfaces\CATLatheMachiningItf.m
RTV/001/CUS .\win_b64\code\bin\CATLatheMachiningItf.dll|.\LatheMachiningInterfaces\CATLatheMachiningItf.m
CSC/000/DSI .\LatheMachiningInterfaces\CATLatheMachiningItf.m\Objects\win_b64\mkcsc\CATLatheMachiningItf.cscdb|.\LatheMachiningInterfaces\CATLatheMachiningItf.m
INT/000/CUS .\win_b64\code\lib\CATLatheMachiningItf.exp|.\LatheMachiningInterfaces\CATLatheMachiningItf.m
@type='SHARED_LIBRARY'
@clr='false'
@kind='NATIVE'
@deliverable='true'
@built='true'
