!<mkRTViewData> v1.0.0
CSC/000/DSI .\MechanicalModeler\CATGeomReroute.m\Objects\win_b64\mkcsc\CATGeomReroute.cscdb|.\MechanicalModeler\CATGeomReroute.m
@type='NONE'
@clr='false'
@kind='INCLUDED'
@deliverable='true'
@built='true'
