!<mkRTViewData> v1.0.0
DAT/002/CUS .\win_b64\resources\graphic\icons\IP_WkNvMoldDesign.bmp|.\CATMoldDesignWorkbench\CNext\resources\graphic\icons\IP_WkNvMoldDesign.bmp
DAT/002/CUS .\win_b64\resources\graphic\icons\normal\I_Plug.bmp|.\CATMoldDesignWorkbench\CNext\resources\graphic\icons\normal\I_Plug.bmp
DAT/002/CUS .\win_b64\resources\graphic\icons\normal\I_MoldUpdate.bmp|.\CATMoldDesignWorkbench\CNext\resources\graphic\icons\normal\I_MoldUpdate.bmp
DAT/002/CUS .\win_b64\resources\graphic\icons\normal\I_EyeBolt.bmp|.\CATMoldDesignWorkbench\CNext\resources\graphic\icons\normal\I_EyeBolt.bmp
DAT/002/CUS .\win_b64\resources\graphic\icons\small\I_MldDrwHoleTable.bmp|.\CATMoldDesignWorkbench\CNext\resources\graphic\icons\small\I_MldDrwHoleTable.bmp
DAT/002/CUS .\win_b64\resources\graphic\icons\normal\I_BindingScrew.bmp|.\CATMoldDesignWorkbench\CNext\resources\graphic\icons\normal\I_BindingScrew.bmp
DAT/002/CUS .\win_b64\resources\graphic\icons\small\I_Plates.bmp|.\CATMoldDesignWorkbench\CNext\resources\graphic\icons\small\I_Plates.bmp
DAT/002/CUS .\win_b64\resources\graphic\icons\normal\I_AnglePin.bmp|.\CATMoldDesignWorkbench\CNext\resources\graphic\icons\normal\I_AnglePin.bmp
DAT/002/CUS .\win_b64\resources\graphic\icons\normal\I_GuidePin.bmp|.\CATMoldDesignWorkbench\CNext\resources\graphic\icons\normal\I_GuidePin.bmp
DAT/002/CUS .\win_b64\resources\graphic\icons\small\IP_DrillCmp.bmp|.\CATMoldDesignWorkbench\CNext\resources\graphic\icons\small\IP_DrillCmp.bmp
DAT/002/CUS .\win_b64\resources\graphic\icons\normal\I_Gate.bmp|.\CATMoldDesignWorkbench\CNext\resources\graphic\icons\normal\I_Gate.bmp
DAT/002/CUS .\win_b64\resources\graphic\icons\small\I_Pillar.bmp|.\CATMoldDesignWorkbench\CNext\resources\graphic\icons\small\I_Pillar.bmp
DAT/002/CUS .\win_b64\resources\graphic\icons\small\I_Gate.bmp|.\CATMoldDesignWorkbench\CNext\resources\graphic\icons\small\I_Gate.bmp
DAT/002/CUS .\win_b64\resources\graphic\icons\normal\I_MoldBlock.bmp|.\CATMoldDesignWorkbench\CNext\resources\graphic\icons\normal\I_MoldBlock.bmp
DAT/002/CUS .\win_b64\resources\graphic\icons\IP_WkAsMoldDesign.bmp|.\CATMoldDesignWorkbench\CNext\resources\graphic\icons\IP_WkAsMoldDesign.bmp
DAT/002/CUS .\win_b64\resources\graphic\icons\normal\I_ToolViewer.bmp|.\CATMoldDesignWorkbench\CNext\resources\graphic\icons\normal\I_ToolViewer.bmp
DAT/002/CUS .\win_b64\resources\graphic\icons\normal\I_Sleeve.bmp|.\CATMoldDesignWorkbench\CNext\resources\graphic\icons\normal\I_Sleeve.bmp
DAT/002/CUS .\win_b64\resources\graphic\icons\small\I_ReplacePlate.bmp|.\CATMoldDesignWorkbench\CNext\resources\graphic\icons\small\I_ReplacePlate.bmp
DAT/002/CUS .\win_b64\resources\graphic\icons\small\I_Runner.bmp|.\CATMoldDesignWorkbench\CNext\resources\graphic\icons\small\I_Runner.bmp
DAT/002/CUS .\win_b64\resources\graphic\icons\small\I_SlideBlock.bmp|.\CATMoldDesignWorkbench\CNext\resources\graphic\icons\small\I_SlideBlock.bmp
DAT/002/CUS .\win_b64\resources\graphic\icons\small\I_MoldUpdate.bmp|.\CATMoldDesignWorkbench\CNext\resources\graphic\icons\small\I_MoldUpdate.bmp
DAT/002/CUS .\win_b64\resources\graphic\icons\small\I_Retainers.bmp|.\CATMoldDesignWorkbench\CNext\resources\graphic\icons\small\I_Retainers.bmp
DAT/002/CUS .\win_b64\resources\graphic\icons\small\I_CoolantChannel.bmp|.\CATMoldDesignWorkbench\CNext\resources\graphic\icons\small\I_CoolantChannel.bmp
DAT/002/CUS .\win_b64\resources\graphic\icons\normal\I_DrillCmp.bmp|.\CATMoldDesignWorkbench\CNext\resources\graphic\icons\normal\I_DrillCmp.bmp
DAT/002/CUS .\win_b64\resources\graphic\icons\small\I_Ejector.bmp|.\CATMoldDesignWorkbench\CNext\resources\graphic\icons\small\I_Ejector.bmp
DAT/002/CUS .\win_b64\resources\graphic\icons\small\I_Sleeve.bmp|.\CATMoldDesignWorkbench\CNext\resources\graphic\icons\small\I_Sleeve.bmp
DAT/002/CUS .\win_b64\resources\graphic\icons\small\I_GenerateFinalHoles.bmp|.\CATMoldDesignWorkbench\CNext\resources\graphic\icons\small\I_GenerateFinalHoles.bmp
DAT/002/CUS .\win_b64\resources\graphic\icons\normal\I_RoundScrew.bmp|.\CATMoldDesignWorkbench\CNext\resources\graphic\icons\normal\I_RoundScrew.bmp
DAT/002/CUS .\win_b64\resources\graphic\icons\small\I_Bushing.bmp|.\CATMoldDesignWorkbench\CNext\resources\graphic\icons\small\I_Bushing.bmp
DAT/002/CUS .\win_b64\resources\graphic\icons\small\I_EjectorFlat.bmp|.\CATMoldDesignWorkbench\CNext\resources\graphic\icons\small\I_EjectorFlat.bmp
DAT/002/CUS .\win_b64\resources\graphic\icons\normal\I_CountersunkScrew.bmp|.\CATMoldDesignWorkbench\CNext\resources\graphic\icons\normal\I_CountersunkScrew.bmp
DAT/002/CUS .\win_b64\resources\graphic\icons\small\I_CorePin.bmp|.\CATMoldDesignWorkbench\CNext\resources\graphic\icons\small\I_CorePin.bmp
DAT/002/CUS .\win_b64\resources\graphic\icons\IF_WkAsMoldDesign.bmp|.\CATMoldDesignWorkbench\CNext\resources\graphic\icons\IF_WkAsMoldDesign.bmp
DAT/002/CUS .\win_b64\resources\graphic\icons\normal\I_Bushing.bmp|.\CATMoldDesignWorkbench\CNext\resources\graphic\icons\normal\I_Bushing.bmp
DAT/002/CUS .\win_b64\resources\graphic\icons\normal\I_Retainers.bmp|.\CATMoldDesignWorkbench\CNext\resources\graphic\icons\normal\I_Retainers.bmp
DAT/002/CUS .\win_b64\resources\graphic\icons\small\I_LocatingRing.bmp|.\CATMoldDesignWorkbench\CNext\resources\graphic\icons\small\I_LocatingRing.bmp
DAT/002/CUS .\win_b64\resources\graphic\icons\normal\I_DowelPin.bmp|.\CATMoldDesignWorkbench\CNext\resources\graphic\icons\normal\I_DowelPin.bmp
DAT/002/CUS .\win_b64\resources\graphic\icons\small\I_EjectorPin.bmp|.\CATMoldDesignWorkbench\CNext\resources\graphic\icons\small\I_EjectorPin.bmp
BTV/002/CUS .\win_b64\code\productIC\CATMoldDesignWorkbenchIC.script|.\CATMoldDesignWorkbench
DAT/002/CUS .\win_b64\resources\graphic\icons\normal\I_GenerateFinalHoles.bmp|.\CATMoldDesignWorkbench\CNext\resources\graphic\icons\normal\I_GenerateFinalHoles.bmp
DAT/002/CUS .\win_b64\resources\graphic\icons\small\I_KnockOut.bmp|.\CATMoldDesignWorkbench\CNext\resources\graphic\icons\small\I_KnockOut.bmp
DAT/002/CUS .\win_b64\resources\graphic\icons\normal\I_EjectorSleeve.bmp|.\CATMoldDesignWorkbench\CNext\resources\graphic\icons\normal\I_EjectorSleeve.bmp
DAT/002/CUS .\win_b64\resources\graphic\icons\normal\I_Interlock.bmp|.\CATMoldDesignWorkbench\CNext\resources\graphic\icons\normal\I_Interlock.bmp
DAT/002/CUS .\win_b64\code\dictionary\CATMoldDesignWorkbench.fact|.\CATMoldDesignWorkbench\CNext\code\dictionary\CATMoldDesignWorkbench.fact
DAT/002/CUS .\win_b64\resources\graphic\icons\normal\I_ReplacePlate.bmp|.\CATMoldDesignWorkbench\CNext\resources\graphic\icons\normal\I_ReplacePlate.bmp
DAT/002/CUS .\win_b64\resources\graphic\icons\small\I_LeaderPin.bmp|.\CATMoldDesignWorkbench\CNext\resources\graphic\icons\small\I_LeaderPin.bmp
DAT/002/CUS .\win_b64\resources\graphic\icons\normal\I_CorePin.bmp|.\CATMoldDesignWorkbench\CNext\resources\graphic\icons\normal\I_CorePin.bmp
DAT/002/CUS .\win_b64\resources\graphic\icons\normal\I_MldDrwHoleTable.bmp|.\CATMoldDesignWorkbench\CNext\resources\graphic\icons\normal\I_MldDrwHoleTable.bmp
DAT/002/CUS .\win_b64\resources\graphic\icons\small\I_MldSlider.bmp|.\CATMoldDesignWorkbench\CNext\resources\graphic\icons\small\I_MldSlider.bmp
DAT/002/CUS .\win_b64\resources\graphic\icons\small\I_AnglePin.bmp|.\CATMoldDesignWorkbench\CNext\resources\graphic\icons\small\I_AnglePin.bmp
DAT/002/CUS .\win_b64\resources\graphic\icons\small\I_EjectorSleeve.bmp|.\CATMoldDesignWorkbench\CNext\resources\graphic\icons\small\I_EjectorSleeve.bmp
DAT/002/CUS .\win_b64\resources\graphic\icons\small\I_GuidePin.bmp|.\CATMoldDesignWorkbench\CNext\resources\graphic\icons\small\I_GuidePin.bmp
DAT/002/CUS .\win_b64\resources\graphic\icons\normal\I_SlideBlock.bmp|.\CATMoldDesignWorkbench\CNext\resources\graphic\icons\normal\I_SlideBlock.bmp
BTV/002/CUS .\win_b64\code\productIC\CATMoldDesignWorkbenchIC.xml|.\CATMoldDesignWorkbench
DAT/002/CUS .\win_b64\resources\graphic\icons\IF_WkNvMoldDesign.bmp|.\CATMoldDesignWorkbench\CNext\resources\graphic\icons\IF_WkNvMoldDesign.bmp
DAT/002/CUS .\win_b64\resources\graphic\icons\normal\I_SpruePuller.bmp|.\CATMoldDesignWorkbench\CNext\resources\graphic\icons\normal\I_SpruePuller.bmp
DAT/002/CUS .\win_b64\code\dictionary\CATMoldDesignWorkbench.iid|.\CATMoldDesignWorkbench\CNext\code\dictionary\CATMoldDesignWorkbench.iid
DAT/002/CUS .\win_b64\resources\graphic\icons\normal\I_Spacer.bmp|.\CATMoldDesignWorkbench\CNext\resources\graphic\icons\normal\I_Spacer.bmp
DAT/002/CUS .\win_b64\resources\graphic\icons\normal\I_ORing.bmp|.\CATMoldDesignWorkbench\CNext\resources\graphic\icons\normal\I_ORing.bmp
DAT/002/CUS .\win_b64\code\dictionary\CATMoldDesignWorkbench.dic|.\CATMoldDesignWorkbench\CNext\code\dictionary\CATMoldDesignWorkbench.dic
DAT/002/CUS .\win_b64\resources\graphic\icons\small\I_MldSpring.bmp|.\CATMoldDesignWorkbench\CNext\resources\graphic\icons\small\I_MldSpring.bmp
DAT/002/CUS .\win_b64\resources\graphic\icons\small\I_RoundScrew.bmp|.\CATMoldDesignWorkbench\CNext\resources\graphic\icons\small\I_RoundScrew.bmp
DAT/002/CUS .\win_b64\resources\graphic\icons\normal\I_LeaderPin.bmp|.\CATMoldDesignWorkbench\CNext\resources\graphic\icons\normal\I_LeaderPin.bmp
DAT/002/CUS .\win_b64\resources\graphic\icons\small\I_Baffle.bmp|.\CATMoldDesignWorkbench\CNext\resources\graphic\icons\small\I_Baffle.bmp
DAT/002/CUS .\win_b64\resources\graphic\icons\small\I_MoldBlock.bmp|.\CATMoldDesignWorkbench\CNext\resources\graphic\icons\small\I_MoldBlock.bmp
DAT/002/CUS .\win_b64\resources\graphic\icons\normal\I_Plates.bmp|.\CATMoldDesignWorkbench\CNext\resources\graphic\icons\normal\I_Plates.bmp
DAT/002/CUS .\win_b64\resources\graphic\icons\normal\I_UserComponent.bmp|.\CATMoldDesignWorkbench\CNext\resources\graphic\icons\normal\I_UserComponent.bmp
DAT/002/CUS .\win_b64\resources\graphic\icons\normal\I_CATMldComponentSketch.bmp|.\CATMoldDesignWorkbench\CNext\resources\graphic\icons\normal\I_CATMldComponentSketch.bmp
DAT/002/CUS .\win_b64\resources\graphic\icons\small\I_StopPin.bmp|.\CATMoldDesignWorkbench\CNext\resources\graphic\icons\small\I_StopPin.bmp
RTV/002/DSI .\win_b64\code\productIC\CATMoldDesignWorkbenchIC.required|.\CATMoldDesignWorkbench
DAT/002/CUS .\win_b64\resources\graphic\icons\normal\IF_WkMoldDesign.bmp|.\CATMoldDesignWorkbench\CNext\resources\graphic\icons\normal\IF_WkMoldDesign.bmp
DAT/002/CUS .\win_b64\resources\graphic\icons\small\I_Plug.bmp|.\CATMoldDesignWorkbench\CNext\resources\graphic\icons\small\I_Plug.bmp
DAT/002/CUS .\win_b64\resources\graphic\icons\normal\I_Pillar.bmp|.\CATMoldDesignWorkbench\CNext\resources\graphic\icons\normal\I_Pillar.bmp
DAT/002/CUS .\win_b64\resources\graphic\icons\small\I_SpruePuller.bmp|.\CATMoldDesignWorkbench\CNext\resources\graphic\icons\small\I_SpruePuller.bmp
DAT/002/CUS .\win_b64\resources\graphic\icons\small\I_CapScrew.bmp|.\CATMoldDesignWorkbench\CNext\resources\graphic\icons\small\I_CapScrew.bmp
DAT/002/CUS .\win_b64\resources\graphic\icons\normal\I_Baffle.bmp|.\CATMoldDesignWorkbench\CNext\resources\graphic\icons\normal\I_Baffle.bmp
DAT/002/CUS .\win_b64\resources\graphic\icons\normal\I_EjectorPin.bmp|.\CATMoldDesignWorkbench\CNext\resources\graphic\icons\normal\I_EjectorPin.bmp
DAT/002/CUS .\win_b64\resources\graphic\icons\small\I_CountersunkScrew.bmp|.\CATMoldDesignWorkbench\CNext\resources\graphic\icons\small\I_CountersunkScrew.bmp
DAT/002/CUS .\win_b64\resources\graphic\icons\small\I_DrillCmp.bmp|.\CATMoldDesignWorkbench\CNext\resources\graphic\icons\small\I_DrillCmp.bmp
DAT/002/CUS .\win_b64\resources\graphic\icons\normal\I_Insert.bmp|.\CATMoldDesignWorkbench\CNext\resources\graphic\icons\normal\I_Insert.bmp
DAT/002/CUS .\win_b64\resources\graphic\icons\normal\I_WkMoldDesign.bmp|.\CATMoldDesignWorkbench\CNext\resources\graphic\icons\normal\I_WkMoldDesign.bmp
DAT/002/CUS .\win_b64\resources\graphic\icons\small\I_Insert.bmp|.\CATMoldDesignWorkbench\CNext\resources\graphic\icons\small\I_Insert.bmp
DAT/002/CUS .\win_b64\resources\graphic\icons\small\I_Interlock.bmp|.\CATMoldDesignWorkbench\CNext\resources\graphic\icons\small\I_Interlock.bmp
DAT/002/CUS .\win_b64\resources\graphic\icons\normal\I_CreateComponent.bmp|.\CATMoldDesignWorkbench\CNext\resources\graphic\icons\normal\I_CreateComponent.bmp
DAT/002/CUS .\win_b64\resources\graphic\icons\I_WkAsMoldDesign.bmp|.\CATMoldDesignWorkbench\CNext\resources\graphic\icons\I_WkAsMoldDesign.bmp
DAT/002/CUS .\win_b64\resources\graphic\icons\normal\I_SpruBushing.bmp|.\CATMoldDesignWorkbench\CNext\resources\graphic\icons\normal\I_SpruBushing.bmp
DAT/002/CUS .\win_b64\resources\graphic\icons\small\I_Spacer.bmp|.\CATMoldDesignWorkbench\CNext\resources\graphic\icons\small\I_Spacer.bmp
DAT/002/CUS .\win_b64\resources\graphic\icons\small\I_LockingScrew.bmp|.\CATMoldDesignWorkbench\CNext\resources\graphic\icons\small\I_LockingScrew.bmp
DAT/002/CUS .\win_b64\resources\graphic\icons\normal\IF_DrillCmp.bmp|.\CATMoldDesignWorkbench\CNext\resources\graphic\icons\normal\IF_DrillCmp.bmp
DAT/002/CUS .\win_b64\resources\graphic\icons\normal\I_Runner.bmp|.\CATMoldDesignWorkbench\CNext\resources\graphic\icons\normal\I_Runner.bmp
DAT/002/CUS .\win_b64\resources\graphic\icons\small\I_DowelPin.bmp|.\CATMoldDesignWorkbench\CNext\resources\graphic\icons\small\I_DowelPin.bmp
DAT/002/CUS .\win_b64\resources\graphic\icons\normal\I_KnockOut.bmp|.\CATMoldDesignWorkbench\CNext\resources\graphic\icons\normal\I_KnockOut.bmp
DAT/002/CUS .\win_b64\resources\graphic\icons\normal\I_StopPin.bmp|.\CATMoldDesignWorkbench\CNext\resources\graphic\icons\normal\I_StopPin.bmp
DAT/002/CUS .\win_b64\resources\graphic\icons\normal\I_LocatingRing.bmp|.\CATMoldDesignWorkbench\CNext\resources\graphic\icons\normal\I_LocatingRing.bmp
DAT/002/CUS .\win_b64\resources\graphic\icons\normal\IP_DrillCmp.bmp|.\CATMoldDesignWorkbench\CNext\resources\graphic\icons\normal\IP_DrillCmp.bmp
DAT/002/CUS .\win_b64\resources\graphic\icons\normal\I_Ejector.bmp|.\CATMoldDesignWorkbench\CNext\resources\graphic\icons\normal\I_Ejector.bmp
DAT/002/CUS .\win_b64\resources\graphic\icons\small\I_WkMoldDesign.bmp|.\CATMoldDesignWorkbench\CNext\resources\graphic\icons\small\I_WkMoldDesign.bmp
DAT/002/CUS .\win_b64\resources\graphic\icons\small\IF_WkMoldDesign.bmp|.\CATMoldDesignWorkbench\CNext\resources\graphic\icons\small\IF_WkMoldDesign.bmp
CSC/002/DSI .\CATMoldDesignWorkbench\IdentityCard\Objects\win_b64\mkcsc\CATMoldDesignWorkbench.cscdb|.\CATMoldDesignWorkbench
DAT/002/CUS .\win_b64\resources\graphic\icons\normal\I_MldSpring.bmp|.\CATMoldDesignWorkbench\CNext\resources\graphic\icons\normal\I_MldSpring.bmp
DAT/002/CUS .\win_b64\resources\graphic\icons\normal\I_MldSlider.bmp|.\CATMoldDesignWorkbench\CNext\resources\graphic\icons\normal\I_MldSlider.bmp
DAT/002/CUS .\win_b64\resources\graphic\icons\small\I_Plate.bmp|.\CATMoldDesignWorkbench\CNext\resources\graphic\icons\small\I_Plate.bmp
DAT/002/CUS .\win_b64\resources\graphic\icons\small\I_BindingScrew.bmp|.\CATMoldDesignWorkbench\CNext\resources\graphic\icons\small\I_BindingScrew.bmp
DAT/002/CUS .\win_b64\resources\graphic\icons\normal\I_EjectorFlat.bmp|.\CATMoldDesignWorkbench\CNext\resources\graphic\icons\normal\I_EjectorFlat.bmp
DAT/002/CUS .\win_b64\resources\graphic\icons\I_WkNvMoldDesign.bmp|.\CATMoldDesignWorkbench\CNext\resources\graphic\icons\I_WkNvMoldDesign.bmp
DAT/002/CUS .\win_b64\resources\graphic\icons\small\I_ORing.bmp|.\CATMoldDesignWorkbench\CNext\resources\graphic\icons\small\I_ORing.bmp
DAT/002/CUS .\win_b64\resources\graphic\icons\small\I_UserComponent.bmp|.\CATMoldDesignWorkbench\CNext\resources\graphic\icons\small\I_UserComponent.bmp
DAT/002/CUS .\win_b64\resources\graphic\icons\normal\I_LockingScrew.bmp|.\CATMoldDesignWorkbench\CNext\resources\graphic\icons\normal\I_LockingScrew.bmp
DAT/002/CUS .\win_b64\resources\graphic\icons\small\I_SpruBushing.bmp|.\CATMoldDesignWorkbench\CNext\resources\graphic\icons\small\I_SpruBushing.bmp
DAT/002/CUS .\win_b64\resources\graphic\icons\normal\I_Plate.bmp|.\CATMoldDesignWorkbench\CNext\resources\graphic\icons\normal\I_Plate.bmp
DAT/002/CUS .\win_b64\resources\graphic\icons\small\I_EyeBolt.bmp|.\CATMoldDesignWorkbench\CNext\resources\graphic\icons\small\I_EyeBolt.bmp
DAT/002/CUS .\win_b64\resources\graphic\icons\normal\I_CapScrew.bmp|.\CATMoldDesignWorkbench\CNext\resources\graphic\icons\normal\I_CapScrew.bmp
DAT/002/CUS .\win_b64\resources\graphic\icons\normal\I_CoolantChannel.bmp|.\CATMoldDesignWorkbench\CNext\resources\graphic\icons\normal\I_CoolantChannel.bmp
DAT/002/CUS .\win_b64\resources\graphic\icons\small\IF_DrillCmp.bmp|.\CATMoldDesignWorkbench\CNext\resources\graphic\icons\small\IF_DrillCmp.bmp
@type='codeFramework'
@built='true'
