DP_PART_NUMBER,STANDARD_LABEL,THIRD_PARTY_LABEL
CAE 100x10,,
CAE 100x11,,
CAE 100x12,,
CAE 100x7,,
CAE 100x8,,
CAE 100x9,,
CAE 110x10,,
CAE 110x12,,
CAE 120x10,,
CAE 120x11,,
CAE 120x12,,
CAE 120x13,,
CAE 120x14,,
CAE 120x15,,
CAE 120x8,,
CAE 120x9,,
CAE 130x12,,
CAE 140x13,,
CAE 150x10,,
CAE 150x12,,
CAE 150x14,,
CAE 150x15,,
CAE 150x16,,
CAE 150x18,,
CAE 160x15,,
CAE 160x17,,
CAE 180x16,,
CAE 180x18,,
CAE 180x20,,
CAE 200x16,,
CAE 200x18,,
CAE 200x20,,
CAE 200x24,,
CAE 20x3,,
CAE 25x3,,
CAE 25x4,,
CAE 25x5,,
CAE 30x3.5,,
CAE 30x3,,
CAE 30x4,,
CAE 30x5,,
CAE 35x3.5,,
CAE 35x4,,
CAE 35x5,,
CAE 40x3,,
CAE 40x4,,
CAE 40x5,,
CAE 40x6,,
CAE 45x3,,
CAE 45x4.5,,
CAE 45x4,,
CAE 45x5,,
CAE 45x6,,
CAE 50x3,,
CAE 50x4,,
CAE 50x5,,
CAE 50x6,,
CAE 50x7,,
CAE 50x8,,
CAE 55x6,,
CAE 60x10,,
CAE 60x4,,
CAE 60x5,,
CAE 60x6,,
CAE 60x7,,
CAE 60x8,,
CAE 65x5,,
CAE 65x6,,
CAE 65x7,,
CAE 65x8,,
CAE 65x9,,
CAE 70x5,,
CAE 70x6,,
CAE 70x7,,
CAE 70x9,,
CAE 75x10,,
CAE 75x5,,
CAE 75x6,,
CAE 75x7,,
CAE 75x8,,
CAE 80x10,,
CAE 80x5.5,,
CAE 80x5,,
CAE 80x6.5,,
CAE 80x6,,
CAE 80x8,,
CAE 90x10,,
CAE 90x11,,
CAE 90x12,,
CAE 90x6,,
CAE 90x7,,
CAE 90x8,,
CAE 90x9,,
CAEP 100x10,,
CAEP 100x11,,
CAEP 100x12,,
CAEP 100x7,,
CAEP 100x8,,
CAEP 100x9,,
CAEP 110x10,,
CAEP 110x12,,
CAEP 120x10,,
CAEP 120x11,,
CAEP 120x12,,
CAEP 120x13,,
CAEP 120x14,,
CAEP 120x15,,
CAEP 120x8,,
CAEP 120x9,,
CAEP 130x12,,
CAEP 140x13,,
CAEP 150x10,,
CAEP 150x12,,
CAEP 150x14,,
CAEP 150x15,,
CAEP 150x16,,
CAEP 150x18,,
CAEP 160x15,,
CAEP 160x17,,
CAEP 180x16,,
CAEP 180x18,,
CAEP 180x20,,
CAEP 200x16,,
CAEP 200x18,,
CAEP 200x20,,
CAEP 200x24,,
CAEP 20x3,,
CAEP 25x3,,
CAEP 25x4,,
CAEP 25x5,,
CAEP 30x3.5,,
CAEP 30x3,,
CAEP 30x4,,
CAEP 30x5,,
CAEP 35x3.5,,
CAEP 35x4,,
CAEP 35x5,,
CAEP 40x3,,
CAEP 40x4,,
CAEP 40x5,,
CAEP 40x6,,
CAEP 45x3,,
CAEP 45x4.5,,
CAEP 45x4,,
CAEP 45x5,,
CAEP 45x6,,
CAEP 50x3,,
CAEP 50x4,,
CAEP 50x5,,
CAEP 50x6,,
CAEP 50x7,,
CAEP 50x8,,
CAEP 55x6,,
CAEP 60x10,,
CAEP 60x4,,
CAEP 60x5,,
CAEP 60x6,,
CAEP 60x7,,
CAEP 60x8,,
CAEP 65x5,,
CAEP 65x6,,
CAEP 65x7,,
CAEP 65x8,,
CAEP 65x9,,
CAEP 70x5,,
CAEP 70x6,,
CAEP 70x7,,
CAEP 70x9,,
CAEP 75x10,,
CAEP 75x5,,
CAEP 75x6,,
CAEP 75x7,,
CAEP 75x8,,
CAEP 80x10,,
CAEP 80x5.5,,
CAEP 80x5,,
CAEP 80x6.5,,
CAEP 80x6,,
CAEP 80x8,,
CAEP 90x10,,
CAEP 90x11,,
CAEP 90x12,,
CAEP 90x6,,
CAEP 90x7,,
CAEP 90x8,,
CAEP 90x9,,
CAI 100x50x10,,
CAI 100x50x6,,
CAI 100x50x8,,
CAI 120x80x10,,
CAI 120x80x8,,
CAI 130x65x10,,
CAI 130x65x8,,
CAI 150x100x10,,
CAI 150x100x12,,
CAI 150x90x10,,
CAI 150x90x11,,
CAI 160x80x10,,
CAI 160x80x12,,
CAI 200x100x10,,
CAI 200x100x12,,
CAI 200x100x14,,
CAI 30x20x3,,
CAI 30x20x4,,
CAI 35x20x3.5,,
CAI 35x20x4,,
CAI 40x20x3,,
CAI 40x20x4,,
CAI 40x25x4,,
CAI 40x25x5,,
CAI 45x30x4,,
CAI 45x30x5,,
CAI 50x30x4,,
CAI 50x30x5,,
CAI 50x30x6,,
CAI 50x40x5,,
CAI 50x40x6,,
CAI 60x30x5,,
CAI 60x40x5,,
CAI 60x40x6,,
CAI 60x40x7,,
CAI 65x50x5,,
CAI 65x50x6,,
CAI 65x50x7,,
CAI 65x50x8,,
CAI 70x50x6,,
CAI 70x50x7,,
CAI 75x50x5,,
CAI 75x50x6,,
CAI 75x50x7,,
CAI 75x50x8,,
CAI 80x40x6,,
CAI 80x40x8,,
CAI 80x60x7,,
CAI 80x60x8,,
CAI 80x65x10,,
CAI 80x65x6,,
CAI 80x65x8,,
CAI 90x65x6,,
CAI 90x65x8,,
CAI 90x70x8,,
CAIP 100x50x10,,
CAIP 100x50x6,,
CAIP 100x50x8,,
CAIP 120x80x10,,
CAIP 120x80x8,,
CAIP 130x65x10,,
CAIP 130x65x8,,
CAIP 150x100x10,,
CAIP 150x100x12,,
CAIP 150x90x10,,
CAIP 150x90x11,,
CAIP 160x80x10,,
CAIP 160x80x12,,
CAIP 200x100x10,,
CAIP 200x100x12,,
CAIP 200x100x14,,
CAIP 30x20x3,,
CAIP 30x20x4,,
CAIP 35x20x3.5,,
CAIP 35x20x4,,
CAIP 40x20x3,,
CAIP 40x20x4,,
CAIP 40x25x4,,
CAIP 40x25x5,,
CAIP 45x30x4,,
CAIP 45x30x5,,
CAIP 50x30x4,,
CAIP 50x30x5,,
CAIP 50x30x6,,
CAIP 50x40x5,,
CAIP 50x40x6,,
CAIP 60x30x5,,
CAIP 60x40x5,,
CAIP 60x40x6,,
CAIP 60x40x7,,
CAIP 65x50x5,,
CAIP 65x50x6,,
CAIP 65x50x7,,
CAIP 65x50x8,,
CAIP 70x50x6,,
CAIP 70x50x7,,
CAIP 75x50x5,,
CAIP 75x50x6,,
CAIP 75x50x7,,
CAIP 75x50x8,,
CAIP 80x40x6,,
CAIP 80x40x8,,
CAIP 80x60x7,,
CAIP 80x60x8,,
CAIP 80x65x10,,
CAIP 80x65x6,,
CAIP 80x65x8,,
CAIP 90x65x6,,
CAIP 90x65x8,,
CAIP 90x70x8,,
DCEC 100x10x10,,
DCEC 100x10x12,,
DCEC 100x10x14,,
DCEC 100x10x16,,
DCEC 100x10x18,,
DCEC 100x10x20,,
DCEC 100x10x8,,
DCEC 120x12x10,,
DCEC 120x12x12,,
DCEC 120x12x14,,
DCEC 120x12x16,,
DCEC 120x12x18,,
DCEC 120x12x20,,
DCEC 120x12x8,,
DCEC 150x15x10,,
DCEC 150x15x12,,
DCEC 150x15x14,,
DCEC 150x15x16,,
DCEC 150x15x18,,
DCEC 150x15x20,,
DCEC 180x18x14,,
DCEC 180x18x16,,
DCEC 180x18x18,,
DCEC 180x18x20,,
DCEC 200x20x14,,
DCEC 200x20x16,,
DCEC 200x20x18,,
DCEC 200x20x20,,
DCEC 30x3x4,,
DCEC 30x3x5,,
DCEC 30x3x6,,
DCEC 35x3.5x4,,
DCEC 35x3.5x5,,
DCEC 35x3.5x6,,
DCEC 40x4x4,,
DCEC 40x4x5,,
DCEC 40x4x6,,
DCEC 40x4x7,,
DCEC 40x4x8,,
DCEC 45x4.5x4,,
DCEC 45x4.5x5,,
DCEC 45x4.5x6,,
DCEC 45x4.5x7,,
DCEC 45x4.5x8,,
DCEC 50x5x10,,
DCEC 50x5x4,,
DCEC 50x5x5,,
DCEC 50x5x6,,
DCEC 50x5x7,,
DCEC 50x5x8,,
DCEC 60x6x10,,
DCEC 60x6x12,,
DCEC 60x6x5,,
DCEC 60x6x6,,
DCEC 60x6x7,,
DCEC 60x6x8,,
DCEC 70x7x10,,
DCEC 70x7x12,,
DCEC 70x7x6,,
DCEC 70x7x7,,
DCEC 70x7x8,,
DCEC 80x8x10,,
DCEC 80x8x12,,
DCEC 80x8x14,,
DCEC 80x8x7,,
DCEC 80x8x8,,
DCEC 90x9x10,,
DCEC 90x9x12,,
DCEC 90x9x14,,
DCEC 90x9x16,,
DCEC 90x9x7,,
DCEC 90x9x8,,
DCED 100x10x10,,
DCED 100x10x12,,
DCED 100x10x14,,
DCED 100x10x16,,
DCED 100x10x18,,
DCED 100x10x20,,
DCED 100x10x8,,
DCED 120x12x10,,
DCED 120x12x12,,
DCED 120x12x14,,
DCED 120x12x16,,
DCED 120x12x18,,
DCED 120x12x20,,
DCED 120x12x8,,
DCED 150x15x10,,
DCED 150x15x12,,
DCED 150x15x14,,
DCED 150x15x16,,
DCED 150x15x18,,
DCED 150x15x20,,
DCED 180x18x14,,
DCED 180x18x16,,
DCED 180x18x18,,
DCED 180x18x20,,
DCED 200x20x14,,
DCED 200x20x16,,
DCED 200x20x18,,
DCED 200x20x20,,
DCED 30x3x4,,
DCED 30x3x5,,
DCED 30x3x6,,
DCED 35x3.5x4,,
DCED 35x3.5x5,,
DCED 35x3.5x6,,
DCED 40x4x4,,
DCED 40x4x5,,
DCED 40x4x6,,
DCED 40x4x7,,
DCED 40x4x8,,
DCED 45x4.5x4,,
DCED 45x4.5x5,,
DCED 45x4.5x6,,
DCED 45x4.5x7,,
DCED 45x4.5x8,,
DCED 50x5x10,,
DCED 50x5x4,,
DCED 50x5x5,,
DCED 50x5x6,,
DCED 50x5x7,,
DCED 50x5x8,,
DCED 60x6x10,,
DCED 60x6x12,,
DCED 60x6x5,,
DCED 60x6x6,,
DCED 60x6x7,,
DCED 60x6x8,,
DCED 70x7x10,,
DCED 70x7x12,,
DCED 70x7x6,,
DCED 70x7x7,,
DCED 70x7x8,,
DCED 80x8x10,,
DCED 80x8x12,,
DCED 80x8x14,,
DCED 80x8x7,,
DCED 80x8x8,,
DCED 90x9x10,,
DCED 90x9x12,,
DCED 90x9x14,,
DCED 90x9x16,,
DCED 90x9x7,,
DCED 90x9x8,,
DCEP 100x10x10,,
DCEP 100x10x12,,
DCEP 100x10x14,,
DCEP 100x10x16,,
DCEP 100x10x18,,
DCEP 100x10x20,,
DCEP 100x10x8,,
DCEP 120x12x10,,
DCEP 120x12x12,,
DCEP 120x12x14,,
DCEP 120x12x16,,
DCEP 120x12x18,,
DCEP 120x12x20,,
DCEP 120x12x8,,
DCEP 150x15x10,,
DCEP 150x15x12,,
DCEP 150x15x14,,
DCEP 150x15x16,,
DCEP 150x15x18,,
DCEP 150x15x20,,
DCEP 180x18x14,,
DCEP 180x18x16,,
DCEP 180x18x18,,
DCEP 180x18x20,,
DCEP 200x20x14,,
DCEP 200x20x16,,
DCEP 200x20x18,,
DCEP 200x20x20,,
DCEP 30x3x4,,
DCEP 30x3x5,,
DCEP 30x3x6,,
DCEP 35x3.5x4,,
DCEP 35x3.5x5,,
DCEP 35x3.5x6,,
DCEP 40x4x4,,
DCEP 40x4x5,,
DCEP 40x4x6,,
DCEP 40x4x7,,
DCEP 40x4x8,,
DCEP 45x4.5x4,,
DCEP 45x4.5x5,,
DCEP 45x4.5x6,,
DCEP 45x4.5x7,,
DCEP 45x4.5x8,,
DCEP 50x5x10,,
DCEP 50x5x4,,
DCEP 50x5x5,,
DCEP 50x5x6,,
DCEP 50x5x7,,
DCEP 50x5x8,,
DCEP 60x6x10,,
DCEP 60x6x12,,
DCEP 60x6x5,,
DCEP 60x6x6,,
DCEP 60x6x7,,
DCEP 60x6x8,,
DCEP 70x7x10,,
DCEP 70x7x12,,
DCEP 70x7x6,,
DCEP 70x7x7,,
DCEP 70x7x8,,
DCEP 80x8x10,,
DCEP 80x8x12,,
DCEP 80x8x14,,
DCEP 80x8x7,,
DCEP 80x8x8,,
DCEP 90x9x10,,
DCEP 90x9x12,,
DCEP 90x9x14,,
DCEP 90x9x16,,
DCEP 90x9x7,,
DCEP 90x9x8,,
DCIG 40x25x4,,
DCIG 40x25x5,,
DCIG 40x25x6,,
DCIG 45x30x4,,
DCIG 45x30x5,,
DCIG 45x30x6,,
DCIG 50x30x4,,
DCIG 50x30x5,,
DCIG 50x30x6,,
DCIG 50x30x7,,
DCIG 50x30x8,,
DCIG 60x40x4,,
DCIG 60x40x5,,
DCIG 60x40x6,,
DCIG 60x40x7,,
DCIG 60x40x8,,
DCIG 70x50x10,,
DCIG 70x50x5,,
DCIG 70x50x6,,
DCIG 70x50x7,,
DCIG 70x50x8,,
DCIG 80x60x10,,
DCIG 80x60x12,,
DCIG 80x60x6,,
DCIG 80x60x7,,
DCIG 80x60x8,,
DCIP 40x25x4,,
DCIP 40x25x5,,
DCIP 40x25x6,,
DCIP 45x30x4,,
DCIP 45x30x5,,
DCIP 45x30x6,,
DCIP 50x30x4,,
DCIP 50x30x5,,
DCIP 50x30x6,,
DCIP 50x30x7,,
DCIP 50x30x8,,
DCIP 60x40x4,,
DCIP 60x40x5,,
DCIP 60x40x6,,
DCIP 60x40x7,,
DCIP 60x40x8,,
DCIP 70x50x10,,
DCIP 70x50x5,,
DCIP 70x50x6,,
DCIP 70x50x7,,
DCIP 70x50x8,,
DCIP 80x60x10,,
DCIP 80x60x12,,
DCIP 80x60x6,,
DCIP 80x60x7,,
DCIP 80x60x8,,
HD 260x114,,
HD 260x142,,
HD 260x172,,
HD 260x225,,
HD 260x299,,
HD 260x54.1,,
HD 260x68.2,,
HD 260x93,,
HD 320x127,,
HD 320x158,,
HD 320x198,,
HD 320x245,,
HD 320x300,,
HD 320x368,,
HD 320x451,,
HD 320x74.2,,
HD 320x97.6,,
HD 360x134,,
HD 360x147,,
HD 360x162,,
HD 360x179,,
HD 360x196,,
HD 400x1086,,
HD 400x187,,
HD 400x216,,
HD 400x236,,
HD 400x262,,
HD 400x287,,
HD 400x314,,
HD 400x347,,
HD 400x382,,
HD 400x421,,
HD 400x463,,
HD 400x509,,
HD 400x551,,
HD 400x592,,
HD 400x634,,
HD 400x677,,
HD 400x744,,
HD 400x818,,
HD 400x900,,
HD 400x990,,
HEA 100,,
HEA 1000,,
HEA 120,,
HEA 140,,
HEA 160,,
HEA 180,,
HEA 200,,
HEA 220,,
HEA 240,,
HEA 260,,
HEA 280,,
HEA 300,,
HEA 320,,
HEA 340,,
HEA 360,,
HEA 400,,
HEA 450,,
HEA 500,,
HEA 550,,
HEA 600,,
HEA 650,,
HEA 700,,
HEA 800,,
HEA 900,,
HEAA 100,,
HEAA 1000,,
HEAA 120,,
HEAA 140,,
HEAA 160,,
HEAA 180,,
HEAA 200,,
HEAA 220,,
HEAA 240,,
HEAA 260,,
HEAA 280,,
HEAA 300,,
HEAA 320,,
HEAA 340,,
HEAA 360,,
HEAA 400,,
HEAA 450,,
HEAA 500,,
HEAA 550,,
HEAA 600,,
HEAA 650,,
HEAA 700,,
HEAA 800,,
HEAA 900,,
HEB 100,,
HEB 1000,,
HEB 120,,
HEB 140,,
HEB 160,,
HEB 180,,
HEB 200,,
HEB 220,,
HEB 240,,
HEB 260,,
HEB 280,,
HEB 300,,
HEB 320,,
HEB 340,,
HEB 360,,
HEB 400,,
HEB 450,,
HEB 500,,
HEB 550,,
HEB 600,,
HEB 650,,
HEB 700,,
HEB 800,,
HEB 900,,
HEC 300,,
HEM 100,,
HEM 1000,,
HEM 120,,
HEM 140,,
HEM 160,,
HEM 180,,
HEM 200,,
HEM 220,,
HEM 240,,
HEM 260,,
HEM 280,,
HEM 300,,
HEM 320,,
HEM 340,,
HEM 360,,
HEM 400,,
HEM 450,,
HEM 500,,
HEM 550,,
HEM 600,,
HEM 650,,
HEM 700,,
HEM 800,,
HEM 900,,
HLA 1000,,
HLA 1100,,
HLAA 1000,,
HLB 1000,,
HLB 1100,,
HLM 1000,,
HLM 1100,,
HLR 1100,,
HP 220x57.2,,
HP 260x75,,
HP 260x87.3,,
HP 305x110,,
HP 305x126,,
HP 305x149,,
HP 305x180,,
HP 305x186,,
HP 305x223,,
HP 305x88,,
HP 305x95,,
HP 320x103,,
HP 320x117,,
HP 320x147,,
HP 320x184,,
HP 320x88.5,,
HP 360x109,,
HP 360x133,,
HP 360x152,,
HP 360x174,,
HP 360x180,,
HP 360x84.3,,
HP 400x122,,
HP 400x140,,
HP 400x158,,
HP 400x176,,
HP 400x194,,
HP 400x213,,
HP 400x231,,
IPE 100,,
IPE 120,,
IPE 140,,
IPE 160,,
IPE 180,,
IPE 200,,
IPE 220,,
IPE 240,,
IPE 270,,
IPE 300,,
IPE 330,,
IPE 360,,
IPE 400,,
IPE 450,,
IPE 500,,
IPE 550,,
IPE 600,,
IPE 750x137,,
IPE 750x147,,
IPE 750x161,,
IPE 750x173,,
IPE 750x185,,
IPE 750x196,,
IPE 750x210,,
IPE 750x222,,
IPE 80,,
IPEA 100,,
IPEA 120,,
IPEA 140,,
IPEA 160,,
IPEA 180,,
IPEA 200,,
IPEA 220,,
IPEA 240,,
IPEA 270,,
IPEA 300,,
IPEA 330,,
IPEA 360,,
IPEA 400,,
IPEA 450,,
IPEA 500,,
IPEA 550,,
IPEA 600,,
IPEA 80,,
IPEO 180,,
IPEO 200,,
IPEO 220,,
IPEO 240,,
IPEO 270,,
IPEO 300,,
IPEO 330,,
IPEO 360,,
IPEO 400,,
IPEO 450,,
IPEO 500,,
IPEO 550,,
IPEO 600,,
IPER 180,,
IPER 200,,
IPER 220,,
IPER 240,,
IPER 270,,
IPER 300,,
IPER 330,,
IPER 360,,
IPER 400,,
IPER 450,,
IPER 500,,
IPER 550,,
IPER 600,,
IPN 100,,
IPN 120,,
IPN 140,,
IPN 160,,
IPN 180,,
IPN 200,,
IPN 220,,
IPN 240,,
IPN 260,,
IPN 280,,
IPN 300,,
IPN 320,,
IPN 340,,
IPN 360,,
IPN 380,,
IPN 400,,
IPN 450,,
IPN 500,,
IPN 550,,
IPN 80,,
list,,
MHAA 200,,
MHAA 220,,
MHAA 240,,
MHAA 260,,
MHAA 280,,
MHAA 300,,
MHAA 320,,
MHAA 340,,
MHAA 360,,
MHAA 400,,
MHAA 450,,
MHAA 500,,
MHAA 550,,
MHAA 600,,
MHAA 650,,
MHAA 700,,
MHAA 800,,
MHEA 200,,
MHEA 220,,
MHEA 240,,
MHEA 260,,
MHEA 280,,
MHEA 300,,
MHEA 320,,
MHEA 340,,
MHEA 360,,
MHEA 400,,
MHEA 450,,
MHEA 500,,
MHEA 550,,
MHEA 600,,
MHEA 650,,
MHEA 700,,
MHEA 800,,
MHEB 200,,
MHEB 220,,
MHEB 240,,
MHEB 260,,
MHEB 280,,
MHEB 300,,
MHEB 320,,
MHEB 340,,
MHEB 360,,
MHEB 400,,
MHEB 450,,
MHEB 500,,
MHEB 550,,
MHEB 600,,
MHEB 650,,
MHEB 700,,
MHEB 800,,
MHEM 200,,
MHEM 220,,
MHEM 240,,
MHEM 260,,
MHEM 280,,
MHEM 300,,
MHEM 320,,
MHEM 340,,
MHEM 360,,
MHEM 400,,
MHEM 450,,
MHEM 500,,
MHEM 550,,
MHEM 600,,
MHEM 650,,
MHEM 700,,
MHEM 800,,
MIPA 200,,
MIPA 220,,
MIPA 240,,
MIPA 270,,
MIPA 300,,
MIPA 330,,
MIPA 360,,
MIPA 400,,
MIPA 450,,
MIPA 500,,
MIPA 550,,
MIPA 600,,
MIPE 200,,
MIPE 220,,
MIPE 240,,
MIPE 270,,
MIPE 300,,
MIPE 330,,
MIPE 360,,
MIPE 400,,
MIPE 450,,
MIPE 500,,
MIPE 550,,
MIPE 600,,
MIPO 200,,
MIPO 220,,
MIPO 240,,
MIPO 270,,
MIPO 300,,
MIPO 330,,
MIPO 360,,
MIPO 400,,
MIPO 450,,
MIPO 500,,
MIPO 550,,
MIPO 600,,
TEAE 25x25x3.5,,
TEAE 30x30x4,,
TEAE 35x35x4.5,,
TEAE 40x40x4.5,,
TEAE 40x40x4,,
TEAE 40x40x5,,
TEAE 50x50x5,,
TEAE 50x50x6,,
TEAE 60x60x7,,
TEAE 70x70x8,,
TEAE 80x80x9,,
UAP 100,,
UAP 130,,
UAP 150,,
UAP 175,,
UAP 200,,
UAP 220,,
UAP 250,,
UAP 300,,
UAP 80,,
UPN 100,,
UPN 120,,
UPN 140,,
UPN 160,,
UPN 180,,
UPN 200,,
UPN 220,,
UPN 240,,
UPN 260,,
UPN 280,,
UPN 300,,
UPN 320,,
UPN 350,,
UPN 380,,
UPN 400,,
UPN 80,,
