!<mkRTViewData> v1.0.0
CSC/000/DSI .\FreeStyleResources\CATFrrCPMesh.m\Objects\win_b64\mkcsc\CATFrrCPMesh.cscdb|.\FreeStyleResources\CATFrrCPMesh.m
@type='NONE'
@clr='false'
@kind='INCLUDED'
@deliverable='true'
@built='true'
