!<mkRTViewData> v1.0.0
CSC/000/DSI .\PartFeatureBase\CATPrtShape.m\Objects\win_b64\mkcsc\CATPrtShape.cscdb|.\PartFeatureBase\CATPrtShape.m
@type='NONE'
@clr='false'
@kind='INCLUDED'
@deliverable='true'
@built='true'
