!<mkRTViewData> v1.0.0
INT/000/CUS .\win_b64\code\bin\CATLifGenerativeParser.pdb|.\KnowledgeModeler\CATLifGenerativeParser.m
RTV/001/CUS .\win_b64\code\bin\CATLifGenerativeParser.dll|.\KnowledgeModeler\CATLifGenerativeParser.m
CSC/000/DSI .\KnowledgeModeler\CATLifGenerativeParser.m\Objects\win_b64\mkcsc\CATLifGenerativeParser.cscdb|.\KnowledgeModeler\CATLifGenerativeParser.m
INT/000/CUS .\win_b64\code\lib\CATLifGenerativeParser.exp|.\KnowledgeModeler\CATLifGenerativeParser.m
BTV/000/CUS .\win_b64\code\lib\CATLifGenerativeParser.lib|.\KnowledgeModeler\CATLifGenerativeParser.m
@type='SHARED_LIBRARY'
@clr='false'
@kind='NATIVE'
@deliverable='true'
@built='true'
