!<mkRTViewData> v1.0.0
INT/000/CUS .\win_b64\code\lib\CATENOVIAAccessServices.exp|.\CATImmENOVIAProvider\CATENOVIAAccessServices.m
RTV/001/CUS .\win_b64\code\bin\CATENOVIAAccessServices.dll|.\CATImmENOVIAProvider\CATENOVIAAccessServices.m
CSC/000/DSI .\CATImmENOVIAProvider\CATENOVIAAccessServices.m\Objects\win_b64\mkcsc\CATENOVIAAccessServices.cscdb|.\CATImmENOVIAProvider\CATENOVIAAccessServices.m
INT/000/CUS .\win_b64\code\bin\CATENOVIAAccessServices.pdb|.\CATImmENOVIAProvider\CATENOVIAAccessServices.m
BTV/000/CUS .\win_b64\code\lib\CATENOVIAAccessServices.lib|.\CATImmENOVIAProvider\CATENOVIAAccessServices.m
@type='SHARED_LIBRARY'
@clr='false'
@kind='NATIVE'
@deliverable='true'
@built='true'
