!<mkRTViewData> v1.0.0
RTV/000/DSI .\win_b64\resources\msgcatalog\NlsTest\CATAnnAttributes.CATNls|.\DraftingAnnotationModeler\DraftingAnnotationModelerRscCNext.m\src\CNext\resources\msgcatalog\CATAnnAttributes.CATNls
RTV/000/DSI .\win_b64\resources\msgcatalog\DbcsTest\CATClnDftAnn.CATNls|.\DraftingAnnotationModeler\DraftingAnnotationModelerRscCNext.m\src\CNext\resources\msgcatalog\CATClnDftAnn.CATNls
RTV/000/CUS .\win_b64\resources\msgcatalog\Russian\CATAnnAttributes.CATNls|G:\CXR27\BSFNLS\DraftingAnnotationModeler\DraftingAnnotationModelerRscCNext.m\src\CNext\resources\msgcatalog\Russian\CATAnnAttributes.CATNls
RTV/000/CUS .\win_b64\resources\msgcatalog\CATAnnCalloutNLS.CATNls|.\DraftingAnnotationModeler\DraftingAnnotationModelerRscCNext.m\src\CNext\resources\msgcatalog\CATAnnCalloutNLS.CATNls
RTV/000/CUS .\win_b64\resources\msgcatalog\Japanese\CATAnnCatalogNLS.CATNls|G:\CXR27\BSFNLS\DraftingAnnotationModeler\DraftingAnnotationModelerRscCNext.m\src\CNext\resources\msgcatalog\Japanese\CATAnnCatalogNLS.CATNls
RTV/000/CUS .\win_b64\resources\msgcatalog\Russian\CATAnnCalloutNLS.CATNls|G:\CXR27\BSFNLS\DraftingAnnotationModeler\DraftingAnnotationModelerRscCNext.m\src\CNext\resources\msgcatalog\Russian\CATAnnCalloutNLS.CATNls
RTV/000/DSI .\win_b64\resources\msgcatalog\DbcsTest\CATAnnCalloutNLS.CATNls|.\DraftingAnnotationModeler\DraftingAnnotationModelerRscCNext.m\src\CNext\resources\msgcatalog\CATAnnCalloutNLS.CATNls
RTV/000/CUS .\win_b64\resources\msgcatalog\Japanese\CATClnDftAnn.CATNls|G:\CXR27\BSFNLS\DraftingAnnotationModeler\DraftingAnnotationModelerRscCNext.m\src\CNext\resources\msgcatalog\Japanese\CATClnDftAnn.CATNls
RTV/000/CUS .\win_b64\resources\msgcatalog\Korean\CATAnnAttributes.CATNls|G:\CXR27\BSFNLS\DraftingAnnotationModeler\DraftingAnnotationModelerRscCNext.m\src\CNext\resources\msgcatalog\Korean\CATAnnAttributes.CATNls
RTV/000/DSI .\win_b64\resources\msgcatalog\NlsTest\CATAnnCalloutNLS.CATNls|.\DraftingAnnotationModeler\DraftingAnnotationModelerRscCNext.m\src\CNext\resources\msgcatalog\CATAnnCalloutNLS.CATNls
RTV/000/CUS .\win_b64\resources\msgcatalog\Korean\CATClnDftAnn.CATNls|G:\CXR27\BSFNLS\DraftingAnnotationModeler\DraftingAnnotationModelerRscCNext.m\src\CNext\resources\msgcatalog\Korean\CATClnDftAnn.CATNls
RTV/000/CUS .\win_b64\resources\msgcatalog\German\CATAnnCatalogNLS.CATNls|G:\CXR27\BSFNLS\DraftingAnnotationModeler\DraftingAnnotationModelerRscCNext.m\src\CNext\resources\msgcatalog\German\CATAnnCatalogNLS.CATNls
RTV/000/CUS .\win_b64\resources\msgcatalog\German\CATAnnAttributes.CATNls|G:\CXR27\BSFNLS\DraftingAnnotationModeler\DraftingAnnotationModelerRscCNext.m\src\CNext\resources\msgcatalog\German\CATAnnAttributes.CATNls
RTV/000/DSI .\win_b64\resources\msgcatalog\NlsTest\CATClnDftAnn.CATNls|.\DraftingAnnotationModeler\DraftingAnnotationModelerRscCNext.m\src\CNext\resources\msgcatalog\CATClnDftAnn.CATNls
RTV/000/CUS .\win_b64\resources\msgcatalog\French\CATAnnCatalogNLS.CATNls|G:\CXR27\BSFNLS\DraftingAnnotationModeler\DraftingAnnotationModelerRscCNext.m\src\CNext\resources\msgcatalog\French\CATAnnCatalogNLS.CATNls
RTV/000/CUS .\win_b64\resources\msgcatalog\Korean\CATAnnCatalogNLS.CATNls|G:\CXR27\BSFNLS\DraftingAnnotationModeler\DraftingAnnotationModelerRscCNext.m\src\CNext\resources\msgcatalog\Korean\CATAnnCatalogNLS.CATNls
RTV/000/CUS .\win_b64\resources\msgcatalog\Italian\CATAnnCalloutNLS.CATNls|G:\CXR27\BSFNLS\DraftingAnnotationModeler\DraftingAnnotationModelerRscCNext.m\src\CNext\resources\msgcatalog\Italian\CATAnnCalloutNLS.CATNls
RTV/000/CUS .\win_b64\resources\msgcatalog\CATClnDftAnn.CATNls|.\DraftingAnnotationModeler\DraftingAnnotationModelerRscCNext.m\src\CNext\resources\msgcatalog\CATClnDftAnn.CATNls
RTV/000/CUS .\win_b64\resources\msgcatalog\Italian\CATAnnAttributes.CATNls|G:\CXR27\BSFNLS\DraftingAnnotationModeler\DraftingAnnotationModelerRscCNext.m\src\CNext\resources\msgcatalog\Italian\CATAnnAttributes.CATNls
RTV/000/CUS .\win_b64\resources\msgcatalog\Japanese\CATAnnCalloutNLS.CATNls|G:\CXR27\BSFNLS\DraftingAnnotationModeler\DraftingAnnotationModelerRscCNext.m\src\CNext\resources\msgcatalog\Japanese\CATAnnCalloutNLS.CATNls
RTV/000/DSI .\win_b64\resources\msgcatalog\DbcsTest\CATAnnCatalogNLS.CATNls|.\DraftingAnnotationModeler\DraftingAnnotationModelerRscCNext.m\src\CNext\resources\msgcatalog\CATAnnCatalogNLS.CATNls
RTV/000/CUS .\win_b64\resources\msgcatalog\Russian\CATAnnCatalogNLS.CATNls|G:\CXR27\BSFNLS\DraftingAnnotationModeler\DraftingAnnotationModelerRscCNext.m\src\CNext\resources\msgcatalog\Russian\CATAnnCatalogNLS.CATNls
RTV/000/CUS .\win_b64\resources\msgcatalog\Simplified_Chinese\CATAnnAttributes.CATNls|G:\CXR27\BSFNLS\DraftingAnnotationModeler\DraftingAnnotationModelerRscCNext.m\src\CNext\resources\msgcatalog\Simplified_Chinese\CATAnnAttributes.CATNls
RTV/000/DSI .\win_b64\resources\msgcatalog\DbcsTest\CATAnnAttributes.CATNls|.\DraftingAnnotationModeler\DraftingAnnotationModelerRscCNext.m\src\CNext\resources\msgcatalog\CATAnnAttributes.CATNls
RTV/000/CUS .\win_b64\resources\msgcatalog\CATAnnAttributes.CATNls|.\DraftingAnnotationModeler\DraftingAnnotationModelerRscCNext.m\src\CNext\resources\msgcatalog\CATAnnAttributes.CATNls
RTV/000/CUS .\win_b64\resources\msgcatalog\Japanese\CATAnnAttributes.CATNls|G:\CXR27\BSFNLS\DraftingAnnotationModeler\DraftingAnnotationModelerRscCNext.m\src\CNext\resources\msgcatalog\Japanese\CATAnnAttributes.CATNls
RTV/000/CUS .\win_b64\resources\msgcatalog\Korean\CATAnnCalloutNLS.CATNls|G:\CXR27\BSFNLS\DraftingAnnotationModeler\DraftingAnnotationModelerRscCNext.m\src\CNext\resources\msgcatalog\Korean\CATAnnCalloutNLS.CATNls
RTV/000/CUS .\win_b64\resources\msgcatalog\Simplified_Chinese\CATAnnCalloutNLS.CATNls|G:\CXR27\BSFNLS\DraftingAnnotationModeler\DraftingAnnotationModelerRscCNext.m\src\CNext\resources\msgcatalog\Simplified_Chinese\CATAnnCalloutNLS.CATNls
RTV/000/CUS .\win_b64\resources\msgcatalog\Russian\CATClnDftAnn.CATNls|G:\CXR27\BSFNLS\DraftingAnnotationModeler\DraftingAnnotationModelerRscCNext.m\src\CNext\resources\msgcatalog\Russian\CATClnDftAnn.CATNls
RTV/000/CUS .\win_b64\resources\msgcatalog\Simplified_Chinese\CATAnnCatalogNLS.CATNls|G:\CXR27\BSFNLS\DraftingAnnotationModeler\DraftingAnnotationModelerRscCNext.m\src\CNext\resources\msgcatalog\Simplified_Chinese\CATAnnCatalogNLS.CATNls
RTV/000/DSI .\win_b64\resources\msgcatalog\NlsTest\CATAnnCatalogNLS.CATNls|.\DraftingAnnotationModeler\DraftingAnnotationModelerRscCNext.m\src\CNext\resources\msgcatalog\CATAnnCatalogNLS.CATNls
RTV/000/CUS .\win_b64\resources\msgcatalog\German\CATAnnCalloutNLS.CATNls|G:\CXR27\BSFNLS\DraftingAnnotationModeler\DraftingAnnotationModelerRscCNext.m\src\CNext\resources\msgcatalog\German\CATAnnCalloutNLS.CATNls
RTV/000/CUS .\win_b64\resources\msgcatalog\Simplified_Chinese\CATClnDftAnn.CATNls|G:\CXR27\BSFNLS\DraftingAnnotationModeler\DraftingAnnotationModelerRscCNext.m\src\CNext\resources\msgcatalog\Simplified_Chinese\CATClnDftAnn.CATNls
RTV/000/CUS .\win_b64\resources\msgcatalog\French\CATAnnCalloutNLS.CATNls|G:\CXR27\BSFNLS\DraftingAnnotationModeler\DraftingAnnotationModelerRscCNext.m\src\CNext\resources\msgcatalog\French\CATAnnCalloutNLS.CATNls
RTV/000/CUS .\win_b64\resources\msgcatalog\CATPackageDrwAnnotPackage.CATRsc|.\DraftingAnnotationModeler\DraftingAnnotationModelerRscCNext.m\src\CNext\resources\msgcatalog\CATPackageDrwAnnotPackage.CATRsc
RTV/000/CUS .\win_b64\resources\msgcatalog\German\CATClnDftAnn.CATNls|G:\CXR27\BSFNLS\DraftingAnnotationModeler\DraftingAnnotationModelerRscCNext.m\src\CNext\resources\msgcatalog\German\CATClnDftAnn.CATNls
RTV/000/CUS .\win_b64\resources\msgcatalog\Italian\CATAnnCatalogNLS.CATNls|G:\CXR27\BSFNLS\DraftingAnnotationModeler\DraftingAnnotationModelerRscCNext.m\src\CNext\resources\msgcatalog\Italian\CATAnnCatalogNLS.CATNls
RTV/000/CUS .\win_b64\resources\msgcatalog\Italian\CATClnDftAnn.CATNls|G:\CXR27\BSFNLS\DraftingAnnotationModeler\DraftingAnnotationModelerRscCNext.m\src\CNext\resources\msgcatalog\Italian\CATClnDftAnn.CATNls
RTV/000/CUS .\win_b64\resources\msgcatalog\French\CATClnDftAnn.CATNls|G:\CXR27\BSFNLS\DraftingAnnotationModeler\DraftingAnnotationModelerRscCNext.m\src\CNext\resources\msgcatalog\French\CATClnDftAnn.CATNls
RTV/000/CUS .\win_b64\resources\msgcatalog\CATAnnCatalogNLS.CATNls|.\DraftingAnnotationModeler\DraftingAnnotationModelerRscCNext.m\src\CNext\resources\msgcatalog\CATAnnCatalogNLS.CATNls
RTV/000/CUS .\win_b64\resources\msgcatalog\French\CATAnnAttributes.CATNls|G:\CXR27\BSFNLS\DraftingAnnotationModeler\DraftingAnnotationModelerRscCNext.m\src\CNext\resources\msgcatalog\French\CATAnnAttributes.CATNls
@type='RUNTIME_DATA'
@clr='false'
@kind='DATA'
@deliverable='true'
@built='true'
