!<mkRTViewData> v1.0.0
RTV/002/DSI .\win_b64\code\productIC\CATPIDiagramInterfacesIC.required|.\CATPIDiagramInterfaces
BTV/002/CUS .\win_b64\code\productIC\CATPIDiagramInterfacesIC.script|.\CATPIDiagramInterfaces
CSC/002/DSI .\CATPIDiagramInterfaces\IdentityCard\Objects\win_b64\mkcsc\CATPIDiagramInterfaces.cscdb|.\CATPIDiagramInterfaces
BTV/002/CUS .\win_b64\code\productIC\CATPIDiagramInterfacesIC.xml|.\CATPIDiagramInterfaces
DAT/002/CUS .\win_b64\code\dictionary\CATPIDiagramInterfaces.iid|.\CATPIDiagramInterfaces\CNext\code\dictionary\CATPIDiagramInterfaces.iid
@type='codeFramework'
@built='true'
