!<mkRTViewData> v1.0.0
CSC/000/DSI .\CATAnnotationModeler\CATAnnFactory.m\Objects\win_b64\mkcsc\CATAnnFactory.cscdb|.\CATAnnotationModeler\CATAnnFactory.m
@type='NONE'
@clr='false'
@kind='INCLUDED'
@deliverable='true'
@built='true'
