!<mkRTViewData> v1.0.0
CSC/000/DSI .\PolygonalTools\PolygonalPartitions.m\Objects\win_b64\mkcsc\PolygonalPartitions.cscdb|.\PolygonalTools\PolygonalPartitions.m
@type='NONE'
@clr='false'
@kind='INCLUDED'
@deliverable='true'
@built='true'
