!<mkRTViewData> v1.0.0
BTV/002/CUS .\win_b64\code\productIC\CATWGDiagramInterfacesIC.xml|.\CATWGDiagramInterfaces
RTV/002/DSI .\win_b64\code\productIC\CATWGDiagramInterfacesIC.required|.\CATWGDiagramInterfaces
DAT/002/CUS .\win_b64\code\dictionary\CATWGDiagramInterfaces.iid|.\CATWGDiagramInterfaces\CNext\code\dictionary\CATWGDiagramInterfaces.iid
BTV/002/CUS .\win_b64\code\productIC\CATWGDiagramInterfacesIC.script|.\CATWGDiagramInterfaces
CSC/002/DSI .\CATWGDiagramInterfaces\IdentityCard\Objects\win_b64\mkcsc\CATWGDiagramInterfaces.cscdb|.\CATWGDiagramInterfaces
@type='codeFramework'
@built='true'
