!<mkRTViewData> v1.0.0
INT/000/CUS .\win_b64\code\bin\CATVisTextureObjects.pdb|.\VisualizationBase\CATVisTextureObjects.m
INT/000/CUS .\win_b64\code\lib\CATVisTextureObjects.exp|.\VisualizationBase\CATVisTextureObjects.m
RTV/001/CUS .\win_b64\code\bin\CATVisTextureObjects.dll|.\VisualizationBase\CATVisTextureObjects.m
CSC/000/DSI .\VisualizationBase\CATVisTextureObjects.m\Objects\win_b64\mkcsc\CATVisTextureObjects.cscdb|.\VisualizationBase\CATVisTextureObjects.m
BTV/000/CUS .\win_b64\code\lib\CATVisTextureObjects.lib|.\VisualizationBase\CATVisTextureObjects.m
@type='SHARED_LIBRARY'
@clr='false'
@kind='NATIVE'
@deliverable='true'
@built='true'
