!<mkRTViewData> v1.0.0
CSC/000/DSI .\DNBMHIUIBase\DNBMHIUICommonUtil.m\Objects\win_b64\mkcsc\DNBMHIUICommonUtil.cscdb|.\DNBMHIUIBase\DNBMHIUICommonUtil.m
@type='NONE'
@clr='false'
@kind='INCLUDED'
@deliverable='true'
@built='true'
