!<mkRTViewData> v1.0.0
INT/000/CUS .\win_b64\code\lib\CATMldTechnoResultInterfaces.exp|.\CATMoldTechnoResultInterfaces\CATMldTechnoResultInterfaces.m
BTV/000/CUS .\win_b64\code\lib\CATMldTechnoResultInterfaces.lib|.\CATMoldTechnoResultInterfaces\CATMldTechnoResultInterfaces.m
INT/000/CUS .\win_b64\code\bin\CATMldTechnoResultInterfaces.pdb|.\CATMoldTechnoResultInterfaces\CATMldTechnoResultInterfaces.m
RTV/001/CUS .\win_b64\code\bin\CATMldTechnoResultInterfaces.dll|.\CATMoldTechnoResultInterfaces\CATMldTechnoResultInterfaces.m
CSC/000/DSI .\CATMoldTechnoResultInterfaces\CATMldTechnoResultInterfaces.m\Objects\win_b64\mkcsc\CATMldTechnoResultInterfaces.cscdb|.\CATMoldTechnoResultInterfaces\CATMldTechnoResultInterfaces.m
@type='SHARED_LIBRARY'
@clr='false'
@kind='NATIVE'
@deliverable='true'
@built='true'
