!<mkRTViewData> v1.0.0
CSC/000/DSI .\GeometricOperators\Connect.m\Objects\win_b64\mkcsc\Connect.cscdb|.\GeometricOperators\Connect.m
@type='NONE'
@clr='false'
@kind='INCLUDED'
@deliverable='true'
@built='true'
