!<mkRTViewData> v1.0.0
DAT/002/CUS .\win_b64\code\dictionary\DNBWSQInterfaces.dico|.\DNBWSQInterfaces\CNext\code\dictionary\DNBWSQInterfaces.dico
DAT/002/CUS .\win_b64\code\dictionary\DNBWSQInterfaces.iid|.\DNBWSQInterfaces\CNext\code\dictionary\DNBWSQInterfaces.iid
BTV/002/CUS .\win_b64\code\productIC\DNBWSQInterfacesIC.script|.\DNBWSQInterfaces
BTV/002/CUS .\win_b64\code\productIC\DNBWSQInterfacesIC.xml|.\DNBWSQInterfaces
CSC/002/DSI .\DNBWSQInterfaces\IdentityCard\Objects\win_b64\mkcsc\DNBWSQInterfaces.cscdb|.\DNBWSQInterfaces
RTV/002/DSI .\win_b64\code\productIC\DNBWSQInterfacesIC.required|.\DNBWSQInterfaces
@type='codeFramework'
@built='true'
