!<mkRTViewData> v1.0.0
CSC/000/DSI .\CATAsdJointInterfaces\CATAsdJointPubIDL.m\Objects\win_b64\mkcsc\CATAsdJointPubIDL.cscdb|.\CATAsdJointInterfaces\CATAsdJointPubIDL.m
@type='NONE'
@clr='false'
@kind='INCLUDED'
@deliverable='true'
@built='true'
