!<mkRTViewData> v1.0.0
CSC/000/DSI .\GenerativeKnowledge\GenerativeKnowledgeUUID.m\Objects\win_b64\mkcsc\GenerativeKnowledgeUUID.cscdb|.\GenerativeKnowledge\GenerativeKnowledgeUUID.m
BTV/000/CUS .\win_b64\code\lib\GenerativeKnowledgeUUID.lib|.\GenerativeKnowledge\GenerativeKnowledgeUUID.m
@type='ARCHIVE'
@clr='false'
@kind='NATIVE'
@deliverable='true'
@built='true'
