!<mkRTViewData> v1.0.0
CSC/000/DSI .\CATIAShapeAccess\CSAERROR.m\Objects\win_b64\mkcsc\CSAERROR.cscdb|.\CATIAShapeAccess\CSAERROR.m
@type='NONE'
@clr='false'
@kind='INCLUDED'
@deliverable='true'
@built='true'
