!<mkRTViewData> v1.0.0
BTV/000/CUS .\win_b64\code\lib\ObjectModelerSystemUUID.lib|.\ObjectModelerSystem\ObjectModelerSystemUUID.m
CSC/000/DSI .\ObjectModelerSystem\ObjectModelerSystemUUID.m\Objects\win_b64\mkcsc\ObjectModelerSystemUUID.cscdb|.\ObjectModelerSystem\ObjectModelerSystemUUID.m
@type='ARCHIVE'
@clr='false'
@kind='NATIVE'
@deliverable='true'
@built='true'
