!<mkRTViewData> v1.0.0
RTV/001/CUS .\win_b64\code\bin\CATJNIOSMInterfacesTypeLib.dll|.\OSMInterfaces\CATJNIOSMInterfacesTypeLib.m
INT/000/CUS .\win_b64\code\lib\CATJNIOSMInterfacesTypeLib.exp|.\OSMInterfaces\CATJNIOSMInterfacesTypeLib.m
BTV/000/CUS .\win_b64\code\lib\CATJNIOSMInterfacesTypeLib.lib|.\OSMInterfaces\CATJNIOSMInterfacesTypeLib.m
CSC/000/DSI .\OSMInterfaces\CATJNIOSMInterfacesTypeLib.m\Objects\win_b64\mkcsc\CATJNIOSMInterfacesTypeLib.cscdb|.\OSMInterfaces\CATJNIOSMInterfacesTypeLib.m
INT/000/CUS .\win_b64\code\bin\CATJNIOSMInterfacesTypeLib.pdb|.\OSMInterfaces\CATJNIOSMInterfacesTypeLib.m
@type='SHARED_LIBRARY'
@clr='false'
@kind='NATIVE'
@deliverable='true'
@built='true'
