!<mkRTViewData> v1.0.0
INT/000/CUS .\win_b64\code\lib\CATSpaLight.exp|.\SpaceAnalysis\CATSpaLight.m
BTV/000/CUS .\win_b64\code\lib\CATSpaLight.lib|.\SpaceAnalysis\CATSpaLight.m
CSC/000/DSI .\SpaceAnalysis\CATSpaLight.m\Objects\win_b64\mkcsc\CATSpaLight.cscdb|.\SpaceAnalysis\CATSpaLight.m
INT/000/CUS .\win_b64\code\bin\CATSpaLight.pdb|.\SpaceAnalysis\CATSpaLight.m
RTV/001/CUS .\win_b64\code\bin\CATSpaLight.dll|.\SpaceAnalysis\CATSpaLight.m
@type='SHARED_LIBRARY'
@clr='false'
@kind='NATIVE'
@deliverable='true'
@built='true'
