!<mkRTViewData> v1.0.0
CSC/000/DSI .\PartDesignFeature\PRTIsolate.m\Objects\win_b64\mkcsc\PRTIsolate.cscdb|.\PartDesignFeature\PRTIsolate.m
@type='NONE'
@clr='false'
@kind='INCLUDED'
@deliverable='true'
@built='true'
