!<mkRTViewData> v1.0.0
CSC/000/DSI .\V4CGMInteroperability\V4ToM2.m\Objects\win_b64\mkcsc\V4ToM2.cscdb|.\V4CGMInteroperability\V4ToM2.m
@type='NONE'
@clr='false'
@kind='INCLUDED'
@deliverable='true'
@built='true'
