!<mkRTViewData> v1.0.0
CSC/000/DSI .\DNBSimulationControl\DNBReactiveMD.m\Objects\win_b64\mkcsc\DNBReactiveMD.cscdb|.\DNBSimulationControl\DNBReactiveMD.m
@type='NONE'
@clr='false'
@kind='INCLUDED'
@deliverable='true'
@built='true'
