!<mkRTViewData> v1.0.0
BTV/000/CUS .\win_b64\code\lib\CATAsdJointItfUUID.lib|.\CATAsdJointInterfaces\CATAsdJointItfUUID.m
CSC/000/DSI .\CATAsdJointInterfaces\CATAsdJointItfUUID.m\Objects\win_b64\mkcsc\CATAsdJointItfUUID.cscdb|.\CATAsdJointInterfaces\CATAsdJointItfUUID.m
@type='ARCHIVE'
@clr='false'
@kind='NATIVE'
@deliverable='true'
@built='true'
