!<mkRTViewData> v1.0.0
CSC/000/DSI .\KnowledgeModeler\CATLifIntegration.m\Objects\win_b64\mkcsc\CATLifIntegration.cscdb|.\KnowledgeModeler\CATLifIntegration.m
@type='NONE'
@clr='false'
@kind='INCLUDED'
@deliverable='true'
@built='true'
