!<mkRTViewData> v1.0.0
CSC/000/DSI .\DraftingIntCommands\CATDicTable.m\Objects\win_b64\mkcsc\CATDicTable.cscdb|.\DraftingIntCommands\CATDicTable.m
@type='NONE'
@clr='false'
@kind='INCLUDED'
@deliverable='true'
@built='true'
