!<mkRTViewData> v1.0.0
BTV/000/CUS .\win_b64\code\lib\PSNInteroperabilityUUID.lib|.\PSNInteroperability\PSNInteroperabilityUUID.m
CSC/000/DSI .\PSNInteroperability\PSNInteroperabilityUUID.m\Objects\win_b64\mkcsc\PSNInteroperabilityUUID.cscdb|.\PSNInteroperability\PSNInteroperabilityUUID.m
@type='ARCHIVE'
@clr='false'
@kind='NATIVE'
@deliverable='true'
@built='true'
