!<mkRTViewData> v1.0.0
RTV/000/CUS .\win_b64\resources\msgcatalog\German\GenerativeKnowledgeUICmd.CATNls|G:\CXR27\BSFNLS\GenerativeKnowledgeUI\GenerativeKnowledgeUIRsc.m\src\resources\msgcatalog\German\GenerativeKnowledgeUICmd.CATNls
RTV/000/CUS .\win_b64\resources\msgcatalog\Italian\GenerativeKnowledgeUICmd.CATNls|G:\CXR27\BSFNLS\GenerativeKnowledgeUI\GenerativeKnowledgeUIRsc.m\src\resources\msgcatalog\Italian\GenerativeKnowledgeUICmd.CATNls
RTV/000/CUS .\win_b64\resources\msgcatalog\French\GenerativeKnowledgeUICmd.CATNls|G:\CXR27\BSFNLS\GenerativeKnowledgeUI\GenerativeKnowledgeUIRsc.m\src\resources\msgcatalog\French\GenerativeKnowledgeUICmd.CATNls
RTV/000/CUS .\win_b64\resources\msgcatalog\Japanese\GenerativeKnowledgeUICmd.CATNls|G:\CXR27\BSFNLS\GenerativeKnowledgeUI\GenerativeKnowledgeUIRsc.m\src\resources\msgcatalog\Japanese\GenerativeKnowledgeUICmd.CATNls
RTV/000/DSI .\win_b64\resources\msgcatalog\DbcsTest\GenerativeKnowledgeUICmd.CATNls|.\GenerativeKnowledgeUI\GenerativeKnowledgeUIRsc.m\src\resources\msgcatalog\GenerativeKnowledgeUICmd.CATNls
RTV/000/CUS .\win_b64\resources\msgcatalog\GenerativeKnowledgeUICmd.CATNls|.\GenerativeKnowledgeUI\GenerativeKnowledgeUIRsc.m\src\resources\msgcatalog\GenerativeKnowledgeUICmd.CATNls
RTV/000/DSI .\win_b64\resources\msgcatalog\NlsTest\GenerativeKnowledgeUICmd.CATNls|.\GenerativeKnowledgeUI\GenerativeKnowledgeUIRsc.m\src\resources\msgcatalog\GenerativeKnowledgeUICmd.CATNls
@type='RUNTIME_DATA'
@clr='false'
@kind='DATA'
@deliverable='true'
@built='true'
