!<mkRTViewData> v1.0.0
BTV/000/CUS .\win_b64\code\lib\CATGuiRevol.lib|.\GSMUI\CATGuiRevol.m
CSC/000/DSI .\GSMUI\CATGuiRevol.m\Objects\win_b64\mkcsc\CATGuiRevol.cscdb|.\GSMUI\CATGuiRevol.m
INT/000/CUS .\win_b64\code\bin\CATGuiRevol.pdb|.\GSMUI\CATGuiRevol.m
INT/000/CUS .\win_b64\code\lib\CATGuiRevol.exp|.\GSMUI\CATGuiRevol.m
RTV/001/CUS .\win_b64\code\bin\CATGuiRevol.dll|.\GSMUI\CATGuiRevol.m
@type='SHARED_LIBRARY'
@clr='false'
@kind='NATIVE'
@deliverable='true'
@built='true'
