!<mkRTViewData> v1.0.0
CSC/000/DSI .\OptimizationInterfaces\OptimizationAdapters.m\Objects\win_b64\mkcsc\OptimizationAdapters.cscdb|.\OptimizationInterfaces\OptimizationAdapters.m
@type='NONE'
@clr='false'
@kind='INCLUDED'
@deliverable='true'
@built='true'
