<?xml version="1.0" encoding="UTF-8" standalone="no"?>
<!-- Created with Inkscape (http://www.inkscape.org/) -->
<svg
   xmlns:dc="http://purl.org/dc/elements/1.1/"
   xmlns:cc="http://creativecommons.org/ns#"
   xmlns:rdf="http://www.w3.org/1999/02/22-rdf-syntax-ns#"
   xmlns:svg="http://www.w3.org/2000/svg"
   xmlns="http://www.w3.org/2000/svg"
   xmlns:xlink="http://www.w3.org/1999/xlink"
   xmlns:sodipodi="http://sodipodi.sourceforge.net/DTD/sodipodi-0.dtd"
   xmlns:inkscape="http://www.inkscape.org/namespaces/inkscape"
   width="40"
   height="40"
   id="svg2"
   sodipodi:version="0.32"
   inkscape:version="0.46"
   version="1.0"
   sodipodi:docname="I_DftCameraTarget.svg"
   inkscape:output_extension="org.inkscape.output.svg.inkscape">
  <defs
     id="defs4">
    <linearGradient
       id="linearGradient3909">
      <stop
         style="stop-color:#00bdff;stop-opacity:1;"
         offset="0"
         id="stop3911" />
      <stop
         id="stop3921"
         offset="0.2"
         style="stop-color:#00bdff;stop-opacity:1;" />
      <stop
         style="stop-color:#00baff;stop-opacity:0;"
         offset="0.2"
         id="stop3923" />
      <stop
         id="stop3917"
         offset="0.80000001"
         style="stop-color:#00bdff;stop-opacity:0;" />
      <stop
         style="stop-color:#00bdff;stop-opacity:1;"
         offset="0.80000001"
         id="stop3919" />
      <stop
         style="stop-color:#00bdff;stop-opacity:1;"
         offset="1"
         id="stop3913" />
    </linearGradient>
    <inkscape:perspective
       sodipodi:type="inkscape:persp3d"
       inkscape:vp_x="0 : 526.18109 : 1"
       inkscape:vp_y="0 : 1000 : 0"
       inkscape:vp_z="744.09448 : 526.18109 : 1"
       inkscape:persp3d-origin="372.04724 : 350.78739 : 1"
       id="perspective10" />
    <linearGradient
       inkscape:collect="always"
       xlink:href="#linearGradient3909"
       id="linearGradient3915"
       x1="1.5"
       y1="2"
       x2="38.5"
       y2="2"
       gradientUnits="userSpaceOnUse" />
    <linearGradient
       inkscape:collect="always"
       xlink:href="#linearGradient3909"
       id="linearGradient3927"
       gradientUnits="userSpaceOnUse"
       x1="1.5"
       y1="2"
       x2="38.5"
       y2="2"
       gradientTransform="translate(2e-7,36)" />
    <linearGradient
       inkscape:collect="always"
       xlink:href="#linearGradient3909"
       id="linearGradient3931"
       gradientUnits="userSpaceOnUse"
       x1="1.5"
       y1="2"
       x2="38.5"
       y2="2"
       gradientTransform="matrix(0,1,-1,0,4,0)" />
    <linearGradient
       inkscape:collect="always"
       xlink:href="#linearGradient3909"
       id="linearGradient3935"
       gradientUnits="userSpaceOnUse"
       gradientTransform="matrix(0,1,-1,0,40,0)"
       x1="1.5"
       y1="2"
       x2="38.5"
       y2="2" />
  </defs>
  <sodipodi:namedview
     id="base"
     pagecolor="#ffffff"
     bordercolor="#666666"
     borderopacity="1.0"
     gridtolerance="10"
     guidetolerance="10000"
     objecttolerance="10000"
     inkscape:pageopacity="0.0"
     inkscape:pageshadow="2"
     inkscape:zoom="32"
     inkscape:cx="34.019553"
     inkscape:cy="8.8566458"
     inkscape:document-units="px"
     inkscape:current-layer="layer1"
     showgrid="true"
     inkscape:snap-nodes="true"
     inkscape:object-nodes="false"
     inkscape:object-paths="false"
     inkscape:snap-global="true"
     inkscape:window-width="1280"
     inkscape:window-height="968"
     inkscape:window-x="1276"
     inkscape:window-y="212"
     inkscape:snap-bbox="true"
     inkscape:window-maximized="1">
    <inkscape:grid
       type="xygrid"
       id="grid2383"
       visible="true"
       enabled="true" />
  </sodipodi:namedview>
  <metadata
     id="metadata7">
    <rdf:RDF>
      <cc:Work
         rdf:about="">
        <dc:format>image/svg+xml</dc:format>
        <dc:type
           rdf:resource="http://purl.org/dc/dcmitype/StillImage" />
      </cc:Work>
    </rdf:RDF>
  </metadata>
  <g
     inkscape:label="Layer 1"
     inkscape:groupmode="layer"
     id="layer1">
    <g
       id="g2424">
      <rect
         ry="0"
         y="0"
         x="0"
         height="8"
         width="0.296875"
         id="rect2420"
         style="fill:#00bdff;fill-opacity:1" />
      <rect
         transform="matrix(0,1,-1,0,0,0)"
         ry="0"
         y="-8"
         x="0"
         height="8"
         width="0.296875"
         id="rect2422"
         style="fill:#00bdff;fill-opacity:1" />
    </g>
    <g
       id="g2428"
       transform="matrix(0,1,-1,0,40,0)">
      <rect
         ry="0"
         y="0"
         x="0"
         height="8"
         width="0.296875"
         id="rect2430"
         style="fill:#00bdff;fill-opacity:1" />
      <rect
         transform="matrix(0,1,-1,0,0,0)"
         ry="0"
         y="-8"
         x="0"
         height="8"
         width="0.296875"
         id="rect2432"
         style="fill:#00bdff;fill-opacity:1" />
    </g>
    <g
       id="g2434"
       transform="matrix(1,0,0,-1,0,40)">
      <rect
         ry="0"
         y="0"
         x="0"
         height="8"
         width="0.296875"
         id="rect2436"
         style="fill:#00bdff;fill-opacity:1" />
      <rect
         transform="matrix(0,1,-1,0,0,0)"
         ry="0"
         y="-8"
         x="0"
         height="8"
         width="0.296875"
         id="rect2438"
         style="fill:#00bdff;fill-opacity:1" />
    </g>
    <g
       id="g2440"
       transform="matrix(0,-1,-1,0,40,40)">
      <rect
         ry="0"
         y="0"
         x="0"
         height="8"
         width="0.296875"
         id="rect2442"
         style="fill:#00bdff;fill-opacity:1" />
      <rect
         transform="matrix(0,1,-1,0,0,0)"
         ry="0"
         y="-8"
         x="0"
         height="8"
         width="0.296875"
         id="rect2444"
         style="fill:#00bdff;fill-opacity:1" />
    </g>
  </g>
</svg>
