!<mkRTViewData> v1.0.0
CSC/000/DSI .\CATSpaceMap\SpaceMapPolyMeshOperators.m\Objects\win_b64\mkcsc\SpaceMapPolyMeshOperators.cscdb|.\CATSpaceMap\SpaceMapPolyMeshOperators.m
INT/000/CUS .\win_b64\code\bin\SpaceMapPolyMeshOperators.pdb|.\CATSpaceMap\SpaceMapPolyMeshOperators.m
BTV/000/CUS .\win_b64\code\lib\SpaceMapPolyMeshOperators.lib|.\CATSpaceMap\SpaceMapPolyMeshOperators.m
RTV/001/CUS .\win_b64\code\bin\SpaceMapPolyMeshOperators.dll|.\CATSpaceMap\SpaceMapPolyMeshOperators.m
INT/000/CUS .\win_b64\code\lib\SpaceMapPolyMeshOperators.exp|.\CATSpaceMap\SpaceMapPolyMeshOperators.m
@type='SHARED_LIBRARY'
@clr='false'
@kind='NATIVE'
@deliverable='true'
@built='true'
