!<mkRTViewData> v1.0.0
CSC/000/DSI .\CATJWSInfra\CATJWSITools.mj\Objects\win_b64\mkcsc\CATJWSITools.cscdb|.\CATJWSInfra\CATJWSITools.mj
RTV/000/DSI .\win_b64\docs\javaserver\CATJWSITools.jar|.\CATJWSInfra\CATJWSITools.mj
@type='JAVA_SERVER'
@clr='false'
@kind='JAVA'
@deliverable='false'
@built='true'
