!<mkRTViewData> v1.0.0
INT/000/CUS .\win_b64\code\bin\XGMOperatorJSON.pdb|.\CATXGMOperators\XGMOperatorJSON.m
BTV/000/CUS .\win_b64\code\lib\XGMOperatorJSON.lib|.\CATXGMOperators\XGMOperatorJSON.m
CSC/000/DSI .\CATXGMOperators\XGMOperatorJSON.m\Objects\win_b64\mkcsc\XGMOperatorJSON.cscdb|.\CATXGMOperators\XGMOperatorJSON.m
RTV/001/CUS .\win_b64\code\bin\XGMOperatorJSON.dll|.\CATXGMOperators\XGMOperatorJSON.m
INT/000/CUS .\win_b64\code\lib\XGMOperatorJSON.exp|.\CATXGMOperators\XGMOperatorJSON.m
@type='SHARED_LIBRARY'
@clr='false'
@kind='NATIVE'
@deliverable='true'
@built='true'
