!<mkRTViewData> v1.0.0
CSC/000/DSI .\KnowledgeModeler\CATKmrVBParser.m\Objects\win_b64\mkcsc\CATKmrVBParser.cscdb|.\KnowledgeModeler\CATKmrVBParser.m
@type='NONE'
@clr='false'
@kind='INCLUDED'
@deliverable='true'
@built='true'
