!<mkRTViewData> v1.0.0
CSC/000/DSI .\DraftingBaseCommands\CATDbcDimensionEdition.m\Objects\win_b64\mkcsc\CATDbcDimensionEdition.cscdb|.\DraftingBaseCommands\CATDbcDimensionEdition.m
@type='NONE'
@clr='false'
@kind='INCLUDED'
@deliverable='true'
@built='true'
