!<mkRTViewData> v1.0.0
CSC/000/DSI .\STEPIntegratedResources\STEPExchangeEnv.m\Objects\win_b64\mkcsc\STEPExchangeEnv.cscdb|.\STEPIntegratedResources\STEPExchangeEnv.m
RTV/001/CUS .\win_b64\code\bin\STEPExchangeEnv.dll|.\STEPIntegratedResources\STEPExchangeEnv.m
BTV/000/CUS .\win_b64\code\lib\STEPExchangeEnv.lib|.\STEPIntegratedResources\STEPExchangeEnv.m
INT/000/CUS .\win_b64\code\lib\STEPExchangeEnv.exp|.\STEPIntegratedResources\STEPExchangeEnv.m
INT/000/CUS .\win_b64\code\bin\STEPExchangeEnv.pdb|.\STEPIntegratedResources\STEPExchangeEnv.m
@type='SHARED_LIBRARY'
@clr='false'
@kind='NATIVE'
@deliverable='true'
@built='true'
