!<mkRTViewData> v1.0.0
CSC/000/DSI .\DraftingAnnotationModeler\CATDftTable.m\Objects\win_b64\mkcsc\CATDftTable.cscdb|.\DraftingAnnotationModeler\CATDftTable.m
@type='NONE'
@clr='false'
@kind='INCLUDED'
@deliverable='true'
@built='true'
