!<mkRTViewData> v1.0.0
INT/000/CUS .\win_b64\code\bin\CATHealingAssistantFeature.pdb|.\CATHealingAssistantFeature\CATHealingAssistantFeature.m
CSC/000/DSI .\CATHealingAssistantFeature\CATHealingAssistantFeature.m\Objects\win_b64\mkcsc\CATHealingAssistantFeature.cscdb|.\CATHealingAssistantFeature\CATHealingAssistantFeature.m
INT/000/CUS .\win_b64\code\lib\CATHealingAssistantFeature.exp|.\CATHealingAssistantFeature\CATHealingAssistantFeature.m
BTV/000/CUS .\win_b64\code\lib\CATHealingAssistantFeature.lib|.\CATHealingAssistantFeature\CATHealingAssistantFeature.m
RTV/001/CUS .\win_b64\code\bin\CATHealingAssistantFeature.dll|.\CATHealingAssistantFeature\CATHealingAssistantFeature.m
@type='SHARED_LIBRARY'
@clr='false'
@kind='NATIVE'
@deliverable='true'
@built='true'
