!<mkRTViewData> v1.0.0
CSC/000/DSI .\GSMModel\CATGmoPlaneOfReference.m\Objects\win_b64\mkcsc\CATGmoPlaneOfReference.cscdb|.\GSMModel\CATGmoPlaneOfReference.m
@type='NONE'
@clr='false'
@kind='INCLUDED'
@deliverable='true'
@built='true'
