!<mkRTViewData> v1.0.0
INT/000/CUS .\win_b64\code\bin\CATDMUFrame.pdb|.\Navigator4DUI\CATDMUFrame.m
BTV/000/CUS .\win_b64\code\lib\CATDMUFrame.lib|.\Navigator4DUI\CATDMUFrame.m
CSC/000/DSI .\Navigator4DUI\CATDMUFrame.m\Objects\win_b64\mkcsc\CATDMUFrame.cscdb|.\Navigator4DUI\CATDMUFrame.m
RTV/001/CUS .\win_b64\code\bin\CATDMUFrame.dll|.\Navigator4DUI\CATDMUFrame.m
INT/000/CUS .\win_b64\code\lib\CATDMUFrame.exp|.\Navigator4DUI\CATDMUFrame.m
@type='SHARED_LIBRARY'
@clr='false'
@kind='NATIVE'
@deliverable='true'
@built='true'
