!<mkRTViewData> v1.0.0
BTV/002/CUS .\win_b64\code\productIC\CATAnalysisReportInterfacesIC.script|.\CATAnalysisReportInterfaces
RTV/002/DSI .\win_b64\code\productIC\CATAnalysisReportInterfacesIC.required|.\CATAnalysisReportInterfaces
CSC/002/DSI .\CATAnalysisReportInterfaces\IdentityCard\Objects\win_b64\mkcsc\CATAnalysisReportInterfaces.cscdb|.\CATAnalysisReportInterfaces
BTV/002/CUS .\win_b64\code\productIC\CATAnalysisReportInterfacesIC.xml|.\CATAnalysisReportInterfaces
DAT/002/CUS .\win_b64\code\dictionary\CATAnalysisReportInterfaces.iid|.\CATAnalysisReportInterfaces\CNext\code\dictionary\CATAnalysisReportInterfaces.iid
@type='codeFramework'
@built='true'
