!<mkRTViewData> v1.0.0
DAT/002/CUS .\win_b64\resources\graphic\icons\small\I_DNBDataReadOutCustom.bmp|.\DNBDeviceCommands\CNext\resources\graphic\icons\small\I_DNBDataReadOutCustom.bmp
DAT/002/CUS .\win_b64\resources\graphic\icons\normal\I_DNBDataReadOut.bmp|.\DNBDeviceCommands\CNext\resources\graphic\icons\normal\I_DNBDataReadOut.bmp
RTV/002/DSI .\win_b64\resources\msgcatalog\DbcsTest\DELMDataReadoutCustomDlg.CATNls|.\DNBDeviceCommands\CNext\resources\msgcatalog\DELMDataReadoutCustomDlg.CATNls
RTV/002/DSI .\win_b64\resources\msgcatalog\DbcsTest\DNBDeviceAcquisitionAgent.CATNls|.\DNBDeviceCommands\CNext\resources\msgcatalog\DNBDeviceAcquisitionAgent.CATNls
DAT/002/CUS .\win_b64\resources\msgcatalog\DELMDataReadoutCustomDlg.CATNls|.\DNBDeviceCommands\CNext\resources\msgcatalog\DELMDataReadoutCustomDlg.CATNls
RTV/002/DSI .\win_b64\resources\msgcatalog\NlsTest\DELMDataReadoutCustomDlg.CATNls|.\DNBDeviceCommands\CNext\resources\msgcatalog\DELMDataReadoutCustomDlg.CATNls
RTV/002/DSI .\win_b64\resources\msgcatalog\DbcsTest\DNBDataReadOutCmd.CATNls|.\DNBDeviceCommands\CNext\resources\msgcatalog\DNBDataReadOutCmd.CATNls
RTV/002/DSI .\win_b64\resources\msgcatalog\NlsTest\DELMSIMSensorCmd.CATNls|.\DNBDeviceCommands\CNext\resources\msgcatalog\DELMSIMSensorCmd.CATNls
DAT/002/CUS .\win_b64\code\dictionary\DNBDeviceCommands.dic|.\DNBDeviceCommands\CNext\code\dictionary\DNBDeviceCommands.dic
RTV/002/DSI .\win_b64\resources\msgcatalog\DbcsTest\DELMSIMSensorDlg.CATNls|.\DNBDeviceCommands\CNext\resources\msgcatalog\DELMSIMSensorDlg.CATNls
DAT/002/CUS .\win_b64\resources\graphic\icons\small\I_DNBDataReadOutSens.bmp|.\DNBDeviceCommands\CNext\resources\graphic\icons\small\I_DNBDataReadOutSens.bmp
DAT/002/CUS .\win_b64\resources\graphic\icons\normal\I_DNBDataReadOutSens.bmp|.\DNBDeviceCommands\CNext\resources\graphic\icons\normal\I_DNBDataReadOutSens.bmp
CSC/002/DSI .\DNBDeviceCommands\IdentityCard\Objects\win_b64\mkcsc\DNBDeviceCommands.cscdb|.\DNBDeviceCommands
BTV/002/CUS .\win_b64\code\productIC\DNBDeviceCommandsIC.script|.\DNBDeviceCommands
DAT/002/CUS .\win_b64\resources\msgcatalog\DNBDataReadOutCmd.CATNls|.\DNBDeviceCommands\CNext\resources\msgcatalog\DNBDataReadOutCmd.CATNls
DAT/002/CUS .\win_b64\resources\msgcatalog\DNBDeviceAcquisitionDlg.CATNls|.\DNBDeviceCommands\CNext\resources\msgcatalog\DNBDeviceAcquisitionDlg.CATNls
RTV/002/DSI .\win_b64\resources\msgcatalog\NlsTest\DNBDataReadOutCmd.CATNls|.\DNBDeviceCommands\CNext\resources\msgcatalog\DNBDataReadOutCmd.CATNls
RTV/002/DSI .\win_b64\code\productIC\DNBDeviceCommandsIC.required|.\DNBDeviceCommands
DAT/002/CUS .\win_b64\resources\msgcatalog\DELMSIMSensorDlg.CATNls|.\DNBDeviceCommands\CNext\resources\msgcatalog\DELMSIMSensorDlg.CATNls
RTV/002/DSI .\win_b64\resources\msgcatalog\DbcsTest\DELMSIMSensorCmd.CATNls|.\DNBDeviceCommands\CNext\resources\msgcatalog\DELMSIMSensorCmd.CATNls
DAT/002/CUS .\win_b64\resources\msgcatalog\DNBDataReadOutCmd.CATRsc|.\DNBDeviceCommands\CNext\resources\msgcatalog\DNBDataReadOutCmd.CATRsc
DAT/002/CUS .\win_b64\resources\graphic\icons\small\I_DNBDataReadOutDisp.bmp|.\DNBDeviceCommands\CNext\resources\graphic\icons\small\I_DNBDataReadOutDisp.bmp
DAT/002/CUS .\win_b64\resources\msgcatalog\DELMDataReadoutCustomDlg.CATRsc|.\DNBDeviceCommands\CNext\resources\msgcatalog\DELMDataReadoutCustomDlg.CATRsc
RTV/002/DSI .\win_b64\resources\msgcatalog\NlsTest\DNBDeviceAcquisitionAgent.CATNls|.\DNBDeviceCommands\CNext\resources\msgcatalog\DNBDeviceAcquisitionAgent.CATNls
RTV/002/DSI .\win_b64\resources\msgcatalog\DbcsTest\DNBDeviceAcquisitionDlg.CATNls|.\DNBDeviceCommands\CNext\resources\msgcatalog\DNBDeviceAcquisitionDlg.CATNls
DAT/002/CUS .\win_b64\resources\msgcatalog\DNBDeviceAcquisitionAgent.CATNls|.\DNBDeviceCommands\CNext\resources\msgcatalog\DNBDeviceAcquisitionAgent.CATNls
BTV/002/CUS .\win_b64\code\productIC\DNBDeviceCommandsIC.xml|.\DNBDeviceCommands
DAT/002/CUS .\win_b64\resources\msgcatalog\DELMSIMSensorCmd.CATNls|.\DNBDeviceCommands\CNext\resources\msgcatalog\DELMSIMSensorCmd.CATNls
DAT/002/CUS .\win_b64\resources\graphic\icons\small\I_DNBDataReadOut.bmp|.\DNBDeviceCommands\CNext\resources\graphic\icons\small\I_DNBDataReadOut.bmp
DAT/002/CUS .\win_b64\resources\graphic\icons\normal\I_DNBDataReadOutCustom.bmp|.\DNBDeviceCommands\CNext\resources\graphic\icons\normal\I_DNBDataReadOutCustom.bmp
RTV/002/DSI .\win_b64\resources\msgcatalog\NlsTest\DELMSIMSensorDlg.CATNls|.\DNBDeviceCommands\CNext\resources\msgcatalog\DELMSIMSensorDlg.CATNls
DAT/002/CUS .\win_b64\resources\graphic\icons\normal\I_DNBDataReadOutDisp.bmp|.\DNBDeviceCommands\CNext\resources\graphic\icons\normal\I_DNBDataReadOutDisp.bmp
RTV/002/DSI .\win_b64\resources\msgcatalog\NlsTest\DNBDeviceAcquisitionDlg.CATNls|.\DNBDeviceCommands\CNext\resources\msgcatalog\DNBDeviceAcquisitionDlg.CATNls
@type='codeFramework'
@built='true'
