!<mkRTViewData> v1.0.0
DAT/002/CUS .\win_b64\code\dictionary\DPMSettingsInterfaces.iid|.\DPMSettingsInterfaces\CNext\code\dictionary\DPMSettingsInterfaces.iid
RTV/002/DSI .\win_b64\code\productIC\DPMSettingsInterfacesIC.required|.\DPMSettingsInterfaces
BTV/002/CUS .\win_b64\code\productIC\DPMSettingsInterfacesIC.script|.\DPMSettingsInterfaces
DAT/002/CUS .\win_b64\code\dictionary\DPMSettingsInterfaces.dic|.\DPMSettingsInterfaces\CNext\code\dictionary\DPMSettingsInterfaces.dic
BTV/002/CUS .\win_b64\code\productIC\DPMSettingsInterfacesIC.xml|.\DPMSettingsInterfaces
CSC/002/DSI .\DPMSettingsInterfaces\IdentityCard\Objects\win_b64\mkcsc\DPMSettingsInterfaces.cscdb|.\DPMSettingsInterfaces
@type='codeFramework'
@built='true'
