!<mkRTViewData> v1.0.0
INT/000/CUS .\win_b64\code\lib\CATTerTechnoResult.exp|.\CATTechResult\CATTerTechnoResult.m
RTV/000/CUS .\win_b64\code\dictionary\CATTechResult.dic|.\CATTechResult\CATTerTechnoResult.m
RTV/001/CUS .\win_b64\code\bin\CATTerTechnoResult.dll|.\CATTechResult\CATTerTechnoResult.m
INT/000/CUS .\win_b64\code\bin\CATTerTechnoResult.pdb|.\CATTechResult\CATTerTechnoResult.m
BTV/000/CUS .\win_b64\code\lib\CATTerTechnoResult.lib|.\CATTechResult\CATTerTechnoResult.m
CSC/000/DSI .\CATTechResult\CATTerTechnoResult.m\Objects\win_b64\mkcsc\CATTerTechnoResult.cscdb|.\CATTechResult\CATTerTechnoResult.m
@type='SHARED_LIBRARY'
@clr='false'
@kind='NATIVE'
@deliverable='true'
@built='true'
