!<mkRTViewData> v1.0.0
RTV/001/CUS .\win_b64\code\bin\VVSUtils.dll|.\CATVirtualVaultSystem\VVSUtils.m
INT/000/CUS .\win_b64\code\bin\VVSUtils.pdb|.\CATVirtualVaultSystem\VVSUtils.m
BTV/000/CUS .\win_b64\code\lib\VVSUtils.lib|.\CATVirtualVaultSystem\VVSUtils.m
CSC/000/DSI .\CATVirtualVaultSystem\VVSUtils.m\Objects\win_b64\mkcsc\VVSUtils.cscdb|.\CATVirtualVaultSystem\VVSUtils.m
INT/000/CUS .\win_b64\code\lib\VVSUtils.exp|.\CATVirtualVaultSystem\VVSUtils.m
@type='SHARED_LIBRARY'
@clr='false'
@kind='NATIVE'
@deliverable='true'
@built='true'
