!<mkRTViewData> v1.0.0
CSC/000/DSI .\CATMoldDesignFeature\CATMldMold.m\Objects\win_b64\mkcsc\CATMldMold.cscdb|.\CATMoldDesignFeature\CATMldMold.m
@type='NONE'
@clr='false'
@kind='INCLUDED'
@deliverable='true'
@built='true'
