!<mkRTViewData> v1.0.0
INT/000/CUS .\win_b64\code\bin\CATCafAutomation.pdb|.\CATIAApplicationFrame\CATCafAutomation.m
RTV/001/CUS .\win_b64\code\bin\CATCafAutomation.dll|.\CATIAApplicationFrame\CATCafAutomation.m
BTV/000/CUS .\win_b64\code\lib\CATCafAutomation.lib|.\CATIAApplicationFrame\CATCafAutomation.m
CSC/000/DSI .\CATIAApplicationFrame\CATCafAutomation.m\Objects\win_b64\mkcsc\CATCafAutomation.cscdb|.\CATIAApplicationFrame\CATCafAutomation.m
INT/000/CUS .\win_b64\code\lib\CATCafAutomation.exp|.\CATIAApplicationFrame\CATCafAutomation.m
@type='SHARED_LIBRARY'
@clr='false'
@kind='NATIVE'
@deliverable='true'
@built='true'
