!<mkRTViewData> v1.0.0
BTV/002/CUS .\win_b64\code\productIC\GMModelInterfacesIC.script|.\GMModelInterfaces
RTV/002/DSI .\win_b64\code\productIC\GMModelInterfacesIC.required|.\GMModelInterfaces
CSC/002/DSI .\GMModelInterfaces\IdentityCard\Objects\win_b64\mkcsc\GMModelInterfaces.cscdb|.\GMModelInterfaces
BTV/002/CUS .\win_b64\code\productIC\GMModelInterfacesIC.xml|.\GMModelInterfaces
@type='codeFramework'
@built='true'
