!<mkRTViewData> v1.0.0
CSC/000/DSI .\GeometryVisualization\CATCldVisualization.m\Objects\win_b64\mkcsc\CATCldVisualization.cscdb|.\GeometryVisualization\CATCldVisualization.m
@type='NONE'
@clr='false'
@kind='INCLUDED'
@deliverable='true'
@built='true'
