!<mkRTViewData> v1.0.0
CSC/000/DSI .\CATShmInterfaces\CATShmPubIDL.m\Objects\win_b64\mkcsc\CATShmPubIDL.cscdb|.\CATShmInterfaces\CATShmPubIDL.m
@type='NONE'
@clr='false'
@kind='INCLUDED'
@deliverable='true'
@built='false'
