!<mkRTViewData> v1.0.0
CSC/000/DSI .\CurveBasedGeoOperators\DTKPlaque.m\Objects\win_b64\mkcsc\DTKPlaque.cscdb|.\CurveBasedGeoOperators\DTKPlaque.m
@type='NONE'
@clr='false'
@kind='INCLUDED'
@deliverable='true'
@built='true'
