!<mkRTViewData> v1.0.0
CSC/002/DSI .\AUTClmPrdInterfaces\IdentityCard\Objects\win_b64\mkcsc\AUTClmPrdInterfaces.cscdb|.\AUTClmPrdInterfaces
BTV/002/CUS .\win_b64\code\productIC\AUTClmPrdInterfacesIC.script|.\AUTClmPrdInterfaces
RTV/002/DSI .\win_b64\code\productIC\AUTClmPrdInterfacesIC.required|.\AUTClmPrdInterfaces
DAT/002/CUS .\win_b64\code\dictionary\AUTClmPrdInterfaces.dic|.\AUTClmPrdInterfaces\CNext.specifics_Windows_NT\code\dictionary\AUTClmPrdInterfaces.dic
BTV/002/CUS .\win_b64\code\productIC\AUTClmPrdInterfacesIC.xml|.\AUTClmPrdInterfaces
@type='codeFramework'
@built='true'
