!<mkRTViewData> v1.0.0
CSC/000/DSI .\PartDesignFeature\PRTBUILD.m\Objects\win_b64\mkcsc\PRTBUILD.cscdb|.\PartDesignFeature\PRTBUILD.m
@type='NONE'
@clr='false'
@kind='INCLUDED'
@deliverable='true'
@built='true'
