!<mkRTViewData> v1.0.0
CSC/000/DSI .\Tessellation\TessellationItf.m\Objects\win_b64\mkcsc\TessellationItf.cscdb|.\Tessellation\TessellationItf.m
@type='NONE'
@clr='false'
@kind='INCLUDED'
@deliverable='true'
@built='true'
