!<mkRTViewData> v1.0.0
BTV/000/CUS .\win_b64\code\lib\CATFLXCableInterfacesUUID.lib|.\CATFLXCableInterfaces\CATFLXCableInterfacesUUID.m
CSC/000/DSI .\CATFLXCableInterfaces\CATFLXCableInterfacesUUID.m\Objects\win_b64\mkcsc\CATFLXCableInterfacesUUID.cscdb|.\CATFLXCableInterfaces\CATFLXCableInterfacesUUID.m
@type='ARCHIVE'
@clr='false'
@kind='NATIVE'
@deliverable='true'
@built='true'
