!<mkRTViewData> v1.0.0
CSC/000/DSI .\Administration\CXINSTB.m\Objects\win_b64\mkcsc\CXINSTB.cscdb|.\Administration\CXINSTB.m
INT/000/CUS .\win_b64\code\bin\CXINSTB.pdb|.\Administration\CXINSTB.m
RTV/001/CUS .\win_b64\code\bin\CXINSTB.exe|.\Administration\CXINSTB.m
@type='LOAD_MODULE'
@clr='false'
@kind='NATIVE'
@deliverable='true'
@built='true'
