!<mkRTViewData> v1.0.0
CSC/000/DSI .\CATFuzzyOperators\CATFuzVolRepIsoSurfaceExtraction.m\Objects\win_b64\mkcsc\CATFuzVolRepIsoSurfaceExtraction.cscdb|.\CATFuzzyOperators\CATFuzVolRepIsoSurfaceExtraction.m
@type='NONE'
@clr='false'
@kind='INCLUDED'
@deliverable='true'
@built='true'
