!<mkRTViewData> v1.0.0
CSC/000/DSI .\CATSurfacicUIResources\CATSurfacicLiveEdition.m\Objects\win_b64\mkcsc\CATSurfacicLiveEdition.cscdb|.\CATSurfacicUIResources\CATSurfacicLiveEdition.m
@type='NONE'
@clr='false'
@kind='INCLUDED'
@deliverable='true'
@built='false'
