!<mkRTViewData> v1.0.0
CSC/000/DSI .\VisualizationBase\VE0PIX.m\Objects\win_b64\mkcsc\VE0PIX.cscdb|.\VisualizationBase\VE0PIX.m
@type='NONE'
@clr='false'
@kind='INCLUDED'
@deliverable='true'
@built='true'
