!<mkRTViewData> v1.0.0
CSC/000/DSI .\SurfacicAdvancedTopoOpe\SurfAdvTopoOpeItf.m\Objects\win_b64\mkcsc\SurfAdvTopoOpeItf.cscdb|.\SurfacicAdvancedTopoOpe\SurfAdvTopoOpeItf.m
@type='NONE'
@clr='false'
@kind='INCLUDED'
@deliverable='true'
@built='true'
