!<mkRTViewData> v1.0.0
CSC/000/DSI .\DNBRobotBase\DNBRobotBaseUUID.m\Objects\win_b64\mkcsc\DNBRobotBaseUUID.cscdb|.\DNBRobotBase\DNBRobotBaseUUID.m
BTV/000/CUS .\win_b64\code\lib\DNBRobotBaseUUID.lib|.\DNBRobotBase\DNBRobotBaseUUID.m
@type='ARCHIVE'
@clr='false'
@kind='NATIVE'
@deliverable='true'
@built='true'
