!<mkRTViewData> v1.0.0
CSC/000/DSI .\CATSmInterfaces\CATSmInterfacesSrc.m\Objects\win_b64\mkcsc\CATSmInterfacesSrc.cscdb|.\CATSmInterfaces\CATSmInterfacesSrc.m
@type='NONE'
@clr='false'
@kind='INCLUDED'
@deliverable='true'
@built='true'
