!<mkRTViewData> v1.0.0
BTV/000/CUS .\win_b64\code\lib\CATRpmUtilities.lib|.\CATReporterModeler\CATRpmUtilities.m
INT/000/CUS .\win_b64\code\bin\CATRpmUtilities.pdb|.\CATReporterModeler\CATRpmUtilities.m
CSC/000/DSI .\CATReporterModeler\CATRpmUtilities.m\Objects\win_b64\mkcsc\CATRpmUtilities.cscdb|.\CATReporterModeler\CATRpmUtilities.m
INT/000/CUS .\win_b64\code\lib\CATRpmUtilities.exp|.\CATReporterModeler\CATRpmUtilities.m
RTV/001/CUS .\win_b64\code\bin\CATRpmUtilities.dll|.\CATReporterModeler\CATRpmUtilities.m
@type='SHARED_LIBRARY'
@clr='false'
@kind='NATIVE'
@deliverable='true'
@built='true'
