!<mkRTViewData> v1.0.0
CSC/000/DSI .\System\JS0PARS.m\Objects\win_b64\mkcsc\JS0PARS.cscdb|.\System\JS0PARS.m
RTV/001/CUS .\win_b64\code\bin\CATScriptParser.exe|.\System\JS0PARS.m
INT/000/CUS .\win_b64\code\bin\CATScriptParser.pdb|.\System\JS0PARS.m
@type='LOAD_MODULE'
@clr='false'
@kind='NATIVE'
@deliverable='true'
@built='true'
