!<mkRTViewData> v1.0.0
RTV/000/CUS .\win_b64\docs\javaserver\CATJWSIWASLoader.jar|.\CATJWSInfra\CATJWSIWASLoader.mj
RTV/000/CUS .\win_b64\docs\java\CATJWSIWASLoader.jar|.\CATJWSInfra\CATJWSIWASLoader.mj
CSC/000/DSI .\CATJWSInfra\CATJWSIWASLoader.mj\Objects\win_b64\mkcsc\CATJWSIWASLoader.cscdb|.\CATJWSInfra\CATJWSIWASLoader.mj
@type='JAVA_COMMON'
@clr='false'
@kind='JAVA'
@deliverable='true'
@built='true'
