!<mkRTViewData> v1.0.0
CSC/000/DSI .\System\JS0ZLIB.m\Objects\win_b64\mkcsc\JS0ZLIB.cscdb|.\System\JS0ZLIB.m
INT/000/CUS .\win_b64\code\bin\JS0ZLIB.pdb|.\System\JS0ZLIB.m
BTV/000/CUS .\win_b64\code\lib\JS0ZLIB.lib|.\System\JS0ZLIB.m
RTV/001/CUS .\win_b64\code\bin\JS0ZLIB.dll|.\System\JS0ZLIB.m
INT/000/CUS .\win_b64\code\lib\JS0ZLIB.exp|.\System\JS0ZLIB.m
@type='SHARED_LIBRARY'
@clr='false'
@kind='NATIVE'
@deliverable='true'
@built='true'
