!<mkRTViewData> v1.0.0
RTV/001/CUS .\win_b64\code\bin\CATJNIPspPlantShipTypeLib.dll|.\CATPlantShipInterfaces\CATJNIPspPlantShipTypeLib.m
CSC/000/DSI .\CATPlantShipInterfaces\CATJNIPspPlantShipTypeLib.m\Objects\win_b64\mkcsc\CATJNIPspPlantShipTypeLib.cscdb|.\CATPlantShipInterfaces\CATJNIPspPlantShipTypeLib.m
INT/000/CUS .\win_b64\code\bin\CATJNIPspPlantShipTypeLib.pdb|.\CATPlantShipInterfaces\CATJNIPspPlantShipTypeLib.m
INT/000/CUS .\win_b64\code\lib\CATJNIPspPlantShipTypeLib.exp|.\CATPlantShipInterfaces\CATJNIPspPlantShipTypeLib.m
BTV/000/CUS .\win_b64\code\lib\CATJNIPspPlantShipTypeLib.lib|.\CATPlantShipInterfaces\CATJNIPspPlantShipTypeLib.m
@type='SHARED_LIBRARY'
@clr='false'
@kind='NATIVE'
@deliverable='true'
@built='true'
