!<mkRTViewData> v1.0.0
BTV/002/CUS .\win_b64\code\productIC\GeometricOperatorsIC.xml|.\GeometricOperators
RTV/002/DSI .\win_b64\code\productIC\GeometricOperatorsIC.required|.\GeometricOperators
BTV/002/CUS .\win_b64\code\productIC\GeometricOperatorsIC.script|.\GeometricOperators
CSC/002/DSI .\GeometricOperators\IdentityCard\Objects\win_b64\mkcsc\GeometricOperators.cscdb|.\GeometricOperators
@type='codeFramework'
@built='true'
