!<mkRTViewData> v1.0.0
CSC/000/DSI .\ENOVIAPlugIn\ENOVIATimer.m\Objects\win_b64\mkcsc\ENOVIATimer.cscdb|.\ENOVIAPlugIn\ENOVIATimer.m
RTV/001/CUS .\win_b64\code\bin\ENOVIATimer.exe|.\ENOVIAPlugIn\ENOVIATimer.m
INT/000/CUS .\win_b64\code\bin\ENOVIATimer.pdb|.\ENOVIAPlugIn\ENOVIATimer.m
@type='LOAD_MODULE'
@clr='false'
@kind='NATIVE'
@deliverable='true'
@built='true'
