!<mkRTViewData> v1.0.0
INT/000/CUS .\win_b64\code\bin\DNBAsyActivityBase.pdb|.\DNBAsyActivityBase\DNBAsyActivityBase.m
RTV/001/CUS .\win_b64\code\bin\DNBAsyActivityBase.dll|.\DNBAsyActivityBase\DNBAsyActivityBase.m
CSC/000/DSI .\DNBAsyActivityBase\DNBAsyActivityBase.m\Objects\win_b64\mkcsc\DNBAsyActivityBase.cscdb|.\DNBAsyActivityBase\DNBAsyActivityBase.m
INT/000/CUS .\win_b64\code\lib\DNBAsyActivityBase.exp|.\DNBAsyActivityBase\DNBAsyActivityBase.m
BTV/000/CUS .\win_b64\code\lib\DNBAsyActivityBase.lib|.\DNBAsyActivityBase\DNBAsyActivityBase.m
@type='SHARED_LIBRARY'
@clr='false'
@kind='NATIVE'
@deliverable='true'
@built='true'
