!<mkRTViewData> v1.0.0
CSC/000/DSI .\CATCloudBasicResources\CATCldResCompare.m\Objects\win_b64\mkcsc\CATCldResCompare.cscdb|.\CATCloudBasicResources\CATCldResCompare.m
@type='NONE'
@clr='false'
@kind='INCLUDED'
@deliverable='true'
@built='true'
