!<mkRTViewData> v1.0.0
CSC/000/DSI .\FreeStyleResources\CATFrrDialogs.m\Objects\win_b64\mkcsc\CATFrrDialogs.cscdb|.\FreeStyleResources\CATFrrDialogs.m
@type='NONE'
@clr='false'
@kind='INCLUDED'
@deliverable='true'
@built='true'
