!<mkRTViewData> v1.0.0
CSC/000/DSI .\CATCloudEditorResources\CATPolyFillHoleOperators.m\Objects\win_b64\mkcsc\CATPolyFillHoleOperators.cscdb|.\CATCloudEditorResources\CATPolyFillHoleOperators.m
@type='NONE'
@clr='false'
@kind='INCLUDED'
@deliverable='true'
@built='true'
