!<mkRTViewData> v1.0.0
INT/000/CUS .\win_b64\code\lib\CATBatCAAGrid.exp|.\BatchInfrastructure\CATBatCAAGrid.m
CSC/000/DSI .\BatchInfrastructure\CATBatCAAGrid.m\Objects\win_b64\mkcsc\CATBatCAAGrid.cscdb|.\BatchInfrastructure\CATBatCAAGrid.m
BTV/000/CUS .\win_b64\code\lib\CATBatCAAGrid.lib|.\BatchInfrastructure\CATBatCAAGrid.m
RTV/001/CUS .\win_b64\code\bin\CATBatCAAGrid.dll|.\BatchInfrastructure\CATBatCAAGrid.m
INT/000/CUS .\win_b64\code\bin\CATBatCAAGrid.pdb|.\BatchInfrastructure\CATBatCAAGrid.m
@type='SHARED_LIBRARY'
@clr='false'
@kind='NATIVE'
@deliverable='true'
@built='true'
