!<mkRTViewData> v1.0.0
DAT/002/CUS .\win_b64\resources\msgcatalog\DNBGenericObjFrameProfileDlg.CATRsc|.\DNBRobotCommands\CNext\resources\msgcatalog\DNBGenericObjFrameProfileDlg.CATRsc
RTV/002/DSI .\win_b64\resources\msgcatalog\DbcsTest\DNBCreateGenericObjFrameProfileCmd.CATNls|.\DNBRobotCommands\CNext\resources\msgcatalog\DNBCreateGenericObjFrameProfileCmd.CATNls
DAT/002/CUS .\win_b64\resources\graphic\icons\normal\I_DNBTCPAttachMove.bmp|.\DNBRobotCommands\CNext\resources\graphic\icons\normal\I_DNBTCPAttachMove.bmp
RTV/002/DSI .\win_b64\resources\msgcatalog\NlsTest\DNBCreateGenericMotionProfileCmd.CATNls|.\DNBRobotCommands\CNext\resources\msgcatalog\DNBCreateGenericMotionProfileCmd.CATNls
RTV/002/DSI .\win_b64\resources\msgcatalog\NlsTest\DNBGenericToolProfileCmd.CATNls|.\DNBRobotCommands\CNext\resources\msgcatalog\DNBGenericToolProfileCmd.CATNls
RTV/002/DSI .\win_b64\resources\msgcatalog\NlsTest\DNBTabPageTCPPointGraphicDialog.CATNls|.\DNBRobotCommands\CNext\resources\msgcatalog\DNBTabPageTCPPointGraphicDialog.CATNls
RTV/002/DSI .\win_b64\resources\msgcatalog\DbcsTest\DLMMaxSpeedAndAcclDlg.CATNls|.\DNBRobotCommands\CNext\resources\msgcatalog\DLMMaxSpeedAndAcclDlg.CATNls
DAT/002/CUS .\win_b64\resources\graphic\icons\normal\I_DRUSynchInsRef.bmp|.\DNBRobotCommands\CNext\resources\graphic\icons\normal\I_DRUSynchInsRef.bmp
DAT/002/CUS .\win_b64\resources\msgcatalog\DNBCreateGenericToolProfileCmd.CATNls|.\DNBRobotCommands\CNext\resources\msgcatalog\DNBCreateGenericToolProfileCmd.CATNls
DAT/002/CUS .\win_b64\resources\msgcatalog\DNBCreateGenericMotionProfileCmd.CATNls|.\DNBRobotCommands\CNext\resources\msgcatalog\DNBCreateGenericMotionProfileCmd.CATNls
DAT/002/CUS .\win_b64\resources\msgcatalog\DNBTCPTraceDlg.CATNls|.\DNBRobotCommands\CNext\resources\msgcatalog\DNBTCPTraceDlg.CATNls
RTV/002/DSI .\win_b64\resources\msgcatalog\DbcsTest\DNBGenericAccuracyProfileDlg.CATNls|.\DNBRobotCommands\CNext\resources\msgcatalog\DNBGenericAccuracyProfileDlg.CATNls
RTV/002/DSI .\win_b64\resources\msgcatalog\NlsTest\DNBGenericToolProfileDlg.CATNls|.\DNBRobotCommands\CNext\resources\msgcatalog\DNBGenericToolProfileDlg.CATNls
DAT/002/CUS .\win_b64\resources\graphic\icons\small\I_DNBDeletePath.bmp|.\DNBRobotCommands\CNext\resources\graphic\icons\small\I_DNBDeletePath.bmp
RTV/002/DSI .\win_b64\resources\msgcatalog\DbcsTest\DLMRobMaxSpeedAndAcclCmd.CATNls|.\DNBRobotCommands\CNext\resources\msgcatalog\DLMRobMaxSpeedAndAcclCmd.CATNls
RTV/002/DSI .\win_b64\resources\msgcatalog\DbcsTest\DNBTabPageTCPPointDialog.CATNls|.\DNBRobotCommands\CNext\resources\msgcatalog\DNBTabPageTCPPointDialog.CATNls
DAT/002/CUS .\win_b64\resources\graphic\icons\small\I_DNBDefineAuxDevices.bmp|.\DNBRobotCommands\CNext\resources\graphic\icons\small\I_DNBDefineAuxDevices.bmp
RTV/002/DSI .\win_b64\resources\msgcatalog\DbcsTest\DNBNonRTCPComboDlg.CATNls|.\DNBRobotCommands\CNext\resources\msgcatalog\DNBNonRTCPComboDlg.CATNls
DAT/002/CUS .\win_b64\resources\msgcatalog\DNBCreateGenericObjFrameProfileCmd.CATNls|.\DNBRobotCommands\CNext\resources\msgcatalog\DNBCreateGenericObjFrameProfileCmd.CATNls
RTV/002/DSI .\win_b64\resources\msgcatalog\NlsTest\DNBCreateGenericAccuracyProfileCmd.CATNls|.\DNBRobotCommands\CNext\resources\msgcatalog\DNBCreateGenericAccuracyProfileCmd.CATNls
DAT/002/CUS .\win_b64\resources\graphic\icons\normal\I_DRUSynchRefIns.bmp|.\DNBRobotCommands\CNext\resources\graphic\icons\normal\I_DRUSynchRefIns.bmp
RTV/002/DSI .\win_b64\resources\msgcatalog\NlsTest\DELMDruControllerSynchronizationDlg.CATNls|.\DNBRobotCommands\CNext\resources\msgcatalog\DELMDruControllerSynchronizationDlg.CATNls
RTV/002/DSI .\win_b64\resources\msgcatalog\NlsTest\DLMMaxSpeedAndAcclDlg.CATNls|.\DNBRobotCommands\CNext\resources\msgcatalog\DLMMaxSpeedAndAcclDlg.CATNls
DAT/002/CUS .\win_b64\resources\msgcatalog\DNBTCPTraceCmd.CATNls|.\DNBRobotCommands\CNext\resources\msgcatalog\DNBTCPTraceCmd.CATNls
DAT/002/CUS .\win_b64\resources\msgcatalog\DNBIgpTCPOffsetDlg.CATRsc|.\DNBRobotCommands\CNext\resources\msgcatalog\DNBIgpTCPOffsetDlg.CATRsc
DAT/002/CUS .\win_b64\resources\graphic\icons\small\I_DNBTCPDetachMove.bmp|.\DNBRobotCommands\CNext\resources\graphic\icons\small\I_DNBTCPDetachMove.bmp
DAT/002/CUS .\win_b64\resources\msgcatalog\DLMRobMaxSpeedAndAcclCmd.CATNls|.\DNBRobotCommands\CNext\resources\msgcatalog\DLMRobMaxSpeedAndAcclCmd.CATNls
DAT/002/CUS .\win_b64\resources\msgcatalog\DNBGenericMotionProfileDlg.CATRsc|.\DNBRobotCommands\CNext\resources\msgcatalog\DNBGenericMotionProfileDlg.CATRsc
DAT/002/CUS .\win_b64\code\dictionary\DNBRobotCommands.dic|.\DNBRobotCommands\CNext\code\dictionary\DNBRobotCommands.dic
RTV/002/DSI .\win_b64\resources\msgcatalog\NlsTest\DNBConveyorAxisMappingDlg.CATNls|.\DNBRobotCommands\CNext\resources\msgcatalog\DNBConveyorAxisMappingDlg.CATNls
RTV/002/DSI .\win_b64\resources\msgcatalog\NlsTest\DNBGenericMotionProfileDlg.CATNls|.\DNBRobotCommands\CNext\resources\msgcatalog\DNBGenericMotionProfileDlg.CATNls
RTV/002/DSI .\win_b64\resources\msgcatalog\NlsTest\DNBNonRTCPComboDlg.CATNls|.\DNBRobotCommands\CNext\resources\msgcatalog\DNBNonRTCPComboDlg.CATNls
DAT/002/CUS .\win_b64\resources\graphic\icons\normal\I_DRUSynchRefInsAll.bmp|.\DNBRobotCommands\CNext\resources\graphic\icons\normal\I_DRUSynchRefInsAll.bmp
RTV/002/DSI .\win_b64\resources\msgcatalog\NlsTest\DNBTabPageTCPPointDialog.CATNls|.\DNBRobotCommands\CNext\resources\msgcatalog\DNBTabPageTCPPointDialog.CATNls
RTV/002/DSI .\win_b64\resources\msgcatalog\DbcsTest\DNBCustomizeRobProfilesCmd.CATNls|.\DNBRobotCommands\CNext\resources\msgcatalog\DNBCustomizeRobProfilesCmd.CATNls
DAT/002/CUS .\win_b64\resources\graphic\icons\normal\I_DNBDeletePath.bmp|.\DNBRobotCommands\CNext\resources\graphic\icons\normal\I_DNBDeletePath.bmp
RTV/002/DSI .\win_b64\resources\msgcatalog\NlsTest\DNBTCPTraceDlg.CATNls|.\DNBRobotCommands\CNext\resources\msgcatalog\DNBTCPTraceDlg.CATNls
RTV/002/DSI .\win_b64\resources\msgcatalog\NlsTest\DNBCustomizeRobProfilesCmd.CATNls|.\DNBRobotCommands\CNext\resources\msgcatalog\DNBCustomizeRobProfilesCmd.CATNls
RTV/002/DSI .\win_b64\resources\msgcatalog\NlsTest\DNBTCPTraceCmd.CATNls|.\DNBRobotCommands\CNext\resources\msgcatalog\DNBTCPTraceCmd.CATNls
DAT/002/CUS .\win_b64\resources\msgcatalog\DNBIgpDefineAuxDevicesCmd.CATNls|.\DNBRobotCommands\CNext\resources\msgcatalog\DNBIgpDefineAuxDevicesCmd.CATNls
RTV/002/DSI .\win_b64\code\productIC\DNBRobotCommandsIC.required|.\DNBRobotCommands
DAT/002/CUS .\win_b64\resources\graphic\icons\normal\I_DNBTCPDetachMove.bmp|.\DNBRobotCommands\CNext\resources\graphic\icons\normal\I_DNBTCPDetachMove.bmp
RTV/002/DSI .\win_b64\resources\msgcatalog\DbcsTest\DNBIgpDefineAuxDevicesDlg.CATNls|.\DNBRobotCommands\CNext\resources\msgcatalog\DNBIgpDefineAuxDevicesDlg.CATNls
RTV/002/DSI .\win_b64\resources\msgcatalog\NlsTest\DELMDruControllerSynchronizationCmd.CATNls|.\DNBRobotCommands\CNext\resources\msgcatalog\DELMDruControllerSynchronizationCmd.CATNls
RTV/002/DSI .\win_b64\resources\msgcatalog\NlsTest\DNBGenericObjFrameProfileCmd.CATNls|.\DNBRobotCommands\CNext\resources\msgcatalog\DNBGenericObjFrameProfileCmd.CATNls
BTV/002/CUS .\win_b64\code\productIC\DNBRobotCommandsIC.script|.\DNBRobotCommands
DAT/002/CUS .\win_b64\resources\msgcatalog\DELMDruControllerSynchronizationCmd.CATNls|.\DNBRobotCommands\CNext\resources\msgcatalog\DELMDruControllerSynchronizationCmd.CATNls
RTV/002/DSI .\win_b64\resources\msgcatalog\DbcsTest\DNBGenericObjFrameProfileCmd.CATNls|.\DNBRobotCommands\CNext\resources\msgcatalog\DNBGenericObjFrameProfileCmd.CATNls
DAT/002/CUS .\win_b64\resources\msgcatalog\DNBGenericToolProfileDlg.CATRsc|.\DNBRobotCommands\CNext\resources\msgcatalog\DNBGenericToolProfileDlg.CATRsc
RTV/002/DSI .\win_b64\resources\msgcatalog\DbcsTest\DNBTCPTraceDlg.CATNls|.\DNBRobotCommands\CNext\resources\msgcatalog\DNBTCPTraceDlg.CATNls
DAT/002/CUS .\win_b64\resources\msgcatalog\DNBGenericToolProfileDlg.CATDlg|.\DNBRobotCommands\CNext\resources\msgcatalog\DNBGenericToolProfileDlg.CATDlg
DAT/002/CUS .\win_b64\resources\graphic\icons\normal\I_DNBDefineAuxDevices.bmp|.\DNBRobotCommands\CNext\resources\graphic\icons\normal\I_DNBDefineAuxDevices.bmp
RTV/002/DSI .\win_b64\resources\msgcatalog\NlsTest\DNBTCPTraceDeleteCmd.CATNls|.\DNBRobotCommands\CNext\resources\msgcatalog\DNBTCPTraceDeleteCmd.CATNls
RTV/002/DSI .\win_b64\resources\msgcatalog\DbcsTest\DNBIgpDefineAuxDevicesCmd.CATNls|.\DNBRobotCommands\CNext\resources\msgcatalog\DNBIgpDefineAuxDevicesCmd.CATNls
RTV/002/DSI .\win_b64\resources\msgcatalog\DbcsTest\DNBCreateGenericMotionProfileCmd.CATNls|.\DNBRobotCommands\CNext\resources\msgcatalog\DNBCreateGenericMotionProfileCmd.CATNls
RTV/002/DSI .\win_b64\resources\msgcatalog\DbcsTest\DNBGenericToolProfileDlg.CATNls|.\DNBRobotCommands\CNext\resources\msgcatalog\DNBGenericToolProfileDlg.CATNls
RTV/002/DSI .\win_b64\resources\msgcatalog\DbcsTest\DNBConveyorAxisMappingDlg.CATNls|.\DNBRobotCommands\CNext\resources\msgcatalog\DNBConveyorAxisMappingDlg.CATNls
RTV/002/DSI .\win_b64\resources\msgcatalog\NlsTest\DNBGenericObjFrameProfileDlg.CATNls|.\DNBRobotCommands\CNext\resources\msgcatalog\DNBGenericObjFrameProfileDlg.CATNls
RTV/002/DSI .\win_b64\resources\msgcatalog\NlsTest\DNBGenericAccuracyProfileDlg.CATNls|.\DNBRobotCommands\CNext\resources\msgcatalog\DNBGenericAccuracyProfileDlg.CATNls
RTV/002/DSI .\win_b64\resources\msgcatalog\DbcsTest\DNBIgpTCPOffsetDlg.CATNls|.\DNBRobotCommands\CNext\resources\msgcatalog\DNBIgpTCPOffsetDlg.CATNls
DAT/002/CUS .\win_b64\resources\msgcatalog\DNBTCPTraceDeleteCmd.CATNls|.\DNBRobotCommands\CNext\resources\msgcatalog\DNBTCPTraceDeleteCmd.CATNls
DAT/002/CUS .\win_b64\resources\msgcatalog\DNBGenericObjFrameProfileCmd.CATNls|.\DNBRobotCommands\CNext\resources\msgcatalog\DNBGenericObjFrameProfileCmd.CATNls
RTV/002/DSI .\win_b64\resources\msgcatalog\DbcsTest\DNBCreateGenericAccuracyProfileCmd.CATNls|.\DNBRobotCommands\CNext\resources\msgcatalog\DNBCreateGenericAccuracyProfileCmd.CATNls
DAT/002/CUS .\win_b64\resources\msgcatalog\DNBGenericMotionProfileDlg.CATNls|.\DNBRobotCommands\CNext\resources\msgcatalog\DNBGenericMotionProfileDlg.CATNls
DAT/002/CUS .\win_b64\resources\msgcatalog\DNBTabPageTCPPointGraphicDialog.CATNls|.\DNBRobotCommands\CNext\resources\msgcatalog\DNBTabPageTCPPointGraphicDialog.CATNls
DAT/002/CUS .\win_b64\resources\graphic\icons\small\I_DNBTCPAttachMove.bmp|.\DNBRobotCommands\CNext\resources\graphic\icons\small\I_DNBTCPAttachMove.bmp
DAT/002/CUS .\win_b64\resources\msgcatalog\DNBGenericAccuracyProfileDlg.CATRsc|.\DNBRobotCommands\CNext\resources\msgcatalog\DNBGenericAccuracyProfileDlg.CATRsc
RTV/002/DSI .\win_b64\resources\msgcatalog\DbcsTest\DNBGenericMotionProfileCmd.CATNls|.\DNBRobotCommands\CNext\resources\msgcatalog\DNBGenericMotionProfileCmd.CATNls
DAT/002/CUS .\win_b64\resources\graphic\icons\normal\I_DNBTCPTrace.bmp|.\DNBRobotCommands\CNext\resources\graphic\icons\normal\I_DNBTCPTrace.bmp
DAT/002/CUS .\win_b64\resources\msgcatalog\DNBCustomizeRobProfilesCmd.CATNls|.\DNBRobotCommands\CNext\resources\msgcatalog\DNBCustomizeRobProfilesCmd.CATNls
RTV/002/DSI .\win_b64\resources\msgcatalog\NlsTest\DNBConveyorAxisMappingCmd.CATNls|.\DNBRobotCommands\CNext\resources\msgcatalog\DNBConveyorAxisMappingCmd.CATNls
DAT/002/CUS .\win_b64\resources\msgcatalog\DNBNonRTCPComboDlg.CATNls|.\DNBRobotCommands\CNext\resources\msgcatalog\DNBNonRTCPComboDlg.CATNls
DAT/002/CUS .\win_b64\code\dictionary\DNBRobotCommands.fact|.\DNBRobotCommands\CNext\code\dictionary\DNBRobotCommands.fact
DAT/002/CUS .\win_b64\resources\msgcatalog\DNBCreateGenericAccuracyProfileCmd.CATNls|.\DNBRobotCommands\CNext\resources\msgcatalog\DNBCreateGenericAccuracyProfileCmd.CATNls
RTV/002/DSI .\win_b64\resources\msgcatalog\DbcsTest\DELMDruSetCurrentProfileCmd.CATNls|.\DNBRobotCommands\CNext\resources\msgcatalog\DELMDruSetCurrentProfileCmd.CATNls
DAT/002/CUS .\win_b64\resources\msgcatalog\DELMDruSetCurrentProfileCmd.CATNls|.\DNBRobotCommands\CNext\resources\msgcatalog\DELMDruSetCurrentProfileCmd.CATNls
BTV/002/CUS .\win_b64\code\productIC\DNBRobotCommandsIC.xml|.\DNBRobotCommands
DAT/002/CUS .\win_b64\resources\msgcatalog\DNBGenericAccuracyProfileDlg.CATNls|.\DNBRobotCommands\CNext\resources\msgcatalog\DNBGenericAccuracyProfileDlg.CATNls
RTV/002/DSI .\win_b64\resources\msgcatalog\NlsTest\DNBGenericMotionProfileCmd.CATNls|.\DNBRobotCommands\CNext\resources\msgcatalog\DNBGenericMotionProfileCmd.CATNls
RTV/002/DSI .\win_b64\resources\msgcatalog\NlsTest\DNBCreateGenericObjFrameProfileCmd.CATNls|.\DNBRobotCommands\CNext\resources\msgcatalog\DNBCreateGenericObjFrameProfileCmd.CATNls
RTV/002/DSI .\win_b64\resources\msgcatalog\NlsTest\DNBIgpDefineAuxDevicesCmd.CATNls|.\DNBRobotCommands\CNext\resources\msgcatalog\DNBIgpDefineAuxDevicesCmd.CATNls
DAT/002/CUS .\win_b64\resources\msgcatalog\DNBGenericObjFrameProfileDlg.CATNls|.\DNBRobotCommands\CNext\resources\msgcatalog\DNBGenericObjFrameProfileDlg.CATNls
DAT/002/CUS .\win_b64\resources\graphic\icons\small\I_DNBTCPTrace.bmp|.\DNBRobotCommands\CNext\resources\graphic\icons\small\I_DNBTCPTrace.bmp
RTV/002/DSI .\win_b64\resources\msgcatalog\DbcsTest\DNBGenericToolProfileCmd.CATNls|.\DNBRobotCommands\CNext\resources\msgcatalog\DNBGenericToolProfileCmd.CATNls
DAT/002/CUS .\win_b64\resources\msgcatalog\DNBIgpTCPOffsetDlg.CATNls|.\DNBRobotCommands\CNext\resources\msgcatalog\DNBIgpTCPOffsetDlg.CATNls
DAT/002/CUS .\win_b64\resources\msgcatalog\DNBConveyorAxisMappingDlg.CATNls|.\DNBRobotCommands\CNext\resources\msgcatalog\DNBConveyorAxisMappingDlg.CATNls
RTV/002/DSI .\win_b64\resources\msgcatalog\DbcsTest\DNBCreateGenericToolProfileCmd.CATNls|.\DNBRobotCommands\CNext\resources\msgcatalog\DNBCreateGenericToolProfileCmd.CATNls
RTV/002/DSI .\win_b64\resources\msgcatalog\NlsTest\DELMDruSetCurrentProfileCmd.CATNls|.\DNBRobotCommands\CNext\resources\msgcatalog\DELMDruSetCurrentProfileCmd.CATNls
DAT/002/CUS .\win_b64\resources\msgcatalog\DNBIgpDefineAuxDevicesDlg.CATNls|.\DNBRobotCommands\CNext\resources\msgcatalog\DNBIgpDefineAuxDevicesDlg.CATNls
DAT/002/CUS .\win_b64\resources\msgcatalog\DNBGenericToolProfileCmd.CATNls|.\DNBRobotCommands\CNext\resources\msgcatalog\DNBGenericToolProfileCmd.CATNls
DAT/002/CUS .\win_b64\resources\graphic\icons\normal\I_DRUSynchInsRefAll.bmp|.\DNBRobotCommands\CNext\resources\graphic\icons\normal\I_DRUSynchInsRefAll.bmp
RTV/002/DSI .\win_b64\resources\msgcatalog\DbcsTest\DELMDruControllerSynchronizationCmd.CATNls|.\DNBRobotCommands\CNext\resources\msgcatalog\DELMDruControllerSynchronizationCmd.CATNls
RTV/002/DSI .\win_b64\resources\msgcatalog\DbcsTest\DNBTCPTraceCmd.CATNls|.\DNBRobotCommands\CNext\resources\msgcatalog\DNBTCPTraceCmd.CATNls
DAT/002/CUS .\win_b64\resources\msgcatalog\DNBTabPageTCPPointDialog.CATNls|.\DNBRobotCommands\CNext\resources\msgcatalog\DNBTabPageTCPPointDialog.CATNls
CSC/002/DSI .\DNBRobotCommands\IdentityCard\Objects\win_b64\mkcsc\DNBRobotCommands.cscdb|.\DNBRobotCommands
RTV/002/DSI .\win_b64\resources\msgcatalog\NlsTest\DNBGenericAccuracyProfileCmd.CATNls|.\DNBRobotCommands\CNext\resources\msgcatalog\DNBGenericAccuracyProfileCmd.CATNls
RTV/002/DSI .\win_b64\resources\msgcatalog\DbcsTest\DNBConveyorAxisMappingCmd.CATNls|.\DNBRobotCommands\CNext\resources\msgcatalog\DNBConveyorAxisMappingCmd.CATNls
RTV/002/DSI .\win_b64\resources\msgcatalog\DbcsTest\DNBGenericMotionProfileDlg.CATNls|.\DNBRobotCommands\CNext\resources\msgcatalog\DNBGenericMotionProfileDlg.CATNls
RTV/002/DSI .\win_b64\resources\msgcatalog\DbcsTest\DNBGenericAccuracyProfileCmd.CATNls|.\DNBRobotCommands\CNext\resources\msgcatalog\DNBGenericAccuracyProfileCmd.CATNls
RTV/002/DSI .\win_b64\resources\msgcatalog\NlsTest\DNBCreateGenericToolProfileCmd.CATNls|.\DNBRobotCommands\CNext\resources\msgcatalog\DNBCreateGenericToolProfileCmd.CATNls
RTV/002/DSI .\win_b64\resources\msgcatalog\DbcsTest\DNBTCPTraceDeleteCmd.CATNls|.\DNBRobotCommands\CNext\resources\msgcatalog\DNBTCPTraceDeleteCmd.CATNls
RTV/002/DSI .\win_b64\resources\msgcatalog\NlsTest\DNBIgpTCPOffsetDlg.CATNls|.\DNBRobotCommands\CNext\resources\msgcatalog\DNBIgpTCPOffsetDlg.CATNls
RTV/002/DSI .\win_b64\resources\msgcatalog\NlsTest\DNBIgpDefineAuxDevicesDlg.CATNls|.\DNBRobotCommands\CNext\resources\msgcatalog\DNBIgpDefineAuxDevicesDlg.CATNls
DAT/002/CUS .\win_b64\resources\msgcatalog\DNBTCPTraceDlg.CATRsc|.\DNBRobotCommands\CNext\resources\msgcatalog\DNBTCPTraceDlg.CATRsc
DAT/002/CUS .\win_b64\resources\msgcatalog\DNBGenericMotionProfileCmd.CATNls|.\DNBRobotCommands\CNext\resources\msgcatalog\DNBGenericMotionProfileCmd.CATNls
RTV/002/DSI .\win_b64\resources\msgcatalog\DbcsTest\DNBGenericObjFrameProfileDlg.CATNls|.\DNBRobotCommands\CNext\resources\msgcatalog\DNBGenericObjFrameProfileDlg.CATNls
RTV/002/DSI .\win_b64\resources\msgcatalog\DbcsTest\DELMDruControllerSynchronizationDlg.CATNls|.\DNBRobotCommands\CNext\resources\msgcatalog\DELMDruControllerSynchronizationDlg.CATNls
DAT/002/CUS .\win_b64\resources\msgcatalog\DLMMaxSpeedAndAcclDlg.CATNls|.\DNBRobotCommands\CNext\resources\msgcatalog\DLMMaxSpeedAndAcclDlg.CATNls
DAT/002/CUS .\win_b64\resources\msgcatalog\DNBGenericToolProfileDlg.CATNls|.\DNBRobotCommands\CNext\resources\msgcatalog\DNBGenericToolProfileDlg.CATNls
RTV/002/DSI .\win_b64\resources\msgcatalog\NlsTest\DLMRobMaxSpeedAndAcclCmd.CATNls|.\DNBRobotCommands\CNext\resources\msgcatalog\DLMRobMaxSpeedAndAcclCmd.CATNls
RTV/002/DSI .\win_b64\resources\msgcatalog\DbcsTest\DNBTabPageTCPPointGraphicDialog.CATNls|.\DNBRobotCommands\CNext\resources\msgcatalog\DNBTabPageTCPPointGraphicDialog.CATNls
DAT/002/CUS .\win_b64\resources\msgcatalog\DELMDruControllerSynchronizationDlg.CATNls|.\DNBRobotCommands\CNext\resources\msgcatalog\DELMDruControllerSynchronizationDlg.CATNls
DAT/002/CUS .\win_b64\resources\msgcatalog\DNBConveyorAxisMappingCmd.CATNls|.\DNBRobotCommands\CNext\resources\msgcatalog\DNBConveyorAxisMappingCmd.CATNls
DAT/002/CUS .\win_b64\resources\msgcatalog\DNBGenericAccuracyProfileCmd.CATNls|.\DNBRobotCommands\CNext\resources\msgcatalog\DNBGenericAccuracyProfileCmd.CATNls
@type='codeFramework'
@built='true'
