!<mkRTViewData> v1.0.0
CSC/000/DSI .\FreeFormOperators\FrFAdvancedOpeUtil.m\Objects\win_b64\mkcsc\FrFAdvancedOpeUtil.cscdb|.\FreeFormOperators\FrFAdvancedOpeUtil.m
@type='NONE'
@clr='false'
@kind='INCLUDED'
@deliverable='true'
@built='true'
