!<mkRTViewData> v1.0.0
CSC/000/DSI .\CATJWSInfra\CATJWSApiCppCom.m\Objects\win_b64\mkcsc\CATJWSApiCppCom.cscdb|.\CATJWSInfra\CATJWSApiCppCom.m
@type='SHARED_LIBRARY'
@clr='false'
@kind='NATIVE'
@deliverable='true'
@built='false'
