!<mkRTViewData> v1.0.0
CSC/000/DSI .\CATMoldDesignUI\CATMldCustoIconProduct.m\Objects\win_b64\mkcsc\CATMldCustoIconProduct.cscdb|.\CATMoldDesignUI\CATMldCustoIconProduct.m
@type='NONE'
@clr='false'
@kind='INCLUDED'
@deliverable='true'
@built='true'
