!<mkRTViewData> v1.0.0
INT/000/CUS .\win_b64\code\lib\CATGSMModelServices.exp|.\CATGSMModelServices\CATGSMModelServices.m
RTV/001/CUS .\win_b64\code\bin\CATGSMModelServices.dll|.\CATGSMModelServices\CATGSMModelServices.m
BTV/000/CUS .\win_b64\code\lib\CATGSMModelServices.lib|.\CATGSMModelServices\CATGSMModelServices.m
CSC/000/DSI .\CATGSMModelServices\CATGSMModelServices.m\Objects\win_b64\mkcsc\CATGSMModelServices.cscdb|.\CATGSMModelServices\CATGSMModelServices.m
INT/000/CUS .\win_b64\code\bin\CATGSMModelServices.pdb|.\CATGSMModelServices\CATGSMModelServices.m
@type='SHARED_LIBRARY'
@clr='false'
@kind='NATIVE'
@deliverable='true'
@built='true'
