!<mkRTViewData> v1.0.0
BTV/002/CUS .\win_b64\code\productIC\PartDesignDataImportIC.xml|.\PartDesignDataImport
RTV/002/DSI .\win_b64\code\productIC\PartDesignDataImportIC.required|.\PartDesignDataImport
DAT/002/CUS .\win_b64\code\dictionary\PartDesignDataImport.dic|.\PartDesignDataImport\CNext\code\dictionary\PartDesignDataImport.dic
BTV/002/CUS .\win_b64\code\productIC\PartDesignDataImportIC.script|.\PartDesignDataImport
CSC/002/DSI .\PartDesignDataImport\IdentityCard\Objects\win_b64\mkcsc\PartDesignDataImport.cscdb|.\PartDesignDataImport
@type='codeFramework'
@built='true'
