!<mkRTViewData> v1.0.0
INT/000/CUS .\win_b64\code\bin\DNBProcessBase.pdb|.\DNBProcessBase\DNBProcessBase.m
RTV/001/CUS .\win_b64\code\bin\DNBProcessBase.dll|.\DNBProcessBase\DNBProcessBase.m
INT/000/CUS .\win_b64\code\lib\DNBProcessBase.exp|.\DNBProcessBase\DNBProcessBase.m
BTV/000/CUS .\win_b64\code\lib\DNBProcessBase.lib|.\DNBProcessBase\DNBProcessBase.m
CSC/000/DSI .\DNBProcessBase\DNBProcessBase.m\Objects\win_b64\mkcsc\DNBProcessBase.cscdb|.\DNBProcessBase\DNBProcessBase.m
@type='SHARED_LIBRARY'
@clr='false'
@kind='NATIVE'
@deliverable='true'
@built='true'
