!<mkRTViewData> v1.0.0
BTV/000/CUS .\win_b64\code\lib\AUTCsmPrdInterfacesUUID.lib|.\AUTCsmPrdInterfaces\AUTCsmPrdInterfacesUUID.m
CSC/000/DSI .\AUTCsmPrdInterfaces\AUTCsmPrdInterfacesUUID.m\Objects\win_b64\mkcsc\AUTCsmPrdInterfacesUUID.cscdb|.\AUTCsmPrdInterfaces\AUTCsmPrdInterfacesUUID.m
@type='ARCHIVE'
@clr='false'
@kind='NATIVE'
@deliverable='true'
@built='true'
