11010
11020
11030
11040
11050
11060
11070
11080
11090
11100
11110
11120
11130
11140
11150
11160
11170
11190
11200
11280
11300
11400
11450
11460
11470
11480
11500
11600
11650
11660
11680
11700
11780
11850
11870
11900