!<mkRTViewData> v1.0.0
CSC/000/DSI .\DNBGraphEditor\DNBPertPubIDL.m\Objects\win_b64\mkcsc\DNBPertPubIDL.cscdb|.\DNBGraphEditor\DNBPertPubIDL.m
@type='NONE'
@clr='false'
@kind='INCLUDED'
@deliverable='true'
@built='true'
