!<mkRTViewData> v1.0.0
INT/000/CUS .\win_b64\code\bin\CATPartDesignBase.pdb|.\PartDesignFeature\CATPartDesignBase.m
CSC/000/DSI .\PartDesignFeature\CATPartDesignBase.m\Objects\win_b64\mkcsc\CATPartDesignBase.cscdb|.\PartDesignFeature\CATPartDesignBase.m
BTV/000/CUS .\win_b64\code\lib\CATPartDesignBase.lib|.\PartDesignFeature\CATPartDesignBase.m
INT/000/CUS .\win_b64\code\lib\CATPartDesignBase.exp|.\PartDesignFeature\CATPartDesignBase.m
RTV/001/CUS .\win_b64\code\bin\CATPartDesignBase.dll|.\PartDesignFeature\CATPartDesignBase.m
@type='SHARED_LIBRARY'
@clr='false'
@kind='NATIVE'
@deliverable='true'
@built='true'
