!<mkRTViewData> v1.0.0
BTV/000/CUS .\win_b64\code\lib\CATCDMOperatorsInterfaces.lib|.\CDMOperatorsInterfaces\CATCDMOperatorsInterfaces.m
INT/000/CUS .\win_b64\code\lib\CATCDMOperatorsInterfaces.exp|.\CDMOperatorsInterfaces\CATCDMOperatorsInterfaces.m
INT/000/CUS .\win_b64\code\bin\CATCDMOperatorsInterfaces.pdb|.\CDMOperatorsInterfaces\CATCDMOperatorsInterfaces.m
CSC/000/DSI .\CDMOperatorsInterfaces\CATCDMOperatorsInterfaces.m\Objects\win_b64\mkcsc\CATCDMOperatorsInterfaces.cscdb|.\CDMOperatorsInterfaces\CATCDMOperatorsInterfaces.m
RTV/001/CUS .\win_b64\code\bin\CATCDMOperatorsInterfaces.dll|.\CDMOperatorsInterfaces\CATCDMOperatorsInterfaces.m
@type='SHARED_LIBRARY'
@clr='false'
@kind='NATIVE'
@deliverable='true'
@built='true'
