!<mkRTViewData> v1.0.0
RTV/002/DSI .\win_b64\code\productIC\MechanicalBuildInfraIC.required|.\MechanicalBuildInfra
BTV/002/CUS .\win_b64\code\productIC\MechanicalBuildInfraIC.xml|.\MechanicalBuildInfra
BTV/002/CUS .\win_b64\code\productIC\MechanicalBuildInfraIC.script|.\MechanicalBuildInfra
CSC/002/DSI .\MechanicalBuildInfra\IdentityCard\Objects\win_b64\mkcsc\MechanicalBuildInfra.cscdb|.\MechanicalBuildInfra
@type='codeFramework'
@built='true'
