!<mkRTViewData> v1.0.0
CSC/000/DSI .\ProcessPlatformBase\SP0BBAUTO.m\Objects\win_b64\mkcsc\SP0BBAUTO.cscdb|.\ProcessPlatformBase\SP0BBAUTO.m
@type='NONE'
@clr='false'
@kind='INCLUDED'
@deliverable='true'
@built='true'
