!<mkRTViewData> v1.0.0
RTV/001/CUS .\win_b64\code\bin\CATJoystick3DDaemon.dll|.\CATImmersiveUI\CATJoystick3DDaemon.m
INT/000/CUS .\win_b64\code\lib\CATJoystick3DDaemon.exp|.\CATImmersiveUI\CATJoystick3DDaemon.m
INT/000/CUS .\win_b64\code\bin\CATJoystick3DDaemon.pdb|.\CATImmersiveUI\CATJoystick3DDaemon.m
CSC/000/DSI .\CATImmersiveUI\CATJoystick3DDaemon.m\Objects\win_b64\mkcsc\CATJoystick3DDaemon.cscdb|.\CATImmersiveUI\CATJoystick3DDaemon.m
BTV/000/CUS .\win_b64\code\lib\CATJoystick3DDaemon.lib|.\CATImmersiveUI\CATJoystick3DDaemon.m
@type='SHARED_LIBRARY'
@clr='false'
@kind='NATIVE'
@deliverable='true'
@built='true'
