!<mkRTViewData> v1.0.0
BTV/002/CUS .\win_b64\code\productIC\V5ToV4GeoIC.script|.\V5ToV4Geo
CSC/002/DSI .\V5ToV4Geo\IdentityCard\Objects\win_b64\mkcsc\V5ToV4Geo.cscdb|.\V5ToV4Geo
RTV/002/DSI .\win_b64\code\productIC\V5ToV4GeoIC.required|.\V5ToV4Geo
BTV/002/CUS .\win_b64\code\productIC\V5ToV4GeoIC.xml|.\V5ToV4Geo
@type='codeFramework'
@built='true'
