!<mkRTViewData> v1.0.0
BTV/002/CUS .\win_b64\code\productIC\VisuImmersiveDialogIC.script|.\VisuImmersiveDialog
BTV/002/CUS .\win_b64\code\productIC\VisuImmersiveDialogIC.xml|.\VisuImmersiveDialog
RTV/002/DSI .\win_b64\code\productIC\VisuImmersiveDialogIC.required|.\VisuImmersiveDialog
CSC/002/DSI .\VisuImmersiveDialog\IdentityCard\Objects\win_b64\mkcsc\VisuImmersiveDialog.cscdb|.\VisuImmersiveDialog
@type='codeFramework'
@built='true'
