!<mkRTViewData> v1.0.0
INT/000/CUS .\win_b64\code\lib\CATCamController.exp|.\CATCamera\CATCamController.m
BTV/000/CUS .\win_b64\code\lib\CATCamController.lib|.\CATCamera\CATCamController.m
INT/000/CUS .\win_b64\code\bin\CATCamController.pdb|.\CATCamera\CATCamController.m
CSC/000/DSI .\CATCamera\CATCamController.m\Objects\win_b64\mkcsc\CATCamController.cscdb|.\CATCamera\CATCamController.m
RTV/001/CUS .\win_b64\code\bin\CATCamController.dll|.\CATCamera\CATCamController.m
@type='SHARED_LIBRARY'
@clr='false'
@kind='NATIVE'
@deliverable='true'
@built='true'
