!<mkRTViewData> v1.0.0
CSC/000/DSI .\ProductStructure\PRDExport.m\Objects\win_b64\mkcsc\PRDExport.cscdb|.\ProductStructure\PRDExport.m
@type='NONE'
@clr='false'
@kind='INCLUDED'
@deliverable='true'
@built='true'
