!<mkRTViewData> v1.0.0
INT/000/CUS .\win_b64\code\bin\CATDMUOverlaySettings.pdb|.\Navigator4DUI\CATDMUOverlaySettings.m
BTV/000/CUS .\win_b64\code\lib\CATDMUOverlaySettings.lib|.\Navigator4DUI\CATDMUOverlaySettings.m
RTV/001/CUS .\win_b64\code\bin\CATDMUOverlaySettings.dll|.\Navigator4DUI\CATDMUOverlaySettings.m
CSC/000/DSI .\Navigator4DUI\CATDMUOverlaySettings.m\Objects\win_b64\mkcsc\CATDMUOverlaySettings.cscdb|.\Navigator4DUI\CATDMUOverlaySettings.m
INT/000/CUS .\win_b64\code\lib\CATDMUOverlaySettings.exp|.\Navigator4DUI\CATDMUOverlaySettings.m
@type='SHARED_LIBRARY'
@clr='false'
@kind='NATIVE'
@deliverable='true'
@built='true'
