!<mkRTViewData> v1.0.0
CSC/000/DSI .\CATEngSystemDbModeler\CATEdbProIDL.m\Objects\win_b64\mkcsc\CATEdbProIDL.cscdb|.\CATEngSystemDbModeler\CATEdbProIDL.m
@type='NONE'
@clr='false'
@kind='INCLUDED'
@deliverable='true'
@built='true'
