!<mkRTViewData> v1.0.0
INT/000/CUS .\win_b64\code\bin\CATELFOptimization.pdb|.\CATElfiniOpenSoftware\CATELFOptimization.m
INT/000/CUS .\win_b64\code\lib\CATELFOptimization.exp|.\CATElfiniOpenSoftware\CATELFOptimization.m
BTV/000/CUS .\win_b64\code\lib\CATELFOptimization.lib|.\CATElfiniOpenSoftware\CATELFOptimization.m
CSC/000/DSI .\CATElfiniOpenSoftware\CATELFOptimization.m\Objects\win_b64\mkcsc\CATELFOptimization.cscdb|.\CATElfiniOpenSoftware\CATELFOptimization.m
RTV/001/CUS .\win_b64\code\bin\CATELFOptimization.dll|.\CATElfiniOpenSoftware\CATELFOptimization.m
@type='SHARED_LIBRARY'
@clr='false'
@kind='NATIVE'
@deliverable='true'
@built='true'
