!<mkRTViewData> v1.0.0
CSC/000/DSI .\FittingInterfaces\G60I0FIT.m\Objects\win_b64\mkcsc\G60I0FIT.cscdb|.\FittingInterfaces\G60I0FIT.m
@type='NONE'
@clr='false'
@kind='INCLUDED'
@deliverable='true'
@built='true'
