!<mkRTViewData> v1.0.0
CSC/000/DSI .\ObjectSpecsModeler\CP0SPEC.m\Objects\win_b64\mkcsc\CP0SPEC.cscdb|.\ObjectSpecsModeler\CP0SPEC.m
@type='NONE'
@clr='false'
@kind='INCLUDED'
@deliverable='true'
@built='true'
