!<mkRTViewData> v1.0.0
CSC/000/DSI .\SurfacicAdvancedTopoOpe\SurfaceSimplification.m\Objects\win_b64\mkcsc\SurfaceSimplification.cscdb|.\SurfacicAdvancedTopoOpe\SurfaceSimplification.m
@type='NONE'
@clr='false'
@kind='INCLUDED'
@deliverable='true'
@built='true'
