!<mkRTViewData> v1.0.0
INT/000/CUS .\win_b64\code\lib\AUTLciVMExterns.exp|.\AUTLciVM\AUTLciVMExterns.m
BTV/000/CUS .\win_b64\code\lib\AUTLciVMExterns.lib|.\AUTLciVM\AUTLciVMExterns.m
RTV/001/CUS .\win_b64\code\bin\AUTLciVMExterns.dll|.\AUTLciVM\AUTLciVMExterns.m
INT/000/CUS .\win_b64\code\bin\AUTLciVMExterns.pdb|.\AUTLciVM\AUTLciVMExterns.m
CSC/000/DSI .\AUTLciVM\AUTLciVMExterns.m\Objects\win_b64\mkcsc\AUTLciVMExterns.cscdb|.\AUTLciVM\AUTLciVMExterns.m
@type='SHARED_LIBRARY'
@clr='false'
@kind='NATIVE'
@deliverable='true'
@built='true'
