!<mkRTViewData> v1.0.0
CSC/000/DSI .\CATV4Geometry\V4Geom5.m\Objects\win_b64\mkcsc\V4Geom5.cscdb|.\CATV4Geometry\V4Geom5.m
@type='NONE'
@clr='false'
@kind='INCLUDED'
@deliverable='true'
@built='true'
