!<mkRTViewData> v1.0.0
INT/000/CUS .\win_b64\code\lib\CATSchPreCond.exp|.\CATSchPlatformModeler\CATSchPreCond.m
RTV/001/CUS .\win_b64\code\bin\CATSchPreCond.dll|.\CATSchPlatformModeler\CATSchPreCond.m
BTV/000/CUS .\win_b64\code\lib\CATSchPreCond.lib|.\CATSchPlatformModeler\CATSchPreCond.m
INT/000/CUS .\win_b64\code\bin\CATSchPreCond.pdb|.\CATSchPlatformModeler\CATSchPreCond.m
CSC/000/DSI .\CATSchPlatformModeler\CATSchPreCond.m\Objects\win_b64\mkcsc\CATSchPreCond.cscdb|.\CATSchPlatformModeler\CATSchPreCond.m
@type='SHARED_LIBRARY'
@clr='false'
@kind='NATIVE'
@deliverable='true'
@built='true'
