!<mkRTViewData> v1.0.0
RTV/001/CUS .\win_b64\code\bin\AUTCsmClean.dll|.\AUTCsmPrd\AUTCsmClean.m
INT/000/CUS .\win_b64\code\lib\AUTCsmClean.exp|.\AUTCsmPrd\AUTCsmClean.m
BTV/000/CUS .\win_b64\code\lib\AUTCsmClean.lib|.\AUTCsmPrd\AUTCsmClean.m
CSC/000/DSI .\AUTCsmPrd\AUTCsmClean.m\Objects\win_b64\mkcsc\AUTCsmClean.cscdb|.\AUTCsmPrd\AUTCsmClean.m
INT/000/CUS .\win_b64\code\bin\AUTCsmClean.pdb|.\AUTCsmPrd\AUTCsmClean.m
@type='SHARED_LIBRARY'
@clr='false'
@kind='NATIVE'
@deliverable='true'
@built='true'
