!<mkRTViewData> v1.0.0
CSC/000/DSI .\CGMMeshFitter\CGMFitterTools.m\Objects\win_b64\mkcsc\CGMFitterTools.cscdb|.\CGMMeshFitter\CGMFitterTools.m
@type='NONE'
@clr='false'
@kind='INCLUDED'
@deliverable='true'
@built='true'
