!<mkRTViewData> v1.0.0
INT/000/CUS .\win_b64\code\lib\CATCGMV5Record.exp|.\CGMV5SpecsQuery\CATCGMV5Record.m
RTV/001/CUS .\win_b64\code\bin\CATCGMV5Record.dll|.\CGMV5SpecsQuery\CATCGMV5Record.m
CSC/000/DSI .\CGMV5SpecsQuery\CATCGMV5Record.m\Objects\win_b64\mkcsc\CATCGMV5Record.cscdb|.\CGMV5SpecsQuery\CATCGMV5Record.m
BTV/000/CUS .\win_b64\code\lib\CATCGMV5Record.lib|.\CGMV5SpecsQuery\CATCGMV5Record.m
INT/000/CUS .\win_b64\code\bin\CATCGMV5Record.pdb|.\CGMV5SpecsQuery\CATCGMV5Record.m
@type='SHARED_LIBRARY'
@clr='false'
@kind='NATIVE'
@deliverable='true'
@built='true'
