!<mkRTViewData> v1.0.0
CSC/000/DSI .\DNBSimulationUI\DNBSimulationUI.m\Objects\win_b64\mkcsc\DNBSimulationUI.cscdb|.\DNBSimulationUI\DNBSimulationUI.m
RTV/001/CUS .\win_b64\code\bin\DNBSimulationUI.dll|.\DNBSimulationUI\DNBSimulationUI.m
BTV/000/CUS .\win_b64\code\lib\DNBSimulationUI.lib|.\DNBSimulationUI\DNBSimulationUI.m
INT/000/CUS .\win_b64\code\bin\DNBSimulationUI.pdb|.\DNBSimulationUI\DNBSimulationUI.m
INT/000/CUS .\win_b64\code\lib\DNBSimulationUI.exp|.\DNBSimulationUI\DNBSimulationUI.m
@type='SHARED_LIBRARY'
@clr='false'
@kind='NATIVE'
@deliverable='true'
@built='true'
