!<mkRTViewData> v1.0.0
CSC/000/DSI .\NewTopologicalObjects\BOOARRAY.m\Objects\win_b64\mkcsc\BOOARRAY.cscdb|.\NewTopologicalObjects\BOOARRAY.m
@type='NONE'
@clr='false'
@kind='INCLUDED'
@deliverable='true'
@built='true'
