!<mkRTViewData> v1.0.0
RTV/001/CUS .\win_b64\code\bin\CATPrsAutomation.dll|.\ProductStructure\CATPrsAutomation.m
CSC/000/DSI .\ProductStructure\CATPrsAutomation.m\Objects\win_b64\mkcsc\CATPrsAutomation.cscdb|.\ProductStructure\CATPrsAutomation.m
BTV/000/CUS .\win_b64\code\lib\CATPrsAutomation.lib|.\ProductStructure\CATPrsAutomation.m
INT/000/CUS .\win_b64\code\bin\CATPrsAutomation.pdb|.\ProductStructure\CATPrsAutomation.m
INT/000/CUS .\win_b64\code\lib\CATPrsAutomation.exp|.\ProductStructure\CATPrsAutomation.m
@type='SHARED_LIBRARY'
@clr='false'
@kind='NATIVE'
@deliverable='true'
@built='true'
