!<mkRTViewData> v1.0.0
BTV/000/CUS .\win_b64\code\lib\DECCAUUID.lib|.\CATDataExchControlIntf\DECCAUUID.m
CSC/000/DSI .\CATDataExchControlIntf\DECCAUUID.m\Objects\win_b64\mkcsc\DECCAUUID.cscdb|.\CATDataExchControlIntf\DECCAUUID.m
@type='ARCHIVE'
@clr='false'
@kind='NATIVE'
@deliverable='true'
@built='true'
