!<mkRTViewData> v1.0.0
CSC/000/DSI .\KnowledgeEngineUtilities\KR0VVV.m\Objects\win_b64\mkcsc\KR0VVV.cscdb|.\KnowledgeEngineUtilities\KR0VVV.m
@type='NONE'
@clr='false'
@kind='INCLUDED'
@deliverable='true'
@built='true'
