!<mkRTViewData> v1.0.0
CSC/000/DSI .\CGMMeshRefiner\CGMRefinerTools.m\Objects\win_b64\mkcsc\CGMRefinerTools.cscdb|.\CGMMeshRefiner\CGMRefinerTools.m
@type='NONE'
@clr='false'
@kind='INCLUDED'
@deliverable='true'
@built='true'
