!<mkRTViewData> v1.0.0
INT/000/CUS .\win_b64\code\lib\CATENOVIAProviderDesc.exp|.\CATImmENOVIAProvider\CATENOVIAProviderDesc.m
RTV/001/CUS .\win_b64\code\bin\CATENOVIAProviderDesc.dll|.\CATImmENOVIAProvider\CATENOVIAProviderDesc.m
BTV/000/CUS .\win_b64\code\lib\CATENOVIAProviderDesc.lib|.\CATImmENOVIAProvider\CATENOVIAProviderDesc.m
CSC/000/DSI .\CATImmENOVIAProvider\CATENOVIAProviderDesc.m\Objects\win_b64\mkcsc\CATENOVIAProviderDesc.cscdb|.\CATImmENOVIAProvider\CATENOVIAProviderDesc.m
INT/000/CUS .\win_b64\code\bin\CATENOVIAProviderDesc.pdb|.\CATImmENOVIAProvider\CATENOVIAProviderDesc.m
@type='SHARED_LIBRARY'
@clr='false'
@kind='NATIVE'
@deliverable='true'
@built='true'
