!<mkRTViewData> v1.0.0
RTV/000/DSI .\win_b64\docs\javacommon\J2EEservlet22.jar|.\J2EEInterfaces\J2EEservlet22.mjext
@type='EXT_JAVA_COMMON'
@clr='false'
@kind='JAVA'
@deliverable='false'
@built='true'
