!<mkRTViewData> v1.0.0
BTV/002/CUS .\win_b64\code\productIC\CATReporterInterfacesIC.script|.\CATReporterInterfaces
BTV/002/CUS .\win_b64\code\productIC\CATReporterInterfacesIC.xml|.\CATReporterInterfaces
DAT/002/CUS .\win_b64\code\dictionary\CATReporterInterfaces.iid|.\CATReporterInterfaces\CNext\code\dictionary\CATReporterInterfaces.iid
CSC/002/DSI .\CATReporterInterfaces\IdentityCard\Objects\win_b64\mkcsc\CATReporterInterfaces.cscdb|.\CATReporterInterfaces
RTV/002/DSI .\win_b64\code\productIC\CATReporterInterfacesIC.required|.\CATReporterInterfaces
@type='codeFramework'
@built='true'
