!<mkRTViewData> v1.0.0
RTV/002/DSI .\win_b64\code\productIC\ComponentsCatalogsInterfacesIC.required|.\ComponentsCatalogsInterfaces
DAT/002/CUS .\win_b64\code\dictionary\ComponentsCatalogsInterfaces.iid|.\ComponentsCatalogsInterfaces\CNext\code\dictionary\ComponentsCatalogsInterfaces.iid
BTV/002/CUS .\win_b64\code\productIC\ComponentsCatalogsInterfacesIC.xml|.\ComponentsCatalogsInterfaces
BTV/002/CUS .\win_b64\code\productIC\ComponentsCatalogsInterfacesIC.script|.\ComponentsCatalogsInterfaces
CSC/002/DSI .\ComponentsCatalogsInterfaces\IdentityCard\Objects\win_b64\mkcsc\ComponentsCatalogsInterfaces.cscdb|.\ComponentsCatalogsInterfaces
@type='codeFramework'
@built='true'
