!<mkRTViewData> v1.0.0
INT/000/CUS .\win_b64\code\lib\CATBehaviorItf.exp|.\CATBehaviorInterfaces\CATBehaviorItf.m
RTV/001/CUS .\win_b64\code\bin\CATBehaviorItf.dll|.\CATBehaviorInterfaces\CATBehaviorItf.m
INT/000/CUS .\win_b64\code\bin\CATBehaviorItf.pdb|.\CATBehaviorInterfaces\CATBehaviorItf.m
CSC/000/DSI .\CATBehaviorInterfaces\CATBehaviorItf.m\Objects\win_b64\mkcsc\CATBehaviorItf.cscdb|.\CATBehaviorInterfaces\CATBehaviorItf.m
BTV/000/CUS .\win_b64\code\lib\CATBehaviorItf.lib|.\CATBehaviorInterfaces\CATBehaviorItf.m
@type='SHARED_LIBRARY'
@clr='false'
@kind='NATIVE'
@deliverable='true'
@built='true'
