!<mkRTViewData> v1.0.0
BTV/000/CUS .\win_b64\code\lib\PartDesignDataExchange.lib|.\PartDesignDataExchange\PartDesignDataExchange.m
CSC/000/DSI .\PartDesignDataExchange\PartDesignDataExchange.m\Objects\win_b64\mkcsc\PartDesignDataExchange.cscdb|.\PartDesignDataExchange\PartDesignDataExchange.m
RTV/000/CUS .\win_b64\code\dictionary\PartDesignDataExchange.dic|.\PartDesignDataExchange\PartDesignDataExchange.m
INT/000/CUS .\win_b64\code\lib\PartDesignDataExchange.exp|.\PartDesignDataExchange\PartDesignDataExchange.m
INT/000/CUS .\win_b64\code\bin\PartDesignDataExchange.pdb|.\PartDesignDataExchange\PartDesignDataExchange.m
RTV/001/CUS .\win_b64\code\bin\PartDesignDataExchange.dll|.\PartDesignDataExchange\PartDesignDataExchange.m
@type='SHARED_LIBRARY'
@clr='false'
@kind='NATIVE'
@deliverable='true'
@built='true'
