!<mkRTViewData> v1.0.0
CSC/000/DSI .\Tessellation\HLRToolsMisc.m\Objects\win_b64\mkcsc\HLRToolsMisc.cscdb|.\Tessellation\HLRToolsMisc.m
@type='NONE'
@clr='false'
@kind='INCLUDED'
@deliverable='true'
@built='true'
