!<mkRTViewData> v1.0.0
RTV/001/CUS .\win_b64\code\bin\CATSamExpression.dll|.\CATAnalysisBase\CATSamExpression.m
BTV/000/CUS .\win_b64\code\lib\CATSamExpression.lib|.\CATAnalysisBase\CATSamExpression.m
INT/000/CUS .\win_b64\code\bin\CATSamExpression.pdb|.\CATAnalysisBase\CATSamExpression.m
CSC/000/DSI .\CATAnalysisBase\CATSamExpression.m\Objects\win_b64\mkcsc\CATSamExpression.cscdb|.\CATAnalysisBase\CATSamExpression.m
INT/000/CUS .\win_b64\code\lib\CATSamExpression.exp|.\CATAnalysisBase\CATSamExpression.m
@type='SHARED_LIBRARY'
@clr='false'
@kind='NATIVE'
@deliverable='true'
@built='true'
