!<mkRTViewData> v1.0.0
CSC/000/DSI .\System\CATBBMagic.m\Objects\win_b64\mkcsc\CATBBMagic.cscdb|.\System\CATBBMagic.m
RTV/001/CUS .\win_b64\code\bin\CATBBMagic.dll|.\System\CATBBMagic.m
BTV/000/CUS .\win_b64\code\lib\CATBBMagic.lib|.\System\CATBBMagic.m
INT/000/CUS .\win_b64\code\lib\CATBBMagic.exp|.\System\CATBBMagic.m
INT/000/CUS .\win_b64\code\bin\CATBBMagic.pdb|.\System\CATBBMagic.m
@type='SHARED_LIBRARY'
@clr='false'
@kind='NATIVE'
@deliverable='true'
@built='true'
