!<mkRTViewData> v1.0.0
CSC/000/DSI .\PartDesignUI\PRTMODFILL.m\Objects\win_b64\mkcsc\PRTMODFILL.cscdb|.\PartDesignUI\PRTMODFILL.m
@type='NONE'
@clr='false'
@kind='INCLUDED'
@deliverable='true'
@built='true'
