!<mkRTViewData> v1.0.0
CSC/000/DSI .\PartDesignFeature\PRTOFFSET.m\Objects\win_b64\mkcsc\PRTOFFSET.cscdb|.\PartDesignFeature\PRTOFFSET.m
@type='NONE'
@clr='false'
@kind='INCLUDED'
@deliverable='true'
@built='true'
