!<mkRTViewData> v1.0.0
BTV/000/CUS .\win_b64\code\lib\CATCkeGenerateIdxBatch.lib|.\LiteralsEditor\CATCkeGenerateIdxBatch.m
RTV/001/CUS .\win_b64\code\bin\CATCkeGenerateIdxBatch.dll|.\LiteralsEditor\CATCkeGenerateIdxBatch.m
INT/000/CUS .\win_b64\code\bin\CATCkeGenerateIdxBatch.pdb|.\LiteralsEditor\CATCkeGenerateIdxBatch.m
CSC/000/DSI .\LiteralsEditor\CATCkeGenerateIdxBatch.m\Objects\win_b64\mkcsc\CATCkeGenerateIdxBatch.cscdb|.\LiteralsEditor\CATCkeGenerateIdxBatch.m
INT/000/CUS .\win_b64\code\lib\CATCkeGenerateIdxBatch.exp|.\LiteralsEditor\CATCkeGenerateIdxBatch.m
@type='SHARED_LIBRARY'
@clr='false'
@kind='NATIVE'
@deliverable='true'
@built='true'
