!<mkRTViewData> v1.0.0
BTV/000/CUS .\win_b64\code\lib\CATGSMTopoServices.lib|.\CATGSMTopoServices\CATGSMTopoServices.m
RTV/001/CUS .\win_b64\code\bin\CATGSMTopoServices.dll|.\CATGSMTopoServices\CATGSMTopoServices.m
CSC/000/DSI .\CATGSMTopoServices\CATGSMTopoServices.m\Objects\win_b64\mkcsc\CATGSMTopoServices.cscdb|.\CATGSMTopoServices\CATGSMTopoServices.m
INT/000/CUS .\win_b64\code\lib\CATGSMTopoServices.exp|.\CATGSMTopoServices\CATGSMTopoServices.m
INT/000/CUS .\win_b64\code\bin\CATGSMTopoServices.pdb|.\CATGSMTopoServices\CATGSMTopoServices.m
@type='SHARED_LIBRARY'
@clr='false'
@kind='NATIVE'
@deliverable='true'
@built='true'
