!<mkRTViewData> v1.0.0
INT/000/CUS .\win_b64\code\lib\CATPDMBaseEnoviaV5CAA.exp|.\CATPDMBase\CATPDMBaseEnoviaV5CAA.m
RTV/001/CUS .\win_b64\code\bin\CATPDMBaseEnoviaV5CAA.dll|.\CATPDMBase\CATPDMBaseEnoviaV5CAA.m
BTV/000/CUS .\win_b64\code\lib\CATPDMBaseEnoviaV5CAA.lib|.\CATPDMBase\CATPDMBaseEnoviaV5CAA.m
CSC/000/DSI .\CATPDMBase\CATPDMBaseEnoviaV5CAA.m\Objects\win_b64\mkcsc\CATPDMBaseEnoviaV5CAA.cscdb|.\CATPDMBase\CATPDMBaseEnoviaV5CAA.m
INT/000/CUS .\win_b64\code\bin\CATPDMBaseEnoviaV5CAA.pdb|.\CATPDMBase\CATPDMBaseEnoviaV5CAA.m
@type='SHARED_LIBRARY'
@clr='false'
@kind='NATIVE'
@deliverable='true'
@built='true'
