!<mkRTViewData> v1.0.0
RTV/001/CUS .\win_b64\code\bin\CATDuiPropTB.dll|.\DraftingUI\CATDuiPropTB.m
CSC/000/DSI .\DraftingUI\CATDuiPropTB.m\Objects\win_b64\mkcsc\CATDuiPropTB.cscdb|.\DraftingUI\CATDuiPropTB.m
INT/000/CUS .\win_b64\code\bin\CATDuiPropTB.pdb|.\DraftingUI\CATDuiPropTB.m
BTV/000/CUS .\win_b64\code\lib\CATDuiPropTB.lib|.\DraftingUI\CATDuiPropTB.m
INT/000/CUS .\win_b64\code\lib\CATDuiPropTB.exp|.\DraftingUI\CATDuiPropTB.m
@type='SHARED_LIBRARY'
@clr='false'
@kind='NATIVE'
@deliverable='true'
@built='true'
