!<mkRTViewData> v1.0.0
CSC/000/DSI .\DNBSimActivityInterfaces\DNBSimActivityItfCPP.m\Objects\win_b64\mkcsc\DNBSimActivityItfCPP.cscdb|.\DNBSimActivityInterfaces\DNBSimActivityItfCPP.m
@type='NONE'
@clr='false'
@kind='INCLUDED'
@deliverable='true'
@built='true'
