!<mkRTViewData> v1.0.0
CSC/000/DSI .\DraftingBaseCommands\CATDbcDisplayView.m\Objects\win_b64\mkcsc\CATDbcDisplayView.cscdb|.\DraftingBaseCommands\CATDbcDisplayView.m
@type='NONE'
@clr='false'
@kind='INCLUDED'
@deliverable='true'
@built='true'
