!<mkRTViewData> v1.0.0
CSC/000/DSI .\CATSdeSettingInterfaces\CATSdeSettingPubIDL.m\Objects\win_b64\mkcsc\CATSdeSettingPubIDL.cscdb|.\CATSdeSettingInterfaces\CATSdeSettingPubIDL.m
@type='NONE'
@clr='false'
@kind='INCLUDED'
@deliverable='true'
@built='true'
