!<mkRTViewData> v1.0.0
BTV/000/CUS .\win_b64\code\lib\CAT3DXmlImportTools.lib|.\CAT3DXmlImportTools\CAT3DXmlImportTools.m
INT/000/CUS .\win_b64\code\bin\CAT3DXmlImportTools.pdb|.\CAT3DXmlImportTools\CAT3DXmlImportTools.m
INT/000/CUS .\win_b64\code\lib\CAT3DXmlImportTools.exp|.\CAT3DXmlImportTools\CAT3DXmlImportTools.m
CSC/000/DSI .\CAT3DXmlImportTools\CAT3DXmlImportTools.m\Objects\win_b64\mkcsc\CAT3DXmlImportTools.cscdb|.\CAT3DXmlImportTools\CAT3DXmlImportTools.m
RTV/001/CUS .\win_b64\code\bin\CAT3DXmlImportTools.dll|.\CAT3DXmlImportTools\CAT3DXmlImportTools.m
@type='SHARED_LIBRARY'
@clr='false'
@kind='NATIVE'
@deliverable='true'
@built='true'
