!<mkRTViewData> v1.0.0
RTV/001/CUS .\win_b64\code\bin\DNBSimActivityBase.dll|.\DNBSimActivityBase\DNBSimActivityBase.m
CSC/000/DSI .\DNBSimActivityBase\DNBSimActivityBase.m\Objects\win_b64\mkcsc\DNBSimActivityBase.cscdb|.\DNBSimActivityBase\DNBSimActivityBase.m
BTV/000/CUS .\win_b64\code\lib\DNBSimActivityBase.lib|.\DNBSimActivityBase\DNBSimActivityBase.m
INT/000/CUS .\win_b64\code\bin\DNBSimActivityBase.pdb|.\DNBSimActivityBase\DNBSimActivityBase.m
INT/000/CUS .\win_b64\code\lib\DNBSimActivityBase.exp|.\DNBSimActivityBase\DNBSimActivityBase.m
@type='SHARED_LIBRARY'
@clr='false'
@kind='NATIVE'
@deliverable='true'
@built='true'
