!<mkRTViewData> v1.0.0
INT/000/CUS .\win_b64\code\bin\DpmFastenerInf.pdb|.\DNBDpmBIWInterfaces\DpmFastenerInf.m
INT/000/CUS .\win_b64\code\lib\DpmFastenerInf.exp|.\DNBDpmBIWInterfaces\DpmFastenerInf.m
RTV/001/CUS .\win_b64\code\bin\DpmFastenerInf.dll|.\DNBDpmBIWInterfaces\DpmFastenerInf.m
BTV/000/CUS .\win_b64\code\lib\DpmFastenerInf.lib|.\DNBDpmBIWInterfaces\DpmFastenerInf.m
CSC/000/DSI .\DNBDpmBIWInterfaces\DpmFastenerInf.m\Objects\win_b64\mkcsc\DpmFastenerInf.cscdb|.\DNBDpmBIWInterfaces\DpmFastenerInf.m
@type='SHARED_LIBRARY'
@clr='false'
@kind='NATIVE'
@deliverable='true'
@built='true'
