!<mkRTViewData> v1.0.0
BTV/000/CUS .\win_b64\code\lib\CATVizGlider.lib|.\CATIAApplicationFrame\CATVizGlider.m
CSC/000/DSI .\CATIAApplicationFrame\CATVizGlider.m\Objects\win_b64\mkcsc\CATVizGlider.cscdb|.\CATIAApplicationFrame\CATVizGlider.m
@type='ARCHIVE'
@clr='false'
@kind='NATIVE'
@deliverable='true'
@built='true'
