!<mkRTViewData> v1.0.0
RTV/001/CUS .\win_b64\code\bin\WFTOCTools.dll|.\AdminTools\WFTOCTools.m
INT/000/CUS .\win_b64\code\bin\WFTOCTools.pdb|.\AdminTools\WFTOCTools.m
CSC/000/DSI .\AdminTools\WFTOCTools.m\Objects\win_b64\mkcsc\WFTOCTools.cscdb|.\AdminTools\WFTOCTools.m
INT/000/CUS .\win_b64\code\lib\WFTOCTools.exp|.\AdminTools\WFTOCTools.m
BTV/000/CUS .\win_b64\code\lib\WFTOCTools.lib|.\AdminTools\WFTOCTools.m
@type='SHARED_LIBRARY'
@clr='false'
@kind='NATIVE'
@deliverable='true'
@built='true'
