!<mkRTViewData> v1.0.0
CSC/000/DSI .\CATIAAECGeoModeler\IAOToolGeo.m\Objects\win_b64\mkcsc\IAOToolGeo.cscdb|.\CATIAAECGeoModeler\IAOToolGeo.m
@type='NONE'
@clr='false'
@kind='INCLUDED'
@deliverable='true'
@built='true'
