!<mkRTViewData> v1.0.0
CSC/000/DSI .\CATCoreCavitySeparationUI\CATCCSEltTransferUI.m\Objects\win_b64\mkcsc\CATCCSEltTransferUI.cscdb|.\CATCoreCavitySeparationUI\CATCCSEltTransferUI.m
@type='NONE'
@clr='false'
@kind='INCLUDED'
@deliverable='true'
@built='true'
