!<mkRTViewData> v1.0.0
RTV/002/DSI .\win_b64\code\productIC\GSMInterfacesIC.required|.\GSMInterfaces
BTV/002/CUS .\win_b64\code\productIC\GSMInterfacesIC.xml|.\GSMInterfaces
DAT/002/CUS .\win_b64\code\dictionary\GSMInterfaces.iid|.\GSMInterfaces\CNext\code\dictionary\GSMInterfaces.iid
CSC/002/DSI .\GSMInterfaces\IdentityCard\Objects\win_b64\mkcsc\GSMInterfaces.cscdb|.\GSMInterfaces
BTV/002/CUS .\win_b64\code\productIC\GSMInterfacesIC.script|.\GSMInterfaces
@type='codeFramework'
@built='true'
