!<mkRTViewData> v1.0.0
BTV/000/CUS .\win_b64\code\lib\CATSurfaceMachiningAlgoInterfaces.lib|.\SurfaceMachiningAlgoInterfaces\CATSurfaceMachiningAlgoInterfaces.m
CSC/000/DSI .\SurfaceMachiningAlgoInterfaces\CATSurfaceMachiningAlgoInterfaces.m\Objects\win_b64\mkcsc\CATSurfaceMachiningAlgoInterfaces.cscdb|.\SurfaceMachiningAlgoInterfaces\CATSurfaceMachiningAlgoInterfaces.m
INT/000/CUS .\win_b64\code\lib\CATSurfaceMachiningAlgoInterfaces.exp|.\SurfaceMachiningAlgoInterfaces\CATSurfaceMachiningAlgoInterfaces.m
RTV/001/CUS .\win_b64\code\bin\CATSurfaceMachiningAlgoInterfaces.dll|.\SurfaceMachiningAlgoInterfaces\CATSurfaceMachiningAlgoInterfaces.m
INT/000/CUS .\win_b64\code\bin\CATSurfaceMachiningAlgoInterfaces.pdb|.\SurfaceMachiningAlgoInterfaces\CATSurfaceMachiningAlgoInterfaces.m
@type='SHARED_LIBRARY'
@clr='false'
@kind='NATIVE'
@deliverable='true'
@built='true'
