CATRouPartNumber	CATRouSize	CATRouOutsideDiameter	Thickness	Width_B1	Width_B2	Diameter_Dn	Diameter_D3	Length_L3	Length_L4	Length_S2
CLAMP-SINGLE-BRSGU-3S	3/16"	0.1875in	0.0197in	0.4724in	0.5906in	0.2087in	0.4252in	0.4528in	0.6496in	0.0591in
CLAMP-SINGLE-BRSGU-5S	5/16"	0.3125in	0.0236in	0.5906in	0.7480in	0.2520in	0.6063in	0.6378in	0.8937in	0.0630in
CLAMP-SINGLE-BRSGU-10S	5/8"	0.6250in	0.0315in	0.7874in	0.9843in	0.3307in	0.9449in	0.9055in	1.2598in	0.0906in
CLAMP-SINGLE-BRSGU-12S	3/4"	0.7500in	0.0394in	0.9843in	1.2205in	0.4134in	1.2992in	1.1220in	1.5748in	0.0984in
CLAMP-SINGLE-BRSGU-16S	1"	1.0000in	0.0394in	0.7874in	0.9843in	0.3307in	1.3780in	1.1220in	1.4764in	0.0984in
CLAMP-SINGLE-BRSGU-32S	2"	2.0000in	0.0492in	0.9843in	1.2205in	0.4134in	2.4803in	1.7126in	2.1654in	0.1083in
