CATRouPartNumber	CATRouSize	CATRouOutsideDiameter	Thickness	Width_B1	Diameter_Dn	Length_L1	Length_L2	Length_S2			
CLAMP-SINGLE-BRS-3S	3/16"	0.1875in	0.0197in	0.4724in	0.2087in	0.4055in	0.6102in	0.0591in			
CLAMP-SINGLE-BRS-5S	5/16"	0.3125in	0.0236in	0.5906in	0.2520in	0.5787in	0.8346in	0.0630in			
CLAMP-SINGLE-BRS-10S	5/8"	0.6250in	0.0315in	0.7874in	0.3307in	0.8268in	1.1811in	0.0906in			
CLAMP-SINGLE-BRS-12S	3/4"	0.7500in	0.0394in	0.9843in	0.4134in	1.0039in	1.4567in	0.0984in			
CLAMP-SINGLE-BRS-16S	1"	1.0000in	0.0394in	0.7874in	0.3307in	1.0433in	1.3976in	0.0984in			
CLAMP-SINGLE-BRS-32S	2"	2.0000in	0.0492in	0.9843in	0.4134in	1.5945in	2.0472in	0.1083in
