!<mkRTViewData> v1.0.0
BTV/000/CUS .\win_b64\code\lib\AUTCsmMultiDlgEditor.lib|.\AUTCsmUI\AUTCsmMultiDlgEditor.m
CSC/000/DSI .\AUTCsmUI\AUTCsmMultiDlgEditor.m\Objects\win_b64\mkcsc\AUTCsmMultiDlgEditor.cscdb|.\AUTCsmUI\AUTCsmMultiDlgEditor.m
INT/000/CUS .\win_b64\code\lib\AUTCsmMultiDlgEditor.exp|.\AUTCsmUI\AUTCsmMultiDlgEditor.m
INT/000/CUS .\win_b64\code\bin\AUTCsmMultiDlgEditor.pdb|.\AUTCsmUI\AUTCsmMultiDlgEditor.m
RTV/001/CUS .\win_b64\code\bin\AUTCsmMultiDlgEditor.dll|.\AUTCsmUI\AUTCsmMultiDlgEditor.m
@type='SHARED_LIBRARY'
@clr='false'
@kind='NATIVE'
@deliverable='true'
@built='true'
