!<mkRTViewData> v1.0.0
CSC/000/DSI .\SurfacicInfrastructure\SysCascade.m\Objects\win_b64\mkcsc\SysCascade.cscdb|.\SurfacicInfrastructure\SysCascade.m
@type='NONE'
@clr='false'
@kind='INCLUDED'
@deliverable='true'
@built='true'
