!<mkRTViewData> v1.0.0
CSC/000/DSI .\CATAnalysisMaterial\CATSAMMaterial.m\Objects\win_b64\mkcsc\CATSAMMaterial.cscdb|.\CATAnalysisMaterial\CATSAMMaterial.m
@type='NONE'
@clr='false'
@kind='INCLUDED'
@deliverable='true'
@built='true'
