!<mkRTViewData> v1.0.0
BTV/002/CUS .\win_b64\code\productIC\NewTopologicalObjectsCGMIC.xml|.\NewTopologicalObjectsCGM
CSC/002/DSI .\NewTopologicalObjectsCGM\IdentityCard\Objects\win_b64\mkcsc\NewTopologicalObjectsCGM.cscdb|.\NewTopologicalObjectsCGM
RTV/002/DSI .\win_b64\code\productIC\NewTopologicalObjectsCGMIC.required|.\NewTopologicalObjectsCGM
BTV/002/CUS .\win_b64\code\productIC\NewTopologicalObjectsCGMIC.script|.\NewTopologicalObjectsCGM
@type='codeFramework'
@built='true'
