!<mkRTViewData> v1.0.0
BTV/000/CUS .\win_b64\code\lib\CATLieSettingControllerImplement.lib|.\LiteralsEditor\CATLieSettingControllerImplement.m
INT/000/CUS .\win_b64\code\bin\CATLieSettingControllerImplement.pdb|.\LiteralsEditor\CATLieSettingControllerImplement.m
CSC/000/DSI .\LiteralsEditor\CATLieSettingControllerImplement.m\Objects\win_b64\mkcsc\CATLieSettingControllerImplement.cscdb|.\LiteralsEditor\CATLieSettingControllerImplement.m
RTV/001/CUS .\win_b64\code\bin\CATLieSettingControllerImplement.dll|.\LiteralsEditor\CATLieSettingControllerImplement.m
INT/000/CUS .\win_b64\code\lib\CATLieSettingControllerImplement.exp|.\LiteralsEditor\CATLieSettingControllerImplement.m
@type='SHARED_LIBRARY'
@clr='false'
@kind='NATIVE'
@deliverable='true'
@built='true'
