!<mkRTViewData> v1.0.0
CSC/000/DSI .\DraftingUI\CATDrwCalloutEdition.m\Objects\win_b64\mkcsc\CATDrwCalloutEdition.cscdb|.\DraftingUI\CATDrwCalloutEdition.m
@type='NONE'
@clr='false'
@kind='INCLUDED'
@deliverable='true'
@built='true'
