!<mkRTViewData> v1.0.0
CSC/000/DSI .\CATDataExchControlAlgo\CATDECProductToPartAlgo.m\Objects\win_b64\mkcsc\CATDECProductToPartAlgo.cscdb|.\CATDataExchControlAlgo\CATDECProductToPartAlgo.m
@type='NONE'
@clr='false'
@kind='INCLUDED'
@deliverable='true'
@built='true'
