!<mkRTViewData> v1.0.0
DAT/002/CUS .\win_b64\resources\graphic\icons\normal\I_DNBIgpMountAction.bmp|.\DNBIgpSetupModel\CNext\resources\graphic\icons\normal\I_DNBIgpMountAction.bmp
DAT/002/CUS .\win_b64\resources\msgcatalog\DNBIgpTagChildComponentsError.CATNls|.\DNBIgpSetupModel\CNext\resources\msgcatalog\DNBIgpTagChildComponentsError.CATNls
RTV/002/DSI .\win_b64\resources\msgcatalog\NlsTest\DNBPropEditAttachCmd.CATNls|.\DNBIgpSetupModel\CNext\resources\msgcatalog\DNBPropEditAttachCmd.CATNls
RTV/002/DSI .\win_b64\resources\msgcatalog\NlsTest\DNBIgpRobotTaskDisplayEditor.CATNls|.\DNBIgpSetupModel\CNext\resources\msgcatalog\DNBIgpRobotTaskDisplayEditor.CATNls
DAT/002/CUS .\win_b64\resources\msgcatalog\DNBNamedJointTargetError.CATNls|.\DNBIgpSetupModel\CNext\resources\msgcatalog\DNBNamedJointTargetError.CATNls
RTV/002/DSI .\win_b64\resources\msgcatalog\NlsTest\DNBIgpActivityVisu.CATNls|.\DNBIgpSetupModel\CNext\resources\msgcatalog\DNBIgpActivityVisu.CATNls
DAT/002/CUS .\win_b64\resources\graphic\icons\small\I_DNBRobotTask.bmp|.\DNBIgpSetupModel\CNext\resources\graphic\icons\small\I_DNBRobotTask.bmp
DAT/002/CUS .\win_b64\resources\graphic\DNBIgpCPath.feat|.\DNBIgpSetupModel\CNext\resources\graphic\DNBIgpCPath.feat
DAT/002/CUS .\win_b64\resources\graphic\icons\normal\I_DNBIgpSpotWeld.bmp|.\DNBIgpSetupModel\CNext\resources\graphic\icons\normal\I_DNBIgpSpotWeld.bmp
DAT/002/CUS .\win_b64\resources\graphic\icons\normal\I_DNBOperation.bmp|.\DNBIgpSetupModel\CNext\resources\graphic\icons\normal\I_DNBOperation.bmp
BTV/002/CUS .\win_b64\code\productIC\DNBIgpSetupModelIC.script|.\DNBIgpSetupModel
RTV/002/DSI .\win_b64\resources\msgcatalog\NlsTest\DNBERobotGanttAttributeManager.CATNls|.\DNBIgpSetupModel\CNext\resources\msgcatalog\DNBERobotGanttAttributeManager.CATNls
DAT/002/CUS .\win_b64\resources\graphic\icons\normal\I_DNBIgpSpotPick.bmp|.\DNBIgpSetupModel\CNext\resources\graphic\icons\normal\I_DNBIgpSpotPick.bmp
RTV/002/DSI .\win_b64\resources\msgcatalog\DbcsTest\DNBIgpRobotTaskDisplayEditor.CATNls|.\DNBIgpSetupModel\CNext\resources\msgcatalog\DNBIgpRobotTaskDisplayEditor.CATNls
DAT/002/CUS .\win_b64\resources\graphic\icons\normal\IP2_DNBIgpMountAction.bmp|.\DNBIgpSetupModel\CNext\resources\graphic\icons\normal\IP2_DNBIgpMountAction.bmp
RTV/002/DSI .\win_b64\resources\msgcatalog\DbcsTest\DNBERobotGanttAttributeManager.CATNls|.\DNBIgpSetupModel\CNext\resources\msgcatalog\DNBERobotGanttAttributeManager.CATNls
RTV/002/DSI .\win_b64\resources\msgcatalog\DbcsTest\DNBIgpSchemaMgmt.CATNls|.\DNBIgpSetupModel\CNext\resources\msgcatalog\DNBIgpSchemaMgmt.CATNls
DAT/002/CUS .\win_b64\resources\graphic\icons\normal\I_DNBSimDelay.bmp|.\DNBIgpSetupModel\CNext\resources\graphic\icons\normal\I_DNBSimDelay.bmp
DAT/002/CUS .\win_b64\resources\graphic\icons\normal\I_DNBIgpAxisSystem.bmp|.\DNBIgpSetupModel\CNext\resources\graphic\icons\normal\I_DNBIgpAxisSystem.bmp
DAT/002/CUS .\win_b64\resources\graphic\icons\normal\I_DNBIgpCallRobotTask.bmp|.\DNBIgpSetupModel\CNext\resources\graphic\icons\normal\I_DNBIgpCallRobotTask.bmp
RTV/002/DSI .\win_b64\resources\msgcatalog\DbcsTest\DNBPropEditAttachCmd.CATNls|.\DNBIgpSetupModel\CNext\resources\msgcatalog\DNBPropEditAttachCmd.CATNls
DAT/002/CUS .\win_b64\resources\msgcatalog\DNBIgpRobotTaskDisplayEditor.CATNls|.\DNBIgpSetupModel\CNext\resources\msgcatalog\DNBIgpRobotTaskDisplayEditor.CATNls
DAT/002/CUS .\win_b64\resources\graphic\icons\normal\IP2_DNBIgpSpotRetract.bmp|.\DNBIgpSetupModel\CNext\resources\graphic\icons\normal\IP2_DNBIgpSpotRetract.bmp
RTV/002/DSI .\win_b64\resources\msgcatalog\NlsTest\DNBIgpTagSubscriber.CATNls|.\DNBIgpSetupModel\CNext\resources\msgcatalog\DNBIgpTagSubscriber.CATNls
DAT/002/CUS .\win_b64\resources\msgcatalog\DNBRobotTaskPasteController.CATNls|.\DNBIgpSetupModel\CNext\resources\msgcatalog\DNBRobotTaskPasteController.CATNls
RTV/002/DSI .\win_b64\resources\msgcatalog\DbcsTest\DNBProgContExtError.CATNls|.\DNBIgpSetupModel\CNext\resources\msgcatalog\DNBProgContExtError.CATNls
DAT/002/CUS .\win_b64\resources\graphic\icons\normal\I_DNBFollowPathActivity.bmp|.\DNBIgpSetupModel\CNext\resources\graphic\icons\normal\I_DNBFollowPathActivity.bmp
DAT/002/CUS .\win_b64\resources\graphic\icons\normal\I_DNBIgpSpotRetract.bmp|.\DNBIgpSetupModel\CNext\resources\graphic\icons\normal\I_DNBIgpSpotRetract.bmp
DAT/002/CUS .\win_b64\resources\graphic\icons\normal\IP2_DNBHideShowASMPRC.bmp|.\DNBIgpSetupModel\CNext\resources\graphic\icons\normal\IP2_DNBHideShowASMPRC.bmp
DAT/002/CUS .\win_b64\resources\graphic\icons\small\I_DNBOperation.bmp|.\DNBIgpSetupModel\CNext\resources\graphic\icons\small\I_DNBOperation.bmp
DAT/002/CUS .\win_b64\resources\graphic\WSUWeldTimeTable.CATfct|.\DNBIgpSetupModel\CNext\resources\graphic\WSUWeldTimeTable.CATfct
RTV/002/DSI .\win_b64\resources\msgcatalog\DbcsTest\DNBNamedJointTargetError.CATNls|.\DNBIgpSetupModel\CNext\resources\msgcatalog\DNBNamedJointTargetError.CATNls
DAT/002/CUS .\win_b64\resources\graphic\icons\small\I_DNBIgpCallRobotTask.bmp|.\DNBIgpSetupModel\CNext\resources\graphic\icons\small\I_DNBIgpCallRobotTask.bmp
RTV/002/DSI .\win_b64\resources\msgcatalog\NlsTest\DNBProgContExtError.CATNls|.\DNBIgpSetupModel\CNext\resources\msgcatalog\DNBProgContExtError.CATNls
DAT/002/CUS .\win_b64\resources\graphic\icons\small\I_DNBIgpSpotWeld.bmp|.\DNBIgpSetupModel\CNext\resources\graphic\icons\small\I_DNBIgpSpotWeld.bmp
DAT/002/CUS .\win_b64\resources\graphic\icons\small\I_DNBIgpSpotPick.bmp|.\DNBIgpSetupModel\CNext\resources\graphic\icons\small\I_DNBIgpSpotPick.bmp
RTV/002/DSI .\win_b64\resources\msgcatalog\NlsTest\DNBIgpSetupLibraryNLS.CATNls|.\DNBIgpSetupModel\CNext\resources\msgcatalog\DNBIgpSetupLibraryNLS.CATNls
DAT/002/CUS .\win_b64\resources\graphic\icons\small\I_DNBIgpSpotRetract.bmp|.\DNBIgpSetupModel\CNext\resources\graphic\icons\small\I_DNBIgpSpotRetract.bmp
DAT/002/CUS .\win_b64\resources\msgcatalog\DNBIgpRobotTaskDisplayEditor.CATRsc|.\DNBIgpSetupModel\CNext\resources\msgcatalog\DNBIgpRobotTaskDisplayEditor.CATRsc
RTV/002/DSI .\win_b64\resources\msgcatalog\NlsTest\DNBRobotTaskPasteController.CATNls|.\DNBIgpSetupModel\CNext\resources\msgcatalog\DNBRobotTaskPasteController.CATNls
RTV/002/DSI .\win_b64\code\productIC\DNBIgpSetupModelIC.required|.\DNBIgpSetupModel
DAT/002/CUS .\win_b64\startup\Schemas\SpotDefault|.\DNBIgpSetupModel\CNext\startup\Schemas\SpotDefault
DAT/002/CUS .\win_b64\resources\msgcatalog\DNBIgpAttachNavigObj.CATNls|.\DNBIgpSetupModel\CNext\resources\msgcatalog\DNBIgpAttachNavigObj.CATNls
DAT/002/CUS .\win_b64\resources\msgcatalog\DNBIgpChkRuleTagConnectorError.CATNls|.\DNBIgpSetupModel\CNext\resources\msgcatalog\DNBIgpChkRuleTagConnectorError.CATNls
DAT/002/CUS .\win_b64\resources\graphic\icons\normal\IP2_DNBIgpSimMoveTo.bmp|.\DNBIgpSetupModel\CNext\resources\graphic\icons\normal\IP2_DNBIgpSimMoveTo.bmp
DAT/002/CUS .\win_b64\resources\graphic\icons\normal\IP2_DNBIgpSpotWeld.bmp|.\DNBIgpSetupModel\CNext\resources\graphic\icons\normal\IP2_DNBIgpSpotWeld.bmp
RTV/002/DSI .\win_b64\resources\msgcatalog\NlsTest\DNBNamedJointTargetError.CATNls|.\DNBIgpSetupModel\CNext\resources\msgcatalog\DNBNamedJointTargetError.CATNls
DAT/002/CUS .\win_b64\resources\graphic\icons\normal\I_DNBIgpUnMountAction.bmp|.\DNBIgpSetupModel\CNext\resources\graphic\icons\normal\I_DNBIgpUnMountAction.bmp
RTV/002/DSI .\win_b64\resources\msgcatalog\DbcsTest\DNBIgpDevicePlugError.CATNls|.\DNBIgpSetupModel\CNext\resources\msgcatalog\DNBIgpDevicePlugError.CATNls
RTV/002/DSI .\win_b64\resources\msgcatalog\NlsTest\DNBIgpRobotTaskDisplayFrame.CATNls|.\DNBIgpSetupModel\CNext\resources\msgcatalog\DNBIgpRobotTaskDisplayFrame.CATNls
DAT/002/CUS .\win_b64\resources\graphic\icons\small\I_DNBIgpAxisSystem.bmp|.\DNBIgpSetupModel\CNext\resources\graphic\icons\small\I_DNBIgpAxisSystem.bmp
RTV/002/DSI .\win_b64\resources\msgcatalog\DbcsTest\DNBIgpChkRuleTagConnectorError.CATNls|.\DNBIgpSetupModel\CNext\resources\msgcatalog\DNBIgpChkRuleTagConnectorError.CATNls
RTV/002/DSI .\win_b64\resources\msgcatalog\NlsTest\DNBIgpAttachNavigObj.CATNls|.\DNBIgpSetupModel\CNext\resources\msgcatalog\DNBIgpAttachNavigObj.CATNls
RTV/002/DSI .\win_b64\resources\msgcatalog\DbcsTest\DNBIgpAttachNavigObj.CATNls|.\DNBIgpSetupModel\CNext\resources\msgcatalog\DNBIgpAttachNavigObj.CATNls
RTV/002/DSI .\win_b64\resources\msgcatalog\NlsTest\DNBIgpSchemaMgmt.CATNls|.\DNBIgpSetupModel\CNext\resources\msgcatalog\DNBIgpSchemaMgmt.CATNls
DAT/002/CUS .\win_b64\resources\msgcatalog\DNBIgpTagListError.CATNls|.\DNBIgpSetupModel\CNext\resources\msgcatalog\DNBIgpTagListError.CATNls
RTV/002/DSI .\win_b64\resources\msgcatalog\NlsTest\DNBIgpTagChildComponentsError.CATNls|.\DNBIgpSetupModel\CNext\resources\msgcatalog\DNBIgpTagChildComponentsError.CATNls
DAT/002/CUS .\win_b64\resources\graphic\icons\small\I_DNBRobotSequence.bmp|.\DNBIgpSetupModel\CNext\resources\graphic\icons\small\I_DNBRobotSequence.bmp
DAT/002/CUS .\win_b64\resources\graphic\icons\normal\I_TagTaskReconcile.bmp|.\DNBIgpSetupModel\CNext\resources\graphic\icons\normal\I_TagTaskReconcile.bmp
DAT/002/CUS .\win_b64\code\dictionary\DNBIgpSetupModel.fact|.\DNBIgpSetupModel\CNext\code\dictionary\DNBIgpSetupModel.fact
RTV/002/DSI .\win_b64\resources\msgcatalog\DbcsTest\DNBRobotTaskPasteController.CATNls|.\DNBIgpSetupModel\CNext\resources\msgcatalog\DNBRobotTaskPasteController.CATNls
DAT/002/CUS .\win_b64\resources\graphic\icons\normal\IP2_DNBIgpSpotPick.bmp|.\DNBIgpSetupModel\CNext\resources\graphic\icons\normal\IP2_DNBIgpSpotPick.bmp
DAT/002/CUS .\win_b64\resources\graphic\icons\normal\I_DNBIgpSimPredefinedMoveTo.bmp|.\DNBIgpSetupModel\CNext\resources\graphic\icons\normal\I_DNBIgpSimPredefinedMoveTo.bmp
DAT/002/CUS .\win_b64\resources\graphic\icons\normal\I_DNBIgpSpotDrop.bmp|.\DNBIgpSetupModel\CNext\resources\graphic\icons\normal\I_DNBIgpSpotDrop.bmp
DAT/002/CUS .\win_b64\code\dictionary\DNBIgpSetupModel.dic|.\DNBIgpSetupModel\CNext\code\dictionary\DNBIgpSetupModel.dic
DAT/002/CUS .\win_b64\resources\msgcatalog\DNBIgpDevicePlugError.CATNls|.\DNBIgpSetupModel\CNext\resources\msgcatalog\DNBIgpDevicePlugError.CATNls
RTV/002/DSI .\win_b64\resources\msgcatalog\DbcsTest\DNBIgpTagListError.CATNls|.\DNBIgpSetupModel\CNext\resources\msgcatalog\DNBIgpTagListError.CATNls
DAT/002/CUS .\win_b64\resources\graphic\icons\small\I_DNBIgpSimPredefinedMoveTo.bmp|.\DNBIgpSetupModel\CNext\resources\graphic\icons\small\I_DNBIgpSimPredefinedMoveTo.bmp
DAT/002/CUS .\win_b64\resources\graphic\DNBLytResource.feat|.\DNBIgpSetupModel\CNext\resources\graphic\DNBLytResource.feat
RTV/002/DSI .\win_b64\resources\msgcatalog\DbcsTest\DNBIgpTagFactory.CATNls|.\DNBIgpSetupModel\CNext\resources\msgcatalog\DNBIgpTagFactory.CATNls
DAT/002/CUS .\win_b64\resources\msgcatalog\DNBIgpSetupLibraryNLS.CATNls|.\DNBIgpSetupModel\CNext\resources\msgcatalog\DNBIgpSetupLibraryNLS.CATNls
DAT/002/CUS .\win_b64\resources\graphic\icons\normal\I_DNBRobotTask.bmp|.\DNBIgpSetupModel\CNext\resources\graphic\icons\normal\I_DNBRobotTask.bmp
DAT/002/CUS .\win_b64\resources\graphic\icons\small\I_DNBSimDelay.bmp|.\DNBIgpSetupModel\CNext\resources\graphic\icons\small\I_DNBSimDelay.bmp
DAT/002/CUS .\win_b64\resources\graphic\icons\small\I_TagTaskReconcile.bmp|.\DNBIgpSetupModel\CNext\resources\graphic\icons\small\I_TagTaskReconcile.bmp
DAT/002/CUS .\win_b64\resources\graphic\icons\small\I_DNBFollowPathActivity.bmp|.\DNBIgpSetupModel\CNext\resources\graphic\icons\small\I_DNBFollowPathActivity.bmp
DAT/002/CUS .\win_b64\resources\graphic\icons\normal\IP2_DNBIgpSpotDrop.bmp|.\DNBIgpSetupModel\CNext\resources\graphic\icons\normal\IP2_DNBIgpSpotDrop.bmp
DAT/002/CUS .\win_b64\resources\msgcatalog\DNBIgpRobotTaskDisplayFrame.CATNls|.\DNBIgpSetupModel\CNext\resources\msgcatalog\DNBIgpRobotTaskDisplayFrame.CATNls
DAT/002/CUS .\win_b64\resources\msgcatalog\DNBProgContExtError.CATNls|.\DNBIgpSetupModel\CNext\resources\msgcatalog\DNBProgContExtError.CATNls
DAT/002/CUS .\win_b64\resources\graphic\icons\small\I_DNBIgpUnMountAction.bmp|.\DNBIgpSetupModel\CNext\resources\graphic\icons\small\I_DNBIgpUnMountAction.bmp
DAT/002/CUS .\win_b64\resources\graphic\icons\normal\IP2_DNBTCPTrace.bmp|.\DNBIgpSetupModel\CNext\resources\graphic\icons\normal\IP2_DNBTCPTrace.bmp
RTV/002/DSI .\win_b64\resources\msgcatalog\NlsTest\DNBIgpChkRuleTagConnectorError.CATNls|.\DNBIgpSetupModel\CNext\resources\msgcatalog\DNBIgpChkRuleTagConnectorError.CATNls
DAT/002/CUS .\win_b64\resources\msgcatalog\DNBPropEditAttachCmd.CATNls|.\DNBIgpSetupModel\CNext\resources\msgcatalog\DNBPropEditAttachCmd.CATNls
RTV/002/DSI .\win_b64\resources\msgcatalog\NlsTest\DNBIgpDevicePlugError.CATNls|.\DNBIgpSetupModel\CNext\resources\msgcatalog\DNBIgpDevicePlugError.CATNls
DAT/002/CUS .\win_b64\resources\graphic\icons\normal\IP2_DNBHideShowASMPRD.bmp|.\DNBIgpSetupModel\CNext\resources\graphic\icons\normal\IP2_DNBHideShowASMPRD.bmp
DAT/002/CUS .\win_b64\resources\msgcatalog\DNBIgpSchemaMgmt.CATNls|.\DNBIgpSetupModel\CNext\resources\msgcatalog\DNBIgpSchemaMgmt.CATNls
DAT/002/CUS .\win_b64\resources\msgcatalog\DNBIgpTagFactory.CATNls|.\DNBIgpSetupModel\CNext\resources\msgcatalog\DNBIgpTagFactory.CATNls
DAT/002/CUS .\win_b64\resources\graphic\icons\normal\IP2_DNBIgpUnMountAction.bmp|.\DNBIgpSetupModel\CNext\resources\graphic\icons\normal\IP2_DNBIgpUnMountAction.bmp
DAT/002/CUS .\win_b64\resources\graphic\icons\small\I_DNBIgpSpotDrop.bmp|.\DNBIgpSetupModel\CNext\resources\graphic\icons\small\I_DNBIgpSpotDrop.bmp
RTV/002/DSI .\win_b64\resources\msgcatalog\NlsTest\DNBIgpTagFactory.CATNls|.\DNBIgpSetupModel\CNext\resources\msgcatalog\DNBIgpTagFactory.CATNls
DAT/002/CUS .\win_b64\resources\graphic\DNBRobAnalysisObjects.feat|.\DNBIgpSetupModel\CNext\resources\graphic\DNBRobAnalysisObjects.feat
RTV/002/DSI .\win_b64\resources\msgcatalog\DbcsTest\DNBIgpTagSubscriber.CATNls|.\DNBIgpSetupModel\CNext\resources\msgcatalog\DNBIgpTagSubscriber.CATNls
CSC/002/DSI .\DNBIgpSetupModel\IdentityCard\Objects\win_b64\mkcsc\DNBIgpSetupModel.cscdb|.\DNBIgpSetupModel
DAT/002/CUS .\win_b64\startup\Schemas\MotionDefault|.\DNBIgpSetupModel\CNext\startup\Schemas\MotionDefault
RTV/002/DSI .\win_b64\resources\msgcatalog\NlsTest\DNBIgpTagListError.CATNls|.\DNBIgpSetupModel\CNext\resources\msgcatalog\DNBIgpTagListError.CATNls
DAT/002/CUS .\win_b64\resources\msgcatalog\DNBIgpActivityVisu.CATNls|.\DNBIgpSetupModel\CNext\resources\msgcatalog\DNBIgpActivityVisu.CATNls
RTV/002/DSI .\win_b64\resources\msgcatalog\DbcsTest\DNBIgpPathNavigObj.CATNls|.\DNBIgpSetupModel\CNext\resources\msgcatalog\DNBIgpPathNavigObj.CATNls
RTV/002/DSI .\win_b64\resources\msgcatalog\DbcsTest\DNBIgpTagChildComponentsError.CATNls|.\DNBIgpSetupModel\CNext\resources\msgcatalog\DNBIgpTagChildComponentsError.CATNls
RTV/002/DSI .\win_b64\resources\msgcatalog\NlsTest\DNBIgpPathNavigObj.CATNls|.\DNBIgpSetupModel\CNext\resources\msgcatalog\DNBIgpPathNavigObj.CATNls
DAT/002/CUS .\win_b64\resources\graphic\icons\normal\I_DNBRobotSequence.bmp|.\DNBIgpSetupModel\CNext\resources\graphic\icons\normal\I_DNBRobotSequence.bmp
RTV/002/DSI .\win_b64\resources\msgcatalog\DbcsTest\DNBIgpActivityVisu.CATNls|.\DNBIgpSetupModel\CNext\resources\msgcatalog\DNBIgpActivityVisu.CATNls
DAT/002/CUS .\win_b64\resources\graphic\DNBIgpSetupLibrary.feat|.\DNBIgpSetupModel\CNext\resources\graphic\DNBIgpSetupLibrary.feat
RTV/002/DSI .\win_b64\resources\msgcatalog\DbcsTest\DNBIgpRobotTaskDisplayFrame.CATNls|.\DNBIgpSetupModel\CNext\resources\msgcatalog\DNBIgpRobotTaskDisplayFrame.CATNls
DAT/002/CUS .\win_b64\resources\msgcatalog\DNBIgpPathNavigObj.CATNls|.\DNBIgpSetupModel\CNext\resources\msgcatalog\DNBIgpPathNavigObj.CATNls
DAT/002/CUS .\win_b64\resources\graphic\icons\small\I_DNBIgpMountAction.bmp|.\DNBIgpSetupModel\CNext\resources\graphic\icons\small\I_DNBIgpMountAction.bmp
BTV/002/CUS .\win_b64\code\productIC\DNBIgpSetupModelIC.xml|.\DNBIgpSetupModel
DAT/002/CUS .\win_b64\resources\msgcatalog\DNBIgpTagSubscriber.CATNls|.\DNBIgpSetupModel\CNext\resources\msgcatalog\DNBIgpTagSubscriber.CATNls
DAT/002/CUS .\win_b64\resources\msgcatalog\DNBERobotGanttAttributeManager.CATNls|.\DNBIgpSetupModel\CNext\resources\msgcatalog\DNBERobotGanttAttributeManager.CATNls
RTV/002/DSI .\win_b64\resources\msgcatalog\DbcsTest\DNBIgpSetupLibraryNLS.CATNls|.\DNBIgpSetupModel\CNext\resources\msgcatalog\DNBIgpSetupLibraryNLS.CATNls
@type='codeFramework'
@built='true'
