!<mkRTViewData> v1.0.0
CSC/000/DSI .\CATCoreCavitySeparationUI\CATCCSSetEditorUI.m\Objects\win_b64\mkcsc\CATCCSSetEditorUI.cscdb|.\CATCoreCavitySeparationUI\CATCCSSetEditorUI.m
@type='NONE'
@clr='false'
@kind='INCLUDED'
@deliverable='true'
@built='true'
