!<mkRTViewData> v1.0.0
BTV/000/CUS .\win_b64\code\lib\CATCommonLayoutItfUUID.lib|.\CATCommonLayoutInterfaces\CATCommonLayoutItfUUID.m
CSC/000/DSI .\CATCommonLayoutInterfaces\CATCommonLayoutItfUUID.m\Objects\win_b64\mkcsc\CATCommonLayoutItfUUID.cscdb|.\CATCommonLayoutInterfaces\CATCommonLayoutItfUUID.m
@type='ARCHIVE'
@clr='false'
@kind='NATIVE'
@deliverable='true'
@built='true'
