!<mkRTViewData> v1.0.0
CSC/000/DSI .\CATElfiniServicesItf\CATElfiniServicesItfCPP.m\Objects\win_b64\mkcsc\CATElfiniServicesItfCPP.cscdb|.\CATElfiniServicesItf\CATElfiniServicesItfCPP.m
INT/000/CUS .\win_b64\code\bin\CATElfiniServicesItfCPP.pdb|.\CATElfiniServicesItf\CATElfiniServicesItfCPP.m
RTV/001/CUS .\win_b64\code\bin\CATElfiniServicesItfCPP.dll|.\CATElfiniServicesItf\CATElfiniServicesItfCPP.m
BTV/000/CUS .\win_b64\code\lib\CATElfiniServicesItfCPP.lib|.\CATElfiniServicesItf\CATElfiniServicesItfCPP.m
INT/000/CUS .\win_b64\code\lib\CATElfiniServicesItfCPP.exp|.\CATElfiniServicesItf\CATElfiniServicesItfCPP.m
@type='SHARED_LIBRARY'
@clr='false'
@kind='NATIVE'
@deliverable='true'
@built='true'
