!<mkRTViewData> v1.0.0
CSC/000/DSI .\PortalBaseORB\PLBObaseJc.mj\Objects\win_b64\mkcsc\PLBObaseJc.cscdb|.\PortalBaseORB\PLBObaseJc.mj
@type='JAVA_COMMON'
@clr='false'
@kind='JAVA'
@deliverable='true'
@built='false'
