!<mkRTViewData> v1.0.0
RTV/002/DSI .\win_b64\code\productIC\DraftingBaseInfrastructureIC.required|.\DraftingBaseInfrastructure
CSC/002/DSI .\DraftingBaseInfrastructure\IdentityCard\Objects\win_b64\mkcsc\DraftingBaseInfrastructure.cscdb|.\DraftingBaseInfrastructure
BTV/002/CUS .\win_b64\code\productIC\DraftingBaseInfrastructureIC.script|.\DraftingBaseInfrastructure
DAT/002/CUS .\win_b64\code\dictionary\DraftingBaseInfrastructure.iid|.\DraftingBaseInfrastructure\CNext\code\dictionary\DraftingBaseInfrastructure.iid
BTV/002/CUS .\win_b64\code\productIC\DraftingBaseInfrastructureIC.xml|.\DraftingBaseInfrastructure
DAT/002/CUS .\win_b64\code\dictionary\DraftingBaseInfrastructure.dic|.\DraftingBaseInfrastructure\CNext\code\dictionary\DraftingBaseInfrastructure.dic
@type='codeFramework'
@built='true'
