!<mkRTViewData> v1.0.0
CSC/000/DSI .\ProductStructure\CATPrdIntegration.m\Objects\win_b64\mkcsc\CATPrdIntegration.cscdb|.\ProductStructure\CATPrdIntegration.m
@type='NONE'
@clr='false'
@kind='INCLUDED'
@deliverable='true'
@built='true'
