!<mkRTViewData> v1.0.0
BTV/000/CUS .\win_b64\code\lib\CATCloudQsrInterfacesUUID.lib|.\CATCloudQsrInterfaces\CATCloudQsrInterfacesUUID.m
CSC/000/DSI .\CATCloudQsrInterfaces\CATCloudQsrInterfacesUUID.m\Objects\win_b64\mkcsc\CATCloudQsrInterfacesUUID.cscdb|.\CATCloudQsrInterfaces\CATCloudQsrInterfacesUUID.m
@type='ARCHIVE'
@clr='false'
@kind='NATIVE'
@deliverable='true'
@built='true'
