!<mkRTViewData> v1.0.0
INT/000/CUS .\win_b64\code\bin\CATCpuCptMembership.pdb|.\CATCompartmentUI\CATCpuCptMembership.m
CSC/000/DSI .\CATCompartmentUI\CATCpuCptMembership.m\Objects\win_b64\mkcsc\CATCpuCptMembership.cscdb|.\CATCompartmentUI\CATCpuCptMembership.m
BTV/000/CUS .\win_b64\code\lib\CATCpuCptMembership.lib|.\CATCompartmentUI\CATCpuCptMembership.m
RTV/001/CUS .\win_b64\code\bin\CATCpuCptMembership.dll|.\CATCompartmentUI\CATCpuCptMembership.m
INT/000/CUS .\win_b64\code\lib\CATCpuCptMembership.exp|.\CATCompartmentUI\CATCpuCptMembership.m
@type='SHARED_LIBRARY'
@clr='false'
@kind='NATIVE'
@deliverable='true'
@built='true'
