!<mkRTViewData> v1.0.0
CSC/000/DSI .\System\CATSysCacheTime.m\Objects\win_b64\mkcsc\CATSysCacheTime.cscdb|.\System\CATSysCacheTime.m
INT/000/CUS .\win_b64\code\bin\CATSysCacheTime.pdb|.\System\CATSysCacheTime.m
RTV/001/CUS .\win_b64\code\bin\CATSysCacheTime.exe|.\System\CATSysCacheTime.m
@type='LOAD_MODULE'
@clr='false'
@kind='NATIVE'
@deliverable='true'
@built='true'
