!<mkRTViewData> v1.0.0
DAT/002/CUS .\win_b64\code\dictionary\PrjMngt.dic|.\PrjMngt\CNext\code\dictionary\PrjMngt.dic
BTV/002/CUS .\win_b64\code\productIC\PrjMngtIC.xml|.\PrjMngt
RTV/002/DSI .\win_b64\code\productIC\PrjMngtIC.required|.\PrjMngt
BTV/002/CUS .\win_b64\code\productIC\PrjMngtIC.script|.\PrjMngt
CSC/002/DSI .\PrjMngt\IdentityCard\Objects\win_b64\mkcsc\PrjMngt.cscdb|.\PrjMngt
@type='codeFramework'
@built='true'
