!<mkRTViewData> v1.0.0
RTV/002/DSI .\win_b64\code\productIC\MachinistAlgosWTTIC.required|.\MachinistAlgosWTT
BTV/002/CUS .\win_b64\code\productIC\MachinistAlgosWTTIC.xml|.\MachinistAlgosWTT
CSC/002/DSI .\MachinistAlgosWTT\IdentityCard\Objects\win_b64\mkcsc\MachinistAlgosWTT.cscdb|.\MachinistAlgosWTT
BTV/002/CUS .\win_b64\code\productIC\MachinistAlgosWTTIC.script|.\MachinistAlgosWTT
@type='codeFramework'
@built='true'
