!<mkRTViewData> v1.0.0
CSC/000/DSI .\TopologicalOperators\HybBoolean.m\Objects\win_b64\mkcsc\HybBoolean.cscdb|.\TopologicalOperators\HybBoolean.m
@type='NONE'
@clr='false'
@kind='INCLUDED'
@deliverable='true'
@built='true'
