!<mkRTViewData> v1.0.0
RTV/001/CUS .\win_b64\code\bin\DNBIgpSetupCommands.dll|.\DNBIgpSetupCommands\DNBIgpSetupCommands.m
INT/000/CUS .\win_b64\code\bin\DNBIgpSetupCommands.pdb|.\DNBIgpSetupCommands\DNBIgpSetupCommands.m
INT/000/CUS .\win_b64\code\lib\DNBIgpSetupCommands.exp|.\DNBIgpSetupCommands\DNBIgpSetupCommands.m
CSC/000/DSI .\DNBIgpSetupCommands\DNBIgpSetupCommands.m\Objects\win_b64\mkcsc\DNBIgpSetupCommands.cscdb|.\DNBIgpSetupCommands\DNBIgpSetupCommands.m
BTV/000/CUS .\win_b64\code\lib\DNBIgpSetupCommands.lib|.\DNBIgpSetupCommands\DNBIgpSetupCommands.m
@type='SHARED_LIBRARY'
@clr='false'
@kind='NATIVE'
@deliverable='true'
@built='true'
