!<mkRTViewData> v1.0.0
CSC/000/DSI .\SIMInterfaces\SIMPubIDL.m\Objects\win_b64\mkcsc\SIMPubIDL.cscdb|.\SIMInterfaces\SIMPubIDL.m
@type='NONE'
@clr='false'
@kind='INCLUDED'
@deliverable='true'
@built='true'
