!<mkRTViewData> v1.0.0
CSC/000/DSI .\HiddenLineRemover\HLRUti.m\Objects\win_b64\mkcsc\HLRUti.cscdb|.\HiddenLineRemover\HLRUti.m
RTV/001/CUS .\win_b64\code\bin\HLRUti.dll|.\HiddenLineRemover\HLRUti.m
BTV/000/CUS .\win_b64\code\lib\HLRUti.lib|.\HiddenLineRemover\HLRUti.m
INT/000/CUS .\win_b64\code\bin\HLRUti.pdb|.\HiddenLineRemover\HLRUti.m
INT/000/CUS .\win_b64\code\lib\HLRUti.exp|.\HiddenLineRemover\HLRUti.m
@type='SHARED_LIBRARY'
@clr='false'
@kind='NATIVE'
@deliverable='true'
@built='true'
