!<mkRTViewData> v1.0.0
CSC/000/DSI .\CATIADataBasics\CATIAEntity.m\Objects\win_b64\mkcsc\CATIAEntity.cscdb|.\CATIADataBasics\CATIAEntity.m
@type='NONE'
@clr='false'
@kind='INCLUDED'
@deliverable='true'
@built='true'
