!<mkRTViewData> v1.0.0
BTV/000/CUS .\win_b64\code\lib\CATObjectRelBaseImpl.lib|.\CATObjectRelInterfaces\CATObjectRelBaseImpl.m
INT/000/CUS .\win_b64\code\bin\CATObjectRelBaseImpl.pdb|.\CATObjectRelInterfaces\CATObjectRelBaseImpl.m
RTV/001/CUS .\win_b64\code\bin\CATObjectRelBaseImpl.dll|.\CATObjectRelInterfaces\CATObjectRelBaseImpl.m
INT/000/CUS .\win_b64\code\lib\CATObjectRelBaseImpl.exp|.\CATObjectRelInterfaces\CATObjectRelBaseImpl.m
CSC/000/DSI .\CATObjectRelInterfaces\CATObjectRelBaseImpl.m\Objects\win_b64\mkcsc\CATObjectRelBaseImpl.cscdb|.\CATObjectRelInterfaces\CATObjectRelBaseImpl.m
@type='SHARED_LIBRARY'
@clr='false'
@kind='NATIVE'
@deliverable='true'
@built='true'
