!<mkRTViewData> v1.0.0
RTV/001/CUS .\win_b64\code\bin\CATCGMSkmDataItf.dll|.\CATCGMSkmDataItf\CATCGMSkmDataItf.m
INT/000/CUS .\win_b64\code\bin\CATCGMSkmDataItf.pdb|.\CATCGMSkmDataItf\CATCGMSkmDataItf.m
BTV/000/CUS .\win_b64\code\lib\CATCGMSkmDataItf.lib|.\CATCGMSkmDataItf\CATCGMSkmDataItf.m
INT/000/CUS .\win_b64\code\lib\CATCGMSkmDataItf.exp|.\CATCGMSkmDataItf\CATCGMSkmDataItf.m
CSC/000/DSI .\CATCGMSkmDataItf\CATCGMSkmDataItf.m\Objects\win_b64\mkcsc\CATCGMSkmDataItf.cscdb|.\CATCGMSkmDataItf\CATCGMSkmDataItf.m
@type='SHARED_LIBRARY'
@clr='false'
@kind='NATIVE'
@deliverable='true'
@built='true'
