!<mkRTViewData> v1.0.0
RTV/000/CUS .\win_b64\docs\javacommon\PLBOutilCORBA_S.jar|.\PortalBaseORB\PLBOutilCORBA.m
RTV/000/CUS .\win_b64\docs\javacommon\PLBOutilCORBA_C.jar|.\PortalBaseORB\PLBOutilCORBA.m
@type='CORBA'
@clr='false'
@kind='NATIVE'
@deliverable='true'
@built='true'
