!<mkRTViewData> v1.0.0
CSC/000/DSI .\BatchInfrastructure\CATBatGenXMLSet.m\Objects\win_b64\mkcsc\CATBatGenXMLSet.cscdb|.\BatchInfrastructure\CATBatGenXMLSet.m
RTV/001/CUS .\win_b64\code\bin\CATBatGenXMLSet.exe|.\BatchInfrastructure\CATBatGenXMLSet.m
INT/000/CUS .\win_b64\code\bin\CATBatGenXMLSet.pdb|.\BatchInfrastructure\CATBatGenXMLSet.m
@type='LOAD_MODULE'
@clr='false'
@kind='NATIVE'
@deliverable='true'
@built='true'
