!<mkRTViewData> v1.0.0
RTV/001/CUS .\win_b64\code\bin\GW0COMUN.dll|.\CORBAServerInfra\GW0COMUN.m
INT/000/CUS .\win_b64\code\lib\GW0COMUN.exp|.\CORBAServerInfra\GW0COMUN.m
CSC/000/DSI .\CORBAServerInfra\GW0COMUN.m\Objects\win_b64\mkcsc\GW0COMUN.cscdb|.\CORBAServerInfra\GW0COMUN.m
INT/000/CUS .\win_b64\code\bin\GW0COMUN.pdb|.\CORBAServerInfra\GW0COMUN.m
BTV/000/CUS .\win_b64\code\lib\GW0COMUN.lib|.\CORBAServerInfra\GW0COMUN.m
@type='SHARED_LIBRARY'
@clr='false'
@kind='NATIVE'
@deliverable='true'
@built='true'
