!<mkRTViewData> v1.0.0
BTV/000/CUS .\win_b64\code\lib\FeatureCommandsUUID.lib|.\FeatureCommands\FeatureCommandsUUID.m
CSC/000/DSI .\FeatureCommands\FeatureCommandsUUID.m\Objects\win_b64\mkcsc\FeatureCommandsUUID.cscdb|.\FeatureCommands\FeatureCommandsUUID.m
@type='ARCHIVE'
@clr='false'
@kind='NATIVE'
@deliverable='true'
@built='true'
