!<mkRTViewData> v1.0.0
CSC/000/DSI .\CATImmENOVIAProvider\CATImmCAAServices.m\Objects\win_b64\mkcsc\CATImmCAAServices.cscdb|.\CATImmENOVIAProvider\CATImmCAAServices.m
RTV/001/CUS .\win_b64\code\bin\CATImmCAAServices.dll|.\CATImmENOVIAProvider\CATImmCAAServices.m
BTV/000/CUS .\win_b64\code\lib\CATImmCAAServices.lib|.\CATImmENOVIAProvider\CATImmCAAServices.m
INT/000/CUS .\win_b64\code\lib\CATImmCAAServices.exp|.\CATImmENOVIAProvider\CATImmCAAServices.m
INT/000/CUS .\win_b64\code\bin\CATImmCAAServices.pdb|.\CATImmENOVIAProvider\CATImmCAAServices.m
@type='SHARED_LIBRARY'
@clr='false'
@kind='NATIVE'
@deliverable='true'
@built='true'
