!<mkRTViewData> v1.0.0
CSC/000/DSI .\Interference\O20MEASU.m\Objects\win_b64\mkcsc\O20MEASU.cscdb|.\Interference\O20MEASU.m
@type='NONE'
@clr='false'
@kind='INCLUDED'
@deliverable='true'
@built='true'
