!<mkRTViewData> v1.0.0
CSC/000/DSI .\DraftingIntCommands\CATDicBalloonDatum.m\Objects\win_b64\mkcsc\CATDicBalloonDatum.cscdb|.\DraftingIntCommands\CATDicBalloonDatum.m
@type='NONE'
@clr='false'
@kind='INCLUDED'
@deliverable='true'
@built='true'
