!<mkRTViewData> v1.0.0
CSC/000/DSI .\MechanicalModeler\CATMmrBrepModel.m\Objects\win_b64\mkcsc\CATMmrBrepModel.cscdb|.\MechanicalModeler\CATMmrBrepModel.m
@type='NONE'
@clr='false'
@kind='INCLUDED'
@deliverable='true'
@built='true'
