!<mkRTViewData> v1.0.0
INT/000/DSI .\win_b64\code\bin\osmfeat.pdb|.\ObjectSpecsTools\osmfeat.m
CSC/000/DSI .\ObjectSpecsTools\osmfeat.m\Objects\win_b64\mkcsc\osmfeat.cscdb|.\ObjectSpecsTools\osmfeat.m
RTV/001/DSI .\win_b64\code\bin\osmfeat.exe|.\ObjectSpecsTools\osmfeat.m
@type='LOAD_MODULE'
@clr='false'
@kind='NATIVE'
@deliverable='false'
@built='true'
