!<mkRTViewData> v1.0.0
CSC/000/DSI .\DNBResourceBehaviorInterfaces\DNBResourceBehaviorItfCPP.m\Objects\win_b64\mkcsc\DNBResourceBehaviorItfCPP.cscdb|.\DNBResourceBehaviorInterfaces\DNBResourceBehaviorItfCPP.m
@type='NONE'
@clr='false'
@kind='INCLUDED'
@deliverable='true'
@built='true'
