!<mkRTViewData> v1.0.0
CSC/000/DSI .\DNBParameterProfiles\DNBParameterPflNavig.m\Objects\win_b64\mkcsc\DNBParameterPflNavig.cscdb|.\DNBParameterProfiles\DNBParameterPflNavig.m
@type='NONE'
@clr='false'
@kind='INCLUDED'
@deliverable='true'
@built='true'
