!<mkRTViewData> v1.0.0
CSC/000/DSI .\DNBDpmBase\DNBDpmCompTool.m\Objects\win_b64\mkcsc\DNBDpmCompTool.cscdb|.\DNBDpmBase\DNBDpmCompTool.m
@type='NONE'
@clr='false'
@kind='INCLUDED'
@deliverable='true'
@built='true'
