!<mkRTViewData> v1.0.0
BTV/002/CUS .\win_b64\code\productIC\SDMSTEPFormIC.xml|.\SDMSTEPForm
RTV/002/DSI .\win_b64\code\productIC\SDMSTEPFormIC.required|.\SDMSTEPForm
CSC/002/DSI .\SDMSTEPForm\IdentityCard\Objects\win_b64\mkcsc\SDMSTEPForm.cscdb|.\SDMSTEPForm
BTV/002/CUS .\win_b64\code\productIC\SDMSTEPFormIC.script|.\SDMSTEPForm
@type='codeFramework'
@built='true'
