!<mkRTViewData> v1.0.0
CSC/000/DSI .\CATCloudBasicResources\CATCldResMeshers.m\Objects\win_b64\mkcsc\CATCldResMeshers.cscdb|.\CATCloudBasicResources\CATCldResMeshers.m
@type='NONE'
@clr='false'
@kind='INCLUDED'
@deliverable='true'
@built='true'
