!<mkRTViewData> v1.0.0
DAT/002/CUS .\win_b64\code\dictionary\StepDataExchange.iid|.\StepDataExchange\CNext\code\dictionary\StepDataExchange.iid
RTV/002/DSI .\win_b64\code\productIC\StepDataExchangeIC.required|.\StepDataExchange
BTV/002/CUS .\win_b64\code\productIC\StepDataExchangeIC.script|.\StepDataExchange
DAT/002/CUS .\win_b64\code\dictionary\StepDataExchange.func|.\StepDataExchange\CNext\code\dictionary\StepDataExchange.func
DAT/002/CUS .\win_b64\code\dictionary\StepDataExchangeUI.fact|.\StepDataExchange\CNext\code\dictionary\StepDataExchangeUI.fact
DAT/002/CUS .\win_b64\code\dictionary\StepDataExchange.dic|.\StepDataExchange\CNext\code\dictionary\StepDataExchange.dic
BTV/002/CUS .\win_b64\code\productIC\StepDataExchangeIC.xml|.\StepDataExchange
CSC/002/DSI .\StepDataExchange\IdentityCard\Objects\win_b64\mkcsc\StepDataExchange.cscdb|.\StepDataExchange
@type='codeFramework'
@built='true'
