!<mkRTViewData> v1.0.0
BTV/000/CUS .\win_b64\code\lib\CATElfElemShared.lib|.\CATElfiniOpenSoftware\CATElfElemShared.m
CSC/000/DSI .\CATElfiniOpenSoftware\CATElfElemShared.m\Objects\win_b64\mkcsc\CATElfElemShared.cscdb|.\CATElfiniOpenSoftware\CATElfElemShared.m
RTV/001/CUS .\win_b64\code\bin\CATElfElemShared.dll|.\CATElfiniOpenSoftware\CATElfElemShared.m
INT/000/CUS .\win_b64\code\lib\CATElfElemShared.exp|.\CATElfiniOpenSoftware\CATElfElemShared.m
INT/000/CUS .\win_b64\code\bin\CATElfElemShared.pdb|.\CATElfiniOpenSoftware\CATElfElemShared.m
@type='SHARED_LIBRARY'
@clr='false'
@kind='NATIVE'
@deliverable='true'
@built='true'
