!<mkRTViewData> v1.0.0
RTV/001/CUS .\win_b64\code\bin\PV0MAIN.dll|.\DNBGraphEditor\PV0MAIN.m
BTV/000/CUS .\win_b64\code\lib\PV0MAIN.lib|.\DNBGraphEditor\PV0MAIN.m
INT/000/CUS .\win_b64\code\bin\PV0MAIN.pdb|.\DNBGraphEditor\PV0MAIN.m
CSC/000/DSI .\DNBGraphEditor\PV0MAIN.m\Objects\win_b64\mkcsc\PV0MAIN.cscdb|.\DNBGraphEditor\PV0MAIN.m
INT/000/CUS .\win_b64\code\lib\PV0MAIN.exp|.\DNBGraphEditor\PV0MAIN.m
@type='SHARED_LIBRARY'
@clr='false'
@kind='NATIVE'
@deliverable='true'
@built='true'
