ThreadDiam	Pitch	HoleDiam	M	NO_DESC_IN_DRAFTING
8mm	1.0mm	6.917mm	M8
10mm	1.0mm	8.917mm	M10x1
10mm	1.25mm	8.647mm	M10x1.25
12mm	1.25mm	10.647mm	M12x1.25
12mm	1.5mm	10.376mm	M12x1.5
14mm	1.5mm	12.376mm	M14
16mm	1.5mm	14.376mm	M16
18mm	1.5mm	16.376mm	M18x1.5
18mm	2.0mm	15.835mm	M18x2
20mm	1.5mm	18.376mm	M20x1.5
20mm	2.0mm	17.835mm	M20x2
22mm	1.5mm	20.376mm	M22x1.5
22mm	2.0mm	19.835mm	M22x2.0
24mm	2.0mm	21.835mm	M24
27mm	2.0mm	24.835mm	M27
30mm	2.0mm	27.835mm	M30
33mm	2.0mm	30.835mm	M33
36mm	3.0mm	32.752mm	M36
39mm	3.0mm	35.752mm	M39
42mm	3.0mm	38.752mm	M42
45mm	3.0mm	41.752mm	M45
48mm	3.0mm	44.752mm	M48
52mm	4.0mm	47.670mm	M52
56mm	4.0mm	51.670mm	M56
60mm	4.0mm	55.670mm	M60
64mm	4.0mm	59.670mm	M64
