!<mkRTViewData> v1.0.0
CSC/000/DSI .\DNBDpmBase\DNBMfgAssyDataModel.m\Objects\win_b64\mkcsc\DNBMfgAssyDataModel.cscdb|.\DNBDpmBase\DNBMfgAssyDataModel.m
@type='NONE'
@clr='false'
@kind='INCLUDED'
@deliverable='true'
@built='true'
