!<mkRTViewData> v1.0.0
INT/000/CUS .\win_b64\code\lib\CATWorkbenchUtil.exp|.\ApplicationFrame\CATWorkbenchUtil.m
CSC/000/DSI .\ApplicationFrame\CATWorkbenchUtil.m\Objects\win_b64\mkcsc\CATWorkbenchUtil.cscdb|.\ApplicationFrame\CATWorkbenchUtil.m
RTV/001/CUS .\win_b64\code\bin\CATWorkbenchUtil.dll|.\ApplicationFrame\CATWorkbenchUtil.m
BTV/000/CUS .\win_b64\code\lib\CATWorkbenchUtil.lib|.\ApplicationFrame\CATWorkbenchUtil.m
INT/000/CUS .\win_b64\code\bin\CATWorkbenchUtil.pdb|.\ApplicationFrame\CATWorkbenchUtil.m
@type='SHARED_LIBRARY'
@clr='false'
@kind='NATIVE'
@deliverable='true'
@built='true'
