!<mkRTViewData> v1.0.0
BTV/002/CUS .\win_b64\code\productIC\GeometricObjectsCATIAIC.script|.\GeometricObjectsCATIA
BTV/002/CUS .\win_b64\code\productIC\GeometricObjectsCATIAIC.xml|.\GeometricObjectsCATIA
RTV/002/DSI .\win_b64\code\productIC\GeometricObjectsCATIAIC.required|.\GeometricObjectsCATIA
CSC/002/DSI .\GeometricObjectsCATIA\IdentityCard\Objects\win_b64\mkcsc\GeometricObjectsCATIA.cscdb|.\GeometricObjectsCATIA
@type='codeFramework'
@built='true'
