!<mkRTViewData> v1.0.0
CSC/000/DSI .\PCBoardBase\CATPCBWkbPCBoardWorkshop.m\Objects\win_b64\mkcsc\CATPCBWkbPCBoardWorkshop.cscdb|.\PCBoardBase\CATPCBWkbPCBoardWorkshop.m
RTV/001/CUS .\win_b64\code\bin\CATPCBWkbPCBoardWorkshop.dll|.\PCBoardBase\CATPCBWkbPCBoardWorkshop.m
INT/000/CUS .\win_b64\code\bin\CATPCBWkbPCBoardWorkshop.pdb|.\PCBoardBase\CATPCBWkbPCBoardWorkshop.m
BTV/000/CUS .\win_b64\code\lib\CATPCBWkbPCBoardWorkshop.lib|.\PCBoardBase\CATPCBWkbPCBoardWorkshop.m
INT/000/CUS .\win_b64\code\lib\CATPCBWkbPCBoardWorkshop.exp|.\PCBoardBase\CATPCBWkbPCBoardWorkshop.m
@type='SHARED_LIBRARY'
@clr='false'
@kind='NATIVE'
@deliverable='true'
@built='true'
