!<mkRTViewData> v1.0.0
BTV/000/CUS .\win_b64\code\lib\CATV4Maths.lib|.\CATV4Maths\CATV4Maths.m
RTV/001/CUS .\win_b64\code\bin\CATV4Maths.dll|.\CATV4Maths\CATV4Maths.m
INT/000/CUS .\win_b64\code\bin\CATV4Maths.pdb|.\CATV4Maths\CATV4Maths.m
INT/000/CUS .\win_b64\code\lib\CATV4Maths.exp|.\CATV4Maths\CATV4Maths.m
CSC/000/DSI .\CATV4Maths\CATV4Maths.m\Objects\win_b64\mkcsc\CATV4Maths.cscdb|.\CATV4Maths\CATV4Maths.m
@type='SHARED_LIBRARY'
@clr='false'
@kind='NATIVE'
@deliverable='true'
@built='true'
