!<mkRTViewData> v1.0.0
CSC/000/DSI .\CATSchPlatformInterfaces\CATSchematicItf.m\Objects\win_b64\mkcsc\CATSchematicItf.cscdb|.\CATSchPlatformInterfaces\CATSchematicItf.m
BTV/000/CUS .\win_b64\code\lib\CATSchematicItf.lib|.\CATSchPlatformInterfaces\CATSchematicItf.m
INT/000/CUS .\win_b64\code\lib\CATSchematicItf.exp|.\CATSchPlatformInterfaces\CATSchematicItf.m
INT/000/CUS .\win_b64\code\bin\CATSchematicItf.pdb|.\CATSchPlatformInterfaces\CATSchematicItf.m
RTV/001/CUS .\win_b64\code\bin\CATSchematicItf.dll|.\CATSchPlatformInterfaces\CATSchematicItf.m
@type='SHARED_LIBRARY'
@clr='false'
@kind='NATIVE'
@deliverable='true'
@built='true'
