!<mkRTViewData> v1.0.0
RTV/002/DSI .\win_b64\code\productIC\MecModLiveInterfacesIC.required|.\MecModLiveInterfaces
BTV/002/CUS .\win_b64\code\productIC\MecModLiveInterfacesIC.script|.\MecModLiveInterfaces
CSC/002/DSI .\MecModLiveInterfaces\IdentityCard\Objects\win_b64\mkcsc\MecModLiveInterfaces.cscdb|.\MecModLiveInterfaces
BTV/002/CUS .\win_b64\code\productIC\MecModLiveInterfacesIC.xml|.\MecModLiveInterfaces
@type='codeFramework'
@built='true'
