!<mkRTViewData> v1.0.0
DAT/002/CUS .\win_b64\resources\graphic\I_FolderOpened.bmp|.\ComponentsCatalogs\CNext\resources\graphic\I_FolderOpened.bmp
CSC/002/DSI .\ComponentsCatalogs\IdentityCard\Objects\win_b64\mkcsc\ComponentsCatalogs.cscdb|.\ComponentsCatalogs
RTV/002/DSI .\win_b64\resources\msgcatalog\NlsTest\CATCuiCommands.CATNls|.\ComponentsCatalogs\CNext\resources\msgcatalog\CATCuiCommands.CATNls
DAT/002/CUS .\win_b64\resources\msgcatalog\CATCuiSelectionPanel.CATNls|.\ComponentsCatalogs\CNext\resources\msgcatalog\CATCuiSelectionPanel.CATNls
RTV/002/DSI .\win_b64\resources\msgcatalog\NlsTest\CATCclMsg.CATNls|.\ComponentsCatalogs\CNext\resources\msgcatalog\CATCclMsg.CATNls
RTV/002/DSI .\win_b64\resources\msgcatalog\DbcsTest\CATCATALOGCmdHeader.CATNls|.\ComponentsCatalogs\CNext\resources\msgcatalog\CATCATALOGCmdHeader.CATNls
RTV/002/DSI .\win_b64\resources\msgcatalog\DbcsTest\CATCuiKeywordDefine.CATNls|.\ComponentsCatalogs\CNext\resources\msgcatalog\CATCuiKeywordDefine.CATNls
DAT/002/CUS .\win_b64\resources\graphic\icons\IF_WkbAsCatalog.bmp|.\ComponentsCatalogs\CNext\resources\graphic\icons\IF_WkbAsCatalog.bmp
DAT/002/CUS .\win_b64\resources\graphic\icons\normal\I_CatalogFolder.bmp|.\ComponentsCatalogs\CNext\resources\graphic\icons\normal\I_CatalogFolder.bmp
DAT/002/CUS .\win_b64\code\dictionary\ComponentsCatalogs.fact|.\ComponentsCatalogs\CNext\code\dictionary\ComponentsCatalogs.fact
DAT/002/CUS .\win_b64\resources\msgcatalog\CATCuiOptionEditor.CATRsc|.\ComponentsCatalogs\CNext\resources\msgcatalog\CATCuiOptionEditor.CATRsc
RTV/002/DSI .\win_b64\resources\msgcatalog\NlsTest\CATCuiChapterKeyword.CATNls|.\ComponentsCatalogs\CNext\resources\msgcatalog\CATCuiChapterKeyword.CATNls
DAT/002/CUS .\win_b64\resources\msgcatalog\CATCuiComputeResolve.CATNls|.\ComponentsCatalogs\CNext\resources\msgcatalog\CATCuiComputeResolve.CATNls
DAT/002/CUS .\win_b64\resources\msgcatalog\CATCuiKeywordDefinePanel.CATNls|.\ComponentsCatalogs\CNext\resources\msgcatalog\CATCuiKeywordDefinePanel.CATNls
RTV/002/DSI .\win_b64\resources\msgcatalog\DbcsTest\CATCuiOptionEditor.CATNls|.\ComponentsCatalogs\CNext\resources\msgcatalog\CATCuiOptionEditor.CATNls
DAT/002/CUS .\win_b64\resources\msgcatalog\CATALOGWorkshopAlias.CATRsc|.\ComponentsCatalogs\CNext\resources\msgcatalog\CATALOGWorkshopAlias.CATRsc
DAT/002/CUS .\win_b64\resources\graphic\icons\small\I_CatalogExternalMask.bmp|.\ComponentsCatalogs\CNext\resources\graphic\icons\small\I_CatalogExternalMask.bmp
RTV/002/DSI .\win_b64\resources\msgcatalog\NlsTest\CATCuiChapterDesc.CATNls|.\ComponentsCatalogs\CNext\resources\msgcatalog\CATCuiChapterDesc.CATNls
DAT/002/CUS .\win_b64\resources\graphic\icons\small\I_CatalogChapter.bmp|.\ComponentsCatalogs\CNext\resources\graphic\icons\small\I_CatalogChapter.bmp
RTV/002/DSI .\win_b64\resources\msgcatalog\NlsTest\CATALOGDocSelector.CATNls|.\ComponentsCatalogs\CNext\resources\msgcatalog\CATALOGDocSelector.CATNls
DAT/002/CUS .\win_b64\resources\graphic\icons\I_BrowserChapter.bmp|.\ComponentsCatalogs\CNext\resources\graphic\icons\I_BrowserChapter.bmp
DAT/002/CUS .\win_b64\resources\graphic\icons\small\I_StorageFolderSelection.bmp|.\ComponentsCatalogs\CNext\resources\graphic\icons\small\I_StorageFolderSelection.bmp
RTV/002/DSI .\win_b64\resources\msgcatalog\DbcsTest\CATCuiChapterDefinePanel.CATNls|.\ComponentsCatalogs\CNext\resources\msgcatalog\CATCuiChapterDefinePanel.CATNls
DAT/002/CUS .\win_b64\resources\graphic\icons\normal\I_CatalogAddFamilyFromDesignTable.bmp|.\ComponentsCatalogs\CNext\resources\graphic\icons\normal\I_CatalogAddFamilyFromDesignTable.bmp
RTV/002/DSI .\win_b64\resources\msgcatalog\NlsTest\CATCatalogEditor_msg.CATNls|.\ComponentsCatalogs\CNext\resources\msgcatalog\CATCatalogEditor_msg.CATNls
RTV/002/DSI .\win_b64\resources\msgcatalog\DbcsTest\CATCuiChapterLink.CATNls|.\ComponentsCatalogs\CNext\resources\msgcatalog\CATCuiChapterLink.CATNls
DAT/002/CUS .\win_b64\resources\graphic\icons\small\I_CatalogAddDescription.bmp|.\ComponentsCatalogs\CNext\resources\graphic\icons\small\I_CatalogAddDescription.bmp
RTV/002/DSI .\win_b64\resources\msgcatalog\DbcsTest\CATCuiKeywordDefinePanel.CATNls|.\ComponentsCatalogs\CNext\resources\msgcatalog\CATCuiKeywordDefinePanel.CATNls
DAT/002/CUS .\win_b64\resources\msgcatalog\CATCuiCommands.CATNls|.\ComponentsCatalogs\CNext\resources\msgcatalog\CATCuiCommands.CATNls
RTV/002/DSI .\win_b64\resources\msgcatalog\DbcsTest\CATCuiCommands.CATNls|.\ComponentsCatalogs\CNext\resources\msgcatalog\CATCuiCommands.CATNls
RTV/002/DSI .\win_b64\resources\msgcatalog\NlsTest\CATCuiBrowser.CATNls|.\ComponentsCatalogs\CNext\resources\msgcatalog\CATCuiBrowser.CATNls
DAT/002/CUS .\win_b64\resources\graphic\icons\normal\I_FdeResolveQuery.bmp|.\ComponentsCatalogs\CNext\resources\graphic\icons\normal\I_FdeResolveQuery.bmp
DAT/002/CUS .\win_b64\resources\graphic\icons\normal\I_StorageFolderSelection.bmp|.\ComponentsCatalogs\CNext\resources\graphic\icons\normal\I_StorageFolderSelection.bmp
RTV/002/DSI .\win_b64\resources\msgcatalog\DbcsTest\CATSuppDocFrame.CATNls|.\ComponentsCatalogs\CNext\resources\msgcatalog\CATSuppDocFrame.CATNls
DAT/002/CUS .\win_b64\code\dictionary\ComponentsCatalogs.iid|.\ComponentsCatalogs\CNext\code\dictionary\ComponentsCatalogs.iid
DAT/002/CUS .\win_b64\resources\msgcatalog\CATCclMsg.CATNls|.\ComponentsCatalogs\CNext\resources\msgcatalog\CATCclMsg.CATNls
DAT/002/CUS .\win_b64\resources\msgcatalog\CATCatalogBatchBuilder_msg.CATNls|.\ComponentsCatalogs\CNext\resources\msgcatalog\CATCatalogBatchBuilder_msg.CATNls
DAT/002/CUS .\win_b64\resources\graphic\icons\normal\I_OpenCatalog.bmp|.\ComponentsCatalogs\CNext\resources\graphic\icons\normal\I_OpenCatalog.bmp
DAT/002/CUS .\win_b64\resources\graphic\icons\normal\I_ExternalChapter.bmp|.\ComponentsCatalogs\CNext\resources\graphic\icons\normal\I_ExternalChapter.bmp
DAT/002/CUS .\win_b64\resources\graphic\icons\normal\I_CatalogFamily.bmp|.\ComponentsCatalogs\CNext\resources\graphic\icons\normal\I_CatalogFamily.bmp
BTV/002/CUS .\win_b64\code\productIC\ComponentsCatalogsIC.xml|.\ComponentsCatalogs
DAT/002/CUS .\win_b64\resources\msgcatalog\CATCatalogTableView.CATNls|.\ComponentsCatalogs\CNext\resources\msgcatalog\CATCatalogTableView.CATNls
RTV/002/DSI .\win_b64\resources\msgcatalog\DbcsTest\CATCuiChapterDescPanel.CATNls|.\ComponentsCatalogs\CNext\resources\msgcatalog\CATCuiChapterDescPanel.CATNls
DAT/002/CUS .\win_b64\resources\msgcatalog\CATCuiError.CATNls|.\ComponentsCatalogs\CNext\resources\msgcatalog\CATCuiError.CATNls
DAT/002/CUS .\win_b64\resources\graphic\icons\normal\I_CatalogAddDescription.bmp|.\ComponentsCatalogs\CNext\resources\graphic\icons\normal\I_CatalogAddDescription.bmp
RTV/002/DSI .\win_b64\resources\msgcatalog\NlsTest\CATCatalogBatchBuilder_msg.CATNls|.\ComponentsCatalogs\CNext\resources\msgcatalog\CATCatalogBatchBuilder_msg.CATNls
DAT/002/CUS .\win_b64\resources\msgcatalog\CATCATALOGCmdHeader.CATNls|.\ComponentsCatalogs\CNext\resources\msgcatalog\CATCATALOGCmdHeader.CATNls
RTV/002/DSI .\win_b64\resources\msgcatalog\NlsTest\CATCatalogTableView.CATNls|.\ComponentsCatalogs\CNext\resources\msgcatalog\CATCatalogTableView.CATNls
RTV/002/DSI .\win_b64\resources\msgcatalog\NlsTest\CATCclCleaner.CATNls|.\ComponentsCatalogs\CNext\resources\msgcatalog\CATCclCleaner.CATNls
RTV/002/DSI .\win_b64\resources\msgcatalog\DbcsTest\CatalogErrors.CATNls|.\ComponentsCatalogs\CNext\resources\msgcatalog\CatalogErrors.CATNls
DAT/002/CUS .\win_b64\resources\msgcatalog\CATCuiOptionEditor.CATNls|.\ComponentsCatalogs\CNext\resources\msgcatalog\CATCuiOptionEditor.CATNls
DAT/002/CUS .\win_b64\resources\msgcatalog\CATCuiQueryDefinitionPanel.CATRsc|.\ComponentsCatalogs\CNext\resources\msgcatalog\CATCuiQueryDefinitionPanel.CATRsc
DAT/002/CUS .\win_b64\resources\msgcatalog\CatalogErrors.CATNls|.\ComponentsCatalogs\CNext\resources\msgcatalog\CatalogErrors.CATNls
DAT/002/CUS .\win_b64\resources\graphic\icons\normal\IF_OpenCatalog.bmp|.\ComponentsCatalogs\CNext\resources\graphic\icons\normal\IF_OpenCatalog.bmp
DAT/002/CUS .\win_b64\resources\msgcatalog\CATCuiChapterKeywordPanel.CATNls|.\ComponentsCatalogs\CNext\resources\msgcatalog\CATCuiChapterKeywordPanel.CATNls
RTV/002/DSI .\win_b64\resources\msgcatalog\DbcsTest\CATCatalogReporterMsg.CATNls|.\ComponentsCatalogs\CNext\resources\msgcatalog\CATCatalogReporterMsg.CATNls
DAT/002/CUS .\win_b64\resources\graphic\icons\I_WkbAsCatalog.bmp|.\ComponentsCatalogs\CNext\resources\graphic\icons\I_WkbAsCatalog.bmp
DAT/002/CUS .\win_b64\resources\msgcatalog\CATCuiChapterDescPanel.CATNls|.\ComponentsCatalogs\CNext\resources\msgcatalog\CATCuiChapterDescPanel.CATNls
RTV/002/DSI .\win_b64\resources\msgcatalog\DbcsTest\CATCuiChapterKeywordPanel.CATNls|.\ComponentsCatalogs\CNext\resources\msgcatalog\CATCuiChapterKeywordPanel.CATNls
DAT/002/CUS .\win_b64\resources\msgcatalog\CATCuiQueryDefinitionPanel.CATNls|.\ComponentsCatalogs\CNext\resources\msgcatalog\CATCuiQueryDefinitionPanel.CATNls
DAT/002/CUS .\win_b64\resources\graphic\icons\I_NextResultSet.bmp|.\ComponentsCatalogs\CNext\resources\graphic\icons\I_NextResultSet.bmp
RTV/002/DSI .\win_b64\resources\msgcatalog\DbcsTest\CATCuiChapterKeyword.CATNls|.\ComponentsCatalogs\CNext\resources\msgcatalog\CATCuiChapterKeyword.CATNls
DAT/002/CUS .\win_b64\resources\msgcatalog\CATCuiChapterDefinePanel.CATNls|.\ComponentsCatalogs\CNext\resources\msgcatalog\CATCuiChapterDefinePanel.CATNls
DAT/002/CUS .\win_b64\resources\graphic\icons\small\I_CatalogAddComponentsFromDesignTable.bmp|.\ComponentsCatalogs\CNext\resources\graphic\icons\small\I_CatalogAddComponentsFromDesignTable.bmp
DAT/002/CUS .\win_b64\resources\graphic\icons\small\I_CatalogAddFolder.bmp|.\ComponentsCatalogs\CNext\resources\graphic\icons\small\I_CatalogAddFolder.bmp
DAT/002/CUS .\win_b64\resources\graphic\icons\small\I_LinkToCatalog.bmp|.\ComponentsCatalogs\CNext\resources\graphic\icons\small\I_LinkToCatalog.bmp
RTV/002/DSI .\win_b64\resources\msgcatalog\NlsTest\CATCATALOGCmdHeader.CATNls|.\ComponentsCatalogs\CNext\resources\msgcatalog\CATCATALOGCmdHeader.CATNls
RTV/002/DSI .\win_b64\resources\msgcatalog\NlsTest\CATSuppDocFrame.CATNls|.\ComponentsCatalogs\CNext\resources\msgcatalog\CATSuppDocFrame.CATNls
RTV/002/DSI .\win_b64\resources\msgcatalog\DbcsTest\CATALOGDocSelector.CATNls|.\ComponentsCatalogs\CNext\resources\msgcatalog\CATALOGDocSelector.CATNls
DAT/002/CUS .\win_b64\resources\msgcatalog\CATALOGDocSelector.CATNls|.\ComponentsCatalogs\CNext\resources\msgcatalog\CATALOGDocSelector.CATNls
DAT/002/CUS .\win_b64\resources\msgcatalog\CATCuiChapterLink.CATNls|.\ComponentsCatalogs\CNext\resources\msgcatalog\CATCuiChapterLink.CATNls
DAT/002/CUS .\win_b64\resources\graphic\icons\small\I_InSession.bmp|.\ComponentsCatalogs\CNext\resources\graphic\icons\small\I_InSession.bmp
RTV/002/DSI .\win_b64\resources\msgcatalog\DbcsTest\CATCuiDeleteCmd.CATNls|.\ComponentsCatalogs\CNext\resources\msgcatalog\CATCuiDeleteCmd.CATNls
RTV/002/DSI .\win_b64\resources\msgcatalog\DbcsTest\CATCuiIconBrowse.CATNls|.\ComponentsCatalogs\CNext\resources\msgcatalog\CATCuiIconBrowse.CATNls
DAT/002/CUS .\win_b64\resources\msgcatalog\CATCuiDeleteCmd.CATNls|.\ComponentsCatalogs\CNext\resources\msgcatalog\CATCuiDeleteCmd.CATNls
RTV/002/DSI .\win_b64\resources\msgcatalog\NlsTest\CATCuiOptionEditor.CATNls|.\ComponentsCatalogs\CNext\resources\msgcatalog\CATCuiOptionEditor.CATNls
DAT/002/CUS .\win_b64\resources\graphic\icons\normal\IF_WkbCatalog.bmp|.\ComponentsCatalogs\CNext\resources\graphic\icons\normal\IF_WkbCatalog.bmp
DAT/002/CUS .\win_b64\resources\msgcatalog\CATCuiKeywordDefine.CATNls|.\ComponentsCatalogs\CNext\resources\msgcatalog\CATCuiKeywordDefine.CATNls
DAT/002/CUS .\win_b64\resources\msgcatalog\CATCatalogEditor_msg.CATNls|.\ComponentsCatalogs\CNext\resources\msgcatalog\CATCatalogEditor_msg.CATNls
DAT/002/CUS .\win_b64\resources\graphic\icons\I_FileOpen.bmp|.\ComponentsCatalogs\CNext\resources\graphic\icons\I_FileOpen.bmp
RTV/002/DSI .\win_b64\resources\msgcatalog\NlsTest\CATCuiQueryDefinitionPanel.CATNls|.\ComponentsCatalogs\CNext\resources\msgcatalog\CATCuiQueryDefinitionPanel.CATNls
RTV/002/DSI .\win_b64\resources\msgcatalog\NlsTest\CATCatalogReporterMsg.CATNls|.\ComponentsCatalogs\CNext\resources\msgcatalog\CATCatalogReporterMsg.CATNls
DAT/002/CUS .\win_b64\resources\graphic\icons\small\I_CatalogFamily.bmp|.\ComponentsCatalogs\CNext\resources\graphic\icons\small\I_CatalogFamily.bmp
DAT/002/CUS .\win_b64\resources\graphic\icons\I_DownArrow.bmp|.\ComponentsCatalogs\CNext\resources\graphic\icons\I_DownArrow.bmp
RTV/002/DSI .\win_b64\resources\msgcatalog\NlsTest\CATCuiError.CATNls|.\ComponentsCatalogs\CNext\resources\msgcatalog\CATCuiError.CATNls
DAT/002/CUS .\win_b64\resources\graphic\icons\normal\I_Catalog.bmp|.\ComponentsCatalogs\CNext\resources\graphic\icons\normal\I_Catalog.bmp
RTV/002/DSI .\win_b64\resources\msgcatalog\NlsTest\CATCuiChapterLink.CATNls|.\ComponentsCatalogs\CNext\resources\msgcatalog\CATCuiChapterLink.CATNls
DAT/002/CUS .\win_b64\resources\graphic\icons\I_TeamPDMAccessInCatalog.bmp|.\ComponentsCatalogs\CNext\resources\graphic\icons\I_TeamPDMAccessInCatalog.bmp
DAT/002/CUS .\win_b64\resources\graphic\icons\small\I_OpenCatalog.bmp|.\ComponentsCatalogs\CNext\resources\graphic\icons\small\I_OpenCatalog.bmp
DAT/002/CUS .\win_b64\resources\msgcatalog\CATCATALOGCmdHeader.CATRsc|.\ComponentsCatalogs\CNext\resources\msgcatalog\CATCATALOGCmdHeader.CATRsc
DAT/002/CUS .\win_b64\resources\msgcatalog\CATSuppDocFrame.CATNls|.\ComponentsCatalogs\CNext\resources\msgcatalog\CATSuppDocFrame.CATNls
DAT/002/CUS .\win_b64\resources\graphic\icons\normal\I_SyncChapters.bmp|.\ComponentsCatalogs\CNext\resources\graphic\icons\normal\I_SyncChapters.bmp
DAT/002/CUS .\win_b64\resources\graphic\icons\small\I_Catalog.bmp|.\ComponentsCatalogs\CNext\resources\graphic\icons\small\I_Catalog.bmp
DAT/002/CUS .\win_b64\resources\graphic\icons\small\I_CatalogFolder.bmp|.\ComponentsCatalogs\CNext\resources\graphic\icons\small\I_CatalogFolder.bmp
RTV/002/DSI .\win_b64\resources\msgcatalog\NlsTest\CATCuiDeleteCmd.CATNls|.\ComponentsCatalogs\CNext\resources\msgcatalog\CATCuiDeleteCmd.CATNls
DAT/002/CUS .\win_b64\resources\graphic\icons\normal\IP_OpenCatalog.bmp|.\ComponentsCatalogs\CNext\resources\graphic\icons\normal\IP_OpenCatalog.bmp
RTV/002/DSI .\win_b64\resources\msgcatalog\DbcsTest\CATCatalogWindow.CATNls|.\ComponentsCatalogs\CNext\resources\msgcatalog\CATCatalogWindow.CATNls
DAT/002/CUS .\win_b64\resources\graphic\CATCatalogModel.feat|.\ComponentsCatalogs\CNext\resources\graphic\CATCatalogModel.feat
BTV/002/CUS .\win_b64\code\productIC\ComponentsCatalogsIC.script|.\ComponentsCatalogs
DAT/002/CUS .\win_b64\resources\graphic\icons\IF_WkbNvCatalog.bmp|.\ComponentsCatalogs\CNext\resources\graphic\icons\IF_WkbNvCatalog.bmp
DAT/002/CUS .\win_b64\resources\graphic\icons\small\I_CatalogResolveConfiguration.bmp|.\ComponentsCatalogs\CNext\resources\graphic\icons\small\I_CatalogResolveConfiguration.bmp
RTV/002/DSI .\win_b64\resources\msgcatalog\NlsTest\CATCatalogWindow.CATNls|.\ComponentsCatalogs\CNext\resources\msgcatalog\CATCatalogWindow.CATNls
RTV/002/DSI .\win_b64\resources\msgcatalog\NlsTest\CATCuiKeywordDefinePanel.CATNls|.\ComponentsCatalogs\CNext\resources\msgcatalog\CATCuiKeywordDefinePanel.CATNls
DAT/002/CUS .\win_b64\resources\graphic\icons\normal\I_InSession.bmp|.\ComponentsCatalogs\CNext\resources\graphic\icons\normal\I_InSession.bmp
RTV/002/DSI .\win_b64\resources\msgcatalog\DbcsTest\CATCatalogTableView.CATNls|.\ComponentsCatalogs\CNext\resources\msgcatalog\CATCatalogTableView.CATNls
RTV/002/DSI .\win_b64\resources\msgcatalog\DbcsTest\CATCuiComputeResolve.CATNls|.\ComponentsCatalogs\CNext\resources\msgcatalog\CATCuiComputeResolve.CATNls
DAT/002/CUS .\win_b64\code\dictionary\ComponentsCatalogs.dic|.\ComponentsCatalogs\CNext\code\dictionary\ComponentsCatalogs.dic
RTV/002/DSI .\win_b64\resources\msgcatalog\NlsTest\CATCuiChapterDefinePanel.CATNls|.\ComponentsCatalogs\CNext\resources\msgcatalog\CATCuiChapterDefinePanel.CATNls
RTV/002/DSI .\win_b64\resources\msgcatalog\NlsTest\CATCuiChapterDefine.CATNls|.\ComponentsCatalogs\CNext\resources\msgcatalog\CATCuiChapterDefine.CATNls
DAT/002/CUS .\win_b64\resources\msgcatalog\CATCuiHeritageKeywordPanel.CATNls|.\ComponentsCatalogs\CNext\resources\msgcatalog\CATCuiHeritageKeywordPanel.CATNls
RTV/002/DSI .\win_b64\resources\msgcatalog\NlsTest\CATCuiChapterKeywordPanel.CATNls|.\ComponentsCatalogs\CNext\resources\msgcatalog\CATCuiChapterKeywordPanel.CATNls
DAT/002/CUS .\win_b64\resources\graphic\icons\small\I_CatalogProduct.bmp|.\ComponentsCatalogs\CNext\resources\graphic\icons\small\I_CatalogProduct.bmp
DAT/002/CUS .\win_b64\resources\msgcatalog\CATCuiMessage.CATNls|.\ComponentsCatalogs\CNext\resources\msgcatalog\CATCuiMessage.CATNls
DAT/002/CUS .\win_b64\resources\graphic\icons\small\I_CatalogOldDescription.bmp|.\ComponentsCatalogs\CNext\resources\graphic\icons\small\I_CatalogOldDescription.bmp
RTV/002/DSI .\win_b64\resources\msgcatalog\NlsTest\CatalogErrorsExceptions.CATNls|.\ComponentsCatalogs\CNext\resources\msgcatalog\CatalogErrorsExceptions.CATNls
DAT/002/CUS .\win_b64\resources\graphic\icons\IP_WkbAsCatalog.bmp|.\ComponentsCatalogs\CNext\resources\graphic\icons\IP_WkbAsCatalog.bmp
DAT/002/CUS .\win_b64\resources\msgcatalog\CATCatalogReporterMsg.CATNls|.\ComponentsCatalogs\CNext\resources\msgcatalog\CATCatalogReporterMsg.CATNls
DAT/002/CUS .\win_b64\resources\msgcatalog\CATCuiChapterDesc.CATNls|.\ComponentsCatalogs\CNext\resources\msgcatalog\CATCuiChapterDesc.CATNls
RTV/002/DSI .\win_b64\resources\msgcatalog\DbcsTest\CATCuiSelectionPanel.CATNls|.\ComponentsCatalogs\CNext\resources\msgcatalog\CATCuiSelectionPanel.CATNls
DAT/002/CUS .\win_b64\resources\graphic\icons\normal\I_CatalogAddExternalChapter.bmp|.\ComponentsCatalogs\CNext\resources\graphic\icons\normal\I_CatalogAddExternalChapter.bmp
RTV/002/DSI .\win_b64\resources\msgcatalog\DbcsTest\CATCuiMessage.CATNls|.\ComponentsCatalogs\CNext\resources\msgcatalog\CATCuiMessage.CATNls
DAT/002/CUS .\win_b64\resources\graphic\icons\I_CatalogTree.bmp|.\ComponentsCatalogs\CNext\resources\graphic\icons\I_CatalogTree.bmp
DAT/002/CUS .\win_b64\resources\msgcatalog\CATALOGWorkshop.CATNls|.\ComponentsCatalogs\CNext\resources\msgcatalog\CATALOGWorkshop.CATNls
DAT/002/CUS .\win_b64\resources\msgcatalog\CATCatalogTableView.CATRsc|.\ComponentsCatalogs\CNext\resources\msgcatalog\CATCatalogTableView.CATRsc
DAT/002/CUS .\win_b64\resources\graphic\I_FolderClosed.bmp|.\ComponentsCatalogs\CNext\resources\graphic\I_FolderClosed.bmp
RTV/002/DSI .\win_b64\resources\msgcatalog\DbcsTest\CATCuiHeritageKeywordPanel.CATNls|.\ComponentsCatalogs\CNext\resources\msgcatalog\CATCuiHeritageKeywordPanel.CATNls
DAT/002/CUS .\win_b64\resources\msgcatalog\CATCclCleaner.CATNls|.\ComponentsCatalogs\CNext\resources\msgcatalog\CATCclCleaner.CATNls
DAT/002/CUS .\win_b64\resources\graphic\icons\small\I_CatalogLinkMask.bmp|.\ComponentsCatalogs\CNext\resources\graphic\icons\small\I_CatalogLinkMask.bmp
RTV/002/DSI .\win_b64\resources\msgcatalog\NlsTest\CatalogErrors.CATNls|.\ComponentsCatalogs\CNext\resources\msgcatalog\CatalogErrors.CATNls
RTV/002/DSI .\win_b64\resources\msgcatalog\NlsTest\CATALOGWorkshop.CATNls|.\ComponentsCatalogs\CNext\resources\msgcatalog\CATALOGWorkshop.CATNls
DAT/002/CUS .\win_b64\resources\graphic\icons\small\I_CatalogDescription.bmp|.\ComponentsCatalogs\CNext\resources\graphic\icons\small\I_CatalogDescription.bmp
DAT/002/CUS .\win_b64\resources\graphic\icons\small\I_CatalogAddComponentsFromFilter.bmp|.\ComponentsCatalogs\CNext\resources\graphic\icons\small\I_CatalogAddComponentsFromFilter.bmp
DAT/002/CUS .\win_b64\resources\graphic\icons\normal\I_CatalogChapter.bmp|.\ComponentsCatalogs\CNext\resources\graphic\icons\normal\I_CatalogChapter.bmp
RTV/002/DSI .\win_b64\resources\msgcatalog\NlsTest\CATCuiIconBrowse.CATNls|.\ComponentsCatalogs\CNext\resources\msgcatalog\CATCuiIconBrowse.CATNls
DAT/002/CUS .\win_b64\resources\graphic\icons\I_WkbNvCatalog.bmp|.\ComponentsCatalogs\CNext\resources\graphic\icons\I_WkbNvCatalog.bmp
RTV/002/DSI .\win_b64\resources\msgcatalog\DbcsTest\CATCatalogEditor_msg.CATNls|.\ComponentsCatalogs\CNext\resources\msgcatalog\CATCatalogEditor_msg.CATNls
RTV/002/DSI .\win_b64\resources\msgcatalog\DbcsTest\CATCuiBrowser.CATNls|.\ComponentsCatalogs\CNext\resources\msgcatalog\CATCuiBrowser.CATNls
RTV/002/DSI .\win_b64\resources\msgcatalog\DbcsTest\CatalogErrorsExceptions.CATNls|.\ComponentsCatalogs\CNext\resources\msgcatalog\CatalogErrorsExceptions.CATNls
RTV/002/DSI .\win_b64\resources\msgcatalog\DbcsTest\CATALOGWorkshop.CATNls|.\ComponentsCatalogs\CNext\resources\msgcatalog\CATALOGWorkshop.CATNls
DAT/002/CUS .\win_b64\resources\graphic\icons\I_UpArrow.bmp|.\ComponentsCatalogs\CNext\resources\graphic\icons\I_UpArrow.bmp
DAT/002/CUS .\win_b64\resources\graphic\icons\normal\I_WkbCatalog.bmp|.\ComponentsCatalogs\CNext\resources\graphic\icons\normal\I_WkbCatalog.bmp
DAT/002/CUS .\win_b64\resources\graphic\icons\small\I_CatalogAddExternalChapter.bmp|.\ComponentsCatalogs\CNext\resources\graphic\icons\small\I_CatalogAddExternalChapter.bmp
DAT/002/CUS .\win_b64\resources\graphic\icons\small\I_ExternalChapter.bmp|.\ComponentsCatalogs\CNext\resources\graphic\icons\small\I_ExternalChapter.bmp
DAT/002/CUS .\win_b64\resources\graphic\icons\normal\I_CatalogOldDescription.bmp|.\ComponentsCatalogs\CNext\resources\graphic\icons\normal\I_CatalogOldDescription.bmp
DAT/002/CUS .\win_b64\resources\msgcatalog\CATCatalogWindow.CATNls|.\ComponentsCatalogs\CNext\resources\msgcatalog\CATCatalogWindow.CATNls
DAT/002/CUS .\win_b64\resources\graphic\icons\normal\I_CatalogExternalMask.bmp|.\ComponentsCatalogs\CNext\resources\graphic\icons\normal\I_CatalogExternalMask.bmp
DAT/002/CUS .\win_b64\resources\graphic\icons\I_PrevResultSet.bmp|.\ComponentsCatalogs\CNext\resources\graphic\icons\I_PrevResultSet.bmp
DAT/002/CUS .\win_b64\resources\graphic\icons\normal\I_CatalogAddFamily.bmp|.\ComponentsCatalogs\CNext\resources\graphic\icons\normal\I_CatalogAddFamily.bmp
DAT/002/CUS .\win_b64\resources\msgcatalog\CATCuiIconBrowse.CATNls|.\ComponentsCatalogs\CNext\resources\msgcatalog\CATCuiIconBrowse.CATNls
DAT/002/CUS .\win_b64\resources\graphic\icons\normal\IP_WkbCatalog.bmp|.\ComponentsCatalogs\CNext\resources\graphic\icons\normal\IP_WkbCatalog.bmp
DAT/002/CUS .\win_b64\resources\graphic\icons\normal\I_CatalogDescription.bmp|.\ComponentsCatalogs\CNext\resources\graphic\icons\normal\I_CatalogDescription.bmp
RTV/002/DSI .\win_b64\resources\msgcatalog\DbcsTest\CATCuiPanelPublishingPath.CATNls|.\ComponentsCatalogs\CNext\resources\msgcatalog\CATCuiPanelPublishingPath.CATNls
DAT/002/CUS .\win_b64\resources\msgcatalog\CATALOGWorkshop.CATRsc|.\ComponentsCatalogs\CNext\resources\msgcatalog\CATALOGWorkshop.CATRsc
DAT/002/CUS .\win_b64\resources\graphic\icons\normal\I_CatalogAddComponentsFromDesignTable.bmp|.\ComponentsCatalogs\CNext\resources\graphic\icons\normal\I_CatalogAddComponentsFromDesignTable.bmp
RTV/002/DSI .\win_b64\resources\msgcatalog\DbcsTest\CATCuiDescriptionNamePanel.CATNls|.\ComponentsCatalogs\CNext\resources\msgcatalog\CATCuiDescriptionNamePanel.CATNls
RTV/002/DSI .\win_b64\resources\msgcatalog\NlsTest\CATCuiSelectionPanel.CATNls|.\ComponentsCatalogs\CNext\resources\msgcatalog\CATCuiSelectionPanel.CATNls
DAT/002/CUS .\win_b64\resources\graphic\icons\small\IF_WkbCatalog.bmp|.\ComponentsCatalogs\CNext\resources\graphic\icons\small\IF_WkbCatalog.bmp
DAT/002/CUS .\win_b64\resources\graphic\icons\small\IF_OpenCatalog.bmp|.\ComponentsCatalogs\CNext\resources\graphic\icons\small\IF_OpenCatalog.bmp
RTV/002/DSI .\win_b64\resources\msgcatalog\DbcsTest\CATCclMsg.CATNls|.\ComponentsCatalogs\CNext\resources\msgcatalog\CATCclMsg.CATNls
RTV/002/DSI .\win_b64\resources\msgcatalog\NlsTest\CATCuiMessage.CATNls|.\ComponentsCatalogs\CNext\resources\msgcatalog\CATCuiMessage.CATNls
RTV/002/DSI .\win_b64\resources\msgcatalog\DbcsTest\CATCatalogBatchBuilder_msg.CATNls|.\ComponentsCatalogs\CNext\resources\msgcatalog\CATCatalogBatchBuilder_msg.CATNls
DAT/002/CUS .\win_b64\resources\graphic\icons\small\I_WkbCatalog.bmp|.\ComponentsCatalogs\CNext\resources\graphic\icons\small\I_WkbCatalog.bmp
DAT/002/CUS .\win_b64\resources\msgcatalog\CATCuiPanelPublishingPath.CATNls|.\ComponentsCatalogs\CNext\resources\msgcatalog\CATCuiPanelPublishingPath.CATNls
DAT/002/CUS .\win_b64\resources\graphic\icons\normal\I_CatalogAddFolder.bmp|.\ComponentsCatalogs\CNext\resources\graphic\icons\normal\I_CatalogAddFolder.bmp
DAT/002/CUS .\win_b64\resources\msgcatalog\CATCuiChapterDefine.CATNls|.\ComponentsCatalogs\CNext\resources\msgcatalog\CATCuiChapterDefine.CATNls
RTV/002/DSI .\win_b64\resources\msgcatalog\NlsTest\CATCuiHeritageKeywordPanel.CATNls|.\ComponentsCatalogs\CNext\resources\msgcatalog\CATCuiHeritageKeywordPanel.CATNls
RTV/002/DSI .\win_b64\resources\msgcatalog\NlsTest\CATCuiKeywordDefine.CATNls|.\ComponentsCatalogs\CNext\resources\msgcatalog\CATCuiKeywordDefine.CATNls
DAT/002/CUS .\win_b64\resources\msgcatalog\CATCuiBrowser.CATNls|.\ComponentsCatalogs\CNext\resources\msgcatalog\CATCuiBrowser.CATNls
RTV/002/DSI .\win_b64\code\productIC\ComponentsCatalogsIC.required|.\ComponentsCatalogs
RTV/002/DSI .\win_b64\resources\msgcatalog\DbcsTest\CATCclCleaner.CATNls|.\ComponentsCatalogs\CNext\resources\msgcatalog\CATCclCleaner.CATNls
RTV/002/DSI .\win_b64\resources\msgcatalog\DbcsTest\CATCuiQueryDefinitionPanel.CATNls|.\ComponentsCatalogs\CNext\resources\msgcatalog\CATCuiQueryDefinitionPanel.CATNls
RTV/002/DSI .\win_b64\resources\msgcatalog\DbcsTest\CATCuiError.CATNls|.\ComponentsCatalogs\CNext\resources\msgcatalog\CATCuiError.CATNls
DAT/002/CUS .\win_b64\resources\graphic\icons\I_CatalogFileOpen.bmp|.\ComponentsCatalogs\CNext\resources\graphic\icons\I_CatalogFileOpen.bmp
DAT/002/CUS .\win_b64\resources\graphic\icons\small\I_CatalogAddFamilyFromDesignTable.bmp|.\ComponentsCatalogs\CNext\resources\graphic\icons\small\I_CatalogAddFamilyFromDesignTable.bmp
DAT/002/CUS .\win_b64\resources\msgcatalog\CatalogErrorsExceptions.CATNls|.\ComponentsCatalogs\CNext\resources\msgcatalog\CatalogErrorsExceptions.CATNls
RTV/002/DSI .\win_b64\resources\msgcatalog\NlsTest\CATCuiPanelPublishingPath.CATNls|.\ComponentsCatalogs\CNext\resources\msgcatalog\CATCuiPanelPublishingPath.CATNls
RTV/002/DSI .\win_b64\resources\msgcatalog\NlsTest\CATCuiChapterDescPanel.CATNls|.\ComponentsCatalogs\CNext\resources\msgcatalog\CATCuiChapterDescPanel.CATNls
DAT/002/CUS .\win_b64\resources\graphic\icons\small\I_CatalogAddFamily.bmp|.\ComponentsCatalogs\CNext\resources\graphic\icons\small\I_CatalogAddFamily.bmp
DAT/002/CUS .\win_b64\resources\graphic\icons\small\IP_OpenCatalog.bmp|.\ComponentsCatalogs\CNext\resources\graphic\icons\small\IP_OpenCatalog.bmp
RTV/002/DSI .\win_b64\resources\msgcatalog\DbcsTest\CATCuiChapterDesc.CATNls|.\ComponentsCatalogs\CNext\resources\msgcatalog\CATCuiChapterDesc.CATNls
DAT/002/CUS .\win_b64\resources\graphic\icons\normal\I_CatalogResolveConfiguration.bmp|.\ComponentsCatalogs\CNext\resources\graphic\icons\normal\I_CatalogResolveConfiguration.bmp
DAT/002/CUS .\win_b64\resources\msgcatalog\CATCuiDescriptionNamePanel.CATNls|.\ComponentsCatalogs\CNext\resources\msgcatalog\CATCuiDescriptionNamePanel.CATNls
RTV/002/DSI .\win_b64\resources\msgcatalog\DbcsTest\CATCuiChapterDefine.CATNls|.\ComponentsCatalogs\CNext\resources\msgcatalog\CATCuiChapterDefine.CATNls
DAT/002/CUS .\win_b64\resources\graphic\icons\normal\I_CatalogProduct.bmp|.\ComponentsCatalogs\CNext\resources\graphic\icons\normal\I_CatalogProduct.bmp
DAT/002/CUS .\win_b64\resources\msgcatalog\CATCuiChapterKeyword.CATNls|.\ComponentsCatalogs\CNext\resources\msgcatalog\CATCuiChapterKeyword.CATNls
DAT/002/CUS .\win_b64\resources\graphic\icons\normal\I_CatalogAddComponentsFromFilter.bmp|.\ComponentsCatalogs\CNext\resources\graphic\icons\normal\I_CatalogAddComponentsFromFilter.bmp
DAT/002/CUS .\win_b64\resources\graphic\icons\small\I_FdeResolveQuery.bmp|.\ComponentsCatalogs\CNext\resources\graphic\icons\small\I_FdeResolveQuery.bmp
DAT/002/CUS .\win_b64\resources\graphic\icons\small\IP_WkbCatalog.bmp|.\ComponentsCatalogs\CNext\resources\graphic\icons\small\IP_WkbCatalog.bmp
RTV/002/DSI .\win_b64\resources\msgcatalog\NlsTest\CATCuiComputeResolve.CATNls|.\ComponentsCatalogs\CNext\resources\msgcatalog\CATCuiComputeResolve.CATNls
DAT/002/CUS .\win_b64\resources\msgcatalog\CATCatalogTableView.CATDlg|.\ComponentsCatalogs\CNext\resources\msgcatalog\CATCatalogTableView.CATDlg
DAT/002/CUS .\win_b64\resources\graphic\icons\IP_WkbNvCatalog.bmp|.\ComponentsCatalogs\CNext\resources\graphic\icons\IP_WkbNvCatalog.bmp
RTV/002/DSI .\win_b64\resources\msgcatalog\NlsTest\CATCuiDescriptionNamePanel.CATNls|.\ComponentsCatalogs\CNext\resources\msgcatalog\CATCuiDescriptionNamePanel.CATNls
DAT/002/CUS .\win_b64\resources\graphic\icons\normal\I_LinkToCatalog.bmp|.\ComponentsCatalogs\CNext\resources\graphic\icons\normal\I_LinkToCatalog.bmp
DAT/002/CUS .\win_b64\resources\graphic\icons\normal\I_CatalogLinkMask.bmp|.\ComponentsCatalogs\CNext\resources\graphic\icons\normal\I_CatalogLinkMask.bmp
@type='codeFramework'
@built='true'
