!<mkRTViewData> v1.0.0
RTV/001/CUS .\win_b64\code\bin\JS0TLN.exe|.\MultiProcessing\JS0TLN.m
CSC/000/DSI .\MultiProcessing\JS0TLN.m\Objects\win_b64\mkcsc\JS0TLN.cscdb|.\MultiProcessing\JS0TLN.m
INT/000/CUS .\win_b64\code\bin\JS0TLN.pdb|.\MultiProcessing\JS0TLN.m
@type='LOAD_MODULE'
@clr='false'
@kind='NATIVE'
@deliverable='true'
@built='true'
