!<mkRTViewData> v1.0.0
RTV/001/CUS .\win_b64\code\bin\CATR3DDexelLocalization.dll|.\CATR3DOperators\CATR3DDexelLocalization.m
CSC/000/DSI .\CATR3DOperators\CATR3DDexelLocalization.m\Objects\win_b64\mkcsc\CATR3DDexelLocalization.cscdb|.\CATR3DOperators\CATR3DDexelLocalization.m
INT/000/CUS .\win_b64\code\lib\CATR3DDexelLocalization.exp|.\CATR3DOperators\CATR3DDexelLocalization.m
INT/000/CUS .\win_b64\code\bin\CATR3DDexelLocalization.pdb|.\CATR3DOperators\CATR3DDexelLocalization.m
BTV/000/CUS .\win_b64\code\lib\CATR3DDexelLocalization.lib|.\CATR3DOperators\CATR3DDexelLocalization.m
@type='SHARED_LIBRARY'
@clr='false'
@kind='NATIVE'
@deliverable='true'
@built='true'
