!<mkRTViewData> v1.0.0
INT/000/CUS .\win_b64\code\bin\PartDesignDataImport.pdb|.\PartDesignDataImport\PartDesignDataImport.m
CSC/000/DSI .\PartDesignDataImport\PartDesignDataImport.m\Objects\win_b64\mkcsc\PartDesignDataImport.cscdb|.\PartDesignDataImport\PartDesignDataImport.m
RTV/001/CUS .\win_b64\code\bin\PartDesignDataImport.dll|.\PartDesignDataImport\PartDesignDataImport.m
INT/000/CUS .\win_b64\code\lib\PartDesignDataImport.exp|.\PartDesignDataImport\PartDesignDataImport.m
BTV/000/CUS .\win_b64\code\lib\PartDesignDataImport.lib|.\PartDesignDataImport\PartDesignDataImport.m
@type='SHARED_LIBRARY'
@clr='false'
@kind='NATIVE'
@deliverable='true'
@built='true'
