!<mkRTViewData> v1.0.0
CSC/000/DSI .\SurfaceMachiningInterfaces\SurfaceMachiningProIDL.m\Objects\win_b64\mkcsc\SurfaceMachiningProIDL.cscdb|.\SurfaceMachiningInterfaces\SurfaceMachiningProIDL.m
@type='NONE'
@clr='false'
@kind='INCLUDED'
@deliverable='true'
@built='true'
