!<mkRTViewData> v1.0.0
CSC/000/DSI .\ConstraintModelerUI\CATMmuConstraint.m\Objects\win_b64\mkcsc\CATMmuConstraint.cscdb|.\ConstraintModelerUI\CATMmuConstraint.m
@type='NONE'
@clr='false'
@kind='INCLUDED'
@deliverable='true'
@built='true'
