!<mkRTViewData> v1.0.0
DAT/002/CUS .\win_b64\resources\graphic\icons\small\IF_SectionInvertHorizontal.bmp|.\SpaceAnalysis\CNext\resources\graphic\icons\small\IF_SectionInvertHorizontal.bmp
DAT/002/CUS .\win_b64\resources\graphic\figures\F_MeasureItemButton.bmp|.\SpaceAnalysis\CNext\resources\graphic\figures\F_MeasureItemButton.bmp
DAT/002/CUS .\win_b64\resources\graphic\icons\normal\IP_SectionFilled.bmp|.\SpaceAnalysis\CNext\resources\graphic\icons\normal\IP_SectionFilled.bmp
DAT/002/CUS .\win_b64\resources\graphic\icons\normal\I_MeasureKeep.bmp|.\SpaceAnalysis\CNext\resources\graphic\icons\normal\I_MeasureKeep.bmp
DAT/002/CUS .\win_b64\resources\graphic\icons\normal\I_SectionSimpleP2.bmp|.\SpaceAnalysis\CNext\resources\graphic\icons\normal\I_SectionSimpleP2.bmp
DAT/002/CUS .\win_b64\resources\graphic\icons\small\IF_SectionExportAs.bmp|.\SpaceAnalysis\CNext\resources\graphic\icons\small\IF_SectionExportAs.bmp
DAT/002/CUS .\win_b64\resources\graphic\icons\normal\IF_SectionInvertHorizontal.bmp|.\SpaceAnalysis\CNext\resources\graphic\icons\normal\IF_SectionInvertHorizontal.bmp
DAT/002/CUS .\win_b64\resources\graphic\icons\small\IF_SectionLock.bmp|.\SpaceAnalysis\CNext\resources\graphic\icons\small\IF_SectionLock.bmp
DAT/002/CUS .\win_b64\resources\msgcatalog\CATCmdMeasureHdr.CATNls|.\SpaceAnalysis\CNext\resources\msgcatalog\CATCmdMeasureHdr.CATNls
DAT/002/CUS .\win_b64\resources\graphic\icons\normal\IF_Position3Points.bmp|.\SpaceAnalysis\CNext\resources\graphic\icons\normal\IF_Position3Points.bmp
DAT/002/CUS .\win_b64\resources\graphic\icons\small\IF_SectionDihedron.bmp|.\SpaceAnalysis\CNext\resources\graphic\icons\small\IF_SectionDihedron.bmp
DAT/002/CUS .\win_b64\resources\graphic\icons\small\I_MeasureInertia_OnlyShown.bmp|.\SpaceAnalysis\CNext\resources\graphic\icons\small\I_MeasureInertia_OnlyShown.bmp
DAT/002/CUS .\win_b64\resources\graphic\icons\normal\I_SectionRotateRight.bmp|.\SpaceAnalysis\CNext\resources\graphic\icons\normal\I_SectionRotateRight.bmp
DAT/002/CUS .\win_b64\resources\graphic\icons\small\I_SectionSimple.bmp|.\SpaceAnalysis\CNext\resources\graphic\icons\small\I_SectionSimple.bmp
DAT/002/CUS .\win_b64\resources\graphic\icons\normal\I_SectionBox.bmp|.\SpaceAnalysis\CNext\resources\graphic\icons\normal\I_SectionBox.bmp
DAT/002/CUS .\win_b64\resources\graphic\icons\normal\I_MeasureBetweenLockedBeforeR8.bmp|.\SpaceAnalysis\CNext\resources\graphic\icons\normal\I_MeasureBetweenLockedBeforeR8.bmp
DAT/002/CUS .\win_b64\resources\graphic\icons\normal\IP_SectionLock.bmp|.\SpaceAnalysis\CNext\resources\graphic\icons\normal\IP_SectionLock.bmp
DAT/002/CUS .\win_b64\resources\graphic\figures\F_MeasureBtwnFanLabel.bmp|.\SpaceAnalysis\CNext\resources\graphic\figures\F_MeasureBtwnFanLabel.bmp
RTV/002/DSI .\win_b64\resources\msgcatalog\NlsTest\CATMeasureInertiaAssembly.CATNls|.\SpaceAnalysis\CNext\resources\msgcatalog\CATMeasureInertiaAssembly.CATNls
DAT/002/CUS .\win_b64\resources\graphic\icons\normal\I_SectionBoxP2.bmp|.\SpaceAnalysis\CNext\resources\graphic\icons\normal\I_SectionBoxP2.bmp
DAT/002/CUS .\win_b64\resources\graphic\icons\normal\I_MeasureBetweenNoUpdate.bmp|.\SpaceAnalysis\CNext\resources\graphic\icons\normal\I_MeasureBetweenNoUpdate.bmp
DAT/002/CUS .\win_b64\resources\graphic\icons\small\I_SectionFilled.bmp|.\SpaceAnalysis\CNext\resources\graphic\icons\small\I_SectionFilled.bmp
DAT/002/CUS .\win_b64\resources\graphic\icons\normal\IF_SectionExportInExistingPart.bmp|.\SpaceAnalysis\CNext\resources\graphic\icons\normal\IF_SectionExportInExistingPart.bmp
DAT/002/CUS .\win_b64\resources\graphic\icons\normal\I_SectionInvertVerticalP2.bmp|.\SpaceAnalysis\CNext\resources\graphic\icons\normal\I_SectionInvertVerticalP2.bmp
DAT/002/CUS .\win_b64\resources\graphic\icons\normal\IP_PositionTargetCylinder.bmp|.\SpaceAnalysis\CNext\resources\graphic\icons\normal\IP_PositionTargetCylinder.bmp
DAT/002/CUS .\win_b64\resources\graphic\icons\normal\I_SectionAutomaticUpdate.bmp|.\SpaceAnalysis\CNext\resources\graphic\icons\normal\I_SectionAutomaticUpdate.bmp
DAT/002/CUS .\win_b64\resources\msgcatalog\CATDlgMeasureBtwnCustomDialog2.CATNls|.\SpaceAnalysis\CNext\resources\msgcatalog\CATDlgMeasureBtwnCustomDialog2.CATNls
DAT/002/CUS .\win_b64\resources\graphic\figures\F_MeasureBtwnFanButton.bmp|.\SpaceAnalysis\CNext\resources\graphic\figures\F_MeasureBtwnFanButton.bmp
DAT/002/CUS .\win_b64\resources\graphic\icons\normal\IF_SectionLock.bmp|.\SpaceAnalysis\CNext\resources\graphic\icons\normal\IF_SectionLock.bmp
DAT/002/CUS .\win_b64\resources\graphic\icons\normal\I_SectionAutoUpdateP2.bmp|.\SpaceAnalysis\CNext\resources\graphic\icons\normal\I_SectionAutoUpdateP2.bmp
BTV/002/CUS .\win_b64\code\productIC\SpaceAnalysisIC.script|.\SpaceAnalysis
RTV/002/DSI .\win_b64\resources\msgcatalog\DbcsTest\CATDlgFileInertiaExport.CATNls|.\SpaceAnalysis\CNext\resources\msgcatalog\CATDlgFileInertiaExport.CATNls
RTV/002/DSI .\win_b64\resources\msgcatalog\NlsTest\CATDlgOpenExportedSection.CATNls|.\SpaceAnalysis\CNext\resources\msgcatalog\CATDlgOpenExportedSection.CATNls
DAT/002/CUS .\win_b64\resources\graphic\icons\normal\IF_SectionFilledClash.bmp|.\SpaceAnalysis\CNext\resources\graphic\icons\normal\IF_SectionFilledClash.bmp
RTV/002/DSI .\win_b64\resources\msgcatalog\NlsTest\CATSiLaSectionResult_ExportToPartCmd.CATNls|.\SpaceAnalysis\CNext\resources\msgcatalog\CATSiLaSectionResult_ExportToPartCmd.CATNls
DAT/002/CUS .\win_b64\resources\graphic\icons\normal\IP_SectionRotateLeft.bmp|.\SpaceAnalysis\CNext\resources\graphic\icons\normal\IP_SectionRotateLeft.bmp
DAT/002/CUS .\win_b64\resources\graphic\icons\normal\I_MeasContextMenu_Line.bmp|.\SpaceAnalysis\CNext\resources\graphic\icons\normal\I_MeasContextMenu_Line.bmp
DAT/002/CUS .\win_b64\resources\graphic\icons\small\IF_SectionInvertVertical.bmp|.\SpaceAnalysis\CNext\resources\graphic\icons\small\IF_SectionInvertVertical.bmp
DAT/002/CUS .\win_b64\resources\graphic\icons\normal\IF_SectionFilled.bmp|.\SpaceAnalysis\CNext\resources\graphic\icons\normal\IF_SectionFilled.bmp
DAT/002/CUS .\win_b64\resources\graphic\icons\normal\I_MeasContextMenu_Plane.bmp|.\SpaceAnalysis\CNext\resources\graphic\icons\normal\I_MeasContextMenu_Plane.bmp
RTV/002/DSI .\win_b64\code\productIC\SpaceAnalysisIC.required|.\SpaceAnalysis
RTV/002/DSI .\win_b64\resources\msgcatalog\NlsTest\CATDlgMeasureInertiaCustomDialog.CATNls|.\SpaceAnalysis\CNext\resources\msgcatalog\CATDlgMeasureInertiaCustomDialog.CATNls
DAT/002/CUS .\win_b64\resources\graphic\icons\normal\I_MeasureItem.bmp|.\SpaceAnalysis\CNext\resources\graphic\icons\normal\I_MeasureItem.bmp
DAT/002/CUS .\win_b64\resources\graphic\icons\normal\IP_SectionInvertHorizontal.bmp|.\SpaceAnalysis\CNext\resources\graphic\icons\normal\IP_SectionInvertHorizontal.bmp
DAT/002/CUS .\win_b64\resources\graphic\icons\small\I_MeasureInertia.bmp|.\SpaceAnalysis\CNext\resources\graphic\icons\small\I_MeasureInertia.bmp
DAT/002/CUS .\win_b64\resources\graphic\icons\small\IP_SectionExportAs.bmp|.\SpaceAnalysis\CNext\resources\graphic\icons\small\IP_SectionExportAs.bmp
DAT/002/CUS .\win_b64\resources\graphic\icons\small\IF_SectionRotateLeft.bmp|.\SpaceAnalysis\CNext\resources\graphic\icons\small\IF_SectionRotateLeft.bmp
DAT/002/CUS .\win_b64\resources\msgcatalog\CATDlgMeasureInertiaDialog.CATRsc|.\SpaceAnalysis\CNext\resources\msgcatalog\CATDlgMeasureInertiaDialog.CATRsc
DAT/002/CUS .\win_b64\resources\msgcatalog\CATDlgOpenExportedSection.CATNls|.\SpaceAnalysis\CNext\resources\msgcatalog\CATDlgOpenExportedSection.CATNls
DAT/002/CUS .\win_b64\resources\msgcatalog\CATDlgMeasureToolBar.CATRsc|.\SpaceAnalysis\CNext\resources\msgcatalog\CATDlgMeasureToolBar.CATRsc
DAT/002/CUS .\win_b64\resources\graphic\icons\small\I_SectionInvertHorizontal.bmp|.\SpaceAnalysis\CNext\resources\graphic\icons\small\I_SectionInvertHorizontal.bmp
DAT/002/CUS .\win_b64\resources\graphic\icons\small\I_SectionInvertVerticalP2.bmp|.\SpaceAnalysis\CNext\resources\graphic\icons\small\I_SectionInvertVerticalP2.bmp
RTV/002/DSI .\win_b64\resources\msgcatalog\DbcsTest\CATClashDialog.CATNls|.\SpaceAnalysis\CNext\resources\msgcatalog\CATClashDialog.CATNls
DAT/002/CUS .\win_b64\resources\graphic\icons\normal\I_MeasureInertiaNotValid.bmp|.\SpaceAnalysis\CNext\resources\graphic\icons\normal\I_MeasureInertiaNotValid.bmp
DAT/002/CUS .\win_b64\resources\graphic\icons\normal\I_MeasureItemLocked.bmp|.\SpaceAnalysis\CNext\resources\graphic\icons\normal\I_MeasureItemLocked.bmp
DAT/002/CUS .\win_b64\resources\graphic\figures\F_MeasureBtwnChainLabel.bmp|.\SpaceAnalysis\CNext\resources\graphic\figures\F_MeasureBtwnChainLabel.bmp
DAT/002/CUS .\win_b64\resources\graphic\icons\normal\I_MeasContextMenu_ArcCenter.bmp|.\SpaceAnalysis\CNext\resources\graphic\icons\normal\I_MeasContextMenu_ArcCenter.bmp
DAT/002/CUS .\win_b64\resources\graphic\figures\F_MeasureBtwnButton.bmp|.\SpaceAnalysis\CNext\resources\graphic\figures\F_MeasureBtwnButton.bmp
DAT/002/CUS .\win_b64\resources\graphic\icons\small\IP_PositionTargetCylinder.bmp|.\SpaceAnalysis\CNext\resources\graphic\icons\small\IP_PositionTargetCylinder.bmp
DAT/002/CUS .\win_b64\resources\graphic\icons\normal\I_Measure2D.bmp|.\SpaceAnalysis\CNext\resources\graphic\icons\normal\I_Measure2D.bmp
RTV/002/DSI .\win_b64\resources\msgcatalog\DbcsTest\CATClashKnowledge.CATNls|.\SpaceAnalysis\CNext\resources\msgcatalog\CATClashKnowledge.CATNls
DAT/002/CUS .\win_b64\resources\graphic\icons\normal\IP_SectionExportInExistingPart.bmp|.\SpaceAnalysis\CNext\resources\graphic\icons\normal\IP_SectionExportInExistingPart.bmp
DAT/002/CUS .\win_b64\resources\graphic\icons\normal\I_SectionExportAs.bmp|.\SpaceAnalysis\CNext\resources\graphic\icons\normal\I_SectionExportAs.bmp
DAT/002/CUS .\win_b64\resources\graphic\icons\normal\I_SectionInNoShow.bmp|.\SpaceAnalysis\CNext\resources\graphic\icons\normal\I_SectionInNoShow.bmp
DAT/002/CUS .\win_b64\resources\graphic\icons\small\I_MeasureKeep.bmp|.\SpaceAnalysis\CNext\resources\graphic\icons\small\I_MeasureKeep.bmp
DAT/002/CUS .\win_b64\resources\graphic\icons\normal\I_Section3Points_V2.bmp|.\SpaceAnalysis\CNext\resources\graphic\icons\normal\I_Section3Points_V2.bmp
DAT/002/CUS .\win_b64\resources\graphic\icons\normal\I_SectionFilledP2.bmp|.\SpaceAnalysis\CNext\resources\graphic\icons\normal\I_SectionFilledP2.bmp
DAT/002/CUS .\win_b64\resources\msgcatalog\CATDlgMeasureInertiaCustomDialog.CATNls|.\SpaceAnalysis\CNext\resources\msgcatalog\CATDlgMeasureInertiaCustomDialog.CATNls
RTV/002/DSI .\win_b64\resources\msgcatalog\NlsTest\CATDlgMeasure2DDialog.CATNls|.\SpaceAnalysis\CNext\resources\msgcatalog\CATDlgMeasure2DDialog.CATNls
RTV/002/DSI .\win_b64\resources\msgcatalog\DbcsTest\CATDlgCoordinateEntryDialog.CATNls|.\SpaceAnalysis\CNext\resources\msgcatalog\CATDlgCoordinateEntryDialog.CATNls
DAT/002/CUS .\win_b64\resources\graphic\icons\normal\I_PositionTargetCylinderP2.bmp|.\SpaceAnalysis\CNext\resources\graphic\icons\normal\I_PositionTargetCylinderP2.bmp
DAT/002/CUS .\win_b64\resources\graphic\icons\small\IF_SectionFilledClash.bmp|.\SpaceAnalysis\CNext\resources\graphic\icons\small\IF_SectionFilledClash.bmp
DAT/002/CUS .\win_b64\resources\graphic\icons\normal\I_SectionDihedron.bmp|.\SpaceAnalysis\CNext\resources\graphic\icons\normal\I_SectionDihedron.bmp
RTV/002/DSI .\win_b64\resources\msgcatalog\NlsTest\CATCmdMeasureHdr.CATNls|.\SpaceAnalysis\CNext\resources\msgcatalog\CATCmdMeasureHdr.CATNls
DAT/002/CUS .\win_b64\resources\graphic\icons\normal\IF_SectionInvertVertical.bmp|.\SpaceAnalysis\CNext\resources\graphic\icons\normal\IF_SectionInvertVertical.bmp
DAT/002/CUS .\win_b64\resources\graphic\icons\normal\I_SetofplaneP2.bmp|.\SpaceAnalysis\CNext\resources\graphic\icons\normal\I_SetofplaneP2.bmp
DAT/002/CUS .\win_b64\resources\graphic\icons\small\I_SectionDihedronP2.bmp|.\SpaceAnalysis\CNext\resources\graphic\icons\small\I_SectionDihedronP2.bmp
DAT/002/CUS .\win_b64\resources\graphic\figures\F_MeasureItemLabel.bmp|.\SpaceAnalysis\CNext\resources\graphic\figures\F_MeasureItemLabel.bmp
DAT/002/CUS .\win_b64\resources\graphic\icons\normal\IF_SectionRotateLeft.bmp|.\SpaceAnalysis\CNext\resources\graphic\icons\normal\IF_SectionRotateLeft.bmp
RTV/002/DSI .\win_b64\resources\msgcatalog\NlsTest\CATDlgMeasureBtwnCustomDialog2.CATNls|.\SpaceAnalysis\CNext\resources\msgcatalog\CATDlgMeasureBtwnCustomDialog2.CATNls
DAT/002/CUS .\win_b64\resources\graphic\icons\normal\I_MeasureBetweenNotValidBeforeR8.bmp|.\SpaceAnalysis\CNext\resources\graphic\icons\normal\I_MeasureBetweenNotValidBeforeR8.bmp
DAT/002/CUS .\win_b64\resources\graphic\icons\small\IP_Section3Points_V2.bmp|.\SpaceAnalysis\CNext\resources\graphic\icons\small\IP_Section3Points_V2.bmp
DAT/002/CUS .\win_b64\resources\msgcatalog\CATDlgMeasure2DDialog.CATNls|.\SpaceAnalysis\CNext\resources\msgcatalog\CATDlgMeasure2DDialog.CATNls
DAT/002/CUS .\win_b64\resources\graphic\figures\F_MeasureItemThickButton.bmp|.\SpaceAnalysis\CNext\resources\graphic\figures\F_MeasureItemThickButton.bmp
DAT/002/CUS .\win_b64\resources\graphic\icons\small\IP_SectionRotateLeft.bmp|.\SpaceAnalysis\CNext\resources\graphic\icons\small\IP_SectionRotateLeft.bmp
DAT/002/CUS .\win_b64\resources\msgcatalog\CATDlgMeasureArcsCustomDialog.CATNls|.\SpaceAnalysis\CNext\resources\msgcatalog\CATDlgMeasureArcsCustomDialog.CATNls
DAT/002/CUS .\win_b64\resources\msgcatalog\CATSiLaSectionResult_ExportToPartCmd.CATNls|.\SpaceAnalysis\CNext\resources\msgcatalog\CATSiLaSectionResult_ExportToPartCmd.CATNls
RTV/002/DSI .\win_b64\resources\msgcatalog\NlsTest\CATClnDimensionError.CATNls|.\SpaceAnalysis\CNext\resources\msgcatalog\CATClnDimensionError.CATNls
DAT/002/CUS .\win_b64\resources\graphic\icons\small\I_Sectioning.bmp|.\SpaceAnalysis\CNext\resources\graphic\icons\small\I_Sectioning.bmp
DAT/002/CUS .\win_b64\resources\graphic\icons\normal\I_SectionFilledClashP2.bmp|.\SpaceAnalysis\CNext\resources\graphic\icons\normal\I_SectionFilledClashP2.bmp
DAT/002/CUS .\win_b64\resources\graphic\icons\normal\IP_Section3Points_V2.bmp|.\SpaceAnalysis\CNext\resources\graphic\icons\normal\IP_Section3Points_V2.bmp
DAT/002/CUS .\win_b64\resources\graphic\icons\small\IF_SectionSlice.bmp|.\SpaceAnalysis\CNext\resources\graphic\icons\small\IF_SectionSlice.bmp
RTV/002/DSI .\win_b64\resources\msgcatalog\DbcsTest\CATSiLaSectionResult_ExportToPartCmd.CATNls|.\SpaceAnalysis\CNext\resources\msgcatalog\CATSiLaSectionResult_ExportToPartCmd.CATNls
DAT/002/CUS .\win_b64\resources\graphic\icons\small\I_SectionRotateRightP2.bmp|.\SpaceAnalysis\CNext\resources\graphic\icons\small\I_SectionRotateRightP2.bmp
DAT/002/CUS .\win_b64\resources\msgcatalog\CATSpaTypes.CATNls|.\SpaceAnalysis\CNext\resources\msgcatalog\CATSpaTypes.CATNls
RTV/002/DSI .\win_b64\resources\msgcatalog\DbcsTest\CATDlgMeasureArcsDialog.CATNls|.\SpaceAnalysis\CNext\resources\msgcatalog\CATDlgMeasureArcsDialog.CATNls
DAT/002/CUS .\win_b64\resources\graphic\icons\small\IP_SectionFilledClash.bmp|.\SpaceAnalysis\CNext\resources\graphic\icons\small\IP_SectionFilledClash.bmp
DAT/002/CUS .\win_b64\resources\graphic\icons\normal\I_SectionSliceP2.bmp|.\SpaceAnalysis\CNext\resources\graphic\icons\normal\I_SectionSliceP2.bmp
DAT/002/CUS .\win_b64\resources\graphic\icons\normal\I_SectionFilledClash.bmp|.\SpaceAnalysis\CNext\resources\graphic\icons\normal\I_SectionFilledClash.bmp
DAT/002/CUS .\win_b64\resources\graphic\icons\small\IP_Position3Points.bmp|.\SpaceAnalysis\CNext\resources\graphic\icons\small\IP_Position3Points.bmp
DAT/002/CUS .\win_b64\resources\graphic\icons\small\IP_SectionSimple.bmp|.\SpaceAnalysis\CNext\resources\graphic\icons\small\IP_SectionSimple.bmp
DAT/002/CUS .\win_b64\resources\graphic\icons\normal\I_SectionManualUpdate.bmp|.\SpaceAnalysis\CNext\resources\graphic\icons\normal\I_SectionManualUpdate.bmp
DAT/002/CUS .\win_b64\resources\msgcatalog\CATClnDimensionError.CATNls|.\SpaceAnalysis\CNext\resources\msgcatalog\CATClnDimensionError.CATNls
RTV/002/DSI .\win_b64\resources\msgcatalog\DbcsTest\CATDlgMeasureGeometryCreation.CATNls|.\SpaceAnalysis\CNext\resources\msgcatalog\CATDlgMeasureGeometryCreation.CATNls
RTV/002/DSI .\win_b64\resources\msgcatalog\DbcsTest\CATDlgMeasureToolBar.CATNls|.\SpaceAnalysis\CNext\resources\msgcatalog\CATDlgMeasureToolBar.CATNls
DAT/002/CUS .\win_b64\resources\graphic\icons\small\IP_SectionInvertVertical.bmp|.\SpaceAnalysis\CNext\resources\graphic\icons\small\IP_SectionInvertVertical.bmp
DAT/002/CUS .\win_b64\resources\graphic\icons\small\I_SectionFilledClash.bmp|.\SpaceAnalysis\CNext\resources\graphic\icons\small\I_SectionFilledClash.bmp
DAT/002/CUS .\win_b64\resources\msgcatalog\CATDlgMeasureInertiaDialog.CATNls|.\SpaceAnalysis\CNext\resources\msgcatalog\CATDlgMeasureInertiaDialog.CATNls
DAT/002/CUS .\win_b64\resources\graphic\icons\normal\I_MeasureBetween_OnlyShown.bmp|.\SpaceAnalysis\CNext\resources\graphic\icons\normal\I_MeasureBetween_OnlyShown.bmp
DAT/002/CUS .\win_b64\resources\graphic\figures\F_MeasureBetweenLabel.bmp|.\SpaceAnalysis\CNext\resources\graphic\figures\F_MeasureBetweenLabel.bmp
RTV/002/DSI .\win_b64\resources\msgcatalog\DbcsTest\CATDlgMeasure2DDialog.CATNls|.\SpaceAnalysis\CNext\resources\msgcatalog\CATDlgMeasure2DDialog.CATNls
DAT/002/CUS .\win_b64\resources\graphic\icons\small\I_SectionSimpleP2.bmp|.\SpaceAnalysis\CNext\resources\graphic\icons\small\I_SectionSimpleP2.bmp
DAT/002/CUS .\win_b64\resources\graphic\icons\normal\I_Sectioning.bmp|.\SpaceAnalysis\CNext\resources\graphic\icons\normal\I_Sectioning.bmp
DAT/002/CUS .\win_b64\resources\graphic\icons\small\IF_SectionBox.bmp|.\SpaceAnalysis\CNext\resources\graphic\icons\small\IF_SectionBox.bmp
DAT/002/CUS .\win_b64\resources\graphic\figures\F_MeasureBtwnChainButton.bmp|.\SpaceAnalysis\CNext\resources\graphic\figures\F_MeasureBtwnChainButton.bmp
RTV/002/DSI .\win_b64\resources\msgcatalog\NlsTest\CATSiLaGridEditor.CATNls|.\SpaceAnalysis\CNext\resources\msgcatalog\CATSiLaGridEditor.CATNls
RTV/002/DSI .\win_b64\resources\msgcatalog\NlsTest\CATDlgFileInertiaExport.CATNls|.\SpaceAnalysis\CNext\resources\msgcatalog\CATDlgFileInertiaExport.CATNls
DAT/002/CUS .\win_b64\resources\graphic\icons\small\IP_SectionSlice.bmp|.\SpaceAnalysis\CNext\resources\graphic\icons\small\IP_SectionSlice.bmp
RTV/002/DSI .\win_b64\resources\msgcatalog\DbcsTest\CATSpaTypes.CATNls|.\SpaceAnalysis\CNext\resources\msgcatalog\CATSpaTypes.CATNls
DAT/002/CUS .\win_b64\resources\graphic\icons\normal\I_MeasureItemNotValid.bmp|.\SpaceAnalysis\CNext\resources\graphic\icons\normal\I_MeasureItemNotValid.bmp
DAT/002/CUS .\win_b64\resources\graphic\icons\normal\I_MeasureItem_OnlyShown.bmp|.\SpaceAnalysis\CNext\resources\graphic\icons\normal\I_MeasureItem_OnlyShown.bmp
DAT/002/CUS .\win_b64\resources\graphic\icons\normal\I_SectionTree.bmp|.\SpaceAnalysis\CNext\resources\graphic\icons\normal\I_SectionTree.bmp
DAT/002/CUS .\win_b64\resources\graphic\icons\normal\I_SectionInvertVertical.bmp|.\SpaceAnalysis\CNext\resources\graphic\icons\normal\I_SectionInvertVertical.bmp
DAT/002/CUS .\win_b64\resources\graphic\icons\small\I_SectionDihedron.bmp|.\SpaceAnalysis\CNext\resources\graphic\icons\small\I_SectionDihedron.bmp
DAT/002/CUS .\win_b64\resources\msgcatalog\CATSiLaSectionEditor.CATNls|.\SpaceAnalysis\CNext\resources\msgcatalog\CATSiLaSectionEditor.CATNls
DAT/002/CUS .\win_b64\resources\graphic\icons\small\I_SectionSliceP2.bmp|.\SpaceAnalysis\CNext\resources\graphic\icons\small\I_SectionSliceP2.bmp
DAT/002/CUS .\win_b64\resources\graphic\icons\normal\I_SectionRotateLeftP2.bmp|.\SpaceAnalysis\CNext\resources\graphic\icons\normal\I_SectionRotateLeftP2.bmp
DAT/002/CUS .\win_b64\resources\graphic\icons\small\I_Position3Points.bmp|.\SpaceAnalysis\CNext\resources\graphic\icons\small\I_Position3Points.bmp
RTV/002/DSI .\win_b64\resources\msgcatalog\DbcsTest\CATDlgMeasureBtwnCustomDialog.CATNls|.\SpaceAnalysis\CNext\resources\msgcatalog\CATDlgMeasureBtwnCustomDialog.CATNls
DAT/002/CUS .\win_b64\resources\graphic\icons\small\IF_Section3Points_V2.bmp|.\SpaceAnalysis\CNext\resources\graphic\icons\small\IF_Section3Points_V2.bmp
DAT/002/CUS .\win_b64\resources\msgcatalog\CATDlgMeasureArcsDialog.CATRsc|.\SpaceAnalysis\CNext\resources\msgcatalog\CATDlgMeasureArcsDialog.CATRsc
DAT/002/CUS .\win_b64\resources\msgcatalog\CATSiLaSectionEditor.CATRsc|.\SpaceAnalysis\CNext\resources\msgcatalog\CATSiLaSectionEditor.CATRsc
DAT/002/CUS .\win_b64\resources\graphic\icons\normal\I_MeasureItemNoUpdate.bmp|.\SpaceAnalysis\CNext\resources\graphic\icons\normal\I_MeasureItemNoUpdate.bmp
RTV/002/DSI .\win_b64\resources\msgcatalog\NlsTest\CATSiLaSectionEditor.CATNls|.\SpaceAnalysis\CNext\resources\msgcatalog\CATSiLaSectionEditor.CATNls
DAT/002/CUS .\win_b64\resources\graphic\icons\normal\I_SectionBehaviorLock.bmp|.\SpaceAnalysis\CNext\resources\graphic\icons\normal\I_SectionBehaviorLock.bmp
RTV/002/DSI .\win_b64\resources\msgcatalog\NlsTest\CATSpaTypes.CATNls|.\SpaceAnalysis\CNext\resources\msgcatalog\CATSpaTypes.CATNls
DAT/002/CUS .\win_b64\resources\graphic\icons\small\I_SectionViewer.bmp|.\SpaceAnalysis\CNext\resources\graphic\icons\small\I_SectionViewer.bmp
DAT/002/CUS .\win_b64\resources\graphic\icons\normal\I_Position3Points.bmp|.\SpaceAnalysis\CNext\resources\graphic\icons\normal\I_Position3Points.bmp
DAT/002/CUS .\win_b64\resources\msgcatalog\CATDlgMeasureGeometryCreation.CATNls|.\SpaceAnalysis\CNext\resources\msgcatalog\CATDlgMeasureGeometryCreation.CATNls
DAT/002/CUS .\win_b64\resources\graphic\icons\small\IF_SectionSimple.bmp|.\SpaceAnalysis\CNext\resources\graphic\icons\small\IF_SectionSimple.bmp
DAT/002/CUS .\win_b64\resources\graphic\icons\small\IP_SectionBox.bmp|.\SpaceAnalysis\CNext\resources\graphic\icons\small\IP_SectionBox.bmp
DAT/002/CUS .\win_b64\resources\msgcatalog\CATDlgMeasureEdgeDialog.CATRsc|.\SpaceAnalysis\CNext\resources\msgcatalog\CATDlgMeasureEdgeDialog.CATRsc
DAT/002/CUS .\win_b64\resources\graphic\icons\normal\IP_SectionViewer.bmp|.\SpaceAnalysis\CNext\resources\graphic\icons\normal\IP_SectionViewer.bmp
DAT/002/CUS .\win_b64\resources\msgcatalog\CATClashKnowledge.CATNls|.\SpaceAnalysis\CNext\resources\msgcatalog\CATClashKnowledge.CATNls
DAT/002/CUS .\win_b64\resources\msgcatalog\CATDlgMeasureArcsDialog.CATNls|.\SpaceAnalysis\CNext\resources\msgcatalog\CATDlgMeasureArcsDialog.CATNls
DAT/002/CUS .\win_b64\resources\graphic\icons\normal\I_Freeze.bmp|.\SpaceAnalysis\CNext\resources\graphic\icons\normal\I_Freeze.bmp
DAT/002/CUS .\win_b64\resources\graphic\icons\small\IF_Position3Points.bmp|.\SpaceAnalysis\CNext\resources\graphic\icons\small\IF_Position3Points.bmp
DAT/002/CUS .\win_b64\resources\graphic\icons\normal\I_MeasureBetweenLocked.bmp|.\SpaceAnalysis\CNext\resources\graphic\icons\normal\I_MeasureBetweenLocked.bmp
DAT/002/CUS .\win_b64\resources\graphic\icons\small\I_SectionFilledP2.bmp|.\SpaceAnalysis\CNext\resources\graphic\icons\small\I_SectionFilledP2.bmp
RTV/002/DSI .\win_b64\resources\msgcatalog\NlsTest\CATDlgMeasureArcsDialog.CATNls|.\SpaceAnalysis\CNext\resources\msgcatalog\CATDlgMeasureArcsDialog.CATNls
DAT/002/CUS .\win_b64\resources\graphic\icons\normal\IF_Section3Points_V2.bmp|.\SpaceAnalysis\CNext\resources\graphic\icons\normal\IF_Section3Points_V2.bmp
DAT/002/CUS .\win_b64\resources\graphic\icons\small\IF_SectionRotateRight.bmp|.\SpaceAnalysis\CNext\resources\graphic\icons\small\IF_SectionRotateRight.bmp
RTV/002/DSI .\win_b64\resources\msgcatalog\DbcsTest\SpaFunctionsPackage.CATNls|.\SpaceAnalysis\CNext\resources\msgcatalog\SpaFunctionsPackage.CATNls
RTV/002/DSI .\win_b64\resources\msgcatalog\DbcsTest\CATSiLaSectionEditor.CATNls|.\SpaceAnalysis\CNext\resources\msgcatalog\CATSiLaSectionEditor.CATNls
RTV/002/DSI .\win_b64\resources\msgcatalog\DbcsTest\CATSiLaGridEditor.CATNls|.\SpaceAnalysis\CNext\resources\msgcatalog\CATSiLaGridEditor.CATNls
DAT/002/CUS .\win_b64\resources\msgcatalog\CATSiLaGridEditor.CATNls|.\SpaceAnalysis\CNext\resources\msgcatalog\CATSiLaGridEditor.CATNls
RTV/002/DSI .\win_b64\resources\msgcatalog\NlsTest\CATDlgMeasureInertiaDialog.CATNls|.\SpaceAnalysis\CNext\resources\msgcatalog\CATDlgMeasureInertiaDialog.CATNls
RTV/002/DSI .\win_b64\resources\msgcatalog\NlsTest\CATClashDialog.CATNls|.\SpaceAnalysis\CNext\resources\msgcatalog\CATClashDialog.CATNls
DAT/002/CUS .\win_b64\resources\graphic\icons\normal\I_MeasContextMenu_EdgeLimit.bmp|.\SpaceAnalysis\CNext\resources\graphic\icons\normal\I_MeasContextMenu_EdgeLimit.bmp
DAT/002/CUS .\win_b64\resources\graphic\icons\normal\I_MeasureInertia.bmp|.\SpaceAnalysis\CNext\resources\graphic\icons\normal\I_MeasureInertia.bmp
RTV/002/DSI .\win_b64\resources\msgcatalog\DbcsTest\CATClnDimensionError.CATNls|.\SpaceAnalysis\CNext\resources\msgcatalog\CATClnDimensionError.CATNls
DAT/002/CUS .\win_b64\resources\graphic\icons\small\I_MeasureItem.bmp|.\SpaceAnalysis\CNext\resources\graphic\icons\small\I_MeasureItem.bmp
RTV/002/DSI .\win_b64\resources\msgcatalog\DbcsTest\CATSpaInertiaTypes.CATNls|.\SpaceAnalysis\CNext\resources\msgcatalog\CATSpaInertiaTypes.CATNls
DAT/002/CUS .\win_b64\resources\msgcatalog\CATClashDialog.CATRsc|.\SpaceAnalysis\CNext\resources\msgcatalog\CATClashDialog.CATRsc
DAT/002/CUS .\win_b64\resources\graphic\icons\small\I_SectionSlice.bmp|.\SpaceAnalysis\CNext\resources\graphic\icons\small\I_SectionSlice.bmp
CSC/002/DSI .\SpaceAnalysis\IdentityCard\Objects\win_b64\mkcsc\SpaceAnalysis.cscdb|.\SpaceAnalysis
DAT/002/CUS .\win_b64\resources\graphic\icons\normal\I_Position3PointsP2.bmp|.\SpaceAnalysis\CNext\resources\graphic\icons\normal\I_Position3PointsP2.bmp
RTV/002/DSI .\win_b64\resources\msgcatalog\DbcsTest\CATDlgMeasureEdgeDialog.CATNls|.\SpaceAnalysis\CNext\resources\msgcatalog\CATDlgMeasureEdgeDialog.CATNls
DAT/002/CUS .\win_b64\resources\graphic\icons\small\I_MeasureDialog.bmp|.\SpaceAnalysis\CNext\resources\graphic\icons\small\I_MeasureDialog.bmp
DAT/002/CUS .\win_b64\resources\msgcatalog\CATSpaInertiaTypes.CATRsc|.\SpaceAnalysis\CNext\resources\msgcatalog\CATSpaInertiaTypes.CATRsc
RTV/002/DSI .\win_b64\resources\msgcatalog\NlsTest\CATClashKnowledge.CATNls|.\SpaceAnalysis\CNext\resources\msgcatalog\CATClashKnowledge.CATNls
DAT/002/CUS .\win_b64\code\dictionary\SpaceAnalysis.fact|.\SpaceAnalysis\CNext\code\dictionary\SpaceAnalysis.fact
DAT/002/CUS .\win_b64\resources\graphic\icons\small\IP_SectionRotateRight.bmp|.\SpaceAnalysis\CNext\resources\graphic\icons\small\IP_SectionRotateRight.bmp
DAT/002/CUS .\win_b64\resources\graphic\icons\normal\IF_SectionAutoUpdate.bmp|.\SpaceAnalysis\CNext\resources\graphic\icons\normal\IF_SectionAutoUpdate.bmp
DAT/002/CUS .\win_b64\resources\graphic\icons\normal\IP_Setofplane.bmp|.\SpaceAnalysis\CNext\resources\graphic\icons\normal\IP_Setofplane.bmp
DAT/002/CUS .\win_b64\resources\graphic\icons\normal\I_MeasContextMenu_PickPoint.bmp|.\SpaceAnalysis\CNext\resources\graphic\icons\normal\I_MeasContextMenu_PickPoint.bmp
DAT/002/CUS .\win_b64\resources\graphic\icons\normal\IP_SectionInvertVertical.bmp|.\SpaceAnalysis\CNext\resources\graphic\icons\normal\IP_SectionInvertVertical.bmp
DAT/002/CUS .\win_b64\resources\graphic\icons\small\I_PositionTargetCylinder.bmp|.\SpaceAnalysis\CNext\resources\graphic\icons\small\I_PositionTargetCylinder.bmp
DAT/002/CUS .\win_b64\resources\graphic\icons\normal\I_SectionExportInExistingPart.bmp|.\SpaceAnalysis\CNext\resources\graphic\icons\normal\I_SectionExportInExistingPart.bmp
DAT/002/CUS .\win_b64\resources\graphic\icons\normal\IP_SectionSimple.bmp|.\SpaceAnalysis\CNext\resources\graphic\icons\normal\IP_SectionSimple.bmp
DAT/002/CUS .\win_b64\resources\graphic\icons\small\I_SectionRotateRight.bmp|.\SpaceAnalysis\CNext\resources\graphic\icons\small\I_SectionRotateRight.bmp
RTV/002/DSI .\win_b64\resources\msgcatalog\NlsTest\CATDlgMeasureToolBar.CATNls|.\SpaceAnalysis\CNext\resources\msgcatalog\CATDlgMeasureToolBar.CATNls
DAT/002/CUS .\win_b64\resources\graphic\icons\normal\I_MeasureDialog.bmp|.\SpaceAnalysis\CNext\resources\graphic\icons\normal\I_MeasureDialog.bmp
DAT/002/CUS .\win_b64\resources\graphic\icons\normal\I_MeasureBetweenNotValid.bmp|.\SpaceAnalysis\CNext\resources\graphic\icons\normal\I_MeasureBetweenNotValid.bmp
DAT/002/CUS .\win_b64\resources\graphic\icons\normal\I_SectionLock.bmp|.\SpaceAnalysis\CNext\resources\graphic\icons\normal\I_SectionLock.bmp
DAT/002/CUS .\win_b64\resources\graphic\icons\small\IP_SectionViewer.bmp|.\SpaceAnalysis\CNext\resources\graphic\icons\small\IP_SectionViewer.bmp
DAT/002/CUS .\win_b64\resources\msgcatalog\CATDlgMeasureEdgeDialog.CATNls|.\SpaceAnalysis\CNext\resources\msgcatalog\CATDlgMeasureEdgeDialog.CATNls
DAT/002/CUS .\win_b64\resources\graphic\icons\normal\I_SectionInvertHorizontalP2.bmp|.\SpaceAnalysis\CNext\resources\graphic\icons\normal\I_SectionInvertHorizontalP2.bmp
DAT/002/CUS .\win_b64\resources\graphic\icons\normal\IP_SectionAutoUpdate.bmp|.\SpaceAnalysis\CNext\resources\graphic\icons\normal\IP_SectionAutoUpdate.bmp
DAT/002/CUS .\win_b64\resources\graphic\icons\normal\IF_Setofplane.bmp|.\SpaceAnalysis\CNext\resources\graphic\icons\normal\IF_Setofplane.bmp
DAT/002/CUS .\win_b64\resources\msgcatalog\CATDlgMeasureItemCustomDialog.CATNls|.\SpaceAnalysis\CNext\resources\msgcatalog\CATDlgMeasureItemCustomDialog.CATNls
RTV/002/DSI .\win_b64\resources\msgcatalog\DbcsTest\CATSiLaSectionCommand.CATNls|.\SpaceAnalysis\CNext\resources\msgcatalog\CATSiLaSectionCommand.CATNls
DAT/002/CUS .\win_b64\resources\graphic\icons\normal\I_SectionAutoUpdate.bmp|.\SpaceAnalysis\CNext\resources\graphic\icons\normal\I_SectionAutoUpdate.bmp
DAT/002/CUS .\win_b64\resources\msgcatalog\CATPackageSpaFunctionsPackage.CATRsc|.\SpaceAnalysis\CNext\resources\msgcatalog\CATPackageSpaFunctionsPackage.CATRsc
DAT/002/CUS .\win_b64\resources\graphic\icons\normal\IF_SectionSimple.bmp|.\SpaceAnalysis\CNext\resources\graphic\icons\normal\IF_SectionSimple.bmp
DAT/002/CUS .\win_b64\resources\graphic\icons\normal\IP_SectionBox.bmp|.\SpaceAnalysis\CNext\resources\graphic\icons\normal\IP_SectionBox.bmp
DAT/002/CUS .\win_b64\resources\graphic\icons\normal\I_MeasureBetween.bmp|.\SpaceAnalysis\CNext\resources\graphic\icons\normal\I_MeasureBetween.bmp
DAT/002/CUS .\win_b64\resources\graphic\icons\normal\IF_SectionViewer.bmp|.\SpaceAnalysis\CNext\resources\graphic\icons\normal\IF_SectionViewer.bmp
DAT/002/CUS .\win_b64\resources\graphic\icons\small\I_SectionLockP2.bmp|.\SpaceAnalysis\CNext\resources\graphic\icons\small\I_SectionLockP2.bmp
DAT/002/CUS .\win_b64\resources\graphic\icons\normal\I_MeasureInertiaLocked.bmp|.\SpaceAnalysis\CNext\resources\graphic\icons\normal\I_MeasureInertiaLocked.bmp
DAT/002/CUS .\win_b64\resources\graphic\icons\small\I_SectionTrihedronP2.bmp|.\SpaceAnalysis\CNext\resources\graphic\icons\small\I_SectionTrihedronP2.bmp
DAT/002/CUS .\win_b64\resources\graphic\icons\normal\IF_SectionTrihedron.bmp|.\SpaceAnalysis\CNext\resources\graphic\icons\normal\IF_SectionTrihedron.bmp
DAT/002/CUS .\win_b64\resources\graphic\icons\small\IP_SectionOpen.bmp|.\SpaceAnalysis\CNext\resources\graphic\icons\small\IP_SectionOpen.bmp
RTV/002/DSI .\win_b64\resources\msgcatalog\DbcsTest\CATDlgOpenExportedSection.CATNls|.\SpaceAnalysis\CNext\resources\msgcatalog\CATDlgOpenExportedSection.CATNls
DAT/002/CUS .\win_b64\resources\graphic\figures\F_MeasureInertia3DButton.bmp|.\SpaceAnalysis\CNext\resources\graphic\figures\F_MeasureInertia3DButton.bmp
DAT/002/CUS .\win_b64\resources\graphic\figures\F_MeasureInertia2DButton.bmp|.\SpaceAnalysis\CNext\resources\graphic\figures\F_MeasureInertia2DButton.bmp
BTV/002/CUS .\win_b64\code\productIC\SpaceAnalysisIC.xml|.\SpaceAnalysis
DAT/002/CUS .\win_b64\resources\graphic\icons\normal\IP_SectionRotateRight.bmp|.\SpaceAnalysis\CNext\resources\graphic\icons\normal\IP_SectionRotateRight.bmp
DAT/002/CUS .\win_b64\resources\graphic\icons\normal\I_MeasureInertia_OnlyShown.bmp|.\SpaceAnalysis\CNext\resources\graphic\icons\normal\I_MeasureInertia_OnlyShown.bmp
DAT/002/CUS .\win_b64\resources\graphic\icons\normal\I_PositionTargetCylinder.bmp|.\SpaceAnalysis\CNext\resources\graphic\icons\normal\I_PositionTargetCylinder.bmp
RTV/002/DSI .\win_b64\resources\msgcatalog\NlsTest\CATDlgMeasureBtwnCustomDialog.CATNls|.\SpaceAnalysis\CNext\resources\msgcatalog\CATDlgMeasureBtwnCustomDialog.CATNls
DAT/002/CUS .\win_b64\resources\graphic\icons\normal\IP_SectionSlice.bmp|.\SpaceAnalysis\CNext\resources\graphic\icons\normal\IP_SectionSlice.bmp
RTV/002/DSI .\win_b64\resources\msgcatalog\DbcsTest\CATDlgMeasureItemCustomDialog.CATNls|.\SpaceAnalysis\CNext\resources\msgcatalog\CATDlgMeasureItemCustomDialog.CATNls
DAT/002/CUS .\win_b64\resources\graphic\icons\small\IF_SectionTrihedron.bmp|.\SpaceAnalysis\CNext\resources\graphic\icons\small\IF_SectionTrihedron.bmp
DAT/002/CUS .\win_b64\resources\graphic\icons\small\IF_SectionAutoUpdate.bmp|.\SpaceAnalysis\CNext\resources\graphic\icons\small\IF_SectionAutoUpdate.bmp
DAT/002/CUS .\win_b64\resources\graphic\icons\small\I_Position3PointsP2.bmp|.\SpaceAnalysis\CNext\resources\graphic\icons\small\I_Position3PointsP2.bmp
DAT/002/CUS .\win_b64\resources\graphic\icons\small\I_MeasureBetween_OnlyShown.bmp|.\SpaceAnalysis\CNext\resources\graphic\icons\small\I_MeasureBetween_OnlyShown.bmp
RTV/002/DSI .\win_b64\resources\msgcatalog\NlsTest\SpaFunctionsPackage.CATNls|.\SpaceAnalysis\CNext\resources\msgcatalog\SpaFunctionsPackage.CATNls
DAT/002/CUS .\win_b64\resources\graphic\icons\normal\IP_SectionDihedron.bmp|.\SpaceAnalysis\CNext\resources\graphic\icons\normal\IP_SectionDihedron.bmp
DAT/002/CUS .\win_b64\resources\graphic\icons\normal\I_SectionRotateLeft.bmp|.\SpaceAnalysis\CNext\resources\graphic\icons\normal\I_SectionRotateLeft.bmp
DAT/002/CUS .\win_b64\resources\graphic\icons\normal\I_SectionSimple.bmp|.\SpaceAnalysis\CNext\resources\graphic\icons\normal\I_SectionSimple.bmp
DAT/002/CUS .\win_b64\resources\graphic\icons\small\I_DMUSectionUpdate.bmp|.\SpaceAnalysis\CNext\resources\graphic\icons\small\I_DMUSectionUpdate.bmp
DAT/002/CUS .\win_b64\resources\graphic\icons\normal\I_Measure3Points.bmp|.\SpaceAnalysis\CNext\resources\graphic\icons\normal\I_Measure3Points.bmp
DAT/002/CUS .\win_b64\resources\msgcatalog\CATSpaInertiaTypes.CATNls|.\SpaceAnalysis\CNext\resources\msgcatalog\CATSpaInertiaTypes.CATNls
DAT/002/CUS .\win_b64\resources\graphic\icons\normal\IF_PositionTargetCylinder.bmp|.\SpaceAnalysis\CNext\resources\graphic\icons\normal\IF_PositionTargetCylinder.bmp
DAT/002/CUS .\win_b64\resources\msgcatalog\CATDlgMeasureBtwnDialog.CATNls|.\SpaceAnalysis\CNext\resources\msgcatalog\CATDlgMeasureBtwnDialog.CATNls
DAT/002/CUS .\win_b64\resources\graphic\icons\normal\IF_SectionBox.bmp|.\SpaceAnalysis\CNext\resources\graphic\icons\normal\IF_SectionBox.bmp
DAT/002/CUS .\win_b64\resources\graphic\icons\normal\I_SectionTrihedronP2.bmp|.\SpaceAnalysis\CNext\resources\graphic\icons\normal\I_SectionTrihedronP2.bmp
DAT/002/CUS .\win_b64\resources\graphic\icons\normal\I_MeasContextMenu_SurfaceAxis.bmp|.\SpaceAnalysis\CNext\resources\graphic\icons\normal\I_MeasContextMenu_SurfaceAxis.bmp
RTV/002/DSI .\win_b64\resources\msgcatalog\NlsTest\CATSpaInertiaTypes.CATNls|.\SpaceAnalysis\CNext\resources\msgcatalog\CATSpaInertiaTypes.CATNls
RTV/002/DSI .\win_b64\resources\msgcatalog\DbcsTest\CATMeasureInertiaAssembly.CATNls|.\SpaceAnalysis\CNext\resources\msgcatalog\CATMeasureInertiaAssembly.CATNls
DAT/002/CUS .\win_b64\resources\graphic\icons\normal\I_SectionResultNoShow.bmp|.\SpaceAnalysis\CNext\resources\graphic\icons\normal\I_SectionResultNoShow.bmp
RTV/002/DSI .\win_b64\resources\msgcatalog\NlsTest\CATDlgMeasureBtwnDialog.CATNls|.\SpaceAnalysis\CNext\resources\msgcatalog\CATDlgMeasureBtwnDialog.CATNls
DAT/002/CUS .\win_b64\resources\graphic\icons\small\IF_SectionViewer.bmp|.\SpaceAnalysis\CNext\resources\graphic\icons\small\IF_SectionViewer.bmp
DAT/002/CUS .\win_b64\resources\graphic\icons\normal\IF_SectionDihedron.bmp|.\SpaceAnalysis\CNext\resources\graphic\icons\normal\IF_SectionDihedron.bmp
DAT/002/CUS .\win_b64\resources\graphic\icons\normal\I_MeasureInertiaNoUpdate.bmp|.\SpaceAnalysis\CNext\resources\graphic\icons\normal\I_MeasureInertiaNoUpdate.bmp
DAT/002/CUS .\win_b64\resources\graphic\icons\small\I_SetofplaneP2.bmp|.\SpaceAnalysis\CNext\resources\graphic\icons\small\I_SetofplaneP2.bmp
DAT/002/CUS .\win_b64\resources\graphic\icons\normal\I_Setofplane.bmp|.\SpaceAnalysis\CNext\resources\graphic\icons\normal\I_Setofplane.bmp
DAT/002/CUS .\win_b64\resources\graphic\icons\normal\IF_SectionExportAs.bmp|.\SpaceAnalysis\CNext\resources\graphic\icons\normal\IF_SectionExportAs.bmp
DAT/002/CUS .\win_b64\resources\graphic\icons\normal\I_SectionImportViewpoint.bmp|.\SpaceAnalysis\CNext\resources\graphic\icons\normal\I_SectionImportViewpoint.bmp
DAT/002/CUS .\win_b64\resources\graphic\icons\normal\IF_SectionRotateRight.bmp|.\SpaceAnalysis\CNext\resources\graphic\icons\normal\IF_SectionRotateRight.bmp
DAT/002/CUS .\win_b64\resources\graphic\icons\normal\I_SectionLockP2.bmp|.\SpaceAnalysis\CNext\resources\graphic\icons\normal\I_SectionLockP2.bmp
DAT/002/CUS .\win_b64\resources\graphic\icons\small\IF_SectionFilled.bmp|.\SpaceAnalysis\CNext\resources\graphic\icons\small\IF_SectionFilled.bmp
DAT/002/CUS .\win_b64\resources\msgcatalog\CATDlgCoordinateEntryDialog.CATNls|.\SpaceAnalysis\CNext\resources\msgcatalog\CATDlgCoordinateEntryDialog.CATNls
DAT/002/CUS .\win_b64\resources\graphic\icons\normal\I_MeasureBetweenBeforeR8.bmp|.\SpaceAnalysis\CNext\resources\graphic\icons\normal\I_MeasureBetweenBeforeR8.bmp
DAT/002/CUS .\win_b64\resources\graphic\icons\small\I_SectionExportAs.bmp|.\SpaceAnalysis\CNext\resources\graphic\icons\small\I_SectionExportAs.bmp
DAT/002/CUS .\win_b64\resources\graphic\icons\normal\IF_SectionSlice.bmp|.\SpaceAnalysis\CNext\resources\graphic\icons\normal\IF_SectionSlice.bmp
DAT/002/CUS .\win_b64\resources\graphic\icons\normal\I_SectionUpdateRes.bmp|.\SpaceAnalysis\CNext\resources\graphic\icons\normal\I_SectionUpdateRes.bmp
RTV/002/DSI .\win_b64\resources\msgcatalog\NlsTest\CATDlgMeasureItemCustomDialog.CATNls|.\SpaceAnalysis\CNext\resources\msgcatalog\CATDlgMeasureItemCustomDialog.CATNls
DAT/002/CUS .\win_b64\resources\graphic\icons\normal\I_SectionViewer.bmp|.\SpaceAnalysis\CNext\resources\graphic\icons\normal\I_SectionViewer.bmp
DAT/002/CUS .\win_b64\resources\msgcatalog\CATMeasureInertiaAssembly.CATNls|.\SpaceAnalysis\CNext\resources\msgcatalog\CATMeasureInertiaAssembly.CATNls
RTV/002/DSI .\win_b64\resources\msgcatalog\NlsTest\CATDlgMeasureGeometryCreation.CATNls|.\SpaceAnalysis\CNext\resources\msgcatalog\CATDlgMeasureGeometryCreation.CATNls
RTV/002/DSI .\win_b64\resources\msgcatalog\DbcsTest\CATDlgMeasureArcsCustomDialog.CATNls|.\SpaceAnalysis\CNext\resources\msgcatalog\CATDlgMeasureArcsCustomDialog.CATNls
DAT/002/CUS .\win_b64\resources\graphic\icons\small\IP_SectionAutoUpdate.bmp|.\SpaceAnalysis\CNext\resources\graphic\icons\small\IP_SectionAutoUpdate.bmp
DAT/002/CUS .\win_b64\resources\graphic\icons\normal\IP_SectionExportAs.bmp|.\SpaceAnalysis\CNext\resources\graphic\icons\normal\IP_SectionExportAs.bmp
DAT/002/CUS .\win_b64\resources\graphic\icons\normal\I_SectionInvertHorizontal.bmp|.\SpaceAnalysis\CNext\resources\graphic\icons\normal\I_SectionInvertHorizontal.bmp
DAT/002/CUS .\win_b64\resources\graphic\icons\normal\I_SectionResultInNoShow.bmp|.\SpaceAnalysis\CNext\resources\graphic\icons\normal\I_SectionResultInNoShow.bmp
DAT/002/CUS .\win_b64\resources\msgcatalog\CATClashDialog.CATNls|.\SpaceAnalysis\CNext\resources\msgcatalog\CATClashDialog.CATNls
DAT/002/CUS .\win_b64\resources\msgcatalog\CATDlgMeasureBtwnCustomDialog.CATNls|.\SpaceAnalysis\CNext\resources\msgcatalog\CATDlgMeasureBtwnCustomDialog.CATNls
DAT/002/CUS .\win_b64\resources\graphic\icons\small\IP_Setofplane.bmp|.\SpaceAnalysis\CNext\resources\graphic\icons\small\IP_Setofplane.bmp
DAT/002/CUS .\win_b64\resources\graphic\icons\small\I_SectionTrihedron.bmp|.\SpaceAnalysis\CNext\resources\graphic\icons\small\I_SectionTrihedron.bmp
DAT/002/CUS .\win_b64\resources\graphic\icons\small\IF_SectionOpen.bmp|.\SpaceAnalysis\CNext\resources\graphic\icons\small\IF_SectionOpen.bmp
DAT/002/CUS .\win_b64\resources\graphic\icons\small\IP_SectionTrihedron.bmp|.\SpaceAnalysis\CNext\resources\graphic\icons\small\IP_SectionTrihedron.bmp
DAT/002/CUS .\win_b64\resources\graphic\icons\normal\IP_Position3Points.bmp|.\SpaceAnalysis\CNext\resources\graphic\icons\normal\IP_Position3Points.bmp
DAT/002/CUS .\win_b64\resources\msgcatalog\CATSpaTypes.CATRsc|.\SpaceAnalysis\CNext\resources\msgcatalog\CATSpaTypes.CATRsc
DAT/002/CUS .\win_b64\resources\graphic\icons\normal\IP_SectionTrihedron.bmp|.\SpaceAnalysis\CNext\resources\graphic\icons\normal\IP_SectionTrihedron.bmp
DAT/002/CUS .\win_b64\resources\graphic\icons\normal\I_MeasContextMenu_Surface.bmp|.\SpaceAnalysis\CNext\resources\graphic\icons\normal\I_MeasContextMenu_Surface.bmp
DAT/002/CUS .\win_b64\resources\graphic\icons\normal\I_SectionTrihedron.bmp|.\SpaceAnalysis\CNext\resources\graphic\icons\normal\I_SectionTrihedron.bmp
DAT/002/CUS .\win_b64\resources\graphic\icons\small\I_SectionBoxP2.bmp|.\SpaceAnalysis\CNext\resources\graphic\icons\small\I_SectionBoxP2.bmp
DAT/002/CUS .\win_b64\resources\graphic\icons\normal\I_SectionMask.bmp|.\SpaceAnalysis\CNext\resources\graphic\icons\normal\I_SectionMask.bmp
DAT/002/CUS .\win_b64\resources\graphic\icons\small\I_Measure3Points.bmp|.\SpaceAnalysis\CNext\resources\graphic\icons\small\I_Measure3Points.bmp
DAT/002/CUS .\win_b64\resources\graphic\icons\small\IP_SectionFilled.bmp|.\SpaceAnalysis\CNext\resources\graphic\icons\small\IP_SectionFilled.bmp
DAT/002/CUS .\win_b64\resources\graphic\icons\small\I_SectionInvertHorizontalP2.bmp|.\SpaceAnalysis\CNext\resources\graphic\icons\small\I_SectionInvertHorizontalP2.bmp
RTV/002/DSI .\win_b64\resources\msgcatalog\DbcsTest\CATDlgMeasureBtwnDialog.CATNls|.\SpaceAnalysis\CNext\resources\msgcatalog\CATDlgMeasureBtwnDialog.CATNls
DAT/002/CUS .\win_b64\resources\graphic\icons\normal\I_SectionNotUDTree.bmp|.\SpaceAnalysis\CNext\resources\graphic\icons\normal\I_SectionNotUDTree.bmp
RTV/002/DSI .\win_b64\resources\msgcatalog\NlsTest\CATDlgCoordinateEntryDialog.CATNls|.\SpaceAnalysis\CNext\resources\msgcatalog\CATDlgCoordinateEntryDialog.CATNls
RTV/002/DSI .\win_b64\resources\msgcatalog\DbcsTest\CATCmdMeasureHdr.CATNls|.\SpaceAnalysis\CNext\resources\msgcatalog\CATCmdMeasureHdr.CATNls
RTV/002/DSI .\win_b64\resources\msgcatalog\DbcsTest\CATDlgMeasureInertiaCustomDialog.CATNls|.\SpaceAnalysis\CNext\resources\msgcatalog\CATDlgMeasureInertiaCustomDialog.CATNls
DAT/002/CUS .\win_b64\resources\graphic\icons\small\I_Setofplane.bmp|.\SpaceAnalysis\CNext\resources\graphic\icons\small\I_Setofplane.bmp
DAT/002/CUS .\win_b64\resources\graphic\icons\normal\I_MeasureBetweenNoUpdateBeforeR8.bmp|.\SpaceAnalysis\CNext\resources\graphic\icons\normal\I_MeasureBetweenNoUpdateBeforeR8.bmp
DAT/002/CUS .\win_b64\resources\graphic\icons\normal\I_SectionFilled.bmp|.\SpaceAnalysis\CNext\resources\graphic\icons\normal\I_SectionFilled.bmp
DAT/002/CUS .\win_b64\resources\msgcatalog\CATDlgMeasureToolBar.CATNls|.\SpaceAnalysis\CNext\resources\msgcatalog\CATDlgMeasureToolBar.CATNls
RTV/002/DSI .\win_b64\resources\msgcatalog\NlsTest\CATDlgMeasureArcsCustomDialog.CATNls|.\SpaceAnalysis\CNext\resources\msgcatalog\CATDlgMeasureArcsCustomDialog.CATNls
DAT/002/CUS .\win_b64\resources\graphic\icons\small\I_PositionTargetCylinderP2.bmp|.\SpaceAnalysis\CNext\resources\graphic\icons\small\I_PositionTargetCylinderP2.bmp
DAT/002/CUS .\win_b64\resources\graphic\figures\F_MeasureItemThickLabel.bmp|.\SpaceAnalysis\CNext\resources\graphic\figures\F_MeasureItemThickLabel.bmp
DAT/002/CUS .\win_b64\resources\graphic\icons\small\I_SectionLock.bmp|.\SpaceAnalysis\CNext\resources\graphic\icons\small\I_SectionLock.bmp
DAT/002/CUS .\win_b64\resources\graphic\icons\small\I_MeasureItem_OnlyShown.bmp|.\SpaceAnalysis\CNext\resources\graphic\icons\small\I_MeasureItem_OnlyShown.bmp
DAT/002/CUS .\win_b64\resources\graphic\icons\small\I_Section3Points_V2.bmp|.\SpaceAnalysis\CNext\resources\graphic\icons\small\I_Section3Points_V2.bmp
RTV/002/DSI .\win_b64\resources\msgcatalog\NlsTest\CATDlgMeasureEdgeDialog.CATNls|.\SpaceAnalysis\CNext\resources\msgcatalog\CATDlgMeasureEdgeDialog.CATNls
DAT/002/CUS .\win_b64\resources\graphic\icons\normal\I_DMUSectionUpdate.bmp|.\SpaceAnalysis\CNext\resources\graphic\icons\normal\I_DMUSectionUpdate.bmp
DAT/002/CUS .\win_b64\resources\graphic\icons\small\I_SectionRotateLeftP2.bmp|.\SpaceAnalysis\CNext\resources\graphic\icons\small\I_SectionRotateLeftP2.bmp
DAT/002/CUS .\win_b64\resources\graphic\icons\normal\I_MeasContextMenu_Volume.bmp|.\SpaceAnalysis\CNext\resources\graphic\icons\normal\I_MeasContextMenu_Volume.bmp
DAT/002/CUS .\win_b64\resources\graphic\icons\small\IP_SectionLock.bmp|.\SpaceAnalysis\CNext\resources\graphic\icons\small\IP_SectionLock.bmp
DAT/002/CUS .\win_b64\resources\graphic\icons\normal\I_SectionFreezeTree.bmp|.\SpaceAnalysis\CNext\resources\graphic\icons\normal\I_SectionFreezeTree.bmp
DAT/002/CUS .\win_b64\resources\graphic\icons\small\IP_SectionDihedron.bmp|.\SpaceAnalysis\CNext\resources\graphic\icons\small\IP_SectionDihedron.bmp
DAT/002/CUS .\win_b64\resources\msgcatalog\CATSiLaSectionCommand.CATNls|.\SpaceAnalysis\CNext\resources\msgcatalog\CATSiLaSectionCommand.CATNls
DAT/002/CUS .\win_b64\resources\graphic\icons\normal\I_SectionNoShow.bmp|.\SpaceAnalysis\CNext\resources\graphic\icons\normal\I_SectionNoShow.bmp
DAT/002/CUS .\win_b64\resources\msgcatalog\CATSiSecPlAttributEditor.CATRsc|.\SpaceAnalysis\CNext\resources\msgcatalog\CATSiSecPlAttributEditor.CATRsc
DAT/002/CUS .\win_b64\resources\graphic\icons\normal\I_ClashP1.bmp|.\SpaceAnalysis\CNext\resources\graphic\icons\normal\I_ClashP1.bmp
DAT/002/CUS .\win_b64\resources\graphic\icons\small\IP_SectionInvertHorizontal.bmp|.\SpaceAnalysis\CNext\resources\graphic\icons\small\IP_SectionInvertHorizontal.bmp
DAT/002/CUS .\win_b64\resources\msgcatalog\CATDlgFileInertiaExport.CATNls|.\SpaceAnalysis\CNext\resources\msgcatalog\CATDlgFileInertiaExport.CATNls
DAT/002/CUS .\win_b64\resources\graphic\icons\small\I_SectionAutoUpdate.bmp|.\SpaceAnalysis\CNext\resources\graphic\icons\small\I_SectionAutoUpdate.bmp
DAT/002/CUS .\win_b64\resources\graphic\icons\normal\I_SectionOpen.bmp|.\SpaceAnalysis\CNext\resources\graphic\icons\normal\I_SectionOpen.bmp
RTV/002/DSI .\win_b64\resources\msgcatalog\DbcsTest\CATDlgMeasureInertiaDialog.CATNls|.\SpaceAnalysis\CNext\resources\msgcatalog\CATDlgMeasureInertiaDialog.CATNls
DAT/002/CUS .\win_b64\resources\graphic\icons\small\I_SectionBox.bmp|.\SpaceAnalysis\CNext\resources\graphic\icons\small\I_SectionBox.bmp
DAT/002/CUS .\win_b64\resources\graphic\icons\normal\I_SectionRotateRightP2.bmp|.\SpaceAnalysis\CNext\resources\graphic\icons\normal\I_SectionRotateRightP2.bmp
DAT/002/CUS .\win_b64\resources\graphic\icons\small\I_MeasureBetween.bmp|.\SpaceAnalysis\CNext\resources\graphic\icons\small\I_MeasureBetween.bmp
DAT/002/CUS .\win_b64\resources\graphic\icons\small\IF_Setofplane.bmp|.\SpaceAnalysis\CNext\resources\graphic\icons\small\IF_Setofplane.bmp
DAT/002/CUS .\win_b64\resources\graphic\icons\small\I_Measure2D.bmp|.\SpaceAnalysis\CNext\resources\graphic\icons\small\I_Measure2D.bmp
DAT/002/CUS .\win_b64\resources\graphic\icons\normal\I_MeasContextMenu_Curve.bmp|.\SpaceAnalysis\CNext\resources\graphic\icons\normal\I_MeasContextMenu_Curve.bmp
DAT/002/CUS .\win_b64\resources\graphic\icons\normal\I_MeasContextMenu_Point.bmp|.\SpaceAnalysis\CNext\resources\graphic\icons\normal\I_MeasContextMenu_Point.bmp
RTV/002/DSI .\win_b64\resources\msgcatalog\NlsTest\CATSiLaSectionCommand.CATNls|.\SpaceAnalysis\CNext\resources\msgcatalog\CATSiLaSectionCommand.CATNls
DAT/002/CUS .\win_b64\resources\graphic\icons\normal\I_SectionNotUDFreezeTree.bmp|.\SpaceAnalysis\CNext\resources\graphic\icons\normal\I_SectionNotUDFreezeTree.bmp
DAT/002/CUS .\win_b64\resources\graphic\icons\small\I_SectionInvertVertical.bmp|.\SpaceAnalysis\CNext\resources\graphic\icons\small\I_SectionInvertVertical.bmp
DAT/002/CUS .\win_b64\resources\graphic\icons\normal\I_SimplifiedSectioning.bmp|.\SpaceAnalysis\CNext\resources\graphic\icons\normal\I_SimplifiedSectioning.bmp
DAT/002/CUS .\win_b64\resources\graphic\icons\normal\I_SectionSlice.bmp|.\SpaceAnalysis\CNext\resources\graphic\icons\normal\I_SectionSlice.bmp
DAT/002/CUS .\win_b64\resources\graphic\icons\small\IF_PositionTargetCylinder.bmp|.\SpaceAnalysis\CNext\resources\graphic\icons\small\IF_PositionTargetCylinder.bmp
RTV/002/DSI .\win_b64\resources\msgcatalog\DbcsTest\CATDlgMeasureBtwnCustomDialog2.CATNls|.\SpaceAnalysis\CNext\resources\msgcatalog\CATDlgMeasureBtwnCustomDialog2.CATNls
DAT/002/CUS .\win_b64\resources\msgcatalog\SpaFunctionsPackage.CATNls|.\SpaceAnalysis\CNext\resources\msgcatalog\SpaFunctionsPackage.CATNls
DAT/002/CUS .\win_b64\resources\graphic\icons\normal\IP_SectionFilledClash.bmp|.\SpaceAnalysis\CNext\resources\graphic\icons\normal\IP_SectionFilledClash.bmp
DAT/002/CUS .\win_b64\resources\graphic\icons\small\I_SectionRotateLeft.bmp|.\SpaceAnalysis\CNext\resources\graphic\icons\small\I_SectionRotateLeft.bmp
DAT/002/CUS .\win_b64\resources\graphic\icons\normal\I_Measure3PointsNoUpdate.bmp|.\SpaceAnalysis\CNext\resources\graphic\icons\normal\I_Measure3PointsNoUpdate.bmp
DAT/002/CUS .\win_b64\resources\msgcatalog\CATDlgMeasureBtwnDialog.CATRsc|.\SpaceAnalysis\CNext\resources\msgcatalog\CATDlgMeasureBtwnDialog.CATRsc
@type='codeFramework'
@built='true'
