!<mkRTViewData> v1.0.0
BTV/002/CUS .\win_b64\code\productIC\CATCDSPlugIC.xml|.\CATCDSPlug
CSC/002/DSI .\CATCDSPlug\IdentityCard\Objects\win_b64\mkcsc\CATCDSPlug.cscdb|.\CATCDSPlug
RTV/002/DSI .\win_b64\code\productIC\CATCDSPlugIC.required|.\CATCDSPlug
BTV/002/CUS .\win_b64\code\productIC\CATCDSPlugIC.script|.\CATCDSPlug
@type='codeFramework'
@built='true'
