!<mkRTViewData> v1.0.0
CSC/000/DSI .\GMModelInterfaces\Data_GMModelInterfaces.m\Objects\win_b64\mkcsc\Data_GMModelInterfaces.cscdb|.\GMModelInterfaces\Data_GMModelInterfaces.m
@type='NONE'
@clr='false'
@kind='INCLUDED'
@deliverable='true'
@built='true'
