!<mkRTViewData> v1.0.0
CSC/000/DSI .\CATTTRSModel\CATTTRSSetManagement.m\Objects\win_b64\mkcsc\CATTTRSSetManagement.cscdb|.\CATTTRSModel\CATTTRSSetManagement.m
@type='NONE'
@clr='false'
@kind='INCLUDED'
@deliverable='true'
@built='true'
