!<mkRTViewData> v1.0.0
CSC/000/DSI .\CurveBasedInfrastructure\DTKData.m\Objects\win_b64\mkcsc\DTKData.cscdb|.\CurveBasedInfrastructure\DTKData.m
@type='NONE'
@clr='false'
@kind='INCLUDED'
@deliverable='true'
@built='true'
