!<mkRTViewData> v1.0.0
RTV/001/CUS .\win_b64\code\bin\PCBModeler.dll|.\PCBoardBase\PCBModeler.m
INT/000/CUS .\win_b64\code\lib\PCBModeler.exp|.\PCBoardBase\PCBModeler.m
INT/000/CUS .\win_b64\code\bin\PCBModeler.pdb|.\PCBoardBase\PCBModeler.m
CSC/000/DSI .\PCBoardBase\PCBModeler.m\Objects\win_b64\mkcsc\PCBModeler.cscdb|.\PCBoardBase\PCBModeler.m
BTV/000/CUS .\win_b64\code\lib\PCBModeler.lib|.\PCBoardBase\PCBModeler.m
@type='SHARED_LIBRARY'
@clr='false'
@kind='NATIVE'
@deliverable='true'
@built='true'
