!<mkRTViewData> v1.0.0
CSC/000/DSI .\DraftingIntCommands\CATDicMultiView.m\Objects\win_b64\mkcsc\CATDicMultiView.cscdb|.\DraftingIntCommands\CATDicMultiView.m
@type='NONE'
@clr='false'
@kind='INCLUDED'
@deliverable='true'
@built='true'
