!<mkRTViewData> v1.0.0
BTV/002/CUS .\win_b64\code\productIC\GMAdvancedOperatorsInterfacesIC.xml|.\GMAdvancedOperatorsInterfaces
BTV/002/CUS .\win_b64\code\productIC\GMAdvancedOperatorsInterfacesIC.script|.\GMAdvancedOperatorsInterfaces
RTV/002/DSI .\win_b64\code\productIC\GMAdvancedOperatorsInterfacesIC.required|.\GMAdvancedOperatorsInterfaces
CSC/002/DSI .\GMAdvancedOperatorsInterfaces\IdentityCard\Objects\win_b64\mkcsc\GMAdvancedOperatorsInterfaces.cscdb|.\GMAdvancedOperatorsInterfaces
@type='codeFramework'
@built='true'
