!<mkRTViewData> v1.0.0
CSC/000/DSI .\DraftingIntCommands\CATDicRough.m\Objects\win_b64\mkcsc\CATDicRough.cscdb|.\DraftingIntCommands\CATDicRough.m
@type='NONE'
@clr='false'
@kind='INCLUDED'
@deliverable='true'
@built='true'
