!<mkRTViewData> v1.0.0
BTV/000/CUS .\win_b64\code\lib\CATSIMPlayerCommand.lib|.\SIMPlayer\CATSIMPlayerCommand.m
INT/000/CUS .\win_b64\code\bin\CATSIMPlayerCommand.pdb|.\SIMPlayer\CATSIMPlayerCommand.m
INT/000/CUS .\win_b64\code\lib\CATSIMPlayerCommand.exp|.\SIMPlayer\CATSIMPlayerCommand.m
CSC/000/DSI .\SIMPlayer\CATSIMPlayerCommand.m\Objects\win_b64\mkcsc\CATSIMPlayerCommand.cscdb|.\SIMPlayer\CATSIMPlayerCommand.m
RTV/001/CUS .\win_b64\code\bin\CATSIMPlayerCommand.dll|.\SIMPlayer\CATSIMPlayerCommand.m
@type='SHARED_LIBRARY'
@clr='false'
@kind='NATIVE'
@deliverable='true'
@built='true'
