!<mkRTViewData> v1.0.0
RTV/001/CUS .\win_b64\code\bin\PR0DB2.dll|.\DatabaseServices\PR0DB2.m
CSC/000/DSI .\DatabaseServices\PR0DB2.m\Objects\win_b64\mkcsc\PR0DB2.cscdb|.\DatabaseServices\PR0DB2.m
INT/000/CUS .\win_b64\code\lib\PR0DB2.exp|.\DatabaseServices\PR0DB2.m
BTV/000/CUS .\win_b64\code\lib\PR0DB2.lib|.\DatabaseServices\PR0DB2.m
INT/000/CUS .\win_b64\code\bin\PR0DB2.pdb|.\DatabaseServices\PR0DB2.m
@type='SHARED_LIBRARY'
@clr='false'
@kind='NATIVE'
@deliverable='true'
@built='true'
