!<mkRTViewData> v1.0.0
BTV/000/CUS .\win_b64\code\lib\CATPrsProperties.lib|.\ProductStructureUI\CATPrsProperties.m
RTV/001/CUS .\win_b64\code\bin\CATPrsProperties.dll|.\ProductStructureUI\CATPrsProperties.m
INT/000/CUS .\win_b64\code\lib\CATPrsProperties.exp|.\ProductStructureUI\CATPrsProperties.m
INT/000/CUS .\win_b64\code\bin\CATPrsProperties.pdb|.\ProductStructureUI\CATPrsProperties.m
CSC/000/DSI .\ProductStructureUI\CATPrsProperties.m\Objects\win_b64\mkcsc\CATPrsProperties.cscdb|.\ProductStructureUI\CATPrsProperties.m
@type='SHARED_LIBRARY'
@clr='false'
@kind='NATIVE'
@deliverable='true'
@built='true'
