!<mkRTViewData> v1.0.0
CSC/000/DSI .\Milling2DServices\MfgPolyCurve.m\Objects\win_b64\mkcsc\MfgPolyCurve.cscdb|.\Milling2DServices\MfgPolyCurve.m
@type='NONE'
@clr='false'
@kind='INCLUDED'
@deliverable='true'
@built='true'
