PulseValue.1	482896
PulseValue.2	-642210
PulseValue.3	495616
PulseValue.4	-327680
PulseValue.5	327680
PulseValue.6	-187245
PulseValue.7	1
PulseValue.8	1
PulseValue.9	1
PulseValue.10	1
PulseValue.11	1
PulseValue.12	1
ZeroValue.1	0
ZeroValue.2	160552
ZeroValue.3	0
ZeroValue.4	0
ZeroValue.5	81920
ZeroValue.6	0
ZeroValue.7	0
ZeroValue.8	0
ZeroValue.9	0
ZeroValue.10	0
ZeroValue.11	0
ZeroValue.12	0
