PulseValue.1	508868
PulseValue.2	-700416
PulseValue.3	717970
PulseValue.4	-361570
PulseValue.5	360620
PulseValue.6	-198871
PulseValue.7	1
PulseValue.8	1
PulseValue.9	1
PulseValue.10	1
PulseValue.11	1
PulseValue.12	1
ZeroValue.1	0
ZeroValue.2	175104
ZeroValue.3	0
ZeroValue.4	0
ZeroValue.5	0
ZeroValue.6	0
ZeroValue.7	0
ZeroValue.8	0
ZeroValue.9	0
ZeroValue.10	0
ZeroValue.11	0
ZeroValue.12	0
