PulseValue.1	516726
PulseValue.2	-468114
PulseValue.3	495616
PulseValue.4	-358400
PulseValue.5	296607
PulseValue.6	-126157
PulseValue.7	512000
PulseValue.8	1
PulseValue.9	1
PulseValue.10	1
PulseValue.11	1
PulseValue.12	1
ZeroValue.1	0
ZeroValue.2	0
ZeroValue.3	0
ZeroValue.4	0
ZeroValue.5	74152
ZeroValue.6	0
ZeroValue.7	0
ZeroValue.8	0
ZeroValue.9	0
ZeroValue.10	0
ZeroValue.11	0
ZeroValue.12	0
