!<mkRTViewData> v1.0.0
INT/000/CUS .\win_b64\code\bin\setupdoc.pdb|.\Administration\setupdoc.m
RTV/001/CUS .\win_b64\code\bin\setupdoc.exe|.\Administration\setupdoc.m
CSC/000/DSI .\Administration\setupdoc.m\Objects\win_b64\mkcsc\setupdoc.cscdb|.\Administration\setupdoc.m
@type='LOAD_MODULE'
@clr='false'
@kind='NATIVE'
@deliverable='true'
@built='true'
