!<mkRTViewData> v1.0.0
CSC/000/DSI .\CATSmaInterfaces\CATSmaInterfacesSrc.m\Objects\win_b64\mkcsc\CATSmaInterfacesSrc.cscdb|.\CATSmaInterfaces\CATSmaInterfacesSrc.m
@type='NONE'
@clr='false'
@kind='INCLUDED'
@deliverable='true'
@built='true'
