!<mkRTViewData> v1.0.0
INT/000/CUS .\win_b64\code\bin\CATELFSparseSolver.pdb|.\CATElfiniOpenSoftware\CATELFSparseSolver.m
BTV/000/CUS .\win_b64\code\lib\CATELFSparseSolver.lib|.\CATElfiniOpenSoftware\CATELFSparseSolver.m
RTV/001/CUS .\win_b64\code\bin\CATELFSparseSolver.dll|.\CATElfiniOpenSoftware\CATELFSparseSolver.m
CSC/000/DSI .\CATElfiniOpenSoftware\CATELFSparseSolver.m\Objects\win_b64\mkcsc\CATELFSparseSolver.cscdb|.\CATElfiniOpenSoftware\CATELFSparseSolver.m
INT/000/CUS .\win_b64\code\lib\CATELFSparseSolver.exp|.\CATElfiniOpenSoftware\CATELFSparseSolver.m
@type='SHARED_LIBRARY'
@clr='false'
@kind='NATIVE'
@deliverable='true'
@built='true'
