!<mkRTViewData> v1.0.0
CSC/000/DSI .\CATFeatureDictionary\CATFdeViewController.m\Objects\win_b64\mkcsc\CATFdeViewController.cscdb|.\CATFeatureDictionary\CATFdeViewController.m
@type='NONE'
@clr='false'
@kind='INCLUDED'
@deliverable='true'
@built='true'
