!<mkRTViewData> v1.0.0
CSC/000/DSI .\DraftingAnnotationModeler\CATDftCoordDimension.m\Objects\win_b64\mkcsc\CATDftCoordDimension.cscdb|.\DraftingAnnotationModeler\CATDftCoordDimension.m
@type='NONE'
@clr='false'
@kind='INCLUDED'
@deliverable='true'
@built='true'
