!<mkRTViewData> v1.0.0
CSC/000/DSI .\V5JSystem\V5JsyJRECheck.mj\Objects\win_b64\mkcsc\V5JsyJRECheck.cscdb|.\V5JSystem\V5JsyJRECheck.mj
RTV/000/CUS .\win_b64\docs\java\V5JsyJRECheck.jar|.\V5JSystem\V5JsyJRECheck.mj
@type='JAVA_CLIENT'
@clr='false'
@kind='JAVA'
@deliverable='true'
@built='true'
